<?xml version="1.0" encoding="UTF-8"?>
<svg xmlns="http://www.w3.org/2000/svg" xmlns:xlink="http://www.w3.org/1999/xlink" width="64px" height="64px" viewBox="0 0 64 64" version="1.1">
<defs>
<filter id="alpha" filterUnits="objectBoundingBox" x="0%" y="0%" width="100%" height="100%">
  <feColorMatrix type="matrix" in="SourceGraphic" values="0 0 0 0 1 0 0 0 0 1 0 0 0 0 1 0 0 0 1 0"/>
</filter>
<mask id="mask0">
  <g filter="url(#alpha)">
<rect x="0" y="0" width="64" height="64" style="fill:rgb(0%,0%,0%);fill-opacity:0.2;stroke:none;"/>
  </g>
</mask>
<clipPath id="clip1">
  <rect x="0" y="0" width="64" height="64"/>
</clipPath>
<g id="surface5" clip-path="url(#clip1)">
<path style=" stroke:none;fill-rule:nonzero;fill:rgb(0%,0%,0%);fill-opacity:1;" d="M 45.332031 25.332031 L 45.332031 20 C 45.332031 12.636719 39.363281 6.667969 32 6.667969 C 24.636719 6.667969 18.667969 12.636719 18.667969 20 L 18.667969 25.332031 C 18.667969 32.695312 24.636719 38.667969 32 38.667969 C 39.363281 38.667969 45.332031 32.695312 45.332031 25.332031 Z M 45.332031 25.332031 "/>
</g>
<mask id="mask1">
  <g filter="url(#alpha)">
<rect x="0" y="0" width="64" height="64" style="fill:rgb(0%,0%,0%);fill-opacity:0.2;stroke:none;"/>
  </g>
</mask>
<clipPath id="clip2">
  <rect x="0" y="0" width="64" height="64"/>
</clipPath>
<g id="surface8" clip-path="url(#clip2)">
<path style=" stroke:none;fill-rule:nonzero;fill:rgb(0%,0%,0%);fill-opacity:1;" d="M 14.667969 24 C 13.195312 24 12 25.195312 12 26.667969 L 12 30 C 12 38.476562 19.527344 45.417969 29.332031 46.503906 L 29.332031 54.667969 L 18.667969 54.667969 C 17.195312 54.667969 16 55.859375 16 57.332031 C 16 58.804688 17.195312 60 18.667969 60 L 45.332031 60 C 46.804688 60 48 58.804688 48 57.332031 C 48 55.859375 46.804688 54.667969 45.332031 54.667969 L 34.667969 54.667969 L 34.667969 46.503906 C 44.472656 45.417969 52 38.476562 52 30 L 52 26.667969 C 52 25.195312 50.804688 24 49.332031 24 C 47.859375 24 46.667969 25.195312 46.667969 26.667969 L 46.667969 29.113281 C 46.667969 35.882812 40.125 41.332031 32 41.332031 C 23.875 41.332031 17.332031 35.882812 17.332031 29.113281 L 17.332031 26.667969 C 17.332031 25.195312 16.140625 24 14.667969 24 Z M 14.667969 24 "/>
</g>
<linearGradient id="linear0" gradientUnits="userSpaceOnUse" x1="0" y1="0" x2="0" y2="1" gradientTransform="matrix(0,-32,-29.867999,0,-0.710667,0)">
<stop offset="0" style="stop-color:rgb(29.803923%,33.333334%,38.039216%);stop-opacity:1;"/>
<stop offset="1" style="stop-color:rgb(18.039216%,21.960784%,25.882354%);stop-opacity:1;"/>
</linearGradient>
<mask id="mask2">
  <g filter="url(#alpha)">
<rect x="0" y="0" width="64" height="64" style="fill:rgb(0%,0%,0%);fill-opacity:0.1;stroke:none;"/>
  </g>
</mask>
<clipPath id="clip3">
  <rect x="0" y="0" width="64" height="64"/>
</clipPath>
<g id="surface11" clip-path="url(#clip3)">
<path style=" stroke:none;fill-rule:nonzero;fill:rgb(100%,100%,100%);fill-opacity:1;" d="M 14.667969 22.667969 C 13.195312 22.667969 12 23.859375 12 25.332031 L 12 26.667969 C 12 25.195312 13.195312 24 14.667969 24 C 16.140625 24 17.332031 25.195312 17.332031 26.667969 L 17.332031 25.332031 C 17.332031 23.859375 16.140625 22.667969 14.667969 22.667969 Z M 49.332031 22.667969 C 47.859375 22.667969 46.667969 23.859375 46.667969 25.332031 L 46.667969 26.667969 C 46.667969 25.195312 47.859375 24 49.332031 24 C 50.804688 24 52 25.195312 52 26.667969 L 52 25.332031 C 52 23.859375 50.804688 22.667969 49.332031 22.667969 Z M 17.332031 27.777344 L 17.332031 29.113281 C 17.332031 35.882812 23.875 41.332031 32 41.332031 C 40.125 41.332031 46.667969 35.882812 46.667969 29.113281 L 46.667969 27.777344 C 46.667969 34.550781 40.125 40 32 40 C 23.875 40 17.332031 34.550781 17.332031 27.777344 Z M 18.667969 53.332031 C 17.195312 53.332031 16 54.527344 16 56 C 16 56.222656 16.03125 56.445312 16.085938 56.660156 C 16.390625 55.488281 17.453125 54.667969 18.667969 54.667969 L 29.332031 54.667969 L 29.332031 53.332031 Z M 34.667969 53.332031 L 34.667969 54.667969 L 45.332031 54.667969 C 46.550781 54.667969 47.613281 55.492188 47.914062 56.671875 C 47.972656 56.453125 48 56.226562 48 56 C 48 54.527344 46.804688 53.332031 45.332031 53.332031 Z M 34.667969 53.332031 "/>
</g>
<mask id="mask3">
  <g filter="url(#alpha)">
<rect x="0" y="0" width="64" height="64" style="fill:rgb(0%,0%,0%);fill-opacity:0.1;stroke:none;"/>
  </g>
</mask>
<clipPath id="clip4">
  <rect x="0" y="0" width="64" height="64"/>
</clipPath>
<g id="surface14" clip-path="url(#clip4)">
<path style=" stroke:none;fill-rule:nonzero;fill:rgb(100%,100%,100%);fill-opacity:1;" d="M 32 5.332031 C 24.613281 5.332031 18.667969 11.28125 18.667969 18.667969 L 18.667969 20 C 18.667969 12.613281 24.613281 6.667969 32 6.667969 C 39.386719 6.667969 45.332031 12.613281 45.332031 20 L 45.332031 18.667969 C 45.332031 11.28125 39.386719 5.332031 32 5.332031 Z M 32 5.332031 "/>
</g>
</defs>
<g id="surface1">
<use xlink:href="#surface5" mask="url(#mask0)"/>
<use xlink:href="#surface8" mask="url(#mask1)"/>
<path style=" stroke:none;fill-rule:nonzero;fill:rgb(92.54902%,92.54902%,92.54902%);fill-opacity:1;" d="M 14.667969 22.667969 C 13.195312 22.667969 12 23.859375 12 25.332031 L 12 28.667969 C 12 37.144531 19.527344 44.085938 29.332031 45.167969 L 29.332031 53.332031 L 18.667969 53.332031 C 17.195312 53.332031 16 54.527344 16 56 C 16 57.472656 17.195312 58.667969 18.667969 58.667969 L 45.332031 58.667969 C 46.804688 58.667969 48 57.472656 48 56 C 48 54.527344 46.804688 53.332031 45.332031 53.332031 L 34.667969 53.332031 L 34.667969 45.167969 C 44.472656 44.085938 52 37.144531 52 28.667969 L 52 25.332031 C 52 23.859375 50.804688 22.667969 49.332031 22.667969 C 47.859375 22.667969 46.667969 23.859375 46.667969 25.332031 L 46.667969 27.777344 C 46.667969 34.550781 40.125 40 32 40 C 23.875 40 17.332031 34.550781 17.332031 27.777344 L 17.332031 25.332031 C 17.332031 23.859375 16.140625 22.667969 14.667969 22.667969 Z M 14.667969 22.667969 "/>
<path style=" stroke:none;fill-rule:nonzero;fill:url(#linear0);" d="M 45.332031 24 L 45.332031 18.667969 C 45.332031 11.304688 39.363281 5.332031 32 5.332031 C 24.636719 5.332031 18.667969 11.304688 18.667969 18.667969 L 18.667969 24 C 18.667969 31.363281 24.636719 37.332031 32 37.332031 C 39.363281 37.332031 45.332031 31.363281 45.332031 24 Z M 45.332031 24 "/>
<use xlink:href="#surface11" mask="url(#mask2)"/>
<use xlink:href="#surface14" mask="url(#mask3)"/>
</g>
</svg>
