<?xml version="1.0" encoding="UTF-8"?>
<svg xmlns="http://www.w3.org/2000/svg" xmlns:xlink="http://www.w3.org/1999/xlink" width="64px" height="64px" viewBox="0 0 64 64" version="1.1">
<defs>
<linearGradient id="linear0" gradientUnits="userSpaceOnUse" x1="0" y1="0" x2="0" y2="1" gradientTransform="matrix(44.137932,0,0,41.19724,3.522253,4.929655)">
<stop offset="0" style="stop-color:rgb(29.803923%,33.333334%,38.039216%);stop-opacity:1;"/>
<stop offset="1" style="stop-color:rgb(18.039216%,21.960784%,25.882354%);stop-opacity:1;"/>
</linearGradient>
<linearGradient id="linear1" gradientUnits="userSpaceOnUse" x1="0" y1="0" x2="0" y2="1" gradientTransform="matrix(44.137932,0,0,41.19724,3.522253,4.929655)">
<stop offset="0" style="stop-color:rgb(29.803923%,33.333334%,38.039216%);stop-opacity:1;"/>
<stop offset="1" style="stop-color:rgb(18.039216%,21.960784%,25.882354%);stop-opacity:1;"/>
</linearGradient>
<filter id="alpha" filterUnits="objectBoundingBox" x="0%" y="0%" width="100%" height="100%">
  <feColorMatrix type="matrix" in="SourceGraphic" values="0 0 0 0 1 0 0 0 0 1 0 0 0 0 1 0 0 0 1 0"/>
</filter>
<mask id="mask0">
  <g filter="url(#alpha)">
<rect x="0" y="0" width="64" height="64" style="fill:rgb(0%,0%,0%);fill-opacity:0.6;stroke:none;"/>
  </g>
</mask>
<clipPath id="clip1">
  <rect x="0" y="0" width="64" height="64"/>
</clipPath>
<g id="surface5" clip-path="url(#clip1)">
<path style=" stroke:none;fill-rule:nonzero;fill:rgb(0%,0%,0%);fill-opacity:1;" d="M 23.753906 46.25 L 20.074219 42.570312 L 12.71875 42.570312 L 12.71875 16.824219 L 49.5 16.824219 L 49.5 42.570312 L 42.144531 42.570312 L 38.464844 46.25 Z M 23.753906 46.25 "/>
</g>
<mask id="mask1">
  <g filter="url(#alpha)">
<rect x="0" y="0" width="64" height="64" style="fill:rgb(0%,0%,0%);fill-opacity:0.2;stroke:none;"/>
  </g>
</mask>
<clipPath id="clip2">
  <rect x="0" y="0" width="64" height="64"/>
</clipPath>
<g id="surface8" clip-path="url(#clip2)">
<path style=" stroke:none;fill-rule:nonzero;fill:rgb(93.725491%,93.725491%,93.725491%);fill-opacity:1;" d="M 9.039062 9.464844 C 7 9.464844 5.363281 11.105469 5.363281 13.144531 L 5.363281 14.984375 C 5.363281 12.945312 7 11.304688 9.039062 11.304688 L 53.175781 11.304688 C 55.214844 11.304688 56.855469 12.945312 56.855469 14.984375 L 56.855469 13.144531 C 56.855469 11.105469 55.214844 9.464844 53.175781 9.464844 Z M 9.039062 9.464844 "/>
</g>
<mask id="mask2">
  <g filter="url(#alpha)">
<rect x="0" y="0" width="64" height="64" style="fill:rgb(0%,0%,0%);fill-opacity:0.2;stroke:none;"/>
  </g>
</mask>
<clipPath id="clip3">
  <rect x="0" y="0" width="64" height="64"/>
</clipPath>
<g id="surface11" clip-path="url(#clip3)">
<path style=" stroke:none;fill-rule:nonzero;fill:rgb(93.725491%,93.725491%,93.725491%);fill-opacity:1;" d="M 12.71875 42.570312 L 12.71875 44.410156 L 20.074219 44.410156 L 23.753906 48.085938 L 38.464844 48.085938 L 42.144531 44.410156 L 49.5 44.410156 L 49.5 42.570312 L 42.144531 42.570312 L 38.464844 46.25 L 23.753906 46.25 L 20.074219 42.570312 Z M 12.71875 42.570312 "/>
</g>
</defs>
<g id="surface1">
<path style=" stroke:none;fill-rule:nonzero;fill:url(#linear0);" d="M 20.074219 55.445312 L 16.394531 51.765625 L 9.039062 51.765625 C 7 51.765625 5.363281 50.125 5.363281 48.085938 L 5.363281 14.984375 C 5.363281 12.945312 7 11.304688 9.039062 11.304688 L 53.175781 11.304688 C 55.214844 11.304688 56.855469 12.945312 56.855469 14.984375 L 56.855469 48.085938 C 56.855469 50.125 55.214844 51.765625 53.175781 51.765625 L 45.820312 51.765625 L 42.144531 55.445312 Z M 20.074219 55.445312 "/>
<path style=" stroke:none;fill-rule:nonzero;fill:url(#linear1);" d="M 20.074219 53.605469 L 16.394531 49.925781 L 9.039062 49.925781 C 7 49.925781 5.363281 48.285156 5.363281 46.25 L 5.363281 13.144531 C 5.363281 11.105469 7 9.464844 9.039062 9.464844 L 53.175781 9.464844 C 55.214844 9.464844 56.855469 11.105469 56.855469 13.144531 L 56.855469 46.25 C 56.855469 48.285156 55.214844 49.925781 53.175781 49.925781 L 45.820312 49.925781 L 42.144531 53.605469 Z M 20.074219 53.605469 "/>
<use xlink:href="#surface5" mask="url(#mask0)"/>
<use xlink:href="#surface8" mask="url(#mask1)"/>
<use xlink:href="#surface11" mask="url(#mask2)"/>
</g>
</svg>
