<?xml version="1.0" encoding="UTF-8"?>
<svg xmlns="http://www.w3.org/2000/svg" xmlns:xlink="http://www.w3.org/1999/xlink" width="64px" height="64px" viewBox="0 0 64 64" version="1.1">
<defs>
<filter id="alpha" filterUnits="objectBoundingBox" x="0%" y="0%" width="100%" height="100%">
  <feColorMatrix type="matrix" in="SourceGraphic" values="0 0 0 0 1 0 0 0 0 1 0 0 0 0 1 0 0 0 1 0"/>
</filter>
<mask id="mask0">
  <g filter="url(#alpha)">
<rect x="0" y="0" width="64" height="64" style="fill:rgb(0%,0%,0%);fill-opacity:0.2;stroke:none;"/>
  </g>
</mask>
<clipPath id="clip1">
  <rect x="0" y="0" width="64" height="64"/>
</clipPath>
<g id="surface5" clip-path="url(#clip1)">
<path style=" stroke:none;fill-rule:nonzero;fill:rgb(0%,0%,0%);fill-opacity:1;" d="M 32 6.667969 C 29.476562 6.703125 27.675781 8.203125 26.832031 10.683594 L 26.863281 10.574219 L 22.894531 22.667969 L 9.519531 22.667969 C 9.492188 22.667969 9.464844 22.667969 9.433594 22.667969 C 7.835938 22.71875 6.398438 23.453125 5.382812 24.671875 C 3.1875 27.15625 3.652344 31.066406 6.441406 32.917969 L 16.957031 40.5 L 12.875 53.003906 C 12.871094 53.019531 12.867188 53.035156 12.863281 53.046875 C 12.238281 55.066406 12.824219 57.148438 14.394531 58.574219 C 14.40625 58.582031 14.417969 58.59375 14.429688 58.605469 C 16.3125 60.257812 18.960938 60.46875 21.089844 59.097656 C 21.132812 59.074219 21.171875 59.046875 21.210938 59.019531 L 32 51.332031 L 42.789062 59.019531 C 42.828125 59.046875 42.867188 59.074219 42.910156 59.097656 C 45.039062 60.46875 47.683594 60.257812 49.570312 58.605469 C 49.582031 58.59375 49.59375 58.582031 49.605469 58.574219 C 51.175781 57.148438 51.761719 55.066406 51.136719 53.046875 C 51.132812 53.035156 51.128906 53.019531 51.125 53.003906 L 47.042969 40.5 L 57.558594 32.917969 C 60.347656 31.066406 60.8125 27.15625 58.617188 24.671875 C 57.601562 23.453125 56.164062 22.71875 54.566406 22.667969 C 54.535156 22.667969 54.507812 22.667969 54.480469 22.667969 L 41.105469 22.667969 L 37.136719 10.574219 L 37.167969 10.683594 C 36.324219 8.203125 34.523438 6.703125 32 6.667969 Z M 32 6.667969 "/>
</g>
<linearGradient id="linear0" gradientUnits="userSpaceOnUse" x1="0" y1="0" x2="0" y2="1" gradientTransform="matrix(28,0,0,53.332031,32,5.332031)">
<stop offset="0" style="stop-color:rgb(100%,52.156866%,0.392157%);stop-opacity:1;"/>
<stop offset="1" style="stop-color:rgb(100%,79.607844%,0.392157%);stop-opacity:1;"/>
</linearGradient>
<linearGradient id="linear1" gradientUnits="userSpaceOnUse" x1="0" y1="0" x2="0" y2="1" gradientTransform="matrix(32,0,0,29.867999,0,0.710667)">
<stop offset="0" style="stop-color:rgb(29.803923%,33.333334%,38.039216%);stop-opacity:1;"/>
<stop offset="1" style="stop-color:rgb(18.039216%,21.960784%,25.882354%);stop-opacity:1;"/>
</linearGradient>
<mask id="mask1">
  <g filter="url(#alpha)">
<rect x="0" y="0" width="64" height="64" style="fill:rgb(0%,0%,0%);fill-opacity:0.2;stroke:none;"/>
  </g>
</mask>
<clipPath id="clip2">
  <rect x="0" y="0" width="64" height="64"/>
</clipPath>
<g id="surface8" clip-path="url(#clip2)">
<path style=" stroke:none;fill-rule:nonzero;fill:rgb(100%,100%,100%);fill-opacity:1;" d="M 32 5.332031 C 29.476562 5.367188 27.675781 6.867188 26.832031 9.351562 L 26.863281 9.238281 L 22.894531 21.332031 L 9.519531 21.332031 C 9.492188 21.332031 9.464844 21.332031 9.433594 21.332031 C 7.835938 21.382812 6.398438 22.121094 5.382812 23.339844 C 4.28125 24.585938 3.851562 26.191406 4.050781 27.71875 C 4.171875 26.628906 4.601562 25.558594 5.382812 24.671875 C 6.398438 23.453125 7.835938 22.71875 9.433594 22.667969 C 9.464844 22.667969 9.492188 22.667969 9.519531 22.667969 L 22.894531 22.667969 L 26.863281 10.574219 L 26.832031 10.683594 C 27.675781 8.203125 29.476562 6.703125 32 6.667969 C 34.523438 6.703125 36.324219 8.203125 37.167969 10.683594 L 37.136719 10.574219 L 41.105469 22.667969 L 54.480469 22.667969 C 54.507812 22.667969 54.535156 22.667969 54.566406 22.667969 C 56.164062 22.71875 57.601562 23.453125 58.617188 24.671875 C 59.398438 25.558594 59.828125 26.628906 59.949219 27.71875 C 60.148438 26.191406 59.71875 24.585938 58.617188 23.339844 C 57.601562 22.121094 56.164062 21.382812 54.566406 21.332031 C 54.535156 21.332031 54.507812 21.332031 54.480469 21.332031 L 41.105469 21.332031 L 37.136719 9.238281 L 37.167969 9.351562 C 36.324219 6.867188 34.523438 5.367188 32 5.332031 Z M 16.605469 40.246094 L 12.875 51.671875 C 12.871094 51.6875 12.867188 51.699219 12.863281 51.714844 C 12.625 52.484375 12.566406 53.265625 12.667969 54.011719 C 12.707031 53.691406 12.761719 53.367188 12.863281 53.046875 C 12.867188 53.03125 12.871094 53.019531 12.875 53.003906 L 16.957031 40.5 Z M 47.394531 40.246094 L 47.042969 40.5 L 51.125 53.003906 C 51.128906 53.019531 51.132812 53.03125 51.136719 53.046875 C 51.238281 53.367188 51.292969 53.691406 51.332031 54.011719 C 51.433594 53.265625 51.375 52.484375 51.136719 51.714844 C 51.132812 51.699219 51.128906 51.6875 51.125 51.671875 Z M 47.394531 40.246094 "/>
</g>
</defs>
<g id="surface1">
<use xlink:href="#surface5" mask="url(#mask0)"/>
<path style=" stroke:none;fill-rule:nonzero;fill:url(#linear0);" d="M 32 5.332031 L 32 50 L 42.789062 57.683594 C 42.828125 57.710938 42.867188 57.738281 42.910156 57.765625 C 45.039062 59.132812 47.683594 58.921875 49.570312 57.269531 C 49.582031 57.261719 49.59375 57.25 49.605469 57.238281 C 51.175781 55.816406 51.761719 53.734375 51.136719 51.714844 C 51.132812 51.699219 51.128906 51.6875 51.125 51.671875 L 47.042969 39.167969 L 57.558594 31.585938 C 60.347656 29.734375 60.8125 25.824219 58.617188 23.339844 C 57.601562 22.121094 56.164062 21.382812 54.566406 21.332031 C 54.535156 21.332031 54.507812 21.332031 54.480469 21.332031 L 41.105469 21.332031 L 37.136719 9.238281 L 37.167969 9.351562 C 36.324219 6.867188 34.523438 5.367188 32 5.332031 Z M 32 5.332031 "/>
<path style=" stroke:none;fill-rule:nonzero;fill:url(#linear1);" d="M 32 5.332031 C 29.476562 5.367188 27.675781 6.867188 26.832031 9.351562 L 26.863281 9.238281 L 22.894531 21.332031 L 9.519531 21.332031 C 9.492188 21.332031 9.464844 21.332031 9.433594 21.332031 C 7.835938 21.382812 6.398438 22.121094 5.382812 23.339844 C 3.1875 25.824219 3.652344 29.734375 6.441406 31.585938 L 16.957031 39.167969 L 12.875 51.671875 C 12.871094 51.6875 12.867188 51.699219 12.863281 51.714844 C 12.238281 53.734375 12.824219 55.816406 14.394531 57.238281 C 14.40625 57.25 14.417969 57.261719 14.429688 57.269531 C 16.316406 58.921875 18.960938 59.132812 21.089844 57.765625 C 21.132812 57.738281 21.171875 57.710938 21.210938 57.683594 L 32 50 Z M 32 5.332031 "/>
<use xlink:href="#surface8" mask="url(#mask1)"/>
</g>
</svg>
