<?xml version="1.0" encoding="UTF-8"?>
<svg xmlns="http://www.w3.org/2000/svg" xmlns:xlink="http://www.w3.org/1999/xlink" width="64px" height="64px" viewBox="0 0 64 64" version="1.1">
<defs>
<linearGradient id="linear0" gradientUnits="userSpaceOnUse" x1="7" y1="12" x2="17" y2="12" gradientTransform="matrix(0.911973,-2.505867,-2.505867,-0.911973,51.128001,73.013331)">
<stop offset="0" style="stop-color:rgb(92.54902%,92.54902%,92.54902%);stop-opacity:1;"/>
<stop offset="1" style="stop-color:rgb(92.54902%,92.54902%,92.54902%);stop-opacity:0.5;"/>
</linearGradient>
<linearGradient id="linear1" gradientUnits="userSpaceOnUse" x1="7" y1="12" x2="19" y2="5" gradientTransform="matrix(-0.911973,2.505867,2.505867,0.911973,12.873067,-9.014133)">
<stop offset="0" style="stop-color:rgb(92.54902%,92.54902%,92.54902%);stop-opacity:0.5;"/>
<stop offset="1" style="stop-color:rgb(92.54902%,92.54902%,92.54902%);stop-opacity:0;"/>
</linearGradient>
</defs>
<g id="surface1">
<path style=" stroke:none;fill-rule:nonzero;fill:url(#linear0);" d="M 25.617188 49.542969 C 35.304688 53.066406 46.015625 48.070312 49.542969 38.382812 C 53.066406 28.695312 48.070312 17.984375 38.382812 14.460938 L 36.558594 19.472656 C 43.480469 21.988281 47.046875 29.640625 44.53125 36.558594 C 42.011719 43.480469 34.359375 47.046875 27.441406 44.53125 C 24.183594 43.34375 22.359375 48.355469 25.617188 49.542969 Z M 25.617188 49.542969 "/>
<path style=" stroke:none;fill-rule:nonzero;fill:url(#linear1);" d="M 25.617188 49.542969 L 27.441406 44.53125 C 20.519531 42.011719 16.953125 34.359375 19.46875 27.441406 C 21.988281 20.519531 29.640625 16.953125 36.558594 19.46875 L 38.382812 14.457031 C 28.695312 10.933594 17.984375 15.929688 14.457031 25.617188 C 10.933594 35.304688 15.929688 46.015625 25.617188 49.542969 Z M 25.617188 49.542969 "/>
</g>
</svg>
