<?xml version="1.0" encoding="UTF-8"?>
<svg xmlns="http://www.w3.org/2000/svg" xmlns:xlink="http://www.w3.org/1999/xlink" width="64px" height="64px" viewBox="0 0 64 64" version="1.1">
<defs>
<linearGradient id="linear0" gradientUnits="userSpaceOnUse" x1="7" y1="12" x2="17" y2="12" gradientTransform="matrix(1.196933,2.38296,2.38296,-1.196933,-10.958666,17.767733)">
<stop offset="0" style="stop-color:rgb(92.54902%,92.54902%,92.54902%);stop-opacity:1;"/>
<stop offset="1" style="stop-color:rgb(92.54902%,92.54902%,92.54902%);stop-opacity:0.5;"/>
</linearGradient>
<linearGradient id="linear1" gradientUnits="userSpaceOnUse" x1="7" y1="12" x2="19" y2="5" gradientTransform="matrix(-1.196933,-2.38296,-2.38296,1.196933,74.957331,46.232)">
<stop offset="0" style="stop-color:rgb(92.54902%,92.54902%,92.54902%);stop-opacity:0.5;"/>
<stop offset="1" style="stop-color:rgb(92.54902%,92.54902%,92.54902%);stop-opacity:0;"/>
</linearGradient>
</defs>
<g id="surface1">
<path style=" stroke:none;fill-rule:nonzero;fill:url(#linear0);" d="M 23.621094 15.320312 C 14.410156 19.945312 10.691406 31.167969 15.320312 40.378906 C 19.945312 49.589844 31.164062 53.308594 40.378906 48.679688 L 37.984375 43.914062 C 31.40625 47.21875 23.390625 44.566406 20.085938 37.984375 C 16.78125 31.40625 19.433594 23.390625 26.015625 20.085938 C 29.113281 18.53125 26.71875 13.765625 23.621094 15.320312 Z M 23.621094 15.320312 "/>
<path style=" stroke:none;fill-rule:nonzero;fill:url(#linear1);" d="M 23.621094 15.320312 L 26.015625 20.085938 C 32.59375 16.78125 40.609375 19.433594 43.914062 26.015625 C 47.21875 32.59375 44.566406 40.609375 37.984375 43.914062 L 40.378906 48.679688 C 49.589844 44.054688 53.308594 32.835938 48.679688 23.621094 C 44.050781 14.410156 32.832031 10.691406 23.621094 15.320312 Z M 23.621094 15.320312 "/>
</g>
</svg>
