<?xml version="1.0" encoding="UTF-8"?>
<svg xmlns="http://www.w3.org/2000/svg" xmlns:xlink="http://www.w3.org/1999/xlink" width="64px" height="64px" viewBox="0 0 64 64" version="1.1">
<defs>
<linearGradient id="linear0" gradientUnits="userSpaceOnUse" x1="7" y1="12" x2="17" y2="12" gradientTransform="matrix(2.601413,0.586267,0.586267,-2.601413,-6.2512,56.181335)">
<stop offset="0" style="stop-color:rgb(92.54902%,92.54902%,92.54902%);stop-opacity:1;"/>
<stop offset="1" style="stop-color:rgb(92.54902%,92.54902%,92.54902%);stop-opacity:0.5;"/>
</linearGradient>
<linearGradient id="linear1" gradientUnits="userSpaceOnUse" x1="7" y1="12" x2="19" y2="5" gradientTransform="matrix(-2.601413,-0.586267,-0.586267,2.601413,70.253332,7.817867)">
<stop offset="0" style="stop-color:rgb(92.54902%,92.54902%,92.54902%);stop-opacity:0.5;"/>
<stop offset="1" style="stop-color:rgb(92.54902%,92.54902%,92.54902%);stop-opacity:0;"/>
</linearGradient>
</defs>
<g id="surface1">
<path style=" stroke:none;fill-rule:nonzero;fill:url(#linear0);" d="M 15.96875 25.890625 C 14.984375 26 14.074219 26.628906 13.785156 27.894531 L 13.792969 27.894531 C 11.523438 37.953125 17.839844 47.941406 27.894531 50.207031 C 30.1875 50.726562 32.472656 50.761719 34.667969 50.4375 L 34.667969 45 C 32.871094 45.386719 30.980469 45.4375 29.066406 45.003906 C 21.882812 43.386719 17.371094 36.253906 18.988281 29.070312 C 19.464844 26.957031 17.613281 25.707031 15.96875 25.890625 Z M 15.96875 25.890625 "/>
<path style=" stroke:none;fill-rule:nonzero;fill:url(#linear1);" d="M 32.347656 13.328125 C 23.667969 13.15625 15.773438 19.089844 13.792969 27.890625 L 13.792969 27.894531 L 18.996094 29.066406 C 20.613281 21.886719 27.75 17.375 34.933594 18.996094 C 41.128906 20.390625 45.273438 25.90625 45.273438 32.003906 C 45.292969 32.003906 45.3125 32 45.332031 32 C 47.332031 32 49.128906 32.785156 50.523438 34.019531 C 51.558594 24.699219 45.464844 15.898438 36.105469 13.785156 C 34.847656 13.503906 33.589844 13.351562 32.347656 13.328125 Z M 32.347656 13.328125 "/>
<path style=" stroke:none;fill-rule:nonzero;fill:rgb(92.54902%,92.54902%,92.54902%);fill-opacity:1;" d="M 45.332031 34.667969 C 42.378906 34.667969 40 37.09375 40 40.082031 L 40 42.667969 L 37.332031 42.667969 L 37.332031 53.332031 L 53.332031 53.332031 L 53.332031 42.667969 L 50.667969 42.667969 L 50.667969 40.082031 C 50.667969 37.097656 48.289062 34.667969 45.332031 34.667969 Z M 45.332031 37.332031 C 46.8125 37.332031 48 38.511719 48 40 L 48 42.667969 L 42.667969 42.667969 L 42.667969 40 C 42.667969 38.511719 43.855469 37.332031 45.332031 37.332031 Z M 45.332031 37.332031 "/>
</g>
</svg>
