<?xml version="1.0" encoding="UTF-8"?>
<svg xmlns="http://www.w3.org/2000/svg" xmlns:xlink="http://www.w3.org/1999/xlink" width="64px" height="64px" viewBox="0 0 64 64" version="1.1">
<defs>
<linearGradient id="linear0" gradientUnits="userSpaceOnUse" x1="0" y1="0" x2="0" y2="1" gradientTransform="matrix(48,0,0,56,8,4)">
<stop offset="0" style="stop-color:rgb(3.921569%,74.117649%,77.64706%);stop-opacity:1;"/>
<stop offset="1" style="stop-color:rgb(72.156864%,0%,100%);stop-opacity:1;"/>
</linearGradient>
</defs>
<g id="surface1">
<path style=" stroke:none;fill-rule:nonzero;fill:url(#linear0);" d="M 16 4 L 16 12.695312 C 11.207031 14.390625 8.003906 18.917969 8 24 C 8.007812 29.078125 11.210938 33.605469 16 35.296875 L 16 60 L 24 60 L 24 35.304688 C 28.792969 33.609375 31.996094 29.082031 32 24 C 31.992188 18.921875 28.789062 14.394531 24 12.703125 L 24 4 Z M 40 4 L 40 32.695312 C 35.207031 34.390625 32.003906 38.917969 32 44 C 32.007812 49.078125 35.210938 53.605469 40 55.296875 L 40 60 L 48 60 L 48 55.304688 C 52.792969 53.609375 55.996094 49.082031 56 44 C 55.992188 38.921875 52.789062 34.394531 48 32.703125 L 48 4 Z M 40 4 "/>
</g>
</svg>
