<?xml version="1.0" encoding="UTF-8"?>
<svg xmlns="http://www.w3.org/2000/svg" xmlns:xlink="http://www.w3.org/1999/xlink" width="64px" height="64px" viewBox="0 0 64 64" version="1.1">
<defs>
<linearGradient id="linear0" gradientUnits="userSpaceOnUse" x1="0" y1="0" x2="0" y2="1" gradientTransform="matrix(56,0,0,40,4,12)">
<stop offset="0" style="stop-color:rgb(3.921569%,74.117649%,77.64706%);stop-opacity:1;"/>
<stop offset="1" style="stop-color:rgb(72.156864%,0%,100%);stop-opacity:1;"/>
</linearGradient>
</defs>
<g id="surface1">
<path style=" stroke:none;fill-rule:nonzero;fill:url(#linear0);" d="M 8 12 L 8 28 L 4 28 L 4 36 L 8 36 L 8 52 L 24 52 L 24 36 L 40 36 L 40 52 L 56 52 L 56 36 L 60 36 L 60 28 L 56 28 L 56 12 L 40 12 L 40 28 L 24 28 L 24 12 Z M 8 12 "/>
</g>
</svg>
