<?xml version="1.0" encoding="UTF-8"?>
<svg xmlns="http://www.w3.org/2000/svg" xmlns:xlink="http://www.w3.org/1999/xlink" width="64px" height="64px" viewBox="0 0 64 64" version="1.1">
<defs>
<linearGradient id="linear0" gradientUnits="userSpaceOnUse" x1="0" y1="0" x2="0" y2="1" gradientTransform="matrix(60.007813,0,0,56,-0.0078125,4)">
<stop offset="0" style="stop-color:rgb(3.921569%,74.117649%,77.64706%);stop-opacity:1;"/>
<stop offset="1" style="stop-color:rgb(72.156864%,0%,100%);stop-opacity:1;"/>
</linearGradient>
</defs>
<g id="surface1">
<path style=" stroke:none;fill-rule:nonzero;fill:url(#linear0);" d="M 12 4 C 7.566406 4 4 7.566406 4 12 L 4 23.976562 L 12 24 L 12 12 L 52 12 L 52 52 L 12 52 L 12 40 L 4 39.976562 L 4 52 C 4 56.433594 7.566406 60 12 60 L 52 60 C 56.433594 60 60 56.433594 60 52 L 60 12 C 60 7.566406 56.433594 4 52 4 Z M 28.84375 16 L 23.296875 21.546875 L 29.835938 28.085938 L -0.0078125 28 L -0.0078125 36 L 29.835938 36.085938 L 23.296875 42.617188 L 28.84375 48.164062 L 44.84375 32 Z M 28.84375 16 "/>
</g>
</svg>
