<?xml version="1.0" encoding="UTF-8"?>
<svg xmlns="http://www.w3.org/2000/svg" xmlns:xlink="http://www.w3.org/1999/xlink" width="64px" height="64px" viewBox="0 0 64 64" version="1.1">
<defs>
<linearGradient id="linear0" gradientUnits="userSpaceOnUse" x1="0" y1="0" x2="0" y2="1" gradientTransform="matrix(56,0,0,56,4,4)">
<stop offset="0" style="stop-color:rgb(3.921569%,74.117649%,77.64706%);stop-opacity:1;"/>
<stop offset="1" style="stop-color:rgb(72.156864%,0%,100%);stop-opacity:1;"/>
</linearGradient>
</defs>
<g id="surface1">
<path style=" stroke:none;fill-rule:nonzero;fill:url(#linear0);" d="M 32 4 C 16.488281 4 4 16.488281 4 32 C 4 47.511719 16.488281 60 32 60 C 47.511719 60 60 47.511719 60 32 C 60 16.488281 47.511719 4 32 4 Z M 25.984375 20.007812 C 28.136719 20.082031 30.277344 20.90625 31.992188 22.554688 C 33.3125 23.824219 33.898438 24.910156 35.890625 29.71875 C 37.96875 34.746094 38.351562 35.53125 39.023438 36.203125 C 39.746094 36.914062 40.414062 37.15625 41.695312 37.15625 C 43.796875 37.15625 45.296875 35.832031 45.296875 33.992188 C 45.296875 32.433594 44.761719 31.9375 42.007812 30.945312 C 37.820312 29.410156 36.464844 28.027344 36.460938 25.242188 C 36.460938 23.757812 36.832031 22.761719 37.773438 21.734375 C 39.125 20.269531 41.453125 19.789062 43.515625 20.515625 C 44.394531 20.832031 46.242188 22.488281 46.242188 22.960938 C 46.242188 23.191406 45.171875 23.894531 44.578125 24.0625 C 44.265625 24.144531 44 24.039062 43.640625 23.6875 C 42.90625 22.976562 42.414062 22.75 41.539062 22.75 C 40.027344 22.75 39.085938 23.671875 39.085938 25.164062 C 39.085938 26.648438 39.6875 27.152344 42.664062 28.171875 C 46.769531 29.578125 47.976562 30.855469 48 33.796875 C 48.023438 36.335938 46.894531 38.164062 44.65625 39.25 C 43.636719 39.738281 43.289062 39.804688 41.625 39.804688 C 39.25 39.800781 38.183594 39.351562 36.851562 37.828125 C 35.957031 36.804688 35.050781 34.878906 32.140625 27.851562 C 30.933594 24.941406 29.378906 23.515625 26.796875 22.953125 C 25.488281 22.667969 23.664062 22.933594 22.476562 23.570312 C 21.316406 24.1875 20.023438 25.574219 19.414062 26.84375 C 18.910156 27.875 18.867188 28.160156 18.867188 29.953125 C 18.867188 31.664062 18.929688 32.070312 19.351562 33.007812 C 19.992188 34.441406 21.253906 35.757812 22.640625 36.46875 C 23.640625 36.980469 23.949219 37.046875 25.546875 37.046875 C 27.082031 37.046875 27.476562 36.976562 28.390625 36.53125 C 29.433594 36.011719 30.839844 34.742188 31.414062 33.789062 L 31.710938 33.296875 L 32.296875 34.664062 C 32.625 35.417969 32.890625 36.121094 32.890625 36.25 C 32.890625 36.625 31.558594 37.859375 30.34375 38.625 C 28.496094 39.78125 26.375 40.210938 24.109375 39.898438 L 24.109375 39.90625 C 23.46875 39.820312 22.328125 39.441406 21.570312 39.070312 C 16.621094 36.660156 14.59375 30.59375 17.03125 25.484375 C 18.773438 21.832031 22.398438 19.882812 25.984375 20.007812 Z M 25.984375 20.007812 "/>
</g>
</svg>
