<?xml version="1.0" encoding="UTF-8"?>
<svg xmlns="http://www.w3.org/2000/svg" xmlns:xlink="http://www.w3.org/1999/xlink" width="64px" height="64px" viewBox="0 0 64 64" version="1.1">
<defs>
<linearGradient id="linear0" gradientUnits="userSpaceOnUse" x1="0" y1="0" x2="0" y2="1" gradientTransform="matrix(60,0,0,51.984375,4,8)">
<stop offset="0" style="stop-color:rgb(3.921569%,74.117649%,77.64706%);stop-opacity:1;"/>
<stop offset="1" style="stop-color:rgb(72.156864%,0%,100%);stop-opacity:1;"/>
</linearGradient>
</defs>
<g id="surface1">
<path style=" stroke:none;fill-rule:nonzero;fill:url(#linear0);" d="M 8 8 C 4 8 4 12 4 12 L 4 52 C 4 56 8 56 8 56 L 36 56 L 36 50.328125 L 38.328125 48 L 12 48 L 12 38 L 22 26.25 L 35.25 41.25 L 43.75 33 L 48.539062 37.789062 L 56 30.328125 L 60 34.328125 L 60 12 C 60 8 56 8 56 8 Z M 56 35.984375 L 40 51.984375 L 40 59.984375 L 48 59.984375 L 64 43.984375 Z M 56 35.984375 "/>
</g>
</svg>
