<?xml version="1.0" encoding="UTF-8"?>
<svg xmlns="http://www.w3.org/2000/svg" xmlns:xlink="http://www.w3.org/1999/xlink" width="64px" height="64px" viewBox="0 0 64 64" version="1.1">
<defs>
<linearGradient id="linear0" gradientUnits="userSpaceOnUse" x1="0" y1="0" x2="0" y2="1" gradientTransform="matrix(64,0,0,64,0,0)">
<stop offset="0" style="stop-color:rgb(3.921569%,74.117649%,77.64706%);stop-opacity:1;"/>
<stop offset="1" style="stop-color:rgb(72.156864%,0%,100%);stop-opacity:1;"/>
</linearGradient>
</defs>
<g id="surface1">
<path style=" stroke:none;fill-rule:nonzero;fill:url(#linear0);" d="M 40 0 L 40 24.40625 C 39.105469 24.597656 38.226562 24.847656 37.367188 25.15625 C 37.21875 25.207031 37.074219 25.257812 36.929688 25.3125 C 35.25 25.949219 33.664062 26.808594 32.210938 27.867188 C 32.089844 27.953125 31.976562 28.050781 31.859375 28.140625 C 31.15625 28.671875 30.492188 29.25 29.867188 29.867188 C 29.222656 30.515625 28.625 31.207031 28.078125 31.9375 C 28.003906 32.039062 27.933594 32.140625 27.859375 32.242188 C 27.367188 32.910156 26.917969 33.609375 26.515625 34.335938 C 26.476562 34.410156 26.4375 34.480469 26.398438 34.554688 C 25.949219 35.378906 25.5625 36.238281 25.234375 37.117188 C 25.230469 37.125 25.230469 37.132812 25.226562 37.140625 L 25.210938 37.1875 C 24.882812 38.09375 24.621094 39.023438 24.429688 39.96875 C 24.425781 39.980469 24.425781 39.988281 24.421875 40 L 0 40 L 0 48 L 24.40625 48 C 24.632812 49.070312 24.945312 50.128906 25.34375 51.148438 C 25.382812 51.253906 25.417969 51.363281 25.460938 51.46875 C 25.835938 52.394531 26.28125 53.285156 26.789062 54.140625 C 26.902344 54.335938 27.019531 54.523438 27.140625 54.710938 C 27.65625 55.53125 28.230469 56.316406 28.859375 57.054688 C 28.949219 57.160156 29.050781 57.25 29.140625 57.351562 C 29.761719 58.042969 30.429688 58.691406 31.140625 59.289062 C 31.246094 59.378906 31.34375 59.476562 31.453125 59.5625 C 32.210938 60.167969 33.011719 60.714844 33.851562 61.203125 C 34.035156 61.3125 34.21875 61.421875 34.40625 61.523438 C 35.246094 61.988281 36.117188 62.386719 37.015625 62.726562 C 37.191406 62.792969 37.371094 62.84375 37.546875 62.90625 C 38.472656 63.226562 39.421875 63.480469 40.382812 63.664062 C 40.4375 63.675781 40.492188 63.6875 40.546875 63.695312 C 41.6875 63.898438 42.84375 64 44 64 C 44.667969 64 45.335938 63.960938 46 63.898438 C 46.667969 63.832031 47.328125 63.730469 47.976562 63.601562 C 48.03125 63.589844 48.085938 63.574219 48.140625 63.5625 C 49.359375 63.304688 50.546875 62.933594 51.695312 62.453125 C 51.726562 62.441406 51.757812 62.433594 51.789062 62.421875 L 51.851562 62.390625 C 52.960938 61.914062 54.027344 61.335938 55.03125 60.664062 C 55.097656 60.621094 55.167969 60.589844 55.234375 60.546875 C 56.226562 59.867188 57.152344 59.097656 58.007812 58.25 C 58.066406 58.191406 58.128906 58.136719 58.1875 58.078125 C 58.996094 57.257812 59.730469 56.367188 60.382812 55.421875 C 60.476562 55.289062 60.582031 55.167969 60.671875 55.03125 C 61.28125 54.097656 61.8125 53.117188 62.257812 52.09375 C 62.335938 51.921875 62.417969 51.753906 62.492188 51.578125 C 62.921875 50.519531 63.261719 49.429688 63.507812 48.3125 C 63.554688 48.101562 63.609375 47.894531 63.648438 47.679688 C 63.703125 47.375 63.75 47.070312 63.789062 46.765625 C 63.835938 46.421875 63.882812 46.082031 63.914062 45.734375 C 63.96875 45.15625 63.996094 44.578125 64 44 C 63.992188 42.945312 63.898438 41.886719 63.726562 40.84375 C 63.699219 40.671875 63.679688 40.5 63.648438 40.328125 C 63.460938 39.332031 63.195312 38.355469 62.859375 37.398438 C 62.8125 37.265625 62.761719 37.132812 62.710938 37 C 62.351562 36.03125 61.917969 35.089844 61.414062 34.1875 C 61.378906 34.125 61.339844 34.070312 61.304688 34.007812 C 60.777344 33.09375 60.179688 32.226562 59.515625 31.40625 C 59.5 31.386719 59.484375 31.363281 59.46875 31.34375 C 58.796875 30.53125 58.0625 29.773438 57.273438 29.078125 C 57.183594 29 57.097656 28.921875 57.007812 28.84375 C 56.210938 28.15625 55.363281 27.53125 54.46875 26.976562 C 54.421875 26.949219 54.367188 26.925781 54.320312 26.898438 C 52.375 25.722656 50.246094 24.890625 48.023438 24.429688 C 48.015625 24.425781 48.007812 24.421875 48 24.421875 L 48 0 Z M 40 0 "/>
</g>
</svg>
