<?xml version="1.0" encoding="UTF-8"?>
<svg xmlns="http://www.w3.org/2000/svg" xmlns:xlink="http://www.w3.org/1999/xlink" width="64px" height="64px" viewBox="0 0 64 64" version="1.1">
<g id="surface1">
<path style=" stroke:none;fill-rule:nonzero;fill:rgb(10.196079%,83.92157%,67.058825%);fill-opacity:1;" d="M 32 4 C 18.746094 4 8 14.746094 8 28 C 8 36.347656 12.28125 43.699219 18.75 48 L 16 48 C 8 48 8 56 8 56 L 8 60 L 56 60 L 56 56 C 56 56 56 48 48 48 L 45.25 48 C 51.71875 43.699219 56 36.347656 56 28 C 56 14.746094 45.253906 4 32 4 Z M 32 20.015625 C 36.417969 20.015625 40 23.597656 40 28.015625 C 40 32.433594 36.417969 36.015625 32 36.015625 C 27.582031 36.015625 24 32.433594 24 28.015625 C 24 23.597656 27.582031 20.015625 32 20.015625 Z M 32 20.015625 "/>
</g>
</svg>
