<?xml version="1.0" encoding="UTF-8"?>
<svg xmlns="http://www.w3.org/2000/svg" xmlns:xlink="http://www.w3.org/1999/xlink" width="64px" height="64px" viewBox="0 0 64 64" version="1.1">
<defs>
<linearGradient id="linear0" gradientUnits="userSpaceOnUse" x1="0" y1="0" x2="0" y2="1" gradientTransform="matrix(64,0,0,64,0,0)">
<stop offset="0" style="stop-color:rgb(3.921569%,74.117649%,77.64706%);stop-opacity:1;"/>
<stop offset="1" style="stop-color:rgb(72.156864%,0%,100%);stop-opacity:1;"/>
</linearGradient>
</defs>
<g id="surface1">
<path style=" stroke:none;fill-rule:nonzero;fill:url(#linear0);" d="M 44.070312 0 C 42.6875 0.53125 41.316406 1.21875 40.164062 2.148438 C 34.65625 6.605469 34.585938 13.941406 40.007812 18.539062 C 41.140625 19.5 42.503906 20.210938 43.875 20.78125 C 43.988281 20.828125 43.984375 29 43.984375 29 C 49.945312 32 53.382812 36 55.976562 40 L 55.976562 21.007812 C 57.359375 20.476562 58.644531 19.71875 59.796875 18.789062 C 65.304688 14.332031 65.378906 6.996094 59.953125 2.398438 C 58.820312 1.4375 57.457031 0.722656 56.085938 0.15625 L 56 9.085938 C 55.980469 10.921875 54.191406 12 51.976562 12 L 47.984375 12 C 45.769531 11.972656 43.96875 10.765625 43.984375 8.929688 Z M 31.984375 32 C 15.992188 32 8 44 8 56 L 1 56 C 0 56 0 56.628906 0 57 L 0 63 C 0 64 0.554688 64 1 64 L 62.976562 64 C 63.757812 64.023438 63.976562 63.484375 63.976562 63 L 63.976562 57 C 64.0625 56.414062 63.976562 56 62.976562 56 L 55.976562 56 C 55.976562 44 47.980469 32 31.984375 32 Z M 31.984375 44 C 41.382812 44 43.984375 51.046875 43.984375 56 L 19.992188 56 C 19.992188 51.207031 22.800781 44 31.984375 44 Z M 31.984375 44 "/>
</g>
</svg>
