<?xml version="1.0" encoding="UTF-8"?>
<svg xmlns="http://www.w3.org/2000/svg" xmlns:xlink="http://www.w3.org/1999/xlink" width="64px" height="64px" viewBox="0 0 64 64" version="1.1">
<defs>
<linearGradient id="linear0" gradientUnits="userSpaceOnUse" x1="0" y1="0" x2="0" y2="1" gradientTransform="matrix(40,0,0,56,12,3.921875)">
<stop offset="0" style="stop-color:rgb(3.921569%,74.117649%,77.64706%);stop-opacity:1;"/>
<stop offset="1" style="stop-color:rgb(72.156864%,0%,100%);stop-opacity:1;"/>
</linearGradient>
</defs>
<g id="surface1">
<path style=" stroke:none;fill-rule:nonzero;fill:url(#linear0);" d="M 12 3.921875 L 12 19.921875 L 52 19.921875 L 52 3.921875 Z M 24 23.921875 L 24 27.921875 L 28 27.921875 L 28 35.921875 L 24 35.921875 L 24 39.921875 L 40 39.921875 L 40 35.921875 L 36 35.921875 L 36 27.921875 L 40 27.921875 L 40 23.921875 Z M 12 43.921875 L 12 59.921875 L 52 59.921875 L 52 43.921875 Z M 12 43.921875 "/>
</g>
</svg>
