<?xml version="1.0" encoding="UTF-8"?>
<svg xmlns="http://www.w3.org/2000/svg" xmlns:xlink="http://www.w3.org/1999/xlink" width="64px" height="64px" viewBox="0 0 64 64" version="1.1">
<defs>
<linearGradient id="linear0" gradientUnits="userSpaceOnUse" x1="0" y1="0" x2="0" y2="1" gradientTransform="matrix(56,0,0,56,4,3.921875)">
<stop offset="0" style="stop-color:rgb(3.921569%,74.117649%,77.64706%);stop-opacity:1;"/>
<stop offset="1" style="stop-color:rgb(72.156864%,0%,100%);stop-opacity:1;"/>
</linearGradient>
</defs>
<g id="surface1">
<path style=" stroke:none;fill-rule:nonzero;fill:url(#linear0);" d="M 4 3.921875 L 4 59.921875 L 48 59.921875 L 60 47.921875 L 60 3.921875 Z M 12 11.921875 L 52 11.921875 L 52 51.921875 L 12 51.921875 Z M 16 15.921875 L 16 27.921875 L 48 27.921875 L 48 15.921875 Z M 16 35.921875 L 16 47.921875 L 48 47.921875 L 48 35.921875 Z M 16 35.921875 "/>
</g>
</svg>
