<?xml version="1.0" encoding="UTF-8"?>
<svg xmlns="http://www.w3.org/2000/svg" xmlns:xlink="http://www.w3.org/1999/xlink" width="64px" height="64px" viewBox="0 0 64 64" version="1.1">
<defs>
<linearGradient id="linear0" gradientUnits="userSpaceOnUse" x1="0" y1="0" x2="0" y2="1" gradientTransform="matrix(56,0,0,32,4,15.992188)">
<stop offset="0" style="stop-color:rgb(3.921569%,74.117649%,77.64706%);stop-opacity:1;"/>
<stop offset="1" style="stop-color:rgb(72.156864%,0%,100%);stop-opacity:1;"/>
</linearGradient>
</defs>
<g id="surface1">
<path style=" stroke:none;fill-rule:nonzero;fill:url(#linear0);" d="M 4.039062 15.992188 C 4.039062 15.992188 3.953125 20.246094 4.039062 20.5625 C 4.039062 35.710938 16.570312 47.992188 32.023438 47.992188 C 47.476562 47.992188 60 35.710938 60 20.5625 L 60 15.992188 Z M 4.039062 15.992188 "/>
</g>
</svg>
