<?xml version="1.0" encoding="UTF-8"?>
<svg xmlns="http://www.w3.org/2000/svg" xmlns:xlink="http://www.w3.org/1999/xlink" width="64px" height="64px" viewBox="0 0 64 64" version="1.1">
<defs>
<linearGradient id="linear0" gradientUnits="userSpaceOnUse" x1="0" y1="0" x2="0" y2="1" gradientTransform="matrix(56.105469,0,0,56.042969,3.960938,3.984375)">
<stop offset="0" style="stop-color:rgb(3.921569%,74.117649%,77.64706%);stop-opacity:1;"/>
<stop offset="1" style="stop-color:rgb(72.156864%,0%,100%);stop-opacity:1;"/>
</linearGradient>
</defs>
<g id="surface1">
<path style=" stroke:none;fill-rule:nonzero;fill:url(#linear0);" d="M 25.960938 3.984375 C 13.84375 3.984375 3.960938 13.882812 3.960938 25.984375 C 3.960938 38.085938 13.84375 47.984375 25.960938 47.984375 C 30.570312 47.984375 34.910156 46.554688 38.460938 44.109375 L 53.210938 58.859375 C 54.234375 59.875 55.726562 60.265625 57.117188 59.878906 C 58.507812 59.492188 59.585938 58.390625 59.941406 56.992188 C 60.296875 55.59375 59.875 54.113281 58.835938 53.109375 L 44.085938 38.359375 C 46.527344 34.816406 48.085938 30.582031 48.085938 25.984375 C 48.085938 13.882812 38.074219 3.984375 25.960938 3.984375 Z M 25.960938 11.984375 C 33.75 11.984375 39.960938 18.203125 39.960938 25.984375 C 39.960938 33.765625 33.75 39.984375 25.960938 39.984375 C 18.171875 39.984375 11.960938 33.765625 11.960938 25.984375 C 11.960938 18.203125 18.171875 11.984375 25.960938 11.984375 Z M 25.960938 11.984375 "/>
</g>
</svg>
