<?xml version="1.0" encoding="UTF-8"?>
<svg xmlns="http://www.w3.org/2000/svg" xmlns:xlink="http://www.w3.org/1999/xlink" width="64px" height="64px" viewBox="0 0 64 64" version="1.1">
<defs>
<linearGradient id="linear0" gradientUnits="userSpaceOnUse" x1="0" y1="0" x2="0" y2="1" gradientTransform="matrix(52,0,0,48,8,8)">
<stop offset="0" style="stop-color:rgb(3.921569%,74.117649%,77.64706%);stop-opacity:1;"/>
<stop offset="1" style="stop-color:rgb(72.156864%,0%,100%);stop-opacity:1;"/>
</linearGradient>
</defs>
<g id="surface1">
<path style=" stroke:none;fill-rule:nonzero;fill:url(#linear0);" d="M 28 8 L 8 20 L 28 32 L 28 24 L 40 24 C 46.71875 24 52 29.28125 52 36 C 52 42.71875 46.71875 48 40 48 L 20 48 L 20 56 L 40 56 C 51.011719 56 60 47.011719 60 36 C 60 24.988281 51.011719 16 40 16 L 28 16 Z M 28 8 "/>
</g>
</svg>
