<?xml version="1.0" encoding="UTF-8"?>
<svg xmlns="http://www.w3.org/2000/svg" xmlns:xlink="http://www.w3.org/1999/xlink" width="64px" height="64px" viewBox="0 0 64 64" version="1.1">
<defs>
<linearGradient id="linear0" gradientUnits="userSpaceOnUse" x1="0" y1="0" x2="0" y2="1" gradientTransform="matrix(56,0,0,56,4,4)">
<stop offset="0" style="stop-color:rgb(3.921569%,74.117649%,77.64706%);stop-opacity:1;"/>
<stop offset="1" style="stop-color:rgb(72.156864%,0%,100%);stop-opacity:1;"/>
</linearGradient>
</defs>
<g id="surface1">
<path style=" stroke:none;fill-rule:nonzero;fill:url(#linear0);" d="M 8 4 C 8 4 4 4.074219 4 8 L 4 12 L 12 12 L 12 4 Z M 20 4 L 20 12 L 28 12 L 28 4 Z M 36 4 L 36 12 L 44 12 L 44 4 Z M 52 4 L 52 12 L 60 12 L 60 8 C 60 4.074219 56 4 56 4 Z M 16 16 L 16 24 L 36 24 L 36 16 Z M 4 20 L 4 28 L 12 28 L 12 20 Z M 52 20 L 52 28 L 60 28 L 60 20 Z M 20 28 L 20 36 L 40 36 L 40 28 Z M 4 36 L 4 44 L 12 44 L 12 36 Z M 52 36 L 52 44 L 60 44 L 60 36 Z M 28 40 L 28 48 L 48 48 L 48 40 Z M 4 52 L 4 56 C 4 59.925781 8 60 8 60 L 12 60 L 12 52 Z M 20 52 L 20 60 L 28 60 L 28 52 Z M 36 52 L 36 60 L 44 60 L 44 52 Z M 52 52 L 52 60 L 56 60 C 56 60 60 59.925781 60 56 L 60 52 Z M 52 52 "/>
</g>
</svg>
