<?xml version="1.0" encoding="UTF-8"?>
<svg xmlns="http://www.w3.org/2000/svg" xmlns:xlink="http://www.w3.org/1999/xlink" width="64px" height="64px" viewBox="0 0 64 64" version="1.1">
<defs>
<linearGradient id="linear0" gradientUnits="userSpaceOnUse" x1="0" y1="0" x2="0" y2="1" gradientTransform="matrix(56,0,0,56,4,4)">
<stop offset="0" style="stop-color:rgb(3.921569%,74.117649%,77.64706%);stop-opacity:1;"/>
<stop offset="1" style="stop-color:rgb(72.156864%,0%,100%);stop-opacity:1;"/>
</linearGradient>
</defs>
<g id="surface1">
<path style=" stroke:none;fill-rule:nonzero;fill:url(#linear0);" d="M 60 4 C 56.042969 4.8125 52.371094 7.128906 50.203125 10.46875 C 49.449219 10.132812 48.878906 10 48 10 C 47.375 10 46.78125 10.121094 46.21875 10.296875 C 45.101562 10.714844 44.125 11.164062 43.195312 11.625 C 39.199219 9.261719 34.644531 8.007812 30 8 C 15.640625 8 4 19.640625 4 34 C 4 48.359375 15.640625 60 30 60 C 44.359375 60 56 48.359375 56 34 C 55.992188 29.667969 54.902344 25.40625 52.828125 21.601562 C 53.179688 20.449219 53.484375 19.203125 53.703125 17.78125 C 53.878906 17.214844 54 16.625 54 16 C 54 14.65625 53.957031 14.113281 53.21875 13.117188 C 54.824219 10.503906 56.96875 8.789062 60 8 Z M 60 4 "/>
</g>
</svg>
