<?xml version="1.0" encoding="UTF-8"?>
<svg xmlns="http://www.w3.org/2000/svg" xmlns:xlink="http://www.w3.org/1999/xlink" width="64px" height="64px" viewBox="0 0 64 64" version="1.1">
<defs>
<linearGradient id="linear0" gradientUnits="userSpaceOnUse" x1="0" y1="0" x2="0" y2="1" gradientTransform="matrix(64,0,0,64,0,0)">
<stop offset="0" style="stop-color:rgb(3.921569%,74.117649%,77.64706%);stop-opacity:1;"/>
<stop offset="1" style="stop-color:rgb(72.156864%,0%,100%);stop-opacity:1;"/>
</linearGradient>
</defs>
<g id="surface1">
<path style=" stroke:none;fill-rule:nonzero;fill:url(#linear0);" d="M 8 0 C 3.566406 0 0 3.566406 0 8 L 0 56 C 0 60.433594 3.566406 64 8 64 L 56 64 C 60.433594 64 64 60.433594 64 56 L 64 8 C 64 3.566406 60.433594 0 56 0 Z M 46.453125 8 C 47.179688 8 47.902344 8.285156 48.46875 8.851562 L 55.148438 15.53125 C 56.277344 16.660156 56.277344 18.449219 55.148438 19.578125 L 49.53125 25.15625 L 38.84375 14.46875 L 44.421875 8.851562 C 44.988281 8.285156 45.726562 8 46.453125 8 Z M 35 18.304688 L 45.695312 29 L 18.6875 56 L 8 56 L 8 45.3125 Z M 35 18.304688 "/>
</g>
</svg>
