<?xml version="1.0" encoding="UTF-8"?>
<svg xmlns="http://www.w3.org/2000/svg" xmlns:xlink="http://www.w3.org/1999/xlink" width="64px" height="64px" viewBox="0 0 64 64" version="1.1">
<defs>
<linearGradient id="linear0" gradientUnits="userSpaceOnUse" x1="0" y1="0" x2="0" y2="1" gradientTransform="matrix(64,0,0,64,0,0)">
<stop offset="0" style="stop-color:rgb(3.921569%,74.117649%,77.64706%);stop-opacity:1;"/>
<stop offset="1" style="stop-color:rgb(72.156864%,0%,100%);stop-opacity:1;"/>
</linearGradient>
</defs>
<g id="surface1">
<path style=" stroke:none;fill-rule:nonzero;fill:url(#linear0);" d="M 8 0 C 3.566406 0 0 3.566406 0 8 L 0 56 C 0 60.433594 3.566406 64 8 64 L 56 64 C 60.433594 64 64 60.433594 64 56 L 64 8 C 64 3.566406 60.433594 0 56 0 Z M 26.71875 6.460938 L 29.28125 9.539062 L 21.53125 16 L 52 16 L 52 56 L 12 56 L 12 16 L 15.273438 16 Z M 16 20 L 16 28 L 40 28 L 40 32 L 16 32 L 16 40 L 40 40 L 40 44 L 16 44 L 16 52 L 48 52 L 48 20 Z M 16 20 "/>
</g>
</svg>
