<?xml version="1.0" encoding="UTF-8"?>
<svg xmlns="http://www.w3.org/2000/svg" xmlns:xlink="http://www.w3.org/1999/xlink" width="64px" height="64px" viewBox="0 0 64 64" version="1.1">
<defs>
<linearGradient id="linear0" gradientUnits="userSpaceOnUse" x1="0" y1="0" x2="0" y2="1" gradientTransform="matrix(64,0,0,64,0,0)">
<stop offset="0" style="stop-color:rgb(3.921569%,74.117649%,77.64706%);stop-opacity:1;"/>
<stop offset="1" style="stop-color:rgb(72.156864%,0%,100%);stop-opacity:1;"/>
</linearGradient>
</defs>
<g id="surface1">
<path style=" stroke:none;fill-rule:nonzero;fill:url(#linear0);" d="M 8 0 C 3.566406 0 0 3.566406 0 8 L 0 56 C 0 60.433594 3.566406 64 8 64 L 56 64 C 60.433594 64 64 60.433594 64 56 L 64 8 C 64 3.566406 60.433594 0 56 0 Z M 28 8 L 32 8 L 32 35.929688 C 39.242188 35.601562 42.882812 33.503906 45.046875 29.960938 C 47.40625 26.101562 48 19.917969 48 12 L 52 12 C 52 20.082031 51.59375 26.898438 48.453125 32.039062 C 45.546875 36.792969 40.199219 39.535156 32 39.921875 L 32 52 L 52 52 L 52 56 L 8 56 L 8 52 L 28 52 L 28 39.921875 C 19.796875 39.535156 14.453125 36.792969 11.546875 32.039062 C 8.40625 26.898438 8 20.082031 8 12 L 12 12 C 12 19.917969 12.59375 26.101562 14.953125 29.960938 C 17.117188 33.503906 20.757812 35.601562 28 35.929688 Z M 28 8 "/>
</g>
</svg>
