<?xml version="1.0" encoding="UTF-8"?>
<svg xmlns="http://www.w3.org/2000/svg" xmlns:xlink="http://www.w3.org/1999/xlink" width="64px" height="64px" viewBox="0 0 64 64" version="1.1">
<defs>
<filter id="alpha" filterUnits="objectBoundingBox" x="0%" y="0%" width="100%" height="100%">
  <feColorMatrix type="matrix" in="SourceGraphic" values="0 0 0 0 1 0 0 0 0 1 0 0 0 0 1 0 0 0 1 0"/>
</filter>
<mask id="mask0">
  <g filter="url(#alpha)">
<rect x="0" y="0" width="64" height="64" style="fill:rgb(0%,0%,0%);fill-opacity:0.3;stroke:none;"/>
  </g>
</mask>
<linearGradient id="linear0" gradientUnits="userSpaceOnUse" x1="0" y1="0" x2="0" y2="1" gradientTransform="matrix(40,0,0,64,12,0)">
<stop offset="0" style="stop-color:rgb(3.921569%,74.117649%,77.64706%);stop-opacity:1;"/>
<stop offset="1" style="stop-color:rgb(72.156864%,0%,100%);stop-opacity:1;"/>
</linearGradient>
<clipPath id="clip1">
  <rect x="0" y="0" width="64" height="64"/>
</clipPath>
<g id="surface5" clip-path="url(#clip1)">
<path style=" stroke:none;fill-rule:nonzero;fill:url(#linear0);" d="M 32 0 C 20.949219 0 12 9.238281 12 20.640625 C 12 27.359375 15.078125 33.277344 19.941406 37.039062 C 22.160156 38.757812 23.902344 41 23.902344 44.078125 L 24 48 L 40 48 L 40.117188 44.078125 C 40.273438 41 41.839844 38.757812 44.058594 37.039062 C 48.925781 33.277344 52 27.359375 52 20.640625 C 52 9.238281 43.046875 0 32 0 Z M 32 8.242188 C 38.613281 8.242188 44.019531 13.800781 44.019531 20.640625 C 44.019531 24.519531 42.269531 28.117188 39.234375 30.4375 C 34.722656 33.957031 33.011719 37.875 32.386719 41.15625 L 31.613281 41.15625 C 30.988281 37.875 29.277344 33.957031 24.765625 30.4375 C 21.730469 28.117188 19.980469 24.519531 19.980469 20.640625 C 19.980469 13.800781 25.386719 8.242188 32 8.242188 Z M 24 52 L 24 60 C 24 64 28.109375 64 28.109375 64 L 35.890625 64 C 35.890625 64 40.117188 64 40 60 L 40 52 Z M 24 52 "/>
</g>
</defs>
<g id="surface1">
<use xlink:href="#surface5" mask="url(#mask0)"/>
</g>
</svg>
