<?xml version="1.0" encoding="UTF-8"?>
<svg xmlns="http://www.w3.org/2000/svg" xmlns:xlink="http://www.w3.org/1999/xlink" width="64px" height="64px" viewBox="0 0 64 64" version="1.1">
<defs>
<linearGradient id="linear0" gradientUnits="userSpaceOnUse" x1="0" y1="0" x2="0" y2="1" gradientTransform="matrix(64,0,0,64,0,0)">
<stop offset="0" style="stop-color:rgb(3.921569%,74.117649%,77.64706%);stop-opacity:1;"/>
<stop offset="1" style="stop-color:rgb(72.156864%,0%,100%);stop-opacity:1;"/>
</linearGradient>
</defs>
<g id="surface1">
<path style=" stroke:none;fill-rule:nonzero;fill:url(#linear0);" d="M 8 0 C 3.566406 0 0 3.566406 0 8 L 0 56 C 0 60.433594 3.566406 64 8 64 L 56 64 C 60.433594 64 64 60.433594 64 56 L 64 8 C 64 3.566406 60.433594 0 56 0 Z M 31.601562 6.796875 L 37.601562 14.796875 L 36.007812 16 L 43.992188 16 L 42.398438 14.796875 L 48.398438 6.796875 L 51.601562 9.203125 L 46.5 16 L 56 16 L 56 20 L 48 20 L 48 32 L 56 32 L 56 36 L 48 36 L 48 56 L 44 56 L 44 36 L 35.835938 36 C 35.453125 40.480469 33.929688 44.125 32.132812 47.242188 C 29.648438 51.523438 25.367188 55.460938 25.367188 55.460938 L 22.632812 52.546875 C 22.632812 52.546875 26.683594 48.683594 28.671875 45.242188 C 30.277344 42.445312 31.488281 39.601562 31.84375 36 L 24 36 L 24 32.242188 L 20 34.242188 L 20 56 L 8 56 L 8 52 L 16 52 L 16 36.242188 L 8.890625 39.796875 L 7.109375 36.203125 L 16 31.757812 L 16 20 L 8 20 L 8 16 L 16 16 L 16 8 L 20 8 L 20 16 L 24 16 L 24 20 L 20 20 L 20 29.757812 L 23.109375 28.203125 L 24.890625 31.796875 L 24.46875 32 L 32 32 L 32 20 L 28 20 L 28 16 L 33.5 16 L 28.398438 9.203125 Z M 36 20 L 36 32 L 44 32 L 44 20 Z M 36 20 "/>
</g>
</svg>
