<?xml version="1.0" encoding="UTF-8"?>
<svg xmlns="http://www.w3.org/2000/svg" xmlns:xlink="http://www.w3.org/1999/xlink" width="64px" height="64px" viewBox="0 0 64 64" version="1.1">
<defs>
<linearGradient id="linear0" gradientUnits="userSpaceOnUse" x1="0" y1="0" x2="0" y2="1" gradientTransform="matrix(56,0,0,56.003906,4.007812,4)">
<stop offset="0" style="stop-color:rgb(3.921569%,74.117649%,77.64706%);stop-opacity:1;"/>
<stop offset="1" style="stop-color:rgb(72.156864%,0%,100%);stop-opacity:1;"/>
</linearGradient>
</defs>
<g id="surface1">
<path style=" stroke:none;fill-rule:nonzero;fill:url(#linear0);" d="M 36.601562 4 C 34.789062 4 33.203125 5.21875 32.734375 6.96875 L 25.15625 35.265625 L 22.117188 30 C 21.402344 28.761719 20.085938 28 18.65625 28 L 8.007812 28 C 5.796875 28 4.007812 29.789062 4.007812 32 L 4.007812 36 C 4.007812 38.210938 5.796875 40 8.007812 40 L 14.03125 40 L 24.429688 58 C 25.238281 59.402344 26.8125 60.175781 28.414062 59.96875 C 30.019531 59.757812 31.335938 58.601562 31.757812 57.039062 L 42.75 16 L 56.007812 16 C 58.21875 16 60.007812 14.210938 60.007812 12 L 60.007812 8 C 60.007812 5.789062 58.21875 4 56.007812 4 Z M 36.601562 4 "/>
</g>
</svg>
