<?xml version="1.0" encoding="UTF-8"?>
<svg xmlns="http://www.w3.org/2000/svg" xmlns:xlink="http://www.w3.org/1999/xlink" width="64px" height="64px" viewBox="0 0 64 64" version="1.1">
<defs>
<linearGradient id="linear0" gradientUnits="userSpaceOnUse" x1="0" y1="0" x2="0" y2="1" gradientTransform="matrix(48,0,0,8,8,52)">
<stop offset="0" style="stop-color:rgb(3.921569%,74.117649%,77.64706%);stop-opacity:1;"/>
<stop offset="1" style="stop-color:rgb(72.156864%,0%,100%);stop-opacity:1;"/>
</linearGradient>
<linearGradient id="linear1" gradientUnits="userSpaceOnUse" x1="0" y1="0" x2="0" y2="1" gradientTransform="matrix(40.289062,0,0,47.078125,11.855469,0.460938)">
<stop offset="0" style="stop-color:rgb(3.921569%,74.117649%,77.64706%);stop-opacity:1;"/>
<stop offset="1" style="stop-color:rgb(72.156864%,0%,100%);stop-opacity:1;"/>
</linearGradient>
</defs>
<g id="surface1">
<path style=" stroke:none;fill-rule:nonzero;fill:url(#linear0);" d="M 8 52 L 8 60 L 56 60 L 56 52 Z M 8 52 "/>
<path style=" stroke:none;fill-rule:evenodd;fill:url(#linear1);" d="M 52.144531 46.484375 L 41.585938 46.484375 L 41.585938 42.875 C 38.4375 45.984375 34.238281 47.539062 28.988281 47.539062 C 23.925781 47.539062 19.804688 46.234375 16.625 43.625 C 13.445312 41.011719 11.855469 37.332031 11.855469 32.578125 C 11.855469 27.710938 13.660156 24.015625 17.273438 21.492188 C 20.886719 18.96875 25.253906 17.707031 30.378906 17.707031 C 34.886719 17.707031 38.621094 18.5 41.585938 20.085938 L 41.585938 17.707031 C 41.585938 14.832031 40.828125 12.75 39.316406 11.460938 C 37.804688 10.167969 35.472656 9.523438 32.324219 9.523438 C 27.199219 9.523438 22.507812 10.933594 18.246094 13.746094 L 14.910156 5.386719 C 20.035156 2.101562 26.210938 0.460938 33.4375 0.460938 C 35.90625 0.460938 38.082031 0.652344 39.964844 1.03125 C 41.847656 1.414062 43.792969 2.160156 45.800781 3.277344 C 47.808594 4.390625 49.367188 6.152344 50.476562 8.554688 C 51.589844 10.960938 52.144531 13.953125 52.144531 17.53125 Z M 31.027344 38.476562 C 35.164062 38.476562 38.683594 37.039062 41.585938 34.164062 L 41.585938 28.355469 C 38.871094 27.125 35.71875 26.507812 32.140625 26.507812 C 29.238281 26.507812 26.890625 27.007812 25.101562 28.003906 C 23.308594 29 22.414062 30.527344 22.414062 32.578125 C 22.414062 34.398438 23.15625 35.835938 24.636719 36.890625 C 26.117188 37.949219 28.25 38.476562 31.027344 38.476562 Z M 31.027344 38.476562 "/>
</g>
</svg>
