<?xml version="1.0" encoding="UTF-8"?>
<svg xmlns="http://www.w3.org/2000/svg" xmlns:xlink="http://www.w3.org/1999/xlink" width="64px" height="64px" viewBox="0 0 64 64" version="1.1">
<defs>
<linearGradient id="linear0" gradientUnits="userSpaceOnUse" x1="0" y1="0" x2="0" y2="1" gradientTransform="matrix(56,0,0,48,4,8)">
<stop offset="0" style="stop-color:rgb(3.921569%,74.117649%,77.64706%);stop-opacity:1;"/>
<stop offset="1" style="stop-color:rgb(72.156864%,0%,100%);stop-opacity:1;"/>
</linearGradient>
</defs>
<g id="surface1">
<path style=" stroke:none;fill-rule:nonzero;fill:url(#linear0);" d="M 18 8 L 8 20 L 28 20 Z M 36 20 L 36 56 L 40 56 L 40 52.921875 C 42.195312 54.898438 45.046875 55.992188 48 56 C 54.628906 56 60 50.628906 60 44 C 60 37.371094 54.628906 32 48 32 C 45.046875 32.003906 42.199219 33.097656 40 35.070312 L 40 20 Z M 15.546875 24 L 4 56 L 8.664062 56 L 12.640625 46.859375 L 23.757812 46.859375 L 27.335938 56 L 32 56 L 21.421875 24 Z M 18.484375 28.960938 L 22.859375 42.289062 L 13.648438 42.289062 Z M 48 36 C 52.417969 36 56 39.582031 56 44 C 56 48.417969 52.417969 52 48 52 C 43.582031 52 40 48.417969 40 44 C 40 39.582031 43.582031 36 48 36 Z M 48 36 "/>
</g>
</svg>
