<?xml version="1.0" encoding="UTF-8"?>
<svg xmlns="http://www.w3.org/2000/svg" xmlns:xlink="http://www.w3.org/1999/xlink" width="64px" height="64px" viewBox="0 0 64 64" version="1.1">
<defs>
<linearGradient id="linear0" gradientUnits="userSpaceOnUse" x1="0" y1="0" x2="0" y2="1" gradientTransform="matrix(64,0,0,64,0,0)">
<stop offset="0" style="stop-color:rgb(3.921569%,74.117649%,77.64706%);stop-opacity:1;"/>
<stop offset="1" style="stop-color:rgb(72.156864%,0%,100%);stop-opacity:1;"/>
</linearGradient>
</defs>
<g id="surface1">
<path style=" stroke:none;fill-rule:nonzero;fill:url(#linear0);" d="M 18 0 C 10.269531 0 4 7.164062 4 16 L 4 28 C 4 36.835938 10.269531 44 18 44 C 25.730469 44 32 36.835938 32 28 L 32 16 C 32 7.164062 25.730469 0 18 0 Z M 50 0 C 42.269531 0 36 7.164062 36 16 L 36 28 C 36 36.835938 42.269531 44 50 44 C 57.730469 44 64 36.835938 64 28 L 64 16 C 64 7.164062 57.730469 0 50 0 Z M 18 8 C 21.3125 8 24 12.179688 24 17.335938 L 24 26.664062 C 24 31.820312 21.3125 36 18 36 C 14.6875 36 12 31.820312 12 26.664062 L 12 17.335938 C 12 12.179688 14.6875 8 18 8 Z M 50 8 C 53.3125 8 56 12.179688 56 17.335938 L 56 26.664062 C 56 31.820312 53.3125 36 50 36 C 46.6875 36 44 31.820312 44 26.664062 L 44 17.335938 C 44 12.179688 46.6875 8 50 8 Z M 0 40 L 0 44 L 4 44 L 4 40 Z M 46.828125 47.03125 L 44 49.859375 L 49.65625 55.515625 L 44 61.171875 L 46.828125 64 L 52.484375 58.34375 L 58.140625 64 L 60.96875 61.171875 L 55.3125 55.515625 L 60.96875 49.859375 L 58.140625 47.03125 L 52.484375 52.6875 Z M 46.828125 47.03125 "/>
</g>
</svg>
