<?xml version="1.0" encoding="UTF-8"?>
<svg xmlns="http://www.w3.org/2000/svg" xmlns:xlink="http://www.w3.org/1999/xlink" width="64px" height="64px" viewBox="0 0 64 64" version="1.1">
<defs>
<linearGradient id="linear0" gradientUnits="userSpaceOnUse" x1="0" y1="0" x2="0" y2="1" gradientTransform="matrix(56,0,0,52,4,8)">
<stop offset="0" style="stop-color:rgb(3.921569%,74.117649%,77.64706%);stop-opacity:1;"/>
<stop offset="1" style="stop-color:rgb(72.156864%,0%,100%);stop-opacity:1;"/>
</linearGradient>
<linearGradient id="linear1" gradientUnits="userSpaceOnUse" x1="0" y1="0" x2="0" y2="1" gradientTransform="matrix(20,0,0,20,44,44)">
<stop offset="0" style="stop-color:rgb(3.921569%,74.117649%,77.64706%);stop-opacity:1;"/>
<stop offset="1" style="stop-color:rgb(72.156864%,0%,100%);stop-opacity:1;"/>
</linearGradient>
</defs>
<g id="surface1">
<path style=" stroke:none;fill-rule:nonzero;fill:url(#linear0);" d="M 8 8 C 8 8 4 8 4 12 L 4 56 C 4 56 4 60 8 60 L 40 60 L 40 40 L 60 40 L 60 20 C 60 16 56 16 56 16 L 36 16 L 28 8 Z M 8 8 "/>
<path style=" stroke:none;fill-rule:nonzero;fill:url(#linear1);" d="M 44 44 L 44 48 C 44 49.121094 44.398438 50.160156 45.121094 50.878906 L 48.238281 54 L 45.121094 57.121094 C 44.398438 57.839844 44 58.878906 44 60 L 44 64 L 48 64 C 49.121094 64 50.160156 63.601562 50.878906 62.878906 L 54 59.761719 L 57.121094 62.878906 C 57.839844 63.601562 58.878906 64 60 64 L 64 64 L 64 60 C 64 58.878906 63.601562 57.839844 62.878906 57.121094 L 59.761719 54 L 62.878906 50.878906 C 63.601562 50.160156 64 49.121094 64 48 L 64 44 L 60 44 C 58.878906 44 57.839844 44.398438 57.121094 45.121094 L 54 48.238281 L 50.878906 45.121094 C 50.160156 44.398438 49.121094 44 48 44 Z M 44 44 "/>
</g>
</svg>
