<?xml version="1.0" encoding="UTF-8"?>
<svg xmlns="http://www.w3.org/2000/svg" xmlns:xlink="http://www.w3.org/1999/xlink" width="64px" height="64px" viewBox="0 0 64 64" version="1.1">
<defs>
<linearGradient id="linear0" gradientUnits="userSpaceOnUse" x1="0" y1="0" x2="0" y2="1" gradientTransform="matrix(56,0,0,52,4,8)">
<stop offset="0" style="stop-color:rgb(3.921569%,74.117649%,77.64706%);stop-opacity:1;"/>
<stop offset="1" style="stop-color:rgb(72.156864%,0%,100%);stop-opacity:1;"/>
</linearGradient>
<linearGradient id="linear1" gradientUnits="userSpaceOnUse" x1="0" y1="0" x2="0" y2="1" gradientTransform="matrix(24,0,0,24,40,40)">
<stop offset="0" style="stop-color:rgb(3.921569%,74.117649%,77.64706%);stop-opacity:1;"/>
<stop offset="1" style="stop-color:rgb(72.156864%,0%,100%);stop-opacity:1;"/>
</linearGradient>
</defs>
<g id="surface1">
<path style=" stroke:none;fill-rule:nonzero;fill:url(#linear0);" d="M 8 8 C 8 8 4 8 4 12 L 4 56 C 4 56 4 60 8 60 L 36 60 L 36 44 L 44 44 L 44 36 L 60 36 L 60 20 C 60 16 56 16 56 16 L 36 16 L 28 8 Z M 8 8 "/>
<path style=" stroke:none;fill-rule:nonzero;fill:url(#linear1);" d="M 48 40 L 48 48 L 40 48 L 40 56 L 48 56 L 48 64 L 56 64 L 56 56 L 64 56 L 64 48 L 56 48 L 56 40 Z M 48 40 "/>
</g>
</svg>
