<?xml version="1.0" encoding="UTF-8"?>
<svg xmlns="http://www.w3.org/2000/svg" xmlns:xlink="http://www.w3.org/1999/xlink" width="64px" height="64px" viewBox="0 0 64 64" version="1.1">
<defs>
<linearGradient id="linear0" gradientUnits="userSpaceOnUse" x1="0" y1="0" x2="0" y2="1" gradientTransform="matrix(56,0,0,56,4,4)">
<stop offset="0" style="stop-color:rgb(3.921569%,74.117649%,77.64706%);stop-opacity:1;"/>
<stop offset="1" style="stop-color:rgb(72.156864%,0%,100%);stop-opacity:1;"/>
</linearGradient>
</defs>
<g id="surface1">
<path style=" stroke:none;fill-rule:nonzero;fill:url(#linear0);" d="M 32 4 C 16.535156 4 4 13.402344 4 25 C 4 36.421875 16.863281 47.71875 32 48 L 32 60 C 60 44 60 32.929688 60 25 C 60 13.402344 47.464844 4 32 4 Z M 16 16 L 28 16 L 28 28 C 28 32 24 36 20 36 L 20 32 C 20 32 24 32 24 28 L 16 28 Z M 36 16 L 48 16 L 48 28 C 48 32 44 36 40 36 L 40 32 C 40 32 44 32 44 28 L 36 28 Z M 36 16 "/>
</g>
</svg>
