<?xml version="1.0" encoding="UTF-8"?>
<svg xmlns="http://www.w3.org/2000/svg" xmlns:xlink="http://www.w3.org/1999/xlink" width="64px" height="64px" viewBox="0 0 64 64" version="1.1">
<defs>
<linearGradient id="linear0" gradientUnits="userSpaceOnUse" x1="0" y1="0" x2="0" y2="1" gradientTransform="matrix(56,0,0,56,4,4)">
<stop offset="0" style="stop-color:rgb(3.921569%,74.117649%,77.64706%);stop-opacity:1;"/>
<stop offset="1" style="stop-color:rgb(72.156864%,0%,100%);stop-opacity:1;"/>
</linearGradient>
</defs>
<g id="surface1">
<path style=" stroke:none;fill-rule:nonzero;fill:url(#linear0);" d="M 18 4 C 10.269531 4 4 10.269531 4 18 C 4.003906 21.824219 5.574219 25.480469 8.34375 28.117188 C 8.125 29.398438 8.007812 30.699219 8 32 C 8 45.253906 18.746094 56 32 56 C 33.300781 55.996094 34.597656 55.886719 35.882812 55.671875 C 38.523438 58.433594 42.179688 60 46 60 C 53.730469 60 60 53.730469 60 46 C 59.996094 42.175781 58.425781 38.519531 55.65625 35.882812 C 55.875 34.601562 55.992188 33.300781 56 32 C 56 18.746094 45.253906 8 32 8 C 30.699219 8.003906 29.402344 8.113281 28.117188 8.328125 C 25.476562 5.566406 21.820312 4 18 4 Z M 32.507812 16 C 40.402344 16 44.476562 20.167969 44.476562 22.617188 C 44.476562 25.074219 43.296875 25.4375 41.359375 25.4375 C 37.59375 25.4375 39.136719 20.90625 32.085938 20.90625 C 29.75 20.90625 26.835938 21.96875 26.835938 24.695312 C 26.835938 26.886719 29.421875 27.695312 33.976562 28.820312 C 40.847656 30.660156 46 32.496094 46 38.804688 C 46 44.929688 41.011719 48 33.117188 48 C 25.226562 48 20.179688 43.277344 20.179688 40.828125 C 20.179688 38.378906 21.109375 37.765625 23.046875 37.765625 C 26.816406 37.765625 26.316406 42.921875 33.367188 42.921875 C 35.707031 42.921875 39.164062 41.851562 39.164062 39.117188 C 39.164062 36.933594 38.980469 36.175781 33.976562 34.828125 C 28.632812 34.105469 20 32.363281 20 25.695312 C 20 19.570312 24.621094 16.007812 32.515625 16.007812 Z M 32.507812 16 "/>
</g>
</svg>
