<?xml version="1.0" encoding="UTF-8"?>
<svg xmlns="http://www.w3.org/2000/svg" xmlns:xlink="http://www.w3.org/1999/xlink" width="64px" height="64px" viewBox="0 0 64 64" version="1.1">
<defs>
<linearGradient id="linear0" gradientUnits="userSpaceOnUse" x1="0" y1="0" x2="0" y2="1" gradientTransform="matrix(64,0,0,56,0,4)">
<stop offset="0" style="stop-color:rgb(3.921569%,74.117649%,77.64706%);stop-opacity:1;"/>
<stop offset="1" style="stop-color:rgb(72.156864%,0%,100%);stop-opacity:1;"/>
</linearGradient>
</defs>
<g id="surface1">
<path style=" stroke:none;fill-rule:nonzero;fill:url(#linear0);" d="M 44.3125 4 C 37.0625 4 31.179688 10.324219 31.179688 18.132812 C 31.179688 19.242188 31.300781 20.324219 31.523438 21.359375 C 20.609375 20.769531 10.929688 15.136719 4.453125 6.585938 C 3.324219 8.671875 2.679688 11.105469 2.679688 13.695312 C 2.679688 18.601562 4.992188 22.925781 8.515625 25.460938 C 6.363281 25.386719 4.339844 24.753906 2.570312 23.695312 C 2.570312 23.753906 2.570312 23.808594 2.570312 23.867188 C 2.570312 30.714844 7.09375 36.433594 13.101562 37.734375 C 12 38.058594 10.839844 38.226562 9.640625 38.226562 C 8.792969 38.226562 7.972656 38.140625 7.171875 37.976562 C 8.84375 43.59375 13.691406 47.675781 19.4375 47.789062 C 14.945312 51.582031 9.285156 53.84375 3.132812 53.84375 C 2.074219 53.84375 1.027344 53.777344 0 53.648438 C 5.8125 57.660156 12.710938 60 20.125 60 C 44.277344 60 57.484375 38.457031 57.484375 19.773438 C 57.484375 19.160156 57.476562 18.550781 57.453125 17.945312 C 60.019531 15.953125 62.238281 13.460938 64 10.625 C 61.644531 11.75 59.117188 12.511719 56.460938 12.851562 C 59.171875 11.101562 61.253906 8.332031 62.234375 5.03125 C 59.695312 6.652344 56.890625 7.828125 53.898438 8.460938 C 51.503906 5.714844 48.089844 4 44.3125 4 Z M 44.3125 4 "/>
</g>
</svg>
