<?xml version="1.0" encoding="UTF-8"?>
<svg xmlns="http://www.w3.org/2000/svg" xmlns:xlink="http://www.w3.org/1999/xlink" width="64px" height="64px" viewBox="0 0 64 64" version="1.1">
<defs>
<linearGradient id="linear0" gradientUnits="userSpaceOnUse" x1="0" y1="0" x2="0" y2="1" gradientTransform="matrix(64,0,0,64,0,0)">
<stop offset="0" style="stop-color:rgb(3.921569%,74.117649%,77.64706%);stop-opacity:1;"/>
<stop offset="1" style="stop-color:rgb(72.156864%,0%,100%);stop-opacity:1;"/>
</linearGradient>
</defs>
<g id="surface1">
<path style=" stroke:none;fill-rule:nonzero;fill:url(#linear0);" d="M 32 0 C 23.164062 0 16 7.164062 16 16 C 16 24.835938 23.164062 32 32 32 C 40.835938 32 48 24.835938 48 16 C 48 7.164062 40.835938 0 32 0 Z M 32 35.953125 C 15.886719 35.972656 2.015625 48.015625 0 64 L 38.851562 64 C 34.714844 60.691406 32 55.671875 32 50 C 32 44.386719 34.660156 39.363281 38.726562 36.054688 C 35.773438 35.996094 32.75 35.957031 32 35.953125 Z M 50 36 C 42.269531 36 36 42.269531 36 50 C 36 57.730469 42.269531 64 50 64 C 57.730469 64 64 57.730469 64 50 C 64 42.269531 57.730469 36 50 36 Z M 48 40 L 52 40 L 52 48 L 60 48 L 60 52 L 48 52 Z M 48 40 "/>
</g>
</svg>
