<?xml version="1.0" encoding="UTF-8"?>
<svg xmlns="http://www.w3.org/2000/svg" xmlns:xlink="http://www.w3.org/1999/xlink" width="64px" height="64px" viewBox="0 0 64 64" version="1.1">
<defs>
<linearGradient id="linear0" gradientUnits="userSpaceOnUse" x1="0" y1="0" x2="0" y2="1" gradientTransform="matrix(56,0,0,56,4,4.015625)">
<stop offset="0" style="stop-color:rgb(3.921569%,74.117649%,77.64706%);stop-opacity:1;"/>
<stop offset="1" style="stop-color:rgb(72.156864%,0%,100%);stop-opacity:1;"/>
</linearGradient>
</defs>
<g id="surface1">
<path style=" stroke:none;fill-rule:nonzero;fill:url(#linear0);" d="M 32 4.015625 C 16.535156 4.015625 4 16.550781 4 32.015625 C 4 47.480469 16.535156 60.015625 32 60.015625 C 47.464844 60.015625 60 47.480469 60 32.015625 C 60 16.550781 47.464844 4.015625 32 4.015625 Z M 26.789062 16.023438 C 28.820312 16.054688 30.601562 16.113281 30.992188 16.171875 L 30.789062 17.953125 C 29.953125 18.21875 25.941406 18.3125 24.898438 18.664062 C 27.609375 23.746094 31.898438 30.292969 33.289062 32.835938 C 34.054688 31.433594 40.777344 25.601562 40.984375 23.585938 C 39.941406 23.320312 36.488281 22.695312 35.929688 22.695312 L 35.601562 20.398438 C 36.546875 20.210938 41.523438 20.398438 44 20.398438 C 46.136719 20.398438 50.703125 20.398438 52 20.53125 L 50.8125 22.695312 C 50.117188 22.78125 47.222656 23.597656 46.246094 23.859375 C 45.207031 24.210938 35.671875 33.488281 35.046875 35.765625 C 34.90625 36.554688 34.84375 37.773438 34.84375 38.914062 L 34.773438 40.753906 C 34.773438 42.0625 35.0625 44.179688 35.203125 45.320312 C 35.828125 45.496094 40.359375 45.347656 41.195312 45.523438 L 41.09375 47.875 C 40.28125 47.800781 34.515625 47.820312 31.226562 47.820312 C 29.558594 47.820312 24.195312 48.054688 22.546875 47.992188 L 22.859375 45.753906 C 23.761719 45.660156 27.503906 45.957031 28.328125 44.859375 C 28.738281 44.316406 28.609375 43.730469 28.609375 40.578125 L 28.609375 39.085938 C 28.609375 38.382812 28.609375 37.070312 28.46875 35.84375 C 28.121094 34.527344 19.726562 21.320312 17.570312 19.21875 C 16.945312 18.957031 13.019531 18.457031 12.046875 18.195312 L 12 16.179688 C 12.484375 15.871094 16.84375 16.253906 21.078125 16.054688 C 22.46875 15.988281 24.757812 15.992188 26.789062 16.023438 Z M 26.789062 16.023438 "/>
</g>
</svg>
