<?xml version="1.0" encoding="UTF-8"?>
<svg xmlns="http://www.w3.org/2000/svg" xmlns:xlink="http://www.w3.org/1999/xlink" width="64px" height="64px" viewBox="0 0 64 64" version="1.1">
<defs>
<linearGradient id="linear0" gradientUnits="userSpaceOnUse" x1="0" y1="0" x2="0" y2="1" gradientTransform="matrix(56,0,0,56,4,4)">
<stop offset="0" style="stop-color:rgb(3.921569%,74.117649%,77.64706%);stop-opacity:1;"/>
<stop offset="1" style="stop-color:rgb(72.156864%,0%,100%);stop-opacity:1;"/>
</linearGradient>
</defs>
<g id="surface1">
<path style=" stroke:none;fill-rule:nonzero;fill:url(#linear0);" d="M 8 4 L 8 8 L 4 8 L 4 12 L 8 12 L 8 52 L 4 52 L 4 56 L 8 56 L 8 60 L 12 60 L 12 56 L 52 56 L 52 60 L 56 60 L 56 56 L 60 56 L 60 52 L 56 52 L 56 12 L 60 12 L 60 8 L 56 8 L 56 4 L 52 4 L 52 8 L 12 8 L 12 4 Z M 12 12 L 52 12 L 52 52 L 12 52 Z M 16 16 L 16 24 L 28 24 L 28 48 L 36 48 L 36 24 L 48 24 L 48 16 Z M 16 16 "/>
</g>
</svg>
