<?xml version="1.0" encoding="UTF-8"?>
<svg xmlns="http://www.w3.org/2000/svg" xmlns:xlink="http://www.w3.org/1999/xlink" width="64px" height="64px" viewBox="0 0 64 64" version="1.1">
<defs>
<linearGradient id="linear0" gradientUnits="userSpaceOnUse" x1="0" y1="0" x2="0" y2="1" gradientTransform="matrix(56,0,0,56,4,3.992188)">
<stop offset="0" style="stop-color:rgb(3.921569%,74.117649%,77.64706%);stop-opacity:1;"/>
<stop offset="1" style="stop-color:rgb(72.156864%,0%,100%);stop-opacity:1;"/>
</linearGradient>
</defs>
<g id="surface1">
<path style=" stroke:none;fill-rule:nonzero;fill:url(#linear0);" d="M 32 3.992188 C 16.535156 3.992188 4 16.527344 4 31.992188 C 4 47.457031 16.535156 59.992188 32 59.992188 C 47.464844 59.992188 60 47.457031 60 31.992188 C 60 16.527344 47.464844 3.992188 32 3.992188 Z M 20 20.007812 C 22.214844 20.007812 24 21.804688 24 24.007812 C 24 26.210938 22.214844 28.007812 20 28.007812 C 17.78125 28.007812 16 26.210938 16 24.007812 C 16 21.804688 17.78125 20.007812 20 20.007812 Z M 44 20.007812 C 46.214844 20.007812 48 21.804688 48 24.007812 C 48 26.210938 46.214844 28.007812 44 28.007812 C 41.785156 28.007812 40 26.210938 40 24.007812 C 40 21.804688 41.785156 20.007812 44 20.007812 Z M 16.03125 40.007812 L 47.96875 40.007812 C 44.199219 45.035156 38.285156 47.996094 32 48.007812 C 25.714844 48 19.800781 45.035156 16.03125 40.007812 Z M 16.03125 40.007812 "/>
</g>
</svg>
