<?xml version="1.0" encoding="UTF-8"?>
<svg xmlns="http://www.w3.org/2000/svg" xmlns:xlink="http://www.w3.org/1999/xlink" width="64px" height="64px" viewBox="0 0 64 64" version="1.1">
<defs>
<linearGradient id="linear0" gradientUnits="userSpaceOnUse" x1="0" y1="0" x2="0" y2="1" gradientTransform="matrix(64,0,0,64,0,0)">
<stop offset="0" style="stop-color:rgb(3.921569%,74.117649%,77.64706%);stop-opacity:1;"/>
<stop offset="1" style="stop-color:rgb(72.156864%,0%,100%);stop-opacity:1;"/>
</linearGradient>
</defs>
<g id="surface1">
<path style=" stroke:none;fill-rule:nonzero;fill:url(#linear0);" d="M 8 0 C 3.566406 0 0 3.566406 0 8 L 0 56 C 0 60.433594 3.566406 64 8 64 L 56 64 C 60.433594 64 64 60.433594 64 56 L 64 8 C 64 3.566406 60.433594 0 56 0 Z M 14.859375 8 L 49.140625 8 C 52.941406 8 56 11.0625 56 14.859375 L 56 49.140625 C 56 52.941406 52.941406 56 49.140625 56 L 14.859375 56 C 11.0625 56 8 52.941406 8 49.140625 L 8 14.859375 C 8 11.0625 11.0625 8 14.859375 8 Z M 26.960938 12 L 26.515625 17.265625 C 24.832031 17.882812 23.265625 18.78125 21.882812 19.921875 L 17.046875 17.671875 L 12.007812 26.328125 L 16.390625 29.351562 C 16.234375 30.226562 16.152344 31.113281 16.148438 32 C 16.148438 32.894531 16.226562 33.785156 16.382812 34.664062 L 12.007812 37.671875 L 17.046875 46.328125 L 21.867188 44.078125 C 23.253906 45.214844 24.828125 46.105469 26.515625 46.71875 L 26.960938 52 L 37.046875 52 L 37.492188 46.734375 C 39.175781 46.117188 40.742188 45.21875 42.125 44.078125 L 46.960938 46.328125 L 52.007812 37.671875 L 47.617188 34.648438 C 47.773438 33.773438 47.855469 32.886719 47.859375 32 C 47.859375 31.105469 47.785156 30.214844 47.632812 29.335938 L 52.007812 26.328125 L 46.960938 17.671875 L 42.140625 19.921875 C 40.753906 18.785156 39.179688 17.894531 37.492188 17.28125 L 37.046875 12 Z M 32.007812 26.289062 C 35.191406 26.289062 37.773438 28.84375 37.773438 32 C 37.773438 35.15625 35.191406 37.710938 32.007812 37.710938 C 28.824219 37.710938 26.242188 35.15625 26.242188 32 C 26.242188 28.84375 28.824219 26.289062 32.007812 26.289062 Z M 32.007812 26.289062 "/>
</g>
</svg>
