<?xml version="1.0" encoding="UTF-8"?>
<svg xmlns="http://www.w3.org/2000/svg" xmlns:xlink="http://www.w3.org/1999/xlink" width="64px" height="64px" viewBox="0 0 64 64" version="1.1">
<defs>
<linearGradient id="linear0" gradientUnits="userSpaceOnUse" x1="0" y1="0" x2="0" y2="1" gradientTransform="matrix(64,0,0,48.007812,0,8)">
<stop offset="0" style="stop-color:rgb(3.921569%,74.117649%,77.64706%);stop-opacity:1;"/>
<stop offset="1" style="stop-color:rgb(72.156864%,0%,100%);stop-opacity:1;"/>
</linearGradient>
</defs>
<g id="surface1">
<path style=" stroke:none;fill-rule:nonzero;fill:url(#linear0);" d="M 24 8 C 8.535156 8 0 18.71875 0 31.9375 C 0 45.15625 8.535156 55 24 55 C 11.113281 55 4.664062 42.953125 4.664062 31.9375 C 4.664062 20.921875 11.113281 11.984375 24 11.984375 C 29.824219 11.984375 35.082031 13.882812 39.171875 16.898438 C 36.882812 16.203125 34.453125 15.84375 32 15.835938 C 20.953125 15.835938 12 22.847656 12 31.5 L 12 31.539062 C 12.003906 31.964844 12.03125 32.390625 12.078125 32.8125 C 12.851562 45.734375 25.035156 56.007812 40 56.007812 C 55.464844 56.007812 64 45.039062 64 31.515625 C 64 17.992188 55.464844 8.007812 40 8.007812 C 52.886719 8.007812 59.335938 20.238281 59.335938 31.507812 C 59.335938 42.777344 52.886719 51.914062 40 51.914062 C 33.308594 51.914062 27.292969 49.4375 23.039062 45.492188 C 25.820312 46.589844 28.886719 47.160156 32 47.164062 C 42.820312 47.164062 51.667969 40.410156 51.96875 31.9375 L 52 31.9375 C 52 31.863281 51.984375 31.777344 51.984375 31.703125 C 51.988281 31.636719 51.996094 31.566406 52 31.5 C 51.992188 30.964844 51.953125 30.429688 51.875 29.898438 C 50.664062 17.632812 38.660156 8 24 8 Z M 24 8 "/>
</g>
</svg>
