<?xml version="1.0" encoding="UTF-8"?>
<svg xmlns="http://www.w3.org/2000/svg" xmlns:xlink="http://www.w3.org/1999/xlink" width="64px" height="64px" viewBox="0 0 64 64" version="1.1">
<defs>
<linearGradient id="linear0" gradientUnits="userSpaceOnUse" x1="0" y1="0" x2="0" y2="1" gradientTransform="matrix(64,0,0,44.125,-0.0078125,11.898438)">
<stop offset="0" style="stop-color:rgb(3.921569%,74.117649%,77.64706%);stop-opacity:1;"/>
<stop offset="1" style="stop-color:rgb(72.156864%,0%,100%);stop-opacity:1;"/>
</linearGradient>
</defs>
<g id="surface1">
<path style=" stroke:none;fill-rule:nonzero;fill:url(#linear0);" d="M 55.117188 11.898438 L 54.992188 12.125 C 54.695312 12.074219 54.394531 12.023438 54.085938 12.023438 C 50.816406 12.023438 47.984375 14.917969 47.992188 18.117188 C 47.988281 19.550781 48.578125 20.871094 49.5 21.90625 L 37.015625 44.125 C 36.710938 44.074219 36.402344 44.023438 36.085938 44.023438 C 36.03125 44.023438 35.984375 44.039062 35.929688 44.039062 L 29.757812 26.703125 C 31.113281 25.609375 31.996094 23.953125 31.992188 22.117188 C 32 18.917969 29.355469 16.023438 26.085938 16.023438 C 22.816406 16.023438 19.984375 18.917969 19.992188 22.117188 C 19.992188 22.347656 20.035156 22.570312 20.0625 22.796875 L 10.140625 27.757812 C 9.082031 26.703125 7.664062 26.023438 6.085938 26.023438 C 2.816406 26.023438 -0.015625 28.917969 -0.0078125 32.117188 C -0.015625 35.316406 2.816406 38.023438 6.085938 38.023438 C 9.355469 38.023438 12 35.316406 11.992188 32.117188 C 11.992188 31.824219 11.949219 31.535156 11.90625 31.25 L 21.835938 26.289062 C 22.933594 27.339844 24.421875 28 26.023438 28.015625 L 32.273438 45.484375 C 30.90625 46.628906 29.988281 48.3125 29.992188 50.117188 C 29.984375 53.316406 32.816406 56.023438 36.085938 56.023438 C 39.355469 56.023438 42 53.316406 41.992188 50.117188 C 41.996094 48.640625 41.410156 47.242188 40.484375 46.148438 L 52.867188 24.148438 L 55.226562 40.828125 C 53.335938 41.898438 51.988281 43.921875 51.992188 46.117188 C 51.984375 49.316406 54.816406 52.023438 58.085938 52.023438 C 61.355469 52.023438 64 49.316406 63.992188 46.117188 C 64 43.285156 61.929688 40.707031 59.1875 40.148438 L 56.789062 23.335938 C 58.691406 22.339844 59.996094 20.359375 59.992188 18.117188 C 60 15.273438 57.914062 12.6875 55.15625 12.140625 Z M 55.117188 11.898438 "/>
</g>
</svg>
