<?xml version="1.0" encoding="UTF-8"?>
<svg xmlns="http://www.w3.org/2000/svg" xmlns:xlink="http://www.w3.org/1999/xlink" width="64px" height="64px" viewBox="0 0 64 64" version="1.1">
<defs>
<linearGradient id="linear0" gradientUnits="userSpaceOnUse" x1="0" y1="0" x2="0" y2="1" gradientTransform="matrix(56,0,0,56,4,4.015625)">
<stop offset="0" style="stop-color:rgb(3.921569%,74.117649%,77.64706%);stop-opacity:1;"/>
<stop offset="1" style="stop-color:rgb(72.156864%,0%,100%);stop-opacity:1;"/>
</linearGradient>
</defs>
<g id="surface1">
<path style=" stroke:none;fill-rule:nonzero;fill:url(#linear0);" d="M 32 4.015625 C 16.535156 4.015625 4 16.550781 4 32.015625 C 4 47.480469 16.535156 60.015625 32 60.015625 C 47.464844 60.015625 60 47.480469 60 32.015625 C 60 16.550781 47.464844 4.015625 32 4.015625 Z M 32 12.015625 C 43.042969 12.015625 52 20.96875 52 32.015625 C 52 43.058594 43.042969 52.015625 32 52.015625 C 20.953125 52.015625 12 43.058594 12 32.015625 C 12 20.96875 20.953125 12.015625 32 12.015625 Z M 32 20.015625 C 25.371094 20.015625 20 25.386719 20 32.015625 C 20 38.644531 25.371094 44.015625 32 44.015625 C 35.773438 44.011719 39.324219 42.230469 41.585938 39.210938 L 38.390625 36.8125 C 36.882812 38.824219 34.515625 40.011719 32 40.015625 C 27.582031 40.015625 24 36.433594 24 32.015625 C 24 27.597656 27.582031 24.015625 32 24.015625 C 34.519531 24.015625 36.886719 25.203125 38.398438 27.21875 L 41.585938 24.820312 C 39.324219 21.800781 35.773438 20.019531 32 20.015625 Z M 32 20.015625 "/>
</g>
</svg>
