<?xml version="1.0" encoding="UTF-8"?>
<svg xmlns="http://www.w3.org/2000/svg" xmlns:xlink="http://www.w3.org/1999/xlink" width="64px" height="64px" viewBox="0 0 64 64" version="1.1">
<defs>
<linearGradient id="linear0" gradientUnits="userSpaceOnUse" x1="0" y1="0" x2="0" y2="1" gradientTransform="matrix(63.882812,0,0,50,0.117187,6)">
<stop offset="0" style="stop-color:rgb(3.921569%,74.117649%,77.64706%);stop-opacity:1;"/>
<stop offset="1" style="stop-color:rgb(72.156864%,0%,100%);stop-opacity:1;"/>
</linearGradient>
</defs>
<g id="surface1">
<path style=" stroke:none;fill-rule:nonzero;fill:url(#linear0);" d="M 26 6 L 0.117188 24 L 26 42 L 26 37.828125 L 6.117188 24 L 26 10.171875 Z M 40 6 L 14.125 24 L 40 42 L 40 32 L 42 32 C 47.460938 32 52.285156 35.492188 53.75 40 C 55.5 45.390625 48 56 48 56 C 48 56 64 50 64 37 C 64 24.507812 56 16 44 16 L 40 16 Z M 40 6 "/>
</g>
</svg>
