<?xml version="1.0" encoding="UTF-8"?>
<svg xmlns="http://www.w3.org/2000/svg" xmlns:xlink="http://www.w3.org/1999/xlink" width="64px" height="64px" viewBox="0 0 64 64" version="1.1">
<defs>
<linearGradient id="linear0" gradientUnits="userSpaceOnUse" x1="0" y1="0" x2="0" y2="1" gradientTransform="matrix(55.875,0,0,50,2.125,6)">
<stop offset="0" style="stop-color:rgb(3.921569%,74.117649%,77.64706%);stop-opacity:1;"/>
<stop offset="1" style="stop-color:rgb(72.156864%,0%,100%);stop-opacity:1;"/>
</linearGradient>
</defs>
<g id="surface1">
<path style=" stroke:none;fill-rule:nonzero;fill:url(#linear0);" d="M 28 6 L 2.125 24 L 28 42 L 28 32 L 36 32 C 41.460938 32 46.285156 35.492188 47.75 40 C 49.5 45.390625 42 56 42 56 C 42 56 58 50 58 37 C 58 24.507812 50 16 38 16 L 28 16 Z M 28 6 "/>
</g>
</svg>
