<?xml version="1.0" encoding="UTF-8"?>
<svg xmlns="http://www.w3.org/2000/svg" xmlns:xlink="http://www.w3.org/1999/xlink" width="64px" height="64px" viewBox="0 0 64 64" version="1.1">
<defs>
<linearGradient id="linear0" gradientUnits="userSpaceOnUse" x1="0" y1="0" x2="0" y2="1" gradientTransform="matrix(55.875,0,0,50,6,6)">
<stop offset="0" style="stop-color:rgb(3.921569%,74.117649%,77.64706%);stop-opacity:1;"/>
<stop offset="1" style="stop-color:rgb(72.156864%,0%,100%);stop-opacity:1;"/>
</linearGradient>
</defs>
<g id="surface1">
<path style=" stroke:none;fill-rule:nonzero;fill:url(#linear0);" d="M 36 6 L 36 16 L 26 16 C 14 16 6 24.507812 6 37 C 6 50 22 56 22 56 C 22 56 14.5 45.390625 16.25 40 C 17.714844 35.492188 22.539062 32 28 32 L 36 32 L 36 42 L 61.875 24 Z M 36 6 "/>
</g>
</svg>
