<?xml version="1.0" encoding="UTF-8"?>
<svg xmlns="http://www.w3.org/2000/svg" xmlns:xlink="http://www.w3.org/1999/xlink" width="64px" height="64px" viewBox="0 0 64 64" version="1.1">
<defs>
<linearGradient id="linear0" gradientUnits="userSpaceOnUse" x1="0" y1="0" x2="0" y2="1" gradientTransform="matrix(64,0,0,64,0,0)">
<stop offset="0" style="stop-color:rgb(3.921569%,74.117649%,77.64706%);stop-opacity:1;"/>
<stop offset="1" style="stop-color:rgb(72.156864%,0%,100%);stop-opacity:1;"/>
</linearGradient>
</defs>
<g id="surface1">
<path style=" stroke:none;fill-rule:nonzero;fill:url(#linear0);" d="M 0 0 L 0 64 L 64 64 L 64 0 Z M 4 4 L 20 4 L 20 20 L 4 20 Z M 24 4 L 40 4 L 40 20 L 24 20 Z M 44 4 L 60 4 L 60 20 L 44 20 Z M 4 24 L 20 24 L 20 40 L 4 40 Z M 24 24 L 40 24 L 40 40 L 24 40 Z M 44 24 L 60 24 L 60 40 L 44 40 Z M 4 44 L 20 44 L 20 60 L 4 60 Z M 24 44 L 40 44 L 40 60 L 24 60 Z M 44 44 L 60 44 L 60 60 L 44 60 Z M 44 44 "/>
</g>
</svg>
