<?xml version="1.0" encoding="UTF-8"?>
<svg xmlns="http://www.w3.org/2000/svg" xmlns:xlink="http://www.w3.org/1999/xlink" width="64px" height="64px" viewBox="0 0 64 64" version="1.1">
<defs>
<linearGradient id="linear0" gradientUnits="userSpaceOnUse" x1="0" y1="0" x2="0" y2="1" gradientTransform="matrix(60.042969,0,0,64,0.0195312,0)">
<stop offset="0" style="stop-color:rgb(3.921569%,74.117649%,77.64706%);stop-opacity:1;"/>
<stop offset="1" style="stop-color:rgb(72.156864%,0%,100%);stop-opacity:1;"/>
</linearGradient>
</defs>
<g id="surface1">
<path style=" stroke:none;fill-rule:nonzero;fill:url(#linear0);" d="M 4 0 L 4 8.007812 L 2.015625 8.007812 C 0.914062 8.007812 0.0195312 8.902344 0.0195312 10.003906 C 0.0195312 11.105469 0.914062 12 2.015625 12 L 4 12 L 4 20 L 20 20 L 20 0 Z M 40 0 L 40 20 L 56 20 L 56 12 L 58.03125 12 C 58.753906 12.011719 59.421875 11.632812 59.785156 11.007812 C 60.152344 10.386719 60.152344 9.613281 59.785156 8.992188 C 59.421875 8.367188 58.753906 7.988281 58.03125 8 L 56 8 L 56 0 Z M 28 20.109375 L 28 28.109375 L 20 28.109375 L 30 40.109375 L 40 28.109375 L 32 28.109375 L 32 20.109375 Z M 20 44 L 20 52.109375 L 2.085938 52.109375 C 1.363281 52.097656 0.695312 52.476562 0.332031 53.101562 C -0.0351562 53.722656 -0.0351562 54.496094 0.332031 55.117188 C 0.695312 55.742188 1.363281 56.121094 2.085938 56.109375 L 20 56.109375 L 20 64 L 40 64 L 40 56.109375 L 57.992188 56.109375 C 58.714844 56.121094 59.382812 55.742188 59.746094 55.117188 C 60.113281 54.496094 60.113281 53.722656 59.746094 53.101562 C 59.382812 52.476562 58.714844 52.097656 57.992188 52.109375 L 40 52.109375 L 40 44 Z M 20 44 "/>
</g>
</svg>
