<?xml version="1.0" encoding="UTF-8"?>
<svg xmlns="http://www.w3.org/2000/svg" xmlns:xlink="http://www.w3.org/1999/xlink" width="64px" height="64px" viewBox="0 0 64 64" version="1.1">
<defs>
<linearGradient id="linear0" gradientUnits="userSpaceOnUse" x1="0" y1="0" x2="0" y2="1" gradientTransform="matrix(60.039062,0,0,64,0.0195312,0)">
<stop offset="0" style="stop-color:rgb(3.921569%,74.117649%,77.64706%);stop-opacity:1;"/>
<stop offset="1" style="stop-color:rgb(72.156864%,0%,100%);stop-opacity:1;"/>
</linearGradient>
</defs>
<g id="surface1">
<path style=" stroke:none;fill-rule:nonzero;fill:url(#linear0);" d="M 4 0 L 4 8.007812 L 2.015625 8.007812 C -0.644531 8.007812 -0.644531 12 2.015625 12 L 4 12 L 4 20 L 20 20 L 20 0 Z M 40 0 L 40 20 L 56 20 L 56 12 L 58.03125 12 C 60.734375 12.039062 60.734375 7.960938 58.03125 8 L 56 8 L 56 0 Z M 28 20.109375 L 28 28.109375 L 20 28.109375 L 30 40.109375 L 40 28.109375 L 32 28.109375 L 32 20.109375 Z M 4 44 L 4 52.007812 L 2.015625 52.007812 C -0.644531 52.007812 -0.644531 56 2.015625 56 L 4 56 L 4 64 L 20 64 L 20 56 L 40 56 L 40 64 L 56 64 L 56 56 L 58.03125 56 C 60.734375 56.039062 60.734375 51.960938 58.03125 52 L 56 52 L 56 44 L 40 44 L 40 52 L 20 52 L 20 44 Z M 4 44 "/>
</g>
</svg>
