<?xml version="1.0" encoding="UTF-8"?>
<svg xmlns="http://www.w3.org/2000/svg" xmlns:xlink="http://www.w3.org/1999/xlink" width="64px" height="64px" viewBox="0 0 64 64" version="1.1">
<defs>
<linearGradient id="linear0" gradientUnits="userSpaceOnUse" x1="0" y1="0" x2="0" y2="1" gradientTransform="matrix(64,0,0,52,0.00390625,8)">
<stop offset="0" style="stop-color:rgb(3.921569%,74.117649%,77.64706%);stop-opacity:1;"/>
<stop offset="1" style="stop-color:rgb(72.156864%,0%,100%);stop-opacity:1;"/>
</linearGradient>
</defs>
<g id="surface1">
<path style=" stroke:none;fill-rule:nonzero;fill:url(#linear0);" d="M 61.679688 8 C 61.097656 8.011719 60.550781 8.277344 60.183594 8.730469 C 59.8125 9.183594 59.65625 9.773438 59.757812 10.351562 C 60.628906 16.753906 59.183594 25.828125 54.734375 33.054688 C 52.441406 36.773438 49.398438 40.011719 45.460938 42.296875 C 43.820312 36.164062 38.300781 31.898438 31.992188 31.898438 C 25.621094 31.90625 20.0625 36.265625 18.492188 42.484375 C 14.421875 40.195312 11.3125 36.902344 9.007812 33.078125 C 4.65625 25.859375 3.335938 16.785156 4.304688 10.382812 C 4.40625 9.777344 4.226562 9.160156 3.820312 8.703125 C 3.410156 8.25 2.820312 8.007812 2.210938 8.046875 C 1.265625 8.109375 0.492188 8.835938 0.367188 9.78125 C -0.761719 17.238281 0.675781 27 5.59375 35.15625 C 8.457031 39.90625 12.632812 44.03125 18.070312 46.6875 C 18.457031 54.144531 24.574219 59.996094 31.992188 60 C 39.484375 59.996094 45.632812 54.03125 45.921875 46.492188 C 51.191406 43.832031 55.273438 39.796875 58.125 35.171875 C 63.144531 27.023438 64.726562 17.269531 63.710938 9.8125 C 63.609375 8.765625 62.722656 7.976562 61.679688 8 Z M 61.679688 8 "/>
</g>
</svg>
