<?xml version="1.0" encoding="UTF-8"?>
<svg xmlns="http://www.w3.org/2000/svg" xmlns:xlink="http://www.w3.org/1999/xlink" width="64px" height="64px" viewBox="0 0 64 64" version="1.1">
<defs>
<linearGradient id="linear0" gradientUnits="userSpaceOnUse" x1="0" y1="0" x2="0" y2="1" gradientTransform="matrix(60,0,0,54.34375,4,4.828125)">
<stop offset="0" style="stop-color:rgb(3.921569%,74.117649%,77.64706%);stop-opacity:1;"/>
<stop offset="1" style="stop-color:rgb(72.156864%,0%,100%);stop-opacity:1;"/>
</linearGradient>
</defs>
<g id="surface1">
<path style=" stroke:none;fill-rule:nonzero;fill:url(#linear0);" d="M 48.148438 4.828125 C 47.769531 4.832031 47.523438 4.875 47.523438 4.875 L 8.148438 11.875 C 4.210938 12.570312 4.898438 16.5 4.898438 16.5 L 6.898438 28 L 55.648438 28 L 52.148438 8.125 C 51.628906 5.171875 49.285156 4.820312 48.148438 4.828125 Z M 4 32 L 4 36 L 8 36 L 8 32 Z M 12 32 L 12 36 L 16 36 L 16 32 Z M 20 32 L 20 36 L 24 36 L 24 32 Z M 28 32 L 28 36 L 32 36 L 32 32 Z M 36 32 L 36 36 L 40 36 L 40 32 Z M 44 32 L 44 36 L 48 36 L 48 32 Z M 52 32 L 52 36 L 56 36 L 56 32 Z M 60 32 L 60 36 L 64 36 L 64 32 Z M 9 40 L 11.875 55.875 C 12.570312 59.8125 16.5 59.125 16.5 59.125 L 55.875 52.125 C 55.875 52.125 59.820312 51.4375 59.125 47.5 L 57.765625 40 Z M 9 40 "/>
</g>
</svg>
