<?xml version="1.0" encoding="UTF-8"?>
<svg xmlns="http://www.w3.org/2000/svg" xmlns:xlink="http://www.w3.org/1999/xlink" width="64px" height="64px" viewBox="0 0 64 64" version="1.1">
<defs>
<linearGradient id="linear0" gradientUnits="userSpaceOnUse" x1="0" y1="0" x2="0" y2="1" gradientTransform="matrix(52,0,0,48,4,8)">
<stop offset="0" style="stop-color:rgb(3.921569%,74.117649%,77.64706%);stop-opacity:1;"/>
<stop offset="1" style="stop-color:rgb(72.156864%,0%,100%);stop-opacity:1;"/>
</linearGradient>
<filter id="alpha" filterUnits="objectBoundingBox" x="0%" y="0%" width="100%" height="100%">
  <feColorMatrix type="matrix" in="SourceGraphic" values="0 0 0 0 1 0 0 0 0 1 0 0 0 0 1 0 0 0 1 0"/>
</filter>
<mask id="mask0">
  <g filter="url(#alpha)">
<rect x="0" y="0" width="64" height="64" style="fill:rgb(0%,0%,0%);fill-opacity:0.5;stroke:none;"/>
  </g>
</mask>
<linearGradient id="linear1" gradientUnits="userSpaceOnUse" x1="0" y1="0" x2="0" y2="1" gradientTransform="matrix(44,0,0,44,12.035156,7.996094)">
<stop offset="0" style="stop-color:rgb(3.921569%,74.117649%,77.64706%);stop-opacity:1;"/>
<stop offset="1" style="stop-color:rgb(72.156864%,0%,100%);stop-opacity:1;"/>
</linearGradient>
<clipPath id="clip1">
  <rect x="0" y="0" width="64" height="64"/>
</clipPath>
<g id="surface5" clip-path="url(#clip1)">
<path style=" stroke:none;fill-rule:nonzero;fill:url(#linear1);" d="M 53.839844 8.878906 L 44.035156 19.996094 L 36.035156 7.996094 L 20.035156 23.996094 L 12.035156 23.996094 L 12.035156 51.996094 L 56.035156 51.996094 L 56.035156 10.964844 Z M 53.839844 8.878906 "/>
</g>
</defs>
<g id="surface1">
<path style=" stroke:none;fill-rule:nonzero;fill:url(#linear0);" d="M 8 8 L 8 14.109375 L 4.015625 14.109375 L 4.015625 14.140625 L 8 14.140625 L 8 44 L 4 44 L 4 44.03125 L 8 44.03125 L 8 56 L 56 56 L 56 47.46875 L 55.835938 47.3125 L 44.523438 36 L 44.507812 36.015625 L 44.484375 36 L 35.992188 44.492188 L 23.5 32 L 12 32 L 12 14.140625 L 29.859375 14.140625 L 19.992188 24.007812 L 12.007812 24.007812 L 12.007812 28.007812 L 21.648438 28.007812 L 36.007812 13.648438 L 44.5 22.140625 L 44.523438 22.125 L 44.539062 22.140625 L 55.851562 10.828125 C 55.863281 10.847656 53.023438 8 53.023438 8 L 44.523438 16.5 L 36.015625 8 L 36.007812 8.007812 L 36 8 L 29.890625 14.109375 L 12 14.109375 L 12 8 Z M 12 36 L 21.84375 36 L 29.84375 44 L 12 44 Z M 44.507812 41.640625 L 53.007812 50.140625 L 54.9375 52 L 12 52 L 12 44.03125 L 29.875 44.03125 L 35.984375 50.140625 L 35.992188 50.132812 L 36 50.140625 Z M 44.507812 41.640625 "/>
<use xlink:href="#surface5" mask="url(#mask0)"/>
</g>
</svg>
