<?xml version="1.0" encoding="UTF-8"?>
<svg xmlns="http://www.w3.org/2000/svg" xmlns:xlink="http://www.w3.org/1999/xlink" width="64px" height="64px" viewBox="0 0 64 64" version="1.1">
<defs>
<linearGradient id="linear0" gradientUnits="userSpaceOnUse" x1="0" y1="0" x2="0" y2="1" gradientTransform="matrix(52,0,0,48,4,8)">
<stop offset="0" style="stop-color:rgb(3.921569%,74.117649%,77.64706%);stop-opacity:1;"/>
<stop offset="1" style="stop-color:rgb(72.156864%,0%,100%);stop-opacity:1;"/>
</linearGradient>
</defs>
<g id="surface1">
<path style=" stroke:none;fill-rule:nonzero;fill:url(#linear0);" d="M 8 8 L 8 19.96875 L 4 19.96875 L 4 20 L 8 20 L 8 56 L 56 56 L 56 52 L 12 52 L 12 48 L 24 48 L 24 47.96875 L 24.03125 48 L 32.03125 40 L 38.398438 40 L 46.398438 48 L 56 48 L 56 44 L 48.054688 44 L 40.054688 36 L 30.375 36 L 22.375 44 L 12 44 L 12 36 L 19.5 36 L 27.5 28 L 21.84375 28 L 17.84375 32 L 12 32 L 12 20 L 16 20 L 16 19.96875 L 12 19.96875 L 12 8 Z M 16 8 L 16 12 L 20 12 L 20 24 L 24 24 L 24 8 Z M 34 8 C 30.675781 8 28 10.675781 28 14 L 28 18 C 28 21.324219 30.675781 24 34 24 C 37.324219 24 40 21.324219 40 18 L 40 14 C 40 10.675781 37.324219 8 34 8 Z M 50 8 C 46.675781 8 44 10.675781 44 14 L 44 18 C 44 21.324219 46.675781 24 50 24 C 53.324219 24 56 21.324219 56 18 L 56 14 C 56 10.675781 53.324219 8 50 8 Z M 34 12 C 35.109375 12 36 12.890625 36 14 L 36 18 C 36 19.109375 35.109375 20 34 20 C 32.890625 20 32 19.109375 32 18 L 32 14 C 32 12.890625 32.890625 12 34 12 Z M 50 12 C 51.109375 12 52 12.890625 52 14 L 52 18 C 52 19.109375 51.109375 20 50 20 C 48.890625 20 48 19.109375 48 18 L 48 14 C 48 12.890625 48.890625 12 50 12 Z M 50 12 "/>
</g>
</svg>
