<?xml version="1.0" encoding="UTF-8"?>
<svg xmlns="http://www.w3.org/2000/svg" xmlns:xlink="http://www.w3.org/1999/xlink" width="64px" height="64px" viewBox="0 0 64 64" version="1.1">
<defs>
<linearGradient id="linear0" gradientUnits="userSpaceOnUse" x1="0" y1="0" x2="0" y2="1" gradientTransform="matrix(36,0,0,56,12,4)">
<stop offset="0" style="stop-color:rgb(3.921569%,74.117649%,77.64706%);stop-opacity:1;"/>
<stop offset="1" style="stop-color:rgb(72.156864%,0%,100%);stop-opacity:1;"/>
</linearGradient>
</defs>
<g id="surface1">
<path style=" stroke:none;fill-rule:nonzero;fill:url(#linear0);" d="M 36 4 C 29.441406 4 24 9.398438 24 16 L 24 44 L 32 44 L 32 16 C 32 12 36 12 36 12 C 36 12 40 12 40 16 L 40 42 C 40 47.558594 35.558594 52 30 52 C 24.441406 52 20 47.558594 20 42 L 20 20 L 12 20 L 12 42 C 12 51.878906 20.121094 60 30 60 C 39.878906 60 48 51.878906 48 42 L 48 16 C 48 9.398438 42.558594 4 36 4 Z M 36 4 "/>
</g>
</svg>
