<?xml version="1.0" encoding="UTF-8"?>
<svg xmlns="http://www.w3.org/2000/svg" xmlns:xlink="http://www.w3.org/1999/xlink" width="64px" height="64px" viewBox="0 0 64 64" version="1.1">
<defs>
<linearGradient id="linear0" gradientUnits="userSpaceOnUse" x1="0" y1="0" x2="0" y2="1" gradientTransform="matrix(56,0,0,56,4,4)">
<stop offset="0" style="stop-color:rgb(3.921569%,74.117649%,77.64706%);stop-opacity:1;"/>
<stop offset="1" style="stop-color:rgb(72.156864%,0%,100%);stop-opacity:1;"/>
</linearGradient>
</defs>
<g id="surface1">
<path style=" stroke:none;fill-rule:nonzero;fill:url(#linear0);" d="M 4 4 L 4 12 L 60 12 L 60 4 Z M 36 20 L 36 60 L 44 60 L 44 48 L 52 48 L 52 60 L 60 60 L 60 20 Z M 4 20.015625 L 4 28.015625 L 28 28.015625 L 28 20.015625 Z M 44 28 L 52 28 L 52 40 L 44 40 Z M 4 36.015625 L 4 44.015625 L 28 44.015625 L 28 36.015625 Z M 4 52 L 4 60 L 28 60 L 28 52 Z M 4 52 "/>
</g>
</svg>
