<?xml version="1.0" encoding="UTF-8"?>
<svg xmlns="http://www.w3.org/2000/svg" xmlns:xlink="http://www.w3.org/1999/xlink" width="64px" height="64px" viewBox="0 0 64 64" version="1.1">
<defs>
<linearGradient id="linear0" gradientUnits="userSpaceOnUse" x1="0" y1="0" x2="0" y2="1" gradientTransform="matrix(56,0,0,56,4,4)">
<stop offset="0" style="stop-color:rgb(3.921569%,74.117649%,77.64706%);stop-opacity:1;"/>
<stop offset="1" style="stop-color:rgb(72.156864%,0%,100%);stop-opacity:1;"/>
</linearGradient>
</defs>
<g id="surface1">
<path style=" stroke:none;fill-rule:nonzero;fill:url(#linear0);" d="M 8 4 C 4 4 4 8 4 8 L 4 56 C 4 60 8 60 8 60 L 36 60 L 36 52 L 12 52 L 12 24 L 52 24 L 52 36 L 60 36 L 60 8 C 60 4 56 4 56 4 Z M 48 36 L 45.703125 42.453125 L 39.515625 39.515625 L 42.453125 45.703125 L 36.015625 48 L 42.46875 50.296875 L 39.53125 56.484375 L 45.71875 53.546875 L 48 60 L 50.273438 53.546875 L 56.476562 56.484375 L 53.554688 50.296875 L 60 48 L 53.554688 45.703125 L 56.476562 39.515625 L 50.273438 42.453125 Z M 48 36 "/>
</g>
</svg>
