<?xml version="1.0" encoding="UTF-8"?>
<svg xmlns="http://www.w3.org/2000/svg" xmlns:xlink="http://www.w3.org/1999/xlink" width="64px" height="64px" viewBox="0 0 64 64" version="1.1">
<defs>
<linearGradient id="linear0" gradientUnits="userSpaceOnUse" x1="0" y1="0" x2="0" y2="1" gradientTransform="matrix(47.980469,0,0,56.003906,8,3.996094)">
<stop offset="0" style="stop-color:rgb(3.921569%,74.117649%,77.64706%);stop-opacity:1;"/>
<stop offset="1" style="stop-color:rgb(72.156864%,0%,100%);stop-opacity:1;"/>
</linearGradient>
</defs>
<g id="surface1">
<path style=" stroke:none;fill-rule:nonzero;fill:url(#linear0);" d="M 11.375 4.023438 C 10.25 4.199219 8 4.960938 8 7.757812 L 8 28 L 55.960938 28 C 55.957031 24.214844 55.964844 21.257812 55.960938 18.953125 L 39.976562 4.023438 L 12 4.023438 C 12 4.023438 11.75 3.964844 11.375 4.023438 Z M 8 36 L 8 56.265625 C 8 59.996094 12 60 12 60 L 51.960938 60 C 55.957031 60 55.960938 56.265625 55.960938 56.265625 C 56 56.171875 55.972656 44.992188 55.960938 36 Z M 8 36 "/>
</g>
</svg>
