<?xml version="1.0" encoding="UTF-8"?>
<svg xmlns="http://www.w3.org/2000/svg" xmlns:xlink="http://www.w3.org/1999/xlink" width="64px" height="64px" viewBox="0 0 64 64" version="1.1">
<g id="surface1">
<path style=" stroke:none;fill-rule:nonzero;fill:rgb(10.196079%,83.92157%,67.058825%);fill-opacity:1;" d="M 28 4 L 28 8.34375 C 24.4375 8.953125 21.058594 10.363281 18.117188 12.460938 L 15.03125 9.375 L 9.375 15.03125 L 12.453125 18.109375 C 10.359375 21.054688 8.960938 24.4375 8.359375 28 L 4 28 L 4 36 L 8.34375 36 C 8.953125 39.5625 10.363281 42.941406 12.460938 45.882812 L 9.375 48.96875 L 15.03125 54.625 L 18.109375 51.546875 C 21.054688 53.640625 24.4375 55.039062 28 55.640625 L 28 60 L 36 60 L 36 55.65625 C 39.5625 55.046875 42.941406 53.636719 45.882812 51.539062 L 48.96875 54.625 L 54.625 48.96875 L 51.546875 45.890625 C 53.640625 42.945312 55.039062 39.5625 55.640625 36 L 60 36 L 60 28 L 55.65625 28 C 55.046875 24.4375 53.636719 21.058594 51.539062 18.117188 L 54.625 15.03125 L 48.96875 9.375 L 45.890625 12.453125 C 42.945312 10.359375 39.5625 8.960938 36 8.359375 L 36 4 Z M 28 16 L 36 16 L 36 36 L 44 36 L 32 48 L 20 36 L 28 36 Z M 28 16 "/>
</g>
</svg>
