<?xml version="1.0" encoding="UTF-8"?>
<svg xmlns="http://www.w3.org/2000/svg" xmlns:xlink="http://www.w3.org/1999/xlink" width="64px" height="64px" viewBox="0 0 64 64" version="1.1">
<defs>
<linearGradient id="linear0" gradientUnits="userSpaceOnUse" x1="0" y1="0" x2="0" y2="1" gradientTransform="matrix(56,0,0,56,4,4)">
<stop offset="0" style="stop-color:rgb(3.921569%,74.117649%,77.64706%);stop-opacity:1;"/>
<stop offset="1" style="stop-color:rgb(72.156864%,0%,100%);stop-opacity:1;"/>
</linearGradient>
</defs>
<g id="surface1">
<path style=" stroke:none;fill-rule:nonzero;fill:url(#linear0);" d="M 14 4 C 8.476562 4 4 8.476562 4 14 C 4 19.523438 8.476562 24 14 24 C 19.523438 24 24 19.523438 24 14 C 24 8.476562 19.523438 4 14 4 Z M 40 4 L 40 24 L 60 24 L 60 4 Z M 8 36 L 8 60 L 20 60 L 20 36 Z M 48 36 L 36 60 L 60 60 Z M 48 36 "/>
</g>
</svg>
