<?xml version="1.0" encoding="UTF-8"?>
<svg xmlns="http://www.w3.org/2000/svg" xmlns:xlink="http://www.w3.org/1999/xlink" width="64px" height="64px" viewBox="0 0 64 64" version="1.1">
<defs>
<linearGradient id="linear0" gradientUnits="userSpaceOnUse" x1="0" y1="0" x2="0" y2="1" gradientTransform="matrix(60.105469,0,0,61.367188,1.914063,0.816406)">
<stop offset="0" style="stop-color:rgb(3.921569%,74.117649%,77.64706%);stop-opacity:1;"/>
<stop offset="1" style="stop-color:rgb(72.156864%,0%,100%);stop-opacity:1;"/>
</linearGradient>
</defs>
<g id="surface1">
<path style=" stroke:none;fill-rule:nonzero;fill:url(#linear0);" d="M 50.453125 0.820312 C 49.886719 0.847656 49.359375 1.113281 49 1.550781 C 48.640625 1.988281 48.484375 2.558594 48.570312 3.117188 L 49.703125 11.460938 L 45.554688 15.609375 L 44.34375 6.6875 C 44.21875 5.644531 43.308594 4.878906 42.257812 4.929688 C 41.695312 4.957031 41.167969 5.226562 40.8125 5.664062 C 40.453125 6.101562 40.296875 6.667969 40.382812 7.226562 L 42 19.164062 L 35.164062 26 L 26 26 L 26 31.625 L 21.078125 33.03125 L 20.039062 25.34375 C 19.914062 24.300781 19.003906 23.535156 17.953125 23.585938 C 17.390625 23.613281 16.863281 23.878906 16.503906 24.3125 C 16.144531 24.75 15.988281 25.316406 16.070312 25.875 L 17.195312 34.140625 L 10.445312 36.070312 L 9.484375 29.007812 C 9.359375 27.964844 8.449219 27.199219 7.398438 27.25 C 6.832031 27.277344 6.304688 27.542969 5.945312 27.980469 C 5.585938 28.417969 5.429688 28.988281 5.515625 29.546875 L 6.554688 37.1875 L 3.453125 38.070312 C 2.738281 38.238281 2.171875 38.789062 1.980469 39.5 C 1.789062 40.210938 2.007812 40.96875 2.542969 41.472656 C 3.078125 41.976562 3.847656 42.148438 4.546875 41.914062 L 7.09375 41.1875 L 8.640625 52.523438 L 2.585938 58.578125 C 2.0625 59.078125 1.851562 59.824219 2.035156 60.527344 C 2.21875 61.226562 2.765625 61.773438 3.464844 61.957031 C 4.167969 62.140625 4.914062 61.929688 5.414062 61.40625 L 9.3125 57.507812 L 9.703125 60.359375 C 9.769531 61.09375 10.230469 61.730469 10.90625 62.019531 C 11.582031 62.3125 12.363281 62.207031 12.941406 61.746094 C 13.515625 61.289062 13.792969 60.550781 13.664062 59.828125 L 12.867188 53.953125 L 19.046875 47.773438 L 20.257812 56.695312 C 20.328125 57.425781 20.792969 58.058594 21.46875 58.34375 C 22.140625 58.628906 22.917969 58.523438 23.492188 58.066406 C 24.066406 57.613281 24.34375 56.878906 24.21875 56.15625 L 22.601562 44.21875 L 28.820312 38 L 38 38 L 38 32.359375 L 43.578125 30.765625 L 44.5625 38.039062 C 44.710938 39.132812 45.71875 39.898438 46.8125 39.753906 C 47.90625 39.605469 48.675781 38.601562 48.53125 37.507812 L 47.460938 29.65625 L 52 28.359375 L 52.757812 33.9375 C 52.828125 34.667969 53.292969 35.300781 53.96875 35.585938 C 54.640625 35.875 55.421875 35.765625 55.992188 35.3125 C 56.566406 34.855469 56.847656 34.121094 56.71875 33.398438 L 55.882812 27.25 L 60.546875 25.914062 C 61.519531 25.648438 62.144531 24.699219 62 23.699219 C 61.859375 22.703125 60.992188 21.964844 59.984375 21.984375 C 59.804688 21.988281 59.625 22.019531 59.453125 22.070312 L 55.34375 23.242188 L 53.9375 12.882812 L 61.414062 5.40625 C 62.003906 4.832031 62.179688 3.953125 61.859375 3.195312 C 61.535156 2.4375 60.785156 1.953125 59.960938 1.976562 C 59.441406 1.992188 58.949219 2.207031 58.585938 2.578125 L 53.257812 7.90625 L 52.539062 2.578125 C 52.414062 1.535156 51.503906 0.769531 50.453125 0.820312 Z M 50.382812 16.4375 L 51.453125 24.359375 L 46.921875 25.648438 L 46.234375 20.585938 Z M 42.679688 24.140625 L 43.03125 26.765625 L 38.867188 27.953125 Z M 25.132812 36.03125 L 21.921875 39.242188 L 21.625 37.03125 Z M 17.734375 38.148438 L 18.367188 42.796875 L 12.195312 48.96875 L 10.984375 40.070312 Z M 17.734375 38.148438 "/>
</g>
</svg>
