<?xml version="1.0" encoding="UTF-8"?>
<svg xmlns="http://www.w3.org/2000/svg" xmlns:xlink="http://www.w3.org/1999/xlink" width="64px" height="64px" viewBox="0 0 64 64" version="1.1">
<defs>
<linearGradient id="linear0" gradientUnits="userSpaceOnUse" x1="0" y1="0" x2="0" y2="1" gradientTransform="matrix(56.75,0,0,48,4,8)">
<stop offset="0" style="stop-color:rgb(3.921569%,74.117649%,77.64706%);stop-opacity:1;"/>
<stop offset="1" style="stop-color:rgb(72.156864%,0%,100%);stop-opacity:1;"/>
</linearGradient>
</defs>
<g id="surface1">
<path style=" stroke:none;fill-rule:nonzero;fill:url(#linear0);" d="M 4 8 L 4 24 L 8 24 L 8 20 L 12 20 L 12 24 L 16 24 L 16 8 Z M 8 12 L 12 12 L 12 16 L 8 16 Z M 32 12 L 32 28 L 19.75 28 L 40 56 L 60.75 28 L 48 28 L 48 12 Z M 4 36 L 4 52 L 16 52 L 16 48 L 8 48 L 8 40 L 16 40 L 16 36 Z M 4 36 "/>
</g>
</svg>
