<?xml version="1.0" encoding="UTF-8"?>
<svg xmlns="http://www.w3.org/2000/svg" xmlns:xlink="http://www.w3.org/1999/xlink" width="64px" height="64px" viewBox="0 0 64 64" version="1.1">
<defs>
<linearGradient id="linear0" gradientUnits="userSpaceOnUse" x1="0" y1="0" x2="0" y2="1" gradientTransform="matrix(64,0,0,64,0,0)">
<stop offset="0" style="stop-color:rgb(3.921569%,74.117649%,77.64706%);stop-opacity:1;"/>
<stop offset="1" style="stop-color:rgb(72.156864%,0%,100%);stop-opacity:1;"/>
</linearGradient>
</defs>
<g id="surface1">
<path style=" stroke:none;fill-rule:nonzero;fill:url(#linear0);" d="M 32 0 C 14.328125 0 0 14.328125 0 32 C 0 49.671875 14.328125 64 32 64 C 49.671875 64 64 49.671875 64 32 C 64 14.328125 49.671875 0 32 0 Z M 24 12 L 48 12 L 48 44 C 48 48.417969 44.417969 52 40 52 C 35.582031 52 32 48.417969 32 44 C 32 39.582031 35.582031 36 40 36 C 41.40625 36 42.785156 36.375 44 37.078125 L 44 20 L 28 20 L 28 44 C 28 48.417969 24.417969 52 20 52 C 15.582031 52 12 48.417969 12 44 C 12 39.582031 15.582031 36 20 36 C 21.40625 36 22.785156 36.375 24 37.078125 Z M 24 12 "/>
</g>
</svg>
