<?xml version="1.0" encoding="UTF-8"?>
<svg xmlns="http://www.w3.org/2000/svg" xmlns:xlink="http://www.w3.org/1999/xlink" width="64px" height="64px" viewBox="0 0 64 64" version="1.1">
<defs>
<linearGradient id="linear0" gradientUnits="userSpaceOnUse" x1="0" y1="0" x2="0" y2="1" gradientTransform="matrix(48,0,0,48,8,8)">
<stop offset="0" style="stop-color:rgb(3.921569%,74.117649%,77.64706%);stop-opacity:1;"/>
<stop offset="1" style="stop-color:rgb(72.156864%,0%,100%);stop-opacity:1;"/>
</linearGradient>
</defs>
<g id="surface1">
<path style=" stroke:none;fill-rule:nonzero;fill:url(#linear0);" d="M 8 8 L 8 56 L 24 56 L 24 24 L 56 24 L 56 8 Z M 12 12 L 52 12 L 52 20 L 20 20 L 20 52 L 12 52 Z M 32 32 L 32 56 L 48 56 L 48 48 L 56 48 L 56 32 Z M 36 36 L 52 36 L 52 44 L 44 44 L 44 52 L 36 52 Z M 36 36 "/>
</g>
</svg>
