<?xml version="1.0" encoding="UTF-8"?>
<svg xmlns="http://www.w3.org/2000/svg" xmlns:xlink="http://www.w3.org/1999/xlink" width="64px" height="64px" viewBox="0 0 64 64" version="1.1">
<defs>
<linearGradient id="linear0" gradientUnits="userSpaceOnUse" x1="0" y1="0" x2="0" y2="1" gradientTransform="matrix(56,0,0,56,4,4)">
<stop offset="0" style="stop-color:rgb(3.921569%,74.117649%,77.64706%);stop-opacity:1;"/>
<stop offset="1" style="stop-color:rgb(72.156864%,0%,100%);stop-opacity:1;"/>
</linearGradient>
</defs>
<g id="surface1">
<path style=" stroke:none;fill-rule:nonzero;fill:url(#linear0);" d="M 4 4 L 4 40 L 28 40 L 28 20 L 36 20 C 40.433594 20 44 23.566406 44 28 L 44 36 L 32 36 L 32 44 L 24 44 L 24 60 L 60 60 L 60 36 L 48 36 L 48 28 C 48 21.351562 42.648438 16 36 16 L 28 16 L 28 4 Z M 4 4 "/>
</g>
</svg>
