<?xml version="1.0" encoding="UTF-8"?>
<svg xmlns="http://www.w3.org/2000/svg" xmlns:xlink="http://www.w3.org/1999/xlink" width="64px" height="64px" viewBox="0 0 64 64" version="1.1">
<defs>
<linearGradient id="linear0" gradientUnits="userSpaceOnUse" x1="0" y1="0" x2="0" y2="1" gradientTransform="matrix(56,0,0,53.242188,4,6.757812)">
<stop offset="0" style="stop-color:rgb(3.921569%,74.117649%,77.64706%);stop-opacity:1;"/>
<stop offset="1" style="stop-color:rgb(72.156864%,0%,100%);stop-opacity:1;"/>
</linearGradient>
</defs>
<g id="surface1">
<path style=" stroke:none;fill-rule:nonzero;fill:url(#linear0);" d="M 32.039062 6.757812 C 24.710938 6.757812 18.738281 12.964844 18.523438 20.71875 C 18.34375 20.765625 18.167969 20.84375 18 20.9375 C 16.316406 21.855469 15.878906 24.714844 17.03125 27.367188 C 17.957031 29.5 19.605469 30.820312 21.101562 30.78125 C 22.226562 37.871094 26.707031 43.15625 32.039062 43.15625 C 32.054688 43.15625 32.070312 43.15625 32.085938 43.15625 C 37.417969 43.15625 41.898438 37.871094 43.023438 30.78125 C 44.519531 30.820312 46.167969 29.5 47.09375 27.367188 C 48.246094 24.714844 47.808594 21.855469 46.125 20.9375 C 45.957031 20.84375 45.78125 20.765625 45.601562 20.71875 C 45.382812 12.964844 39.414062 6.757812 32.085938 6.757812 C 32.070312 6.757812 32.054688 6.757812 32.039062 6.757812 Z M 41.578125 44.296875 C 40.421875 47.046875 36.480469 49.109375 31.78125 49.109375 C 27.101562 49.109375 23.199219 47.074219 22.023438 44.34375 C 12.148438 45.355469 4.949219 47.839844 4.085938 50.773438 C 4.074219 50.800781 4.09375 50.832031 4.085938 50.859375 C 4.058594 50.964844 4.050781 51.058594 4.039062 51.164062 C 4.035156 51.210938 4 51.246094 4 51.296875 C 4 51.3125 4 51.328125 4 51.34375 L 4 58.601562 C 4 59.378906 4.621094 60 5.398438 60 L 58.59375 60 C 59.371094 60 60 59.378906 60 58.601562 L 60 51.34375 C 60 51.3125 60 51.28125 60 51.25 C 59.992188 51.078125 59.917969 50.941406 59.867188 50.773438 C 58.984375 47.804688 51.632812 45.285156 41.578125 44.296875 Z M 41.578125 44.296875 "/>
</g>
</svg>
