<?xml version="1.0" encoding="UTF-8"?>
<svg xmlns="http://www.w3.org/2000/svg" xmlns:xlink="http://www.w3.org/1999/xlink" width="64px" height="64px" viewBox="0 0 64 64" version="1.1">
<defs>
<linearGradient id="linear0" gradientUnits="userSpaceOnUse" x1="0" y1="0" x2="0" y2="1" gradientTransform="matrix(64,0,0,57.90625,0,3.039062)">
<stop offset="0" style="stop-color:rgb(3.921569%,74.117649%,77.64706%);stop-opacity:1;"/>
<stop offset="1" style="stop-color:rgb(72.156864%,0%,100%);stop-opacity:1;"/>
</linearGradient>
</defs>
<g id="surface1">
<path style=" stroke:none;fill-rule:nonzero;fill:url(#linear0);" d="M 32 3.039062 L 0 34.28125 L 6.09375 40.507812 L 10.664062 36.5625 L 13.710938 60.945312 L 50.289062 60.945312 L 53.335938 36.5625 L 57.90625 40.375 L 64 34.28125 Z M 32 24.375 C 37.050781 24.375 41.140625 28.464844 41.140625 33.515625 C 41.140625 38.566406 37.050781 42.65625 32 42.65625 C 26.949219 42.65625 22.859375 38.566406 22.859375 33.515625 C 22.859375 28.464844 26.949219 24.375 32 24.375 Z M 32 48.757812 C 33.683594 48.757812 35.046875 50.121094 35.046875 51.804688 C 35.046875 53.488281 33.683594 54.851562 32 54.851562 C 30.316406 54.851562 28.953125 53.488281 28.953125 51.804688 C 28.953125 50.121094 30.316406 48.757812 32 48.757812 Z M 32 48.757812 "/>
</g>
</svg>
