<?xml version="1.0" encoding="UTF-8"?>
<svg xmlns="http://www.w3.org/2000/svg" xmlns:xlink="http://www.w3.org/1999/xlink" width="64px" height="64px" viewBox="0 0 64 64" version="1.1">
<defs>
<linearGradient id="linear0" gradientUnits="userSpaceOnUse" x1="0" y1="0" x2="0" y2="1" gradientTransform="matrix(44,0,0,32,8,16.015625)">
<stop offset="0" style="stop-color:rgb(3.921569%,74.117649%,77.64706%);stop-opacity:1;"/>
<stop offset="1" style="stop-color:rgb(72.156864%,0%,100%);stop-opacity:1;"/>
</linearGradient>
</defs>
<g id="surface1">
<path style=" stroke:none;fill-rule:nonzero;fill:url(#linear0);" d="M 9 16.015625 C 8.445312 16.015625 8 16.460938 8 17.015625 L 8 23.015625 C 8 23.570312 8.445312 24.015625 9 24.015625 L 15 24.015625 C 15.554688 24.015625 16 23.570312 16 23.015625 L 16 17.015625 C 16 16.460938 15.554688 16.015625 15 16.015625 Z M 21 16.015625 C 20.445312 16.015625 20 16.460938 20 17.015625 L 20 23.015625 C 20 23.570312 20.445312 24.015625 21 24.015625 L 27 24.015625 C 27.554688 24.015625 28 23.570312 28 23.015625 L 28 17.015625 C 28 16.460938 27.554688 16.015625 27 16.015625 Z M 33 16.015625 C 32.445312 16.015625 32 16.460938 32 17.015625 L 32 23.015625 C 32 23.570312 32.445312 24.015625 33 24.015625 L 39 24.015625 C 39.554688 24.015625 40 23.570312 40 23.015625 L 40 17.015625 C 40 16.460938 39.554688 16.015625 39 16.015625 Z M 45 16.015625 C 44.445312 16.015625 44 16.460938 44 17.015625 L 44 23.015625 C 44 23.570312 44.445312 24.015625 45 24.015625 L 51 24.015625 C 51.554688 24.015625 52 23.570312 52 23.015625 L 52 17.015625 C 52 16.460938 51.554688 16.015625 51 16.015625 Z M 9 28.015625 C 8.445312 28.015625 8 28.460938 8 29.015625 L 8 35.015625 C 8 35.570312 8.445312 36.015625 9 36.015625 L 15 36.015625 C 15.554688 36.015625 16 35.570312 16 35.015625 L 16 29.015625 C 16 28.460938 15.554688 28.015625 15 28.015625 Z M 21 28.015625 C 20.445312 28.015625 20 28.460938 20 29.015625 L 20 35.015625 C 20 35.570312 20.445312 36.015625 21 36.015625 L 27 36.015625 C 27.554688 36.015625 28 35.570312 28 35.015625 L 28 29.015625 C 28 28.460938 27.554688 28.015625 27 28.015625 Z M 33 28.015625 C 32.445312 28.015625 32 28.460938 32 29.015625 L 32 35.015625 C 32 35.570312 32.445312 36.015625 33 36.015625 L 39 36.015625 C 39.554688 36.015625 40 35.570312 40 35.015625 L 40 29.015625 C 40 28.460938 39.554688 28.015625 39 28.015625 Z M 45 28.015625 C 44.445312 28.015625 44 28.460938 44 29.015625 L 44 35.015625 C 44 35.570312 44.445312 36.015625 45 36.015625 L 51 36.015625 C 51.554688 36.015625 52 35.570312 52 35.015625 L 52 29.015625 C 52 28.460938 51.554688 28.015625 51 28.015625 Z M 9 40.015625 C 8.445312 40.015625 8 40.460938 8 41.015625 L 8 47.015625 C 8 47.570312 8.445312 48.015625 9 48.015625 L 15 48.015625 C 15.554688 48.015625 16 47.570312 16 47.015625 L 16 41.015625 C 16 40.460938 15.554688 40.015625 15 40.015625 Z M 21 40.015625 C 20.445312 40.015625 20 40.460938 20 41.015625 L 20 47.015625 C 20 47.570312 20.445312 48.015625 21 48.015625 L 27 48.015625 C 27.554688 48.015625 28 47.570312 28 47.015625 L 28 41.015625 C 28 40.460938 27.554688 40.015625 27 40.015625 Z M 33 40.015625 C 32.445312 40.015625 32 40.460938 32 41.015625 L 32 47.015625 C 32 47.570312 32.445312 48.015625 33 48.015625 L 39 48.015625 C 39.554688 48.015625 40 47.570312 40 47.015625 L 40 41.015625 C 40 40.460938 39.554688 40.015625 39 40.015625 Z M 45 40.015625 C 44.445312 40.015625 44 40.460938 44 41.015625 L 44 47.015625 C 44 47.570312 44.445312 48.015625 45 48.015625 L 51 48.015625 C 51.554688 48.015625 52 47.570312 52 47.015625 L 52 41.015625 C 52 40.460938 51.554688 40.015625 51 40.015625 Z M 45 40.015625 "/>
</g>
</svg>
