<?xml version="1.0" encoding="UTF-8"?>
<svg xmlns="http://www.w3.org/2000/svg" xmlns:xlink="http://www.w3.org/1999/xlink" width="64px" height="64px" viewBox="0 0 64 64" version="1.1">
<defs>
<linearGradient id="linear0" gradientUnits="userSpaceOnUse" x1="0" y1="0" x2="0" y2="1" gradientTransform="matrix(56.03125,0,0,56,3.96875,4)">
<stop offset="0" style="stop-color:rgb(3.921569%,74.117649%,77.64706%);stop-opacity:1;"/>
<stop offset="1" style="stop-color:rgb(72.156864%,0%,100%);stop-opacity:1;"/>
</linearGradient>
</defs>
<g id="surface1">
<path style=" stroke:none;fill-rule:nonzero;fill:url(#linear0);" d="M 12 4 C 3 4 4 12 4 12 L 4 60 L 60 60 L 60 12 C 60 4 52 4 52 4 Z M 12 12 L 52 12 L 52 52 L 12 52 Z M 16 16 L 16 24 L 24 24 L 24 16 Z M 28 16 L 28 24 L 36 24 L 36 16 Z M 40 16 L 40 24 L 48 24 L 48 16 Z M 16 28 L 16 36 L 24 36 L 24 28 Z M 28 28 L 28 36 L 36 36 L 36 28 Z M 40 28 L 40 36 L 48 36 L 48 28 Z M 16 40 L 16 48 L 24 48 L 24 40 Z M 28 40 L 28 48 L 36 48 L 36 40 Z M 40 40 L 40 48 L 48 48 L 48 40 Z M 40 40 "/>
</g>
</svg>
