<?xml version="1.0" encoding="UTF-8"?>
<svg xmlns="http://www.w3.org/2000/svg" xmlns:xlink="http://www.w3.org/1999/xlink" width="64px" height="64px" viewBox="0 0 64 64" version="1.1">
<defs>
<linearGradient id="linear0" gradientUnits="userSpaceOnUse" x1="0" y1="0" x2="0" y2="1" gradientTransform="matrix(56,0,0,48,0,8.039062)">
<stop offset="0" style="stop-color:rgb(3.921569%,74.117649%,77.64706%);stop-opacity:1;"/>
<stop offset="1" style="stop-color:rgb(72.156864%,0%,100%);stop-opacity:1;"/>
</linearGradient>
</defs>
<g id="surface1">
<path style=" stroke:none;fill-rule:nonzero;fill:url(#linear0);" d="M 0 8.039062 L 0 56.039062 L 40 56.039062 L 40 16.039062 C 40 8.039062 32 8.039062 32 8.039062 Z M 40 8.039062 C 40 8.039062 44 8.039062 44 16.039062 L 44 56.039062 L 48 56.039062 L 48 16.039062 C 48 8.039062 40 8.039062 40 8.039062 Z M 48 8.039062 C 48 8.039062 52 8.039062 52 16.039062 L 52 56.039062 L 56 56.039062 L 56 16.039062 C 56 8.039062 48 8.039062 48 8.039062 Z M 48 8.039062 "/>
</g>
</svg>
