<?xml version="1.0" encoding="UTF-8"?>
<svg xmlns="http://www.w3.org/2000/svg" xmlns:xlink="http://www.w3.org/1999/xlink" width="64px" height="64px" viewBox="0 0 64 64" version="1.1">
<defs>
<linearGradient id="linear0" gradientUnits="userSpaceOnUse" x1="0" y1="0" x2="0" y2="1" gradientTransform="matrix(64,0,0,60,0,4)">
<stop offset="0" style="stop-color:rgb(3.921569%,74.117649%,77.64706%);stop-opacity:1;"/>
<stop offset="1" style="stop-color:rgb(72.156864%,0%,100%);stop-opacity:1;"/>
</linearGradient>
</defs>
<g id="surface1">
<path style=" stroke:none;fill-rule:nonzero;fill:url(#linear0);" d="M 0 4 L 0 59.984375 C 12 59.980469 24 59.984375 36 59.992188 L 36 35.992188 L 60 35.992188 L 60 36 L 64 36 L 64 4.015625 C 42.667969 4.023438 21.332031 3.992188 0 4 Z M 36 12 L 60 12 L 60 16 L 36 16 Z M 14 16 C 17.324219 16 20 18.667969 20 21.992188 L 20 27.992188 L 24 27.992188 L 24 39.992188 L 4 39.992188 L 4 27.992188 L 8 27.992188 L 8 21.992188 C 8 18.667969 10.675781 16 14 16 Z M 14 19.992188 C 12.890625 19.992188 12 20.882812 12 21.992188 L 12 27.992188 L 16 27.992188 L 16 21.992188 C 16 20.882812 15.109375 19.992188 14 19.992188 Z M 36 23.992188 L 60 23.992188 L 60 27.992188 L 36 27.992188 Z M 48 40 L 48 42.34375 L 46.34375 40.6875 L 40.6875 46.34375 L 42.34375 48 L 40 48 L 40 56 L 42.34375 56 L 40.6875 57.65625 L 46.34375 63.3125 L 48 61.65625 L 48 64 L 56 64 L 56 61.65625 L 57.65625 63.3125 L 63.3125 57.65625 L 61.65625 56 L 64 56 L 64 48 L 61.65625 48 L 63.3125 46.34375 L 57.65625 40.6875 L 56 42.34375 L 56 40 Z M 52 48 C 54.210938 48 56 49.789062 56 52 C 56 54.210938 54.210938 56 52 56 C 49.789062 56 48 54.210938 48 52 C 48 49.789062 49.789062 48 52 48 Z M 52 48 "/>
</g>
</svg>
