<?xml version="1.0" encoding="UTF-8"?>
<svg xmlns="http://www.w3.org/2000/svg" xmlns:xlink="http://www.w3.org/1999/xlink" width="64px" height="64px" viewBox="0 0 64 64" version="1.1">
<defs>
<linearGradient id="linear0" gradientUnits="userSpaceOnUse" x1="0" y1="0" x2="0" y2="1" gradientTransform="matrix(64,0,0,56.015625,0,4)">
<stop offset="0" style="stop-color:rgb(3.921569%,74.117649%,77.64706%);stop-opacity:1;"/>
<stop offset="1" style="stop-color:rgb(72.156864%,0%,100%);stop-opacity:1;"/>
</linearGradient>
</defs>
<g id="surface1">
<path style=" stroke:none;fill-rule:nonzero;fill:url(#linear0);" d="M 0 4 L 0 60 C 21.332031 59.992188 42.667969 60.023438 64 60.015625 L 64 4.015625 C 42.667969 4.023438 21.332031 3.992188 0 4 Z M 20 20 C 24.417969 20 28 23.582031 28 28 C 28 32.417969 24.417969 36 20 36 C 15.582031 36 12 32.417969 12 28 C 12 23.582031 15.582031 20 20 20 Z M 20 40 C 36 39.992188 36 49.601562 36 49.601562 L 36 52 L 4 52 L 4 49.601562 C 4 49.601562 4 40.007812 20 40 Z M 20 40 "/>
</g>
</svg>
