<?xml version="1.0" encoding="UTF-8"?>
<svg xmlns="http://www.w3.org/2000/svg" xmlns:xlink="http://www.w3.org/1999/xlink" width="64px" height="64px" viewBox="0 0 64 64" version="1.1">
<defs>
<linearGradient id="linear0" gradientUnits="userSpaceOnUse" x1="0" y1="0" x2="0" y2="1" gradientTransform="matrix(56,0,0,56,4,4.015625)">
<stop offset="0" style="stop-color:rgb(3.921569%,74.117649%,77.64706%);stop-opacity:1;"/>
<stop offset="1" style="stop-color:rgb(72.156864%,0%,100%);stop-opacity:1;"/>
</linearGradient>
</defs>
<g id="surface1">
<path style=" stroke:none;fill-rule:nonzero;fill:url(#linear0);" d="M 32 4.015625 C 16.628906 4.015625 4 16.644531 4 32.015625 C 4 47.382812 16.628906 60.015625 32 60.015625 C 47.367188 60.015625 60 47.382812 60 32.015625 C 60 16.644531 47.367188 4.015625 32 4.015625 Z M 32 16 C 36.417969 16 40 19.582031 40 24 C 40 28.417969 36.417969 32 32 32 C 27.582031 32 24 28.417969 24 24 C 24 19.582031 27.582031 16 32 16 Z M 32 36 C 48 35.992188 48 45.601562 48 45.601562 L 48 48 L 16 48 L 16 45.601562 C 16 45.601562 16 36.007812 32 36 Z M 32 36 "/>
</g>
</svg>
