<?xml version="1.0" encoding="UTF-8"?>
<svg xmlns="http://www.w3.org/2000/svg" xmlns:xlink="http://www.w3.org/1999/xlink" width="64px" height="64px" viewBox="0 0 64 64" version="1.1">
<defs>
<linearGradient id="linear0" gradientUnits="userSpaceOnUse" x1="0" y1="0" x2="0" y2="1" gradientTransform="matrix(56.75,0,0,48,4,8)">
<stop offset="0" style="stop-color:rgb(3.921569%,74.117649%,77.64706%);stop-opacity:1;"/>
<stop offset="1" style="stop-color:rgb(72.156864%,0%,100%);stop-opacity:1;"/>
</linearGradient>
</defs>
<g id="surface1">
<path style=" stroke:none;fill-rule:nonzero;fill:url(#linear0);" d="M 10 8 C 6.710938 8 4 10.710938 4 14 C 4 17.289062 6.710938 20 10 20 C 13.289062 20 16 17.289062 16 14 C 16 10.710938 13.289062 8 10 8 Z M 32 12 L 32 28 L 19.75 28 L 40 56 L 60.75 28 L 48 28 L 48 12 Z M 10 24 C 6.710938 24 4 26.710938 4 30 C 4 33.289062 6.710938 36 10 36 C 13.289062 36 16 33.289062 16 30 C 16 26.710938 13.289062 24 10 24 Z M 10 40 C 6.710938 40 4 42.710938 4 46 C 4 49.289062 6.710938 52 10 52 C 13.289062 52 16 49.289062 16 46 C 16 42.710938 13.289062 40 10 40 Z M 10 40 "/>
</g>
</svg>
