<?xml version="1.0" encoding="UTF-8"?>
<svg xmlns="http://www.w3.org/2000/svg" xmlns:xlink="http://www.w3.org/1999/xlink" width="64px" height="64px" viewBox="0 0 64 64" version="1.1">
<defs>
<linearGradient id="linear0" gradientUnits="userSpaceOnUse" x1="0" y1="0" x2="0" y2="1" gradientTransform="matrix(44,0,0,12,8,28)">
<stop offset="0" style="stop-color:rgb(3.921569%,74.117649%,77.64706%);stop-opacity:1;"/>
<stop offset="1" style="stop-color:rgb(72.156864%,0%,100%);stop-opacity:1;"/>
</linearGradient>
</defs>
<g id="surface1">
<path style=" stroke:none;fill-rule:nonzero;fill:url(#linear0);" d="M 14 28 C 10.710938 28 8 30.710938 8 34 C 8 37.289062 10.710938 40 14 40 C 17.289062 40 20 37.289062 20 34 C 20 30.710938 17.289062 28 14 28 Z M 30 28 C 26.710938 28 24 30.710938 24 34 C 24 37.289062 26.710938 40 30 40 C 33.289062 40 36 37.289062 36 34 C 36 30.710938 33.289062 28 30 28 Z M 46 28 C 42.710938 28 40 30.710938 40 34 C 40 37.289062 42.710938 40 46 40 C 49.289062 40 52 37.289062 52 34 C 52 30.710938 49.289062 28 46 28 Z M 46 28 "/>
</g>
</svg>
