<?xml version="1.0" encoding="UTF-8"?>
<svg xmlns="http://www.w3.org/2000/svg" xmlns:xlink="http://www.w3.org/1999/xlink" width="64px" height="64px" viewBox="0 0 64 64" version="1.1">
<defs>
<linearGradient id="linear0" gradientUnits="userSpaceOnUse" x1="0" y1="0" x2="0" y2="1" gradientTransform="matrix(64,0,0,64,0,0)">
<stop offset="0" style="stop-color:rgb(3.921569%,74.117649%,77.64706%);stop-opacity:1;"/>
<stop offset="1" style="stop-color:rgb(72.156864%,0%,100%);stop-opacity:1;"/>
</linearGradient>
</defs>
<g id="surface1">
<path style=" stroke:none;fill-rule:nonzero;fill:url(#linear0);" d="M 8 0 C 0 0 0 8 0 8 L 0 44.007812 C 0 44.007812 0 52.007812 8 52.007812 L 56 52.007812 C 56 52.007812 63.996094 52.007812 64 44.007812 L 64 8 C 64 8 64 0 56 0 Z M 20 8 L 44 23.40625 L 32.296875 31.703125 L 20.585938 40 L 20.296875 24 Z M 15.914062 56.007812 C 15.914062 56.007812 12 56.015625 12 60.015625 L 12 64 L 52 64 L 52 60.015625 C 52 56.015625 48 56.007812 48 56.007812 Z M 15.914062 56.007812 "/>
</g>
</svg>
