<?xml version="1.0" encoding="UTF-8"?>
<svg xmlns="http://www.w3.org/2000/svg" xmlns:xlink="http://www.w3.org/1999/xlink" width="64px" height="64px" viewBox="0 0 64 64" version="1.1">
<defs>
<linearGradient id="linear0" gradientUnits="userSpaceOnUse" x1="0" y1="0" x2="0" y2="1" gradientTransform="matrix(56,0,0,56,4,4)">
<stop offset="0" style="stop-color:rgb(3.921569%,74.117649%,77.64706%);stop-opacity:1;"/>
<stop offset="1" style="stop-color:rgb(72.156864%,0%,100%);stop-opacity:1;"/>
</linearGradient>
</defs>
<g id="surface1">
<path style=" stroke:none;fill-rule:nonzero;fill:url(#linear0);" d="M 8 4 C 8 4 7.695312 4.015625 7.273438 4.09375 C 6.457031 4.214844 5.839844 4.507812 5.382812 4.90625 C 5.292969 4.972656 5.210938 5.046875 5.125 5.125 C 5.046875 5.210938 4.972656 5.292969 4.90625 5.382812 C 4.507812 5.839844 4.214844 6.457031 4.09375 7.273438 C 4.015625 7.695312 4 8 4 8 L 4 56 C 4 60 8 60 8 60 L 56 60 C 56 60 60 60 60 56 L 60 8 C 60 8 59.980469 7.695312 59.90625 7.273438 C 59.78125 6.457031 59.492188 5.839844 59.09375 5.382812 C 59.027344 5.292969 58.949219 5.210938 58.875 5.125 C 58.789062 5.046875 58.707031 4.972656 58.617188 4.90625 C 58.160156 4.507812 57.542969 4.214844 56.726562 4.09375 C 56.300781 4.015625 56 4 56 4 Z M 12 24 L 52 24 L 52 52 L 12 52 Z M 32 28 L 32 36 L 20 36 L 20 40 L 32 40 L 32 48 L 44 38 Z M 32 28 "/>
</g>
</svg>
