<?xml version="1.0" encoding="UTF-8"?>
<svg xmlns="http://www.w3.org/2000/svg" xmlns:xlink="http://www.w3.org/1999/xlink" width="64px" height="64px" viewBox="0 0 64 64" version="1.1">
<defs>
<linearGradient id="linear0" gradientUnits="userSpaceOnUse" x1="0" y1="0" x2="0" y2="1" gradientTransform="matrix(48,0,0,48,8.007812,8.015625)">
<stop offset="0" style="stop-color:rgb(3.921569%,74.117649%,77.64706%);stop-opacity:1;"/>
<stop offset="1" style="stop-color:rgb(72.156864%,0%,100%);stop-opacity:1;"/>
</linearGradient>
</defs>
<g id="surface1">
<path style=" stroke:none;fill-rule:nonzero;fill:url(#linear0);" d="M 12.757812 8.015625 C 10.105469 8.015625 8.007812 10.210938 8.007812 12.890625 L 8.007812 28.015625 L 16.007812 28.015625 L 16.007812 16.015625 L 28.007812 16.015625 L 28.007812 8.015625 Z M 36.007812 8.015625 L 36.007812 16.015625 L 48.007812 16.015625 L 48.007812 28.015625 L 56.007812 28.015625 L 56.007812 12.890625 C 56.007812 10.210938 53.910156 8.015625 51.257812 8.015625 Z M 23.960938 24 L 23.960938 40 L 39.960938 40 L 39.960938 24 Z M 8.007812 36.015625 L 8.007812 51.140625 C 8.007812 53.820312 10.105469 56.015625 12.757812 56.015625 L 28.007812 56.015625 L 28.007812 48.015625 L 16.007812 48.015625 L 16.007812 36.015625 Z M 48.007812 36.015625 L 48.007812 48.015625 L 36.007812 48.015625 L 36.007812 56.015625 L 51.257812 56.015625 C 53.910156 56.015625 56.007812 53.820312 56.007812 51.140625 L 56.007812 36.015625 Z M 48.007812 36.015625 "/>
</g>
</svg>
