<?xml version="1.0" encoding="UTF-8"?>
<svg xmlns="http://www.w3.org/2000/svg" xmlns:xlink="http://www.w3.org/1999/xlink" width="64px" height="64px" viewBox="0 0 64 64" version="1.1">
<defs>
<linearGradient id="linear0" gradientUnits="userSpaceOnUse" x1="0" y1="0" x2="0" y2="1" gradientTransform="matrix(61.554688,0,0,64,1.222656,0)">
<stop offset="0" style="stop-color:rgb(3.921569%,74.117649%,77.64706%);stop-opacity:1;"/>
<stop offset="1" style="stop-color:rgb(72.156864%,0%,100%);stop-opacity:1;"/>
</linearGradient>
</defs>
<g id="surface1">
<path style=" stroke:none;fill-rule:nonzero;fill:url(#linear0);" d="M 32.003906 0 C 31.574219 -0.0078125 31.152344 0.0976562 30.777344 0.308594 L 2.390625 17.539062 C 1.460938 18.125 1.023438 19.246094 1.3125 20.308594 C 1.59375 21.386719 2.550781 22.15625 3.625 22.15625 L 60.386719 22.15625 C 61.695312 22.15625 62.773438 21.058594 62.773438 19.691406 C 62.773438 18.652344 62.175781 17.746094 61.3125 17.382812 L 33.164062 0.308594 C 32.816406 0.0976562 32.410156 -0.0078125 32.003906 0 Z M 32.003906 8.230469 C 34.9375 8.234375 37.308594 10.613281 37.3125 13.539062 C 37.308594 16.46875 34.9375 18.839844 32.003906 18.84375 C 29.074219 18.839844 26.703125 16.46875 26.699219 13.539062 C 26.703125 10.613281 29.074219 8.234375 32.003906 8.230469 Z M 3.699219 24.617188 L 3.699219 27.074219 C 3.699219 28.433594 4.808594 29.539062 6.160156 29.539062 L 6.160156 49.230469 L 13.542969 49.230469 L 13.542969 29.539062 C 14.898438 29.539062 16.007812 28.433594 16.007812 27.074219 L 16.007812 24.617188 Z M 18.46875 24.617188 L 18.46875 27.074219 C 18.46875 28.433594 19.574219 29.539062 20.929688 29.539062 L 20.929688 49.230469 L 28.3125 49.230469 L 28.3125 29.539062 C 29.667969 29.539062 30.777344 28.433594 30.777344 27.074219 L 30.777344 24.617188 Z M 33.234375 24.617188 L 33.234375 27.074219 C 33.234375 28.433594 34.34375 29.539062 35.699219 29.539062 L 35.699219 49.230469 L 43.085938 49.230469 L 43.085938 29.539062 C 44.4375 29.539062 45.542969 28.433594 45.542969 27.074219 L 45.542969 24.617188 Z M 48.003906 24.617188 L 48.003906 27.074219 C 48.003906 28.433594 49.113281 29.539062 50.46875 29.539062 L 50.46875 49.230469 L 57.851562 49.230469 L 57.851562 29.539062 C 59.203125 29.539062 60.3125 28.433594 60.3125 27.074219 L 60.3125 24.617188 Z M 6.160156 51.691406 L 6.160156 56.617188 L 3.699219 56.617188 C 2.34375 56.617188 1.234375 57.722656 1.234375 59.074219 L 1.234375 61.539062 C 1.234375 62.890625 2.34375 64 3.699219 64 L 60.3125 64 C 61.667969 64 62.777344 62.890625 62.777344 61.539062 L 62.777344 59.074219 C 62.777344 57.722656 61.667969 56.617188 60.3125 56.617188 L 57.851562 56.617188 L 57.851562 51.691406 Z M 6.160156 51.691406 "/>
</g>
</svg>
