<?xml version="1.0" encoding="UTF-8"?>
<svg xmlns="http://www.w3.org/2000/svg" xmlns:xlink="http://www.w3.org/1999/xlink" width="64px" height="64px" viewBox="0 0 64 64" version="1.1">
<defs>
<linearGradient id="linear0" gradientUnits="userSpaceOnUse" x1="0" y1="0" x2="0" y2="1" gradientTransform="matrix(56,0,0,56,4,4)">
<stop offset="0" style="stop-color:rgb(3.921569%,74.117649%,77.64706%);stop-opacity:1;"/>
<stop offset="1" style="stop-color:rgb(72.156864%,0%,100%);stop-opacity:1;"/>
</linearGradient>
</defs>
<g id="surface1">
<path style=" stroke:none;fill-rule:nonzero;fill:url(#linear0);" d="M 31.996094 4 C 16.820312 4 4.554688 15.921875 4 30.949219 C 8 41.464844 18.167969 48.886719 30.125 48.886719 C 38.578125 48.886719 46.101562 45.179688 51.214844 39.285156 C 49.113281 49.136719 41.859375 57.011719 32.386719 60 C 47.730469 59.808594 60 47.40625 60 32.003906 C 60 16.476562 47.523438 4.011719 32.003906 4.011719 "/>
</g>
</svg>
