<?xml version="1.0" encoding="UTF-8"?>
<svg xmlns="http://www.w3.org/2000/svg" xmlns:xlink="http://www.w3.org/1999/xlink" width="64px" height="64px" viewBox="0 0 64 64" version="1.1">
<defs>
<linearGradient id="linear0" gradientUnits="userSpaceOnUse" x1="0" y1="0" x2="0" y2="1" gradientTransform="matrix(60,0,0,47.992187,2,8.003906)">
<stop offset="0" style="stop-color:rgb(3.921569%,74.117649%,77.64706%);stop-opacity:1;"/>
<stop offset="1" style="stop-color:rgb(72.156864%,0%,100%);stop-opacity:1;"/>
</linearGradient>
</defs>
<g id="surface1">
<path style=" stroke:none;fill-rule:nonzero;fill:url(#linear0);" d="M 30 8.003906 L 30 10.003906 L 34 10.003906 L 34 8.003906 Z M 30 12.003906 L 30 14.003906 L 34 14.003906 L 34 12.003906 Z M 30 16.003906 L 30 28.003906 L 16 28.003906 C 15.867188 28 15.730469 28.011719 15.601562 28.035156 C 9.445312 28.210938 4.078125 32.398438 2.476562 38.378906 C 0.839844 44.492188 3.519531 50.964844 9 54.128906 C 14.433594 57.265625 21.304688 56.378906 25.78125 52.003906 L 38.21875 52.003906 C 42.695312 56.378906 49.566406 57.265625 55 54.128906 C 60.480469 50.964844 63.160156 44.492188 61.523438 38.378906 C 59.921875 32.390625 54.542969 28.203125 48.375 28.035156 C 48.253906 28.011719 48.125 28.003906 48 28.003906 L 34 28.003906 L 34 16.003906 Z M 16 32.003906 L 48 32.003906 C 52.535156 32.003906 56.492188 35.035156 57.664062 39.414062 C 58.835938 43.800781 56.929688 48.398438 53 50.667969 C 49.289062 52.8125 44.695312 52.316406 41.492188 49.546875 C 40.96875 49.03125 40.457031 47.988281 39.515625 48.003906 L 24.484375 48.003906 C 23.546875 47.992188 22.90625 49.070312 22.515625 49.542969 C 19.3125 52.3125 14.714844 52.8125 11 50.667969 C 7.070312 48.398438 5.167969 43.800781 6.34375 39.414062 C 7.515625 35.035156 11.464844 32.003906 16 32.003906 Z M 14 36.003906 L 14 40.003906 L 10 40.003906 L 10 44.003906 L 14 44.003906 L 14 48.003906 L 18 48.003906 L 18 44.003906 L 22 44.003906 L 22 40.003906 L 18 40.003906 L 18 36.003906 Z M 48 36.003906 C 46.894531 36.003906 46 36.898438 46 38.003906 C 46 39.109375 46.894531 40.003906 48 40.003906 C 49.105469 40.003906 50 39.109375 50 38.003906 C 50 36.898438 49.105469 36.003906 48 36.003906 Z M 44 40.003906 C 42.894531 40.003906 42 40.898438 42 42.003906 C 42 43.109375 42.894531 44.003906 44 44.003906 C 45.105469 44.003906 46 43.109375 46 42.003906 C 46 40.898438 45.105469 40.003906 44 40.003906 Z M 52 40.003906 C 50.894531 40.003906 50 40.898438 50 42.003906 C 50 43.109375 50.894531 44.003906 52 44.003906 C 53.105469 44.003906 54 43.109375 54 42.003906 C 54 40.898438 53.105469 40.003906 52 40.003906 Z M 48 44.003906 C 46.894531 44.003906 46 44.898438 46 46.003906 C 46 47.109375 46.894531 48.003906 48 48.003906 C 49.105469 48.003906 50 47.109375 50 46.003906 C 50 44.898438 49.105469 44.003906 48 44.003906 Z M 48 44.003906 "/>
</g>
</svg>
