<?xml version="1.0" encoding="UTF-8"?>
<svg xmlns="http://www.w3.org/2000/svg" xmlns:xlink="http://www.w3.org/1999/xlink" width="64px" height="64px" viewBox="0 0 64 64" version="1.1">
<defs>
<linearGradient id="linear0" gradientUnits="userSpaceOnUse" x1="0" y1="0" x2="0" y2="1" gradientTransform="matrix(61.527344,0,0,64,1.238281,0)">
<stop offset="0" style="stop-color:rgb(3.921569%,74.117649%,77.64706%);stop-opacity:1;"/>
<stop offset="1" style="stop-color:rgb(72.156864%,0%,100%);stop-opacity:1;"/>
</linearGradient>
</defs>
<g id="surface1">
<path style=" stroke:none;fill-rule:nonzero;fill:url(#linear0);" d="M 28.226562 63.769531 C 28.03125 63.640625 27.726562 63.535156 27.546875 63.535156 C 27.113281 63.535156 27.046875 63.300781 27.324219 62.753906 C 27.886719 61.648438 28.257812 60.207031 28.390625 58.617188 C 28.550781 56.652344 28.558594 52.511719 28.402344 51.667969 C 28.214844 50.675781 27.765625 49.855469 27.316406 49.691406 C 27.105469 49.613281 26.84375 49.5 26.730469 49.441406 C 26.378906 49.253906 25.664062 49.328125 25.050781 49.613281 C 24.25 49.988281 23.558594 50.601562 23.628906 50.878906 C 23.710938 51.191406 23.238281 51.824219 22.71875 52.09375 C 22.234375 52.347656 22.09375 52.515625 21.464844 53.601562 C 21.246094 53.980469 20.871094 54.507812 20.628906 54.777344 L 20.1875 55.261719 L 20.429688 54.617188 C 20.5625 54.261719 20.730469 53.820312 20.796875 53.640625 C 20.863281 53.460938 20.890625 53.285156 20.855469 53.25 C 20.820312 53.214844 20.078125 53.363281 19.207031 53.582031 C 18.335938 53.800781 17.648438 53.9375 17.683594 53.882812 C 17.808594 53.679688 18.734375 53.296875 19.484375 53.140625 C 19.921875 53.046875 20.378906 52.941406 20.5 52.898438 C 21.226562 52.640625 21.949219 51.667969 21.585938 51.4375 C 21.496094 51.378906 21.253906 51.332031 21.046875 51.332031 C 20.066406 51.328125 20.617188 50.777344 22.277344 50.105469 C 24.648438 49.144531 26.40625 48.152344 26.40625 47.773438 C 26.40625 47.496094 24.335938 44.476562 23.761719 43.914062 C 23.453125 43.609375 23.046875 43.328125 22.867188 43.285156 C 22.472656 43.199219 21.660156 43.554688 21.644531 43.820312 C 21.636719 43.917969 21.625 44.0625 21.613281 44.144531 C 21.589844 44.347656 20.894531 44.757812 20.570312 44.757812 C 20.234375 44.757812 19.925781 45.230469 19.894531 45.792969 C 19.867188 46.261719 18.332031 49.0625 18.125 49.015625 C 18.066406 49 17.992188 48.792969 17.957031 48.550781 L 17.898438 48.109375 L 17.710938 48.398438 C 17.605469 48.558594 17.480469 48.820312 17.429688 48.984375 C 17.378906 49.144531 17.15625 49.664062 16.933594 50.144531 C 16.710938 50.621094 16.472656 51.324219 16.398438 51.707031 C 16.273438 52.386719 16.246094 52.425781 15.441406 53.039062 C 14.988281 53.390625 14.402344 53.84375 14.144531 54.050781 L 13.675781 54.425781 L 14.035156 54.023438 C 15.164062 52.761719 15.835938 51.554688 16.144531 50.234375 C 16.261719 49.742188 16.324219 49.304688 16.28125 49.261719 C 16.238281 49.21875 15.90625 49.417969 15.539062 49.699219 C 14.335938 50.636719 14.386719 50.609375 14.480469 50.242188 C 14.59375 49.78125 14.289062 49.816406 13.113281 50.40625 C 12.351562 50.789062 12.199219 50.835938 12.382812 50.628906 C 12.921875 50.027344 13.695312 49.589844 14.671875 49.332031 C 15.867188 49.015625 16.277344 48.789062 16.8125 48.128906 C 17.207031 47.640625 18.074219 46.175781 18.074219 45.992188 C 18.074219 45.800781 16.546875 46.027344 15.996094 46.300781 C 15.53125 46.53125 15.425781 46.644531 15.359375 46.988281 C 15.269531 47.445312 14.707031 47.992188 14.210938 48.101562 C 14.039062 48.136719 13.667969 48.324219 13.378906 48.515625 C 12.777344 48.914062 12.664062 48.8125 13.035156 48.214844 C 13.175781 47.984375 13.265625 47.769531 13.230469 47.734375 C 13.195312 47.703125 12.964844 47.78125 12.71875 47.910156 C 12.25 48.148438 12.042969 48.304688 10.511719 49.546875 C 10.007812 49.953125 9.574219 50.257812 9.542969 50.226562 C 9.511719 50.195312 9.621094 49.992188 9.789062 49.773438 C 9.957031 49.550781 10.097656 49.332031 10.097656 49.28125 C 10.097656 49.230469 9.804688 49.226562 9.449219 49.269531 C 9.070312 49.316406 8.804688 49.304688 8.804688 49.242188 C 8.804688 49.179688 9.246094 48.964844 9.78125 48.761719 C 10.792969 48.378906 11.980469 47.726562 12.378906 47.335938 C 12.609375 47.109375 12.609375 47.105469 12.378906 46.9375 C 12.167969 46.78125 12.195312 46.761719 12.761719 46.6875 C 13.144531 46.636719 13.59375 46.464844 13.957031 46.230469 C 14.421875 45.933594 14.898438 45.785156 16.394531 45.476562 C 17.414062 45.269531 18.417969 45.042969 18.625 44.980469 C 19.023438 44.855469 19.835938 44.042969 19.835938 43.773438 C 19.835938 43.554688 19 43.175781 18.132812 43.003906 C 17.746094 42.925781 17.042969 42.777344 16.566406 42.675781 C 15.820312 42.511719 15.628906 42.507812 15.15625 42.644531 C 14.859375 42.730469 14.390625 42.8125 14.113281 42.820312 C 13.742188 42.835938 13.503906 42.933594 13.175781 43.210938 C 12.933594 43.414062 12.261719 43.871094 11.679688 44.226562 C 11.097656 44.582031 10.285156 45.085938 9.871094 45.34375 C 9.046875 45.855469 8.757812 45.859375 9.363281 45.351562 C 9.976562 44.835938 9.875 44.722656 8.894531 44.808594 C 7.8125 44.902344 8.023438 44.761719 9.566406 44.355469 C 10.664062 44.0625 11.621094 43.597656 11.621094 43.355469 C 11.621094 43.296875 11.265625 43.210938 10.828125 43.167969 C 9.558594 43.03125 9.445312 42.894531 10.597656 42.886719 C 11.410156 42.878906 11.734375 42.824219 12.121094 42.628906 C 12.726562 42.320312 13.382812 41.808594 13.382812 41.640625 C 13.382812 41.417969 11.242188 40.554688 10.214844 40.363281 C 9.664062 40.261719 8.75 40.09375 8.179688 39.988281 C 7.269531 39.816406 7.003906 39.8125 5.980469 39.945312 C 5.046875 40.070312 4.6875 40.070312 4.171875 39.957031 C 3.496094 39.804688 3.339844 39.636719 3.789062 39.542969 C 3.933594 39.515625 4.265625 39.449219 4.523438 39.398438 C 4.78125 39.347656 5.585938 39.320312 6.3125 39.339844 C 7.039062 39.355469 7.632812 39.324219 7.632812 39.265625 C 7.632812 39.132812 6.828125 38.558594 5.871094 38.015625 C 4.8125 37.410156 5.4375 37.574219 7.265625 38.378906 C 10.125 39.640625 11.925781 40.15625 11.632812 39.621094 C 11.570312 39.511719 11.171875 39.035156 10.742188 38.566406 C 10.3125 38.097656 10.007812 37.714844 10.070312 37.714844 C 10.128906 37.714844 10.699219 38.199219 11.339844 38.789062 C 13.796875 41.058594 14.167969 41.226562 16.167969 41.019531 C 17.789062 40.847656 20.699219 40.4375 20.949219 40.339844 C 21.222656 40.234375 21.175781 40.132812 20.523438 39.421875 C 19.8125 38.644531 19.207031 38.277344 15.585938 36.441406 C 12.175781 34.714844 12.21875 34.726562 11.5 34.980469 C 11.015625 35.15625 10.882812 35.160156 10.46875 35.023438 C 9.910156 34.839844 9.214844 34.902344 7.984375 35.25 C 7.414062 35.414062 6.609375 35.523438 5.695312 35.5625 C 4.902344 35.597656 4.078125 35.699219 3.804688 35.800781 C 3.269531 35.996094 2.6875 35.972656 2.617188 35.753906 C 2.589844 35.675781 2.691406 35.589844 2.839844 35.558594 C 3.996094 35.339844 4.417969 35.222656 4.574219 35.085938 C 4.703125 34.972656 5.257812 34.910156 6.457031 34.871094 C 7.742188 34.828125 8.300781 34.761719 8.738281 34.59375 C 9.054688 34.472656 9.332031 34.3125 9.355469 34.242188 C 9.378906 34.175781 9.171875 34.019531 8.898438 33.902344 C 8.621094 33.785156 7.945312 33.488281 7.398438 33.246094 C 6.386719 32.792969 5.535156 32.613281 3.007812 32.316406 C 1.519531 32.140625 1.425781 32.105469 1.761719 31.851562 L 2.023438 31.652344 L 1.628906 31.390625 L 1.238281 31.128906 L 1.589844 31.179688 C 1.78125 31.210938 2.863281 31.476562 3.996094 31.773438 C 6.285156 32.378906 6.8125 32.441406 6.8125 32.097656 C 6.8125 31.730469 5.953125 30.769531 5.480469 30.609375 C 5.320312 30.554688 5.285156 30.464844 5.339844 30.246094 C 5.492188 29.625 4.621094 28.769531 2.492188 27.453125 C 1.890625 27.082031 1.421875 26.753906 1.453125 26.722656 C 1.484375 26.691406 1.894531 26.832031 2.367188 27.027344 C 3.234375 27.394531 3.527344 27.460938 3.523438 27.300781 C 3.519531 27.253906 3.230469 26.824219 2.878906 26.347656 C 2.523438 25.871094 2.234375 25.433594 2.234375 25.378906 C 2.234375 25.238281 2.554688 25.25 2.644531 25.394531 C 2.683594 25.460938 2.808594 25.511719 2.925781 25.511719 C 3.058594 25.511719 3.371094 25.898438 3.816406 26.617188 C 4.191406 27.226562 4.832031 28.109375 5.238281 28.582031 C 5.644531 29.058594 6.449219 30.050781 7.027344 30.792969 C 7.808594 31.800781 8.234375 32.238281 8.707031 32.519531 C 9.460938 32.976562 11.777344 33.867188 12.253906 33.886719 C 13.066406 33.921875 12.578125 33.257812 11.101562 32.304688 C 10.515625 31.929688 9.933594 31.542969 9.804688 31.445312 C 9.570312 31.273438 9.570312 31.273438 9.832031 31.269531 C 9.976562 31.265625 10.097656 31.222656 10.097656 31.175781 C 10.097656 31.128906 9.527344 30.523438 8.835938 29.828125 C 7.582031 28.566406 7.414062 28.292969 8.253906 28.863281 C 8.511719 29.039062 8.78125 29.136719 8.90625 29.097656 C 9.15625 29.015625 9.960938 29.824219 11.644531 31.859375 C 13.328125 33.886719 13.992188 34.445312 15.359375 34.964844 C 16.683594 35.472656 17.007812 35.65625 18.199219 36.554688 C 19.371094 37.4375 19.839844 37.714844 20.160156 37.714844 C 20.492188 37.714844 20.496094 37.5 20.175781 36.859375 C 19.800781 36.113281 19.058594 35.195312 18.570312 34.875 C 18.332031 34.714844 17.761719 34.445312 17.304688 34.273438 C 16.789062 34.074219 16.1875 33.71875 15.71875 33.335938 C 14.695312 32.496094 14.0625 32.074219 13.082031 31.582031 C 12.089844 31.082031 11.625 30.652344 12.496094 31.035156 C 12.925781 31.226562 13.082031 31.25 13.210938 31.140625 C 13.34375 31.03125 13.535156 31.121094 14.1875 31.601562 C 14.632812 31.929688 15.027344 32.203125 15.070312 32.203125 C 15.109375 32.203125 15.144531 32.085938 15.144531 31.945312 C 15.144531 31.738281 15.277344 31.824219 15.933594 32.453125 C 17.171875 33.640625 18.550781 34.46875 18.917969 34.242188 C 19.089844 34.136719 17.386719 32.433594 16.285156 31.609375 C 15.785156 31.230469 15.046875 30.632812 14.644531 30.277344 C 14.242188 29.921875 13.523438 29.363281 13.050781 29.039062 C 12.222656 28.46875 12.160156 28.445312 11.390625 28.445312 C 10.359375 28.445312 9.566406 28.195312 6.71875 26.976562 C 4.40625 25.984375 3.964844 25.746094 4.425781 25.746094 C 4.757812 25.746094 5.355469 25.964844 6.949219 26.671875 C 8.550781 27.382812 9.863281 27.742188 10.867188 27.742188 C 11.695312 27.742188 11.972656 27.667969 11.972656 27.449219 C 11.972656 27.367188 11.472656 26.824219 10.863281 26.238281 C 9.800781 25.222656 9.710938 25.164062 8.75 24.871094 C 8.105469 24.675781 7.601562 24.4375 7.339844 24.207031 C 6.847656 23.773438 6.804688 23.566406 7.25 23.792969 C 7.785156 24.0625 9.140625 24.476562 9.355469 24.433594 C 9.660156 24.375 8.933594 23.613281 7.933594 22.933594 C 6.769531 22.148438 5.359375 21.007812 5.492188 20.964844 C 5.554688 20.941406 6.082031 21.183594 6.660156 21.496094 C 7.847656 22.144531 8.101562 22.253906 8.101562 22.132812 C 8.101562 22.089844 7.601562 21.441406 6.988281 20.699219 C 5.867188 19.34375 5.558594 18.839844 6.238281 19.476562 C 6.691406 19.902344 9.011719 22.5 10.265625 23.984375 C 10.777344 24.589844 11.214844 25.027344 11.242188 24.953125 C 11.265625 24.882812 11.011719 24.144531 10.675781 23.320312 C 9.929688 21.476562 9.808594 21.097656 10.027344 21.28125 C 10.226562 21.445312 10.832031 22.675781 11.742188 24.777344 C 12.628906 26.816406 13.226562 27.683594 14.804688 29.214844 C 16.230469 30.597656 17.289062 31.371094 17.351562 31.078125 C 17.375 30.972656 16.988281 30.074219 16.492188 29.082031 C 15.703125 27.496094 15.464844 27.136719 14.539062 26.105469 C 13.582031 25.039062 11.617188 22.15625 11.625 21.828125 C 11.632812 21.601562 13.085938 23.207031 13.316406 23.695312 C 13.6875 24.480469 14.109375 25.050781 14.460938 25.230469 C 14.761719 25.386719 14.789062 25.382812 14.789062 25.191406 C 14.789062 24.839844 14.101562 23.511719 13.496094 22.695312 C 13.179688 22.265625 12.046875 21.082031 10.980469 20.066406 C 9.914062 19.046875 9.039062 18.164062 9.039062 18.109375 C 9.039062 18.050781 9.199219 18 9.394531 18 C 9.640625 18 9.855469 18.117188 10.105469 18.382812 L 10.464844 18.765625 L 10.398438 18.414062 C 10.203125 17.398438 10.1875 17.242188 10.300781 17.355469 C 10.363281 17.421875 10.558594 17.851562 10.734375 18.3125 C 11.136719 19.394531 11.820312 20.339844 12.527344 20.8125 C 12.992188 21.117188 13.097656 21.152344 13.128906 20.996094 C 13.148438 20.890625 13.082031 20.679688 12.980469 20.523438 C 12.878906 20.367188 12.796875 20.179688 12.796875 20.109375 C 12.796875 19.949219 13.171875 20.414062 13.78125 21.316406 C 14.027344 21.6875 14.277344 21.992188 14.335938 21.992188 C 14.539062 21.992188 14.421875 21.554688 13.804688 19.996094 C 13.457031 19.125 13.195312 18.390625 13.21875 18.363281 C 13.390625 18.179688 14.554688 20.480469 14.554688 20.996094 C 14.554688 21.210938 14.671875 21.683594 14.8125 22.050781 C 15.03125 22.628906 15.261719 22.898438 16.539062 24.085938 C 17.347656 24.835938 18.855469 26.273438 19.890625 27.277344 C 21.65625 28.992188 22.574219 29.734375 22.734375 29.578125 C 22.828125 29.480469 22.257812 28.429688 21.464844 27.25 C 20.597656 25.960938 19.5625 24.851562 18.414062 23.976562 C 17.429688 23.226562 16.433594 22.273438 16.433594 22.085938 C 16.433594 21.960938 16.828125 22.238281 17.933594 23.128906 C 18.492188 23.585938 19.136719 23.984375 19.300781 23.984375 C 19.433594 23.984375 19.359375 23.609375 19.140625 23.191406 C 18.808594 22.550781 13.550781 17.265625 12.9375 16.957031 C 11.527344 16.246094 9.15625 14.53125 9.15625 14.222656 C 9.15625 14.042969 9.347656 14.136719 10.128906 14.703125 C 10.753906 15.160156 11.628906 15.628906 11.621094 15.5 C 11.621094 15.488281 11.167969 15.007812 10.617188 14.433594 C 9.320312 13.085938 8.417969 11.78125 8.78125 11.78125 C 8.832031 11.78125 9.347656 12.308594 9.925781 12.953125 C 10.503906 13.597656 11.066406 14.125 11.175781 14.125 C 11.285156 14.128906 11.886719 14.746094 12.515625 15.507812 C 13.144531 16.265625 14.0625 17.285156 14.5625 17.773438 C 15.507812 18.691406 17.398438 20.113281 17.679688 20.113281 C 18.175781 20.113281 17.5625 18.578125 16.515625 17.1875 C 15.203125 15.449219 12.773438 13.042969 11.464844 12.195312 C 11.230469 12.039062 11.152344 11.910156 11.195312 11.746094 C 11.238281 11.589844 11.117188 11.339844 10.835938 11 C 10.355469 10.414062 10.386719 10.230469 10.898438 10.597656 C 11.59375 11.089844 11.558594 10.945312 10.625 9.445312 C 10.203125 8.769531 9.863281 8.171875 9.863281 8.117188 C 9.863281 7.933594 10.601562 8.503906 11.175781 9.128906 C 11.804688 9.8125 11.867188 9.730469 11.445312 8.773438 C 11.28125 8.410156 11.171875 8.085938 11.199219 8.058594 C 11.273438 7.984375 12.722656 10.179688 13.796875 11.996094 C 14.71875 13.550781 15.851562 14.976562 16.035156 14.800781 C 16.144531 14.691406 16.011719 14.15625 15.359375 12.074219 L 14.882812 10.550781 L 13.828125 9.484375 C 12.695312 8.335938 12.566406 8.175781 12.5625 7.914062 C 12.5625 7.820312 12.816406 7.996094 13.136719 8.3125 C 13.515625 8.683594 13.78125 8.855469 13.898438 8.808594 C 14.019531 8.761719 14.1875 8.886719 14.398438 9.175781 C 14.574219 9.414062 14.863281 9.769531 15.042969 9.964844 C 15.363281 10.316406 16.328125 12.941406 17.921875 17.824219 C 18.277344 18.921875 18.835938 20.402344 19.15625 21.113281 C 19.476562 21.820312 19.796875 22.535156 19.863281 22.695312 L 19.984375 22.988281 L 20.085938 22.636719 C 20.308594 21.890625 19.910156 18.9375 19.421875 17.707031 C 19.191406 17.132812 19.15625 16.898438 19.226562 16.417969 L 19.316406 15.832031 L 19.769531 17.09375 C 20.199219 18.300781 20.269531 18.414062 21.230469 19.449219 C 21.789062 20.046875 22.605469 20.96875 23.050781 21.496094 C 24.273438 22.949219 24.894531 23.25 24.242188 22.074219 C 23.875 21.410156 22.015625 18.652344 20.210938 16.097656 C 18.628906 13.855469 17.570312 11.953125 16.847656 10.054688 C 15.886719 7.535156 15.878906 7.515625 14.917969 7.152344 C 14.46875 6.980469 14.039062 6.761719 13.960938 6.671875 C 13.734375 6.394531 14.628906 6.453125 15.097656 6.746094 C 15.457031 6.964844 15.5 6.972656 15.566406 6.796875 C 15.609375 6.691406 15.582031 6.472656 15.507812 6.3125 C 15.320312 5.894531 15.339844 5.738281 15.566406 5.925781 C 15.671875 6.011719 16.117188 6.824219 16.558594 7.730469 C 17.320312 9.292969 17.363281 9.351562 17.367188 8.886719 C 17.371094 8.621094 17.183594 7.757812 16.957031 6.96875 C 16.726562 6.179688 16.558594 5.476562 16.582031 5.402344 C 16.636719 5.238281 17.039062 6.445312 17.375 7.78125 C 18.171875 10.972656 20.308594 15.652344 21.46875 16.761719 L 21.832031 17.105469 L 21.832031 16.8125 C 21.832031 15.996094 20.566406 13.085938 20.082031 12.785156 C 20.011719 12.742188 19.898438 12.601562 19.832031 12.476562 C 19.71875 12.265625 19.734375 12.25 20.003906 12.320312 C 20.199219 12.367188 20.304688 12.347656 20.304688 12.253906 C 20.304688 12.0625 19.261719 9.292969 18.597656 7.730469 C 17.621094 5.414062 17.570312 5.132812 18.335938 6.242188 C 18.820312 6.945312 18.90625 6.675781 18.503906 5.71875 C 18.34375 5.34375 18.230469 5.019531 18.25 4.996094 C 18.269531 4.976562 18.398438 5.03125 18.539062 5.113281 C 18.746094 5.246094 18.804688 5.242188 18.894531 5.097656 C 19.03125 4.875 19.035156 4.882812 19.460938 5.855469 C 20.128906 7.394531 21.3125 9.523438 21.433594 9.402344 C 21.488281 9.347656 21.109375 8.230469 20.320312 6.128906 C 19.601562 4.21875 19.5625 3.910156 20.113281 4.53125 C 20.398438 4.851562 20.613281 5.335938 20.933594 6.359375 C 21.179688 7.144531 21.597656 8.152344 21.898438 8.679688 C 22.191406 9.191406 22.570312 10.074219 22.738281 10.640625 C 23.023438 11.59375 23.113281 11.738281 23.976562 12.691406 C 24.484375 13.257812 25.277344 14.269531 25.738281 14.9375 C 26.195312 15.609375 26.59375 16.097656 26.617188 16.019531 C 26.800781 15.46875 24.433594 9.917969 23.171875 7.949219 C 22.960938 7.617188 22.308594 6.824219 21.722656 6.1875 C 20.699219 5.078125 20.242188 4.402344 20.332031 4.136719 C 20.355469 4.066406 20.605469 4.3125 20.890625 4.683594 C 21.5 5.46875 22.40625 6.207031 22.566406 6.046875 C 22.753906 5.859375 22.332031 4.835938 21.816406 4.210938 C 21.375 3.679688 21.355469 3.625 21.574219 3.589844 C 21.71875 3.566406 21.832031 3.449219 21.855469 3.296875 C 21.890625 3.074219 21.933594 3.105469 22.144531 3.511719 C 22.28125 3.769531 22.511719 4.375 22.65625 4.859375 C 22.800781 5.34375 23.074219 6.082031 23.261719 6.5 C 23.554688 7.15625 23.621094 7.234375 23.726562 7.050781 C 23.8125 6.898438 23.804688 6.609375 23.707031 6.085938 C 23.628906 5.675781 23.589844 5.273438 23.621094 5.1875 C 23.652344 5.105469 23.738281 5.351562 23.820312 5.738281 C 24.289062 8.035156 24.960938 10.195312 25.113281 9.894531 C 25.25 9.617188 25.03125 7.199219 24.785156 6.265625 C 24.441406 4.972656 24.066406 4.039062 23.886719 4.039062 C 23.484375 4.039062 22.824219 2.796875 22.53125 1.492188 C 22.367188 0.769531 22.476562 0.714844 22.757812 1.371094 C 22.9375 1.785156 23.039062 1.894531 23.207031 1.851562 C 23.375 1.804688 23.453125 1.609375 23.554688 0.96875 C 23.746094 -0.257812 23.941406 -0.332031 23.945312 0.816406 C 23.949219 1.835938 24.164062 3.042969 24.460938 3.683594 C 24.566406 3.914062 24.628906 3.980469 24.601562 3.835938 C 24.550781 3.550781 24.8125 3.105469 24.953125 3.246094 C 25.070312 3.363281 25.183594 4.289062 25.410156 6.914062 C 25.628906 9.476562 25.722656 10.023438 26.167969 11.375 L 26.515625 12.425781 L 26.453125 11.488281 C 26.417969 10.972656 26.339844 10.128906 26.28125 9.613281 C 26.222656 9.097656 26.175781 8.546875 26.179688 8.382812 C 26.1875 8.09375 26.195312 8.097656 26.375 8.457031 C 26.476562 8.664062 26.648438 8.855469 26.761719 8.882812 C 26.910156 8.921875 27 9.144531 27.097656 9.695312 C 27.167969 10.109375 27.230469 10.554688 27.230469 10.675781 C 27.230469 10.800781 27.28125 10.980469 27.34375 11.074219 C 27.492188 11.316406 27.945312 10.289062 27.953125 9.691406 C 27.957031 9.449219 27.691406 8.460938 27.359375 7.492188 C 27.03125 6.527344 26.660156 5.203125 26.535156 4.546875 C 26.261719 3.125 26.078125 2.730469 25.378906 2.074219 C 24.945312 1.664062 24.875 1.542969 24.992188 1.402344 C 25.171875 1.1875 25.058594 0.984375 24.757812 0.984375 C 24.46875 0.984375 24.46875 0.84375 24.761719 0.578125 C 24.984375 0.375 25.003906 0.386719 25.4375 1.085938 C 25.757812 1.605469 25.933594 1.785156 26.074219 1.742188 C 26.289062 1.675781 26.417969 2 26.882812 3.773438 C 27.023438 4.304688 27.179688 4.742188 27.226562 4.742188 C 27.277344 4.742188 27.351562 4.386719 27.390625 3.949219 C 27.449219 3.335938 27.402344 2.839844 27.171875 1.757812 C 27.011719 0.988281 26.902344 0.335938 26.929688 0.308594 C 27.011719 0.226562 27.3125 0.894531 27.527344 1.632812 C 27.636719 2.019531 27.890625 2.652344 28.089844 3.039062 C 28.585938 4 28.628906 3.628906 28.234375 1.804688 C 27.902344 0.253906 27.878906 0.046875 28.046875 0.046875 C 28.105469 0.046875 28.269531 0.429688 28.40625 0.898438 C 29.066406 3.183594 29.851562 5.632812 29.957031 5.738281 C 30.195312 5.980469 29.902344 3.847656 29.5 2.457031 C 28.945312 0.527344 28.941406 0.5 29.285156 1.140625 C 29.519531 1.578125 29.636719 1.6875 29.804688 1.632812 C 29.992188 1.574219 30.042969 1.691406 30.210938 2.65625 C 30.597656 4.847656 30.972656 8.011719 31.050781 9.730469 C 31.148438 11.832031 31.222656 11.734375 31.628906 8.925781 C 32.011719 6.292969 32.003906 5.738281 31.550781 3.902344 C 31.273438 2.792969 31.210938 2.355469 31.304688 2.261719 C 31.402344 2.164062 31.472656 2.320312 31.578125 2.851562 C 31.800781 3.976562 31.945312 3.914062 32.105469 2.628906 C 32.148438 2.273438 32.214844 1.929688 32.253906 1.867188 C 32.367188 1.679688 32.484375 2.277344 32.5 3.097656 C 32.519531 4.152344 32.664062 4.328125 32.917969 3.609375 C 33.027344 3.296875 33.179688 2.90625 33.25 2.746094 C 33.382812 2.457031 33.382812 2.457031 33.425781 2.863281 C 33.480469 3.394531 33.03125 5.085938 32.609375 5.941406 C 32.296875 6.570312 32.15625 7.441406 32.367188 7.441406 C 32.507812 7.441406 33.820312 6.460938 34.09375 6.15625 C 34.304688 5.914062 34.335938 5.675781 34.386719 3.625 C 34.417969 2.378906 34.484375 1.316406 34.535156 1.269531 C 34.730469 1.074219 34.800781 1.425781 34.835938 2.816406 C 34.867188 4.027344 34.90625 4.273438 35.054688 4.273438 C 35.261719 4.273438 35.25 4.386719 34.875 5.914062 C 34.488281 7.488281 34.363281 8.515625 34.277344 10.792969 C 34.203125 12.789062 34.179688 12.949219 33.882812 13.519531 C 33.4375 14.367188 33.457031 14.625 33.933594 14.179688 L 34.300781 13.835938 L 34.21875 14.363281 C 34.175781 14.65625 34.097656 15.261719 34.050781 15.714844 C 33.992188 16.269531 33.839844 16.785156 33.585938 17.308594 C 32.976562 18.550781 32.816406 20.652344 32.910156 26.273438 C 33.023438 33.402344 33.101562 35.210938 33.296875 34.949219 C 33.726562 34.359375 34.375 31.558594 34.628906 29.207031 C 34.703125 28.5 35.019531 26.625 35.332031 25.042969 C 36.300781 20.152344 36.410156 18.628906 36.265625 11.890625 C 36.105469 4.496094 36.097656 1.808594 36.238281 1.671875 C 36.410156 1.496094 36.460938 1.742188 36.625 3.601562 C 36.8125 5.707031 36.910156 5.792969 37.207031 4.117188 C 37.285156 3.675781 37.394531 3.359375 37.445312 3.414062 C 37.6875 3.660156 37.5625 5.816406 37.148438 8.554688 C 36.949219 9.855469 36.910156 12.332031 37.082031 12.601562 C 37.167969 12.734375 37.289062 12.570312 37.597656 11.898438 C 38.402344 10.160156 38.960938 7.5625 38.960938 5.578125 C 38.964844 4.683594 38.992188 4.566406 39.25 4.324219 C 39.453125 4.140625 39.5625 3.875 39.617188 3.460938 C 39.703125 2.832031 39.902344 2.636719 39.902344 3.1875 C 39.898438 3.945312 39.632812 5.777344 39.203125 7.96875 C 38.949219 9.257812 38.6875 10.640625 38.613281 11.039062 C 38.542969 11.441406 38.335938 12.101562 38.15625 12.507812 C 37.769531 13.367188 37.652344 13.777344 37.792969 13.777344 C 37.96875 13.777344 38.382812 13.097656 39.054688 11.695312 C 39.609375 10.542969 39.726562 10.371094 39.761719 10.644531 C 39.8125 11.070312 39.441406 12.214844 38.71875 13.847656 C 38.402344 14.5625 38.144531 15.300781 38.152344 15.488281 L 38.160156 15.832031 L 38.324219 15.457031 C 38.511719 15.035156 38.679688 14.890625 38.785156 15.066406 C 38.828125 15.132812 38.90625 15.183594 38.957031 15.183594 C 39.011719 15.183594 39.441406 14.566406 39.917969 13.804688 C 41.464844 11.328125 41.917969 9.566406 41.484375 7.675781 C 41.191406 6.386719 41.148438 6.03125 41.292969 6.03125 C 41.363281 6.03125 41.496094 5.890625 41.585938 5.71875 C 41.738281 5.425781 41.753906 5.492188 41.832031 6.6875 C 41.875 7.390625 41.941406 8.148438 41.980469 8.371094 C 42.042969 8.734375 42.0625 8.75 42.203125 8.558594 C 42.289062 8.441406 42.445312 7.945312 42.554688 7.453125 C 42.820312 6.230469 42.867188 6.175781 43.125 6.761719 L 43.347656 7.257812 L 42.945312 8.429688 C 42.722656 9.074219 41.917969 10.898438 41.148438 12.480469 C 40.382812 14.066406 39.546875 15.832031 39.292969 16.410156 L 38.828125 17.460938 L 38.804688 19.199219 C 38.785156 20.496094 38.816406 20.933594 38.921875 20.933594 C 39 20.933594 39.320312 20.613281 39.628906 20.214844 C 40.390625 19.25 40.433594 19.5625 39.742188 21.03125 C 39.449219 21.65625 39.179688 22.335938 39.136719 22.542969 C 39.089844 22.800781 38.761719 23.21875 38.070312 23.917969 C 37.285156 24.707031 36.984375 25.113281 36.667969 25.800781 C 36.238281 26.730469 36.027344 27.480469 36.226562 27.355469 C 36.292969 27.3125 36.679688 26.769531 37.09375 26.148438 C 37.503906 25.523438 37.855469 25.0625 37.875 25.121094 C 37.894531 25.179688 37.804688 25.539062 37.675781 25.917969 C 37.351562 26.855469 37.371094 27.070312 37.742188 26.625 C 39.179688 24.90625 42.183594 18.550781 42.769531 15.988281 C 42.863281 15.578125 43.105469 14.160156 43.308594 12.839844 C 43.765625 9.875 44.023438 8.59375 44.414062 7.382812 C 44.949219 5.707031 45.132812 5.777344 44.726562 7.5 C 44.410156 8.839844 44.324219 9.550781 44.472656 9.550781 C 44.539062 9.550781 44.804688 9.144531 45.058594 8.644531 C 45.3125 8.144531 45.527344 7.78125 45.53125 7.84375 C 45.53125 7.902344 45.425781 8.347656 45.289062 8.828125 C 45.097656 9.511719 45.078125 9.722656 45.191406 9.792969 C 45.304688 9.863281 45.277344 10.027344 45.074219 10.511719 C 44.925781 10.855469 44.710938 11.242188 44.59375 11.371094 C 44.472656 11.5 44.320312 11.761719 44.246094 11.953125 C 44.085938 12.375 43.660156 14.835938 43.660156 15.332031 C 43.660156 15.691406 43.660156 15.691406 43.90625 15.46875 C 44.042969 15.34375 44.6875 14.597656 45.339844 13.804688 C 45.996094 13.011719 46.546875 12.414062 46.570312 12.476562 C 46.617188 12.621094 46.355469 13.03125 45.519531 14.128906 C 44.726562 15.167969 44.027344 16.300781 43.929688 16.710938 C 43.890625 16.871094 43.574219 17.3125 43.226562 17.6875 C 42.492188 18.488281 42.378906 18.695312 41.492188 20.875 C 41.128906 21.78125 40.449219 23.230469 39.992188 24.105469 C 38.503906 26.921875 38.261719 27.4375 38.144531 28.035156 C 38.082031 28.359375 37.996094 28.742188 37.957031 28.886719 C 37.914062 29.03125 37.929688 29.148438 37.988281 29.148438 C 38.234375 29.148438 39.382812 28.355469 39.691406 27.96875 C 40.03125 27.542969 40.960938 25.378906 41.402344 23.984375 C 41.535156 23.566406 41.914062 22.367188 42.242188 21.320312 C 42.570312 20.277344 42.898438 19.382812 42.972656 19.339844 C 43.195312 19.203125 42.972656 20.289062 42.46875 21.800781 C 42.214844 22.566406 42.019531 23.238281 42.039062 23.292969 C 42.058594 23.347656 42.464844 22.695312 42.945312 21.84375 C 45.980469 16.433594 46.519531 15.3125 47.246094 12.898438 C 47.535156 11.933594 47.5625 11.683594 47.550781 10.023438 C 47.535156 8.238281 47.667969 7.410156 47.835938 8.234375 C 47.953125 8.8125 48.0625 8.789062 48.339844 8.125 C 48.476562 7.792969 48.613281 7.542969 48.640625 7.574219 C 48.6875 7.621094 48.589844 8.898438 48.410156 10.550781 L 48.347656 11.136719 L 48.753906 10.433594 C 48.980469 10.046875 49.386719 9.226562 49.652344 8.613281 C 49.921875 8 50.183594 7.453125 50.234375 7.398438 C 50.285156 7.339844 50.390625 7.507812 50.46875 7.765625 C 50.601562 8.199219 50.589844 8.269531 50.324219 8.632812 C 50.03125 9.03125 49.171875 10.851562 49.171875 11.074219 C 49.171875 11.285156 49.476562 11.207031 49.722656 10.929688 C 49.855469 10.785156 50.226562 10.269531 50.550781 9.785156 C 51.175781 8.84375 51.644531 8.34375 51.476562 8.789062 C 51.234375 9.433594 50.265625 11.042969 49.808594 11.558594 C 49.523438 11.878906 49.289062 12.234375 49.289062 12.347656 C 49.289062 12.652344 48.972656 13.046875 48.472656 13.367188 C 48.101562 13.597656 47.886719 13.921875 47.242188 15.183594 C 46.8125 16.03125 45.953125 17.496094 45.332031 18.445312 C 44.558594 19.625 43.964844 20.710938 43.457031 21.875 C 43.046875 22.808594 42.308594 24.382812 41.816406 25.367188 C 41.324219 26.351562 40.953125 27.1875 40.992188 27.226562 C 41.117188 27.351562 41.867188 26.8125 42.390625 26.226562 C 42.667969 25.917969 43.523438 24.746094 44.296875 23.621094 C 45.066406 22.5 45.898438 21.347656 46.144531 21.066406 C 47.042969 20.03125 48.246094 18.121094 48.539062 17.269531 C 48.863281 16.308594 49.054688 16.027344 49.054688 16.511719 C 49.054688 16.6875 49.105469 16.828125 49.164062 16.828125 C 49.285156 16.828125 50.777344 14.878906 51.144531 14.242188 C 51.273438 14.019531 51.464844 13.53125 51.570312 13.160156 C 51.757812 12.5 51.988281 12.257812 51.988281 12.722656 C 51.988281 12.984375 52.21875 13.03125 52.4375 12.816406 C 52.546875 12.707031 52.578125 12.71875 52.578125 12.867188 C 52.578125 12.972656 52.664062 13.109375 52.769531 13.171875 C 52.949219 13.269531 52.941406 13.3125 52.710938 13.636719 C 52.570312 13.832031 52.203125 14.179688 51.898438 14.40625 C 51.128906 14.96875 49.984375 16.359375 48.777344 18.191406 C 47.535156 20.082031 47.496094 20.269531 48.476562 19.75 C 49.296875 19.3125 50.550781 18.195312 51.28125 17.246094 C 51.558594 16.886719 51.820312 16.59375 51.867188 16.59375 C 51.910156 16.59375 51.925781 16.757812 51.894531 16.960938 L 51.839844 17.332031 L 52.355469 17.050781 C 52.640625 16.894531 53.3125 16.332031 53.851562 15.796875 C 54.722656 14.929688 54.847656 14.847656 54.976562 15.023438 C 55.214844 15.34375 55.703125 15.128906 56.542969 14.328125 C 56.964844 13.929688 57.269531 13.707031 57.21875 13.835938 C 57.171875 13.964844 57.078125 14.214844 57.015625 14.390625 C 56.949219 14.566406 56.644531 14.890625 56.335938 15.113281 C 55.824219 15.480469 55.777344 15.554688 55.785156 15.976562 C 55.804688 16.578125 55.496094 17.027344 54.886719 17.292969 C 54.25 17.570312 53.789062 18.070312 53.0625 19.269531 C 52.484375 20.230469 51.898438 21.703125 52.039062 21.84375 C 52.078125 21.882812 52.320312 21.796875 52.578125 21.652344 C 52.835938 21.507812 53.046875 21.4375 53.046875 21.496094 C 53.046875 21.558594 52.859375 21.847656 52.636719 22.144531 C 52.183594 22.734375 51.992188 23.160156 51.992188 23.554688 C 51.992188 23.699219 51.859375 24.007812 51.695312 24.246094 C 51.328125 24.789062 51.328125 24.851562 51.714844 24.753906 C 52.179688 24.640625 52.9375 24.078125 53.378906 23.523438 C 53.71875 23.105469 53.792969 23.058594 53.910156 23.214844 C 54.027344 23.371094 54.175781 23.328125 55.074219 22.882812 C 55.644531 22.601562 56.207031 22.28125 56.324219 22.175781 C 56.480469 22.035156 56.65625 21.996094 56.9375 22.046875 C 57.808594 22.203125 58.445312 21.398438 59.167969 19.234375 C 59.449219 18.394531 59.664062 17.929688 59.785156 17.90625 C 60.066406 17.847656 60.019531 18.207031 59.558594 19.628906 C 59.066406 21.15625 59.0625 21.195312 59.441406 21.101562 C 59.855469 20.996094 59.804688 21.148438 59.203125 21.792969 C 58.914062 22.105469 58.679688 22.421875 58.679688 22.496094 C 58.679688 22.574219 58.523438 22.925781 58.332031 23.28125 C 58.140625 23.636719 57.980469 24 57.980469 24.085938 C 57.976562 24.175781 58.605469 23.59375 59.375 22.796875 C 60.730469 21.394531 61.253906 21.050781 60.648438 21.960938 C 60.488281 22.203125 60.109375 22.675781 59.8125 23.007812 C 58.960938 23.949219 59.128906 24.007812 60.441406 23.234375 L 61.320312 22.714844 L 61.597656 23.007812 C 61.75 23.167969 61.828125 23.34375 61.773438 23.394531 C 61.71875 23.449219 61.328125 23.546875 60.910156 23.617188 C 59.914062 23.789062 58.964844 24.425781 58.605469 25.164062 C 58.3125 25.765625 57.8125 26.234375 57.5625 26.140625 C 57.453125 26.097656 57.132812 26.355469 56.65625 26.875 C 56.253906 27.316406 55.40625 28.175781 54.777344 28.78125 C 54.148438 29.386719 53.632812 29.921875 53.632812 29.96875 C 53.632812 30.015625 54.078125 30.09375 54.621094 30.136719 C 55.726562 30.226562 56.054688 30.136719 56.984375 29.496094 C 57.433594 29.1875 57.515625 29.164062 57.484375 29.34375 C 57.453125 29.535156 57.523438 29.558594 58.132812 29.535156 C 58.984375 29.507812 59.738281 29.261719 60.613281 28.734375 C 60.984375 28.511719 61.308594 28.328125 61.335938 28.328125 C 61.359375 28.328125 61.378906 28.441406 61.378906 28.578125 C 61.378906 28.8125 61.417969 28.824219 61.984375 28.746094 C 62.519531 28.675781 62.574219 28.6875 62.445312 28.84375 C 62.144531 29.207031 61.304688 29.488281 60.144531 29.617188 C 59.5 29.6875 58.773438 29.796875 58.53125 29.863281 C 57.609375 30.109375 58.203125 30.386719 59.648438 30.375 C 60.398438 30.371094 60.558594 30.402344 60.558594 30.554688 C 60.558594 30.65625 60.640625 30.863281 60.746094 31.007812 C 60.847656 31.15625 60.898438 31.3125 60.859375 31.351562 C 60.816406 31.390625 60.351562 31.28125 59.820312 31.109375 C 58.769531 30.765625 57.410156 30.515625 56.542969 30.503906 C 56.128906 30.5 55.933594 30.5625 55.761719 30.75 C 55.550781 30.972656 55.46875 30.988281 54.960938 30.890625 C 54.179688 30.734375 53.511719 30.84375 52.785156 31.246094 C 52.050781 31.652344 51.550781 31.785156 51.359375 31.625 C 51.144531 31.449219 50.269531 31.886719 50.171875 32.21875 C 50.070312 32.558594 49.300781 33.375 49.085938 33.375 C 48.96875 33.375 48.9375 33.511719 48.960938 33.867188 C 49.007812 34.492188 49.097656 34.519531 51.109375 34.535156 C 52.082031 34.539062 52.9375 34.613281 53.464844 34.738281 C 54.542969 34.992188 55.164062 34.894531 56.3125 34.300781 L 57.207031 33.835938 L 56.742188 34.316406 L 56.273438 34.792969 L 56.742188 34.804688 C 57 34.808594 58.375 34.820312 59.792969 34.828125 C 61.523438 34.835938 62.453125 34.886719 62.605469 34.976562 C 62.820312 35.101562 62.804688 35.121094 62.429688 35.1875 C 62.207031 35.226562 61.3125 35.242188 60.441406 35.226562 L 58.855469 35.195312 L 58.152344 35.691406 C 57.632812 36.054688 57.023438 36.320312 55.832031 36.703125 C 54.945312 36.988281 54.21875 37.203125 54.21875 37.179688 C 54.21875 37.007812 55.445312 36.273438 56.074219 36.066406 C 56.882812 35.800781 57.152344 35.652344 57.152344 35.472656 C 57.152344 35.414062 56.265625 35.371094 55.183594 35.371094 C 54.101562 35.371094 52.582031 35.289062 51.808594 35.195312 C 51.039062 35.097656 50.128906 35.019531 49.792969 35.019531 C 49.226562 35.019531 49.164062 35.046875 48.992188 35.378906 C 48.890625 35.574219 48.625 35.84375 48.402344 35.976562 C 47.851562 36.300781 47.835938 36.804688 48.367188 37.078125 C 48.777344 37.289062 50.964844 37.777344 52.058594 37.898438 C 52.6875 37.96875 52.839844 37.941406 53.40625 37.65625 L 54.042969 37.335938 L 53.765625 37.636719 C 53.40625 38.027344 53.5 38.25 54.0625 38.34375 C 55.128906 38.519531 55.667969 38.441406 56.398438 37.996094 C 56.78125 37.761719 57.316406 37.476562 57.582031 37.359375 C 58.089844 37.140625 59.148438 36.933594 59.148438 37.054688 C 59.148438 37.09375 58.871094 37.265625 58.53125 37.4375 C 57.863281 37.777344 57.152344 38.28125 57.152344 38.414062 C 57.152344 38.523438 59.046875 38.855469 60.203125 38.953125 C 61.359375 39.046875 61.445312 39.078125 61.257812 39.304688 C 61.136719 39.449219 61.136719 39.539062 61.261719 39.773438 C 61.347656 39.933594 61.394531 40.085938 61.363281 40.117188 C 61.335938 40.144531 60.839844 39.972656 60.257812 39.738281 C 59.3125 39.347656 59.089844 39.304688 58.011719 39.28125 C 57.355469 39.269531 56.515625 39.199219 56.144531 39.132812 C 55.773438 39.0625 55.050781 39.007812 54.539062 39.007812 C 53.933594 39.007812 52.738281 38.839844 51.105469 38.523438 C 49.636719 38.238281 48.476562 38.070312 48.296875 38.117188 C 47.753906 38.253906 46.320312 39.746094 45.726562 40.789062 C 45.429688 41.320312 45.183594 41.792969 45.183594 41.839844 C 45.183594 42.007812 46.050781 42.164062 48.410156 42.414062 C 50.785156 42.667969 51.707031 42.664062 53.050781 42.390625 C 53.617188 42.273438 53.777344 42.285156 54.285156 42.480469 L 54.863281 42.703125 L 53.28125 42.769531 C 52.410156 42.804688 51.589844 42.890625 51.460938 42.964844 C 51.238281 43.09375 51.238281 43.101562 51.546875 43.21875 C 52.226562 43.476562 55.636719 44.171875 56.230469 44.171875 C 56.285156 44.171875 56.332031 44.21875 56.332031 44.277344 C 56.332031 44.339844 56.042969 44.425781 55.6875 44.46875 C 55.332031 44.511719 55.042969 44.597656 55.042969 44.65625 C 55.042969 44.714844 55.425781 45.011719 55.894531 45.316406 C 56.523438 45.726562 57.03125 45.945312 57.832031 46.148438 C 58.597656 46.347656 58.914062 46.480469 58.914062 46.605469 C 58.914062 46.75 58.804688 46.773438 58.34375 46.71875 C 57.75 46.648438 56.570312 46.160156 54.132812 44.988281 C 52.859375 44.375 52.695312 44.324219 52.695312 44.527344 C 52.695312 44.816406 52.636719 44.816406 52.214844 44.515625 C 50.332031 43.171875 46.523438 42.578125 44.378906 43.289062 C 43.445312 43.597656 43.1875 43.753906 43.1875 44.011719 C 43.1875 44.105469 43.523438 44.648438 43.9375 45.222656 C 44.347656 45.792969 44.871094 46.597656 45.101562 47.007812 C 45.585938 47.875 45.789062 48.082031 46.410156 48.339844 C 46.976562 48.578125 47.898438 48.578125 49.710938 48.351562 C 51.085938 48.175781 51.636719 48.191406 51.636719 48.40625 C 51.636719 48.464844 51.507812 48.511719 51.351562 48.511719 C 50.9375 48.511719 50.890625 48.691406 51.238281 48.917969 C 51.484375 49.078125 51.527344 49.175781 51.464844 49.429688 C 51.421875 49.601562 51.367188 49.757812 51.347656 49.78125 C 51.328125 49.800781 51.027344 49.667969 50.683594 49.488281 C 50.144531 49.203125 49.917969 49.15625 49.113281 49.15625 C 48.128906 49.15625 47.53125 49.265625 47.53125 49.441406 C 47.53125 49.5 47.703125 49.773438 47.914062 50.046875 C 48.191406 50.414062 48.617188 50.722656 49.515625 51.203125 C 50.675781 51.824219 52.015625 52.863281 51.859375 53.023438 C 51.820312 53.0625 51.351562 52.773438 50.824219 52.382812 C 50.292969 51.988281 49.726562 51.617188 49.566406 51.554688 C 49.21875 51.421875 48.667969 51.410156 48.726562 51.53125 C 48.746094 51.582031 48.957031 52.027344 49.195312 52.527344 C 49.757812 53.71875 49.816406 53.910156 49.613281 53.910156 C 49.429688 53.910156 49.335938 53.796875 47.304688 51.152344 C 45.796875 49.191406 45.210938 48.511719 45.027344 48.511719 C 44.964844 48.511719 44.941406 48.859375 44.976562 49.332031 C 45.042969 50.257812 45.574219 51.457031 46.761719 53.371094 C 47.121094 53.945312 47.414062 54.472656 47.410156 54.542969 C 47.410156 54.613281 46.800781 54.054688 46.050781 53.300781 C 45.304688 52.546875 44.625 51.90625 44.542969 51.875 C 44.441406 51.832031 44.375 51.3125 44.328125 50.078125 C 44.25 48.144531 44.046875 47.121094 43.566406 46.242188 C 42.886719 44.988281 41.925781 44.890625 40.765625 45.957031 C 39.945312 46.703125 38.496094 48.488281 38.496094 48.742188 C 38.496094 48.867188 38.777344 49.210938 39.132812 49.515625 C 39.511719 49.847656 39.742188 50.128906 39.707031 50.226562 C 39.621094 50.441406 41.113281 51.917969 42.277344 52.773438 C 42.78125 53.140625 43.1875 53.46875 43.1875 53.5 C 43.1875 53.683594 42.554688 53.5 41.980469 53.144531 C 41.613281 52.921875 41.011719 52.550781 40.644531 52.324219 C 40.277344 52.097656 39.875 51.914062 39.746094 51.914062 C 39.367188 51.914062 39.566406 52.671875 40.417969 54.460938 C 40.84375 55.355469 41.195312 56.152344 41.195312 56.230469 C 41.195312 56.523438 40.972656 56.355469 40.605469 55.78125 C 40.257812 55.242188 40.011719 54.714844 38.679688 51.667969 C 38.113281 50.375 37.808594 49.976562 37.457031 50.089844 C 36.625 50.355469 34.996094 54.582031 34.671875 58.007812 C 34.464844 60.222656 34.769531 61.78125 35.640625 62.960938 C 35.933594 63.359375 35.863281 63.558594 35.339844 63.804688 C 34.988281 63.972656 34.457031 64 31.601562 64 C 28.480469 64 28.558594 63.984375 28.226562 63.765625 Z M 34.738281 49.4375 C 35.203125 48.722656 35.410156 48.082031 35.285156 47.757812 C 35.25 47.664062 35.089844 47.503906 34.929688 47.398438 C 34.699219 47.246094 34.585938 47.234375 34.390625 47.339844 C 34.039062 47.527344 33.917969 47.929688 33.917969 48.921875 C 33.917969 50.390625 34.066406 50.480469 34.738281 49.4375 Z M 27.902344 45.371094 C 27.816406 44.105469 27.601562 43.636719 27.03125 43.464844 C 26.785156 43.390625 26.417969 43.347656 26.21875 43.371094 L 25.859375 43.410156 L 25.984375 43.910156 C 26.074219 44.253906 26.371094 44.710938 26.917969 45.347656 C 27.363281 45.863281 27.78125 46.28125 27.847656 46.28125 C 27.921875 46.28125 27.945312 45.957031 27.902344 45.371094 Z M 36.03125 45.8125 C 36.03125 45.417969 35.863281 45.351562 35.6875 45.679688 C 35.609375 45.828125 35.613281 45.9375 35.707031 46.03125 C 35.929688 46.253906 36.03125 46.1875 36.03125 45.8125 Z M 39.511719 44.210938 C 41.03125 43.0625 43.683594 40.691406 44.332031 39.90625 C 44.96875 39.136719 44.988281 38.941406 44.398438 39.1875 C 44.160156 39.285156 43.898438 39.34375 43.820312 39.3125 C 43.625 39.238281 41.910156 40.078125 40.933594 40.726562 C 40.390625 41.085938 40.136719 41.332031 40.136719 41.492188 C 40.136719 41.621094 39.90625 42.027344 39.625 42.390625 C 38.976562 43.230469 38.484375 44.640625 38.835938 44.640625 C 38.898438 44.640625 39.199219 44.445312 39.511719 44.210938 Z M 35.035156 43.742188 C 35.292969 43.570312 35.9375 43.085938 36.46875 42.667969 C 37.285156 42.023438 37.46875 41.8125 37.65625 41.308594 C 37.957031 40.503906 38.140625 39.242188 38.140625 38 L 38.140625 36.976562 L 37.894531 37.199219 C 37.511719 37.542969 35.988281 39.601562 35.503906 40.429688 C 35.070312 41.164062 34.480469 42.777344 34.335938 43.613281 C 34.242188 44.15625 34.378906 44.179688 35.035156 43.742188 Z M 21.796875 42.640625 C 22.105469 42.574219 22.4375 42.472656 22.535156 42.410156 C 22.691406 42.3125 22.691406 42.28125 22.535156 42.132812 C 22.4375 42.039062 22.023438 41.824219 21.617188 41.652344 L 20.875 41.34375 L 19.511719 41.53125 C 18.761719 41.636719 18.097656 41.753906 18.035156 41.789062 C 17.898438 41.875 18.804688 42.234375 19.894531 42.527344 C 20.867188 42.789062 21.054688 42.800781 21.796875 42.640625 Z M 26.863281 42.335938 C 27.5625 42.199219 27.300781 41.578125 25.746094 39.703125 C 24.90625 38.6875 24.097656 37.960938 23.015625 37.265625 C 22.226562 36.753906 21.835938 36.667969 21.601562 36.949219 C 21.410156 37.175781 21.652344 37.691406 22.941406 39.828125 C 24.296875 42.078125 24.445312 42.269531 24.910156 42.328125 C 25.574219 42.410156 26.480469 42.414062 26.863281 42.339844 Z M 29.148438 40.90625 C 29.097656 38.847656 27.179688 35.035156 25.074219 32.816406 C 24.625 32.34375 23.609375 31.488281 22.816406 30.914062 C 22.011719 30.332031 20.359375 28.925781 19.074219 27.722656 C 16.386719 25.210938 15.609375 24.625 15.609375 25.101562 C 15.609375 25.621094 17.742188 30.300781 18.757812 32.015625 C 19.84375 33.84375 20.617188 34.742188 21.199219 34.851562 C 21.421875 34.894531 21.636719 34.898438 21.671875 34.863281 C 21.75 34.789062 21.285156 34.09375 20.058594 32.460938 C 19.097656 31.183594 18.316406 29.808594 18.460938 29.664062 C 18.679688 29.445312 20.5 31.695312 21.890625 33.902344 C 22.136719 34.289062 23.078125 35.371094 23.988281 36.308594 C 25.921875 38.292969 26.863281 39.355469 28.046875 40.863281 C 29.035156 42.125 29.175781 42.132812 29.148438 40.90625 Z M 40.050781 40.109375 C 40.257812 40 41.144531 39.460938 42.015625 38.914062 C 43.816406 37.773438 45.183594 37.089844 46.121094 36.859375 C 46.6875 36.71875 46.792969 36.640625 46.976562 36.261719 C 47.09375 36.019531 47.199219 35.628906 47.210938 35.390625 L 47.238281 34.960938 L 46.285156 34.855469 C 45.367188 34.757812 45.3125 34.765625 44.582031 35.113281 C 44.167969 35.3125 43.597656 35.527344 43.316406 35.589844 C 42.746094 35.71875 42.105469 36.265625 41.507812 37.148438 C 41.300781 37.449219 40.671875 38.179688 40.109375 38.773438 C 39.304688 39.617188 39.082031 39.925781 39.082031 40.191406 C 39.082031 40.503906 39.105469 40.519531 39.375 40.414062 C 39.535156 40.355469 39.839844 40.214844 40.050781 40.109375 Z M 36.113281 36.164062 C 36.886719 35.347656 38.171875 33.53125 38.636719 32.59375 C 39.039062 31.773438 39.132812 31.449219 39.191406 30.683594 C 39.25 29.878906 39.234375 29.773438 39.082031 29.863281 C 38.753906 30.058594 38.375 30.417969 38.375 30.542969 C 38.375 30.609375 38.054688 31.023438 37.664062 31.460938 C 36.570312 32.683594 36.226562 33.492188 35.613281 36.28125 C 35.535156 36.644531 35.6875 36.609375 36.113281 36.164062 Z M 29.363281 35.109375 C 29.289062 34.445312 29.199219 33.542969 29.164062 33.101562 C 29.074219 32.015625 28.621094 30.652344 28.101562 29.894531 C 27.367188 28.828125 25.609375 27.867188 23.863281 27.570312 L 23.371094 27.488281 L 23.585938 28.085938 C 23.878906 28.882812 29.269531 36.535156 29.429688 36.375 C 29.464844 36.339844 29.433594 35.769531 29.363281 35.109375 Z M 47.511719 34.039062 C 47.800781 33.675781 49.171875 28.960938 49.171875 28.324219 C 49.171875 27.867188 49.050781 27.828125 48.5625 28.128906 C 47.988281 28.488281 47.148438 29.519531 46.636719 30.5 C 46.398438 30.953125 45.867188 31.816406 45.453125 32.425781 C 44.589844 33.6875 44.59375 33.691406 45.710938 34 C 46.84375 34.308594 47.285156 34.320312 47.511719 34.039062 Z M 42.855469 33.257812 C 43.78125 33.257812 43.90625 33.230469 44.242188 32.949219 C 44.464844 32.761719 44.867188 32.113281 45.273438 31.28125 C 45.84375 30.117188 45.949219 29.804688 45.984375 29.125 C 46.03125 28.339844 46.027344 28.328125 45.730469 28.328125 C 45.160156 28.328125 42.667969 30.824219 42.230469 31.835938 C 42.109375 32.117188 41.851562 32.550781 41.660156 32.792969 C 41.242188 33.320312 41.226562 33.425781 41.574219 33.332031 C 41.71875 33.292969 42.296875 33.261719 42.855469 33.257812 Z M 40.957031 31.128906 C 41.726562 30.664062 44.367188 28.414062 45.25 27.476562 C 45.882812 26.800781 46.265625 26.265625 46.625 25.53125 C 46.898438 24.972656 47.351562 24.214844 47.628906 23.847656 C 47.929688 23.453125 48.363281 22.609375 48.695312 21.785156 C 49.003906 21.019531 49.320312 20.277344 49.394531 20.136719 C 49.625 19.707031 49.277344 19.820312 48.460938 20.4375 C 48.054688 20.742188 47.445312 21.152344 47.109375 21.347656 C 46.546875 21.671875 46.335938 21.941406 44.535156 24.628906 C 43.335938 26.425781 42.445312 27.640625 42.238281 27.765625 C 42.050781 27.882812 41.898438 28.050781 41.898438 28.144531 C 41.898438 28.238281 41.675781 28.570312 41.410156 28.878906 C 40.894531 29.472656 40.445312 30.355469 40.328125 31 C 40.246094 31.457031 40.375 31.484375 40.957031 31.128906 Z M 51.375 29.722656 C 51.84375 29.183594 52.28125 28.722656 52.34375 28.699219 C 52.53125 28.636719 52.476562 29.007812 52.230469 29.492188 C 52.101562 29.742188 52.03125 29.976562 52.070312 30.015625 C 52.246094 30.191406 53.386719 29.363281 54.332031 28.371094 C 55.367188 27.289062 56.730469 25.390625 57.109375 24.511719 C 57.339844 23.964844 57.636719 22.789062 57.558594 22.710938 C 57.410156 22.5625 55.460938 23.234375 54.570312 23.742188 C 54.023438 24.054688 53.203125 24.503906 52.75 24.738281 C 51.695312 25.292969 51.4375 25.511719 51.210938 26.0625 C 51.109375 26.308594 50.761719 26.941406 50.441406 27.46875 C 49.914062 28.332031 49.832031 28.566406 49.632812 29.742188 C 49.507812 30.460938 49.4375 31.101562 49.476562 31.164062 C 49.613281 31.386719 50.542969 30.683594 51.375 29.722656 Z M 29.917969 28.058594 C 30.242188 26.371094 30.230469 26.023438 29.785156 24.890625 C 29.332031 23.742188 26.925781 18.875 26.433594 18.109375 C 26.0625 17.539062 24.445312 16.238281 23.648438 15.875 C 23.390625 15.757812 22.976562 15.660156 22.726562 15.660156 C 22.277344 15.65625 22.273438 15.660156 22.339844 16.039062 C 22.441406 16.582031 23.558594 18.753906 25.089844 21.382812 C 25.820312 22.632812 27.054688 24.929688 27.832031 26.492188 C 28.613281 28.050781 29.304688 29.394531 29.375 29.480469 C 29.5625 29.710938 29.636719 29.507812 29.917969 28.058594 Z M 26.40625 26.820312 C 26.40625 26.386719 21.175781 20.46875 20.789062 20.46875 C 20.625 20.46875 20.550781 21.679688 20.664062 22.558594 C 20.785156 23.527344 21.296875 25.152344 21.644531 25.660156 C 22.019531 26.214844 22.597656 26.4375 24.25 26.675781 C 26.023438 26.929688 26.40625 26.957031 26.40625 26.820312 Z M 31.964844 26.320312 C 32.082031 25.746094 32.050781 23.078125 31.917969 21.742188 C 31.644531 19.058594 31.210938 17.671875 29.578125 14.246094 C 28.945312 12.925781 28.390625 11.664062 28.34375 11.449219 C 28.296875 11.214844 28.21875 11.097656 28.15625 11.160156 C 27.917969 11.398438 27.585938 13.4375 27.558594 14.789062 L 27.535156 16.183594 L 28.441406 18.589844 C 29.375 21.074219 29.515625 21.386719 29.628906 21.273438 C 29.667969 21.234375 29.730469 20.773438 29.773438 20.246094 C 29.8125 19.71875 29.886719 19.257812 29.941406 19.226562 C 30.144531 19.101562 30.769531 20.691406 30.976562 21.851562 C 31.042969 22.21875 31.152344 23.125 31.21875 23.863281 C 31.347656 25.238281 31.648438 26.6875 31.804688 26.6875 C 31.851562 26.6875 31.925781 26.523438 31.964844 26.320312 Z M 49.394531 22.871094 C 50.125 21.675781 50.464844 21 50.464844 20.746094 C 50.464844 20.574219 50.421875 20.582031 50.183594 20.808594 C 49.894531 21.078125 48.558594 23.570312 48.414062 24.105469 L 48.335938 24.398438 L 48.582031 24.105469 C 48.714844 23.945312 49.082031 23.390625 49.394531 22.871094 Z M 54.035156 16.734375 C 54.359375 16.304688 54.164062 16.296875 53.519531 16.710938 C 52.945312 17.078125 51.871094 18.15625 51.871094 18.367188 C 51.871094 18.507812 53.777344 17.070312 54.035156 16.734375 Z M 32.464844 16.226562 C 32.792969 14.386719 32.738281 8.691406 32.398438 8.90625 C 32.226562 9.011719 32.054688 10.398438 31.992188 12.195312 C 31.957031 13.164062 31.847656 14.339844 31.746094 14.8125 C 31.558594 15.691406 31.625 16.578125 31.9375 17.398438 C 32.039062 17.660156 32.074219 17.679688 32.164062 17.519531 C 32.222656 17.414062 32.359375 16.832031 32.464844 16.226562 Z M 24.648438 15.34375 C 24.648438 15.300781 24.125 14.574219 23.488281 13.730469 C 22.851562 12.886719 21.929688 11.585938 21.445312 10.84375 C 20.960938 10.101562 20.402344 9.308594 20.203125 9.085938 L 19.84375 8.671875 L 19.839844 9.070312 C 19.835938 9.488281 20.84375 12.019531 21.011719 12.019531 C 21.066406 12.019531 21.144531 11.964844 21.183594 11.902344 C 21.226562 11.835938 21.300781 11.785156 21.355469 11.785156 C 21.464844 11.785156 22.628906 13.507812 22.976562 14.1875 C 23.238281 14.707031 23.476562 14.949219 24 15.226562 C 24.375 15.421875 24.644531 15.472656 24.644531 15.34375 Z M 30.066406 11.167969 C 30.117188 9.320312 29.992188 8.132812 29.628906 6.972656 C 29.152344 5.457031 28.21875 3.832031 27.972656 4.078125 C 27.855469 4.191406 27.898438 6.546875 28.023438 7.089844 C 28.101562 7.414062 28.171875 7.492188 28.363281 7.464844 C 28.589844 7.433594 28.621094 7.519531 28.753906 8.640625 C 28.945312 10.207031 29.644531 12.488281 29.933594 12.488281 C 29.988281 12.488281 30.046875 11.894531 30.066406 11.167969 Z M 33.738281 8.460938 C 33.898438 7.679688 33.917969 7.394531 33.816406 7.292969 C 33.710938 7.191406 33.605469 7.230469 33.378906 7.457031 C 33.101562 7.734375 33.085938 7.796875 33.203125 8.21875 C 33.273438 8.46875 33.328125 8.910156 33.328125 9.195312 C 33.332031 9.953125 33.496094 9.652344 33.738281 8.460938 Z M 15.140625 54.28125 C 15.140625 54.125 15.605469 53.746094 15.691406 53.832031 C 15.730469 53.875 15.671875 54.015625 15.554688 54.144531 C 15.332031 54.390625 15.140625 54.453125 15.140625 54.28125 Z M 44.5 52.542969 C 44.546875 52.285156 44.890625 52.25 44.890625 52.5 C 44.890625 52.597656 44.792969 52.695312 44.671875 52.71875 C 44.515625 52.746094 44.46875 52.699219 44.5 52.542969 Z M 53.539062 46.082031 C 53.261719 46.03125 52.941406 45.527344 53.089844 45.378906 C 53.132812 45.335938 53.367188 45.492188 53.605469 45.730469 C 53.84375 45.972656 53.988281 46.160156 53.921875 46.152344 C 53.859375 46.140625 53.6875 46.109375 53.539062 46.082031 Z M 59.910156 45.050781 C 58.019531 44.503906 58.082031 44.320312 59.996094 44.804688 C 61.019531 45.066406 62.261719 45.574219 61.847656 45.5625 C 61.75 45.558594 60.878906 45.332031 59.910156 45.050781 Z M 62.253906 39.238281 C 62.210938 39.164062 62.226562 39.050781 62.292969 38.980469 C 62.453125 38.824219 62.820312 38.960938 62.757812 39.15625 C 62.691406 39.351562 62.359375 39.40625 62.253906 39.238281 Z M 2.667969 38.347656 C 2.625 38.304688 2.617188 38.230469 2.648438 38.179688 C 2.71875 38.0625 3.171875 38.183594 3.171875 38.316406 C 3.171875 38.4375 2.78125 38.457031 2.667969 38.347656 Z M 60.410156 37.210938 C 60.039062 37.144531 59.734375 37.054688 59.734375 37.007812 C 59.734375 36.902344 60.882812 36.679688 61.847656 36.601562 L 62.609375 36.539062 L 62.140625 36.71875 C 61.882812 36.816406 61.582031 37.003906 61.476562 37.132812 C 61.367188 37.261719 61.238281 37.359375 61.183594 37.347656 C 61.128906 37.339844 60.78125 37.277344 60.410156 37.210938 Z M 2.46875 34.410156 C 1.785156 34.257812 1.660156 34.128906 2.109375 34.039062 C 2.519531 33.957031 3.308594 34.183594 3.378906 34.402344 C 3.433594 34.570312 3.21875 34.574219 2.46875 34.410156 Z M 59.21875 34.332031 C 59.121094 34.175781 59.695312 33.960938 60.210938 33.960938 C 60.65625 33.960938 61.496094 34.226562 61.496094 34.367188 C 61.496094 34.472656 59.28125 34.441406 59.21875 34.332031 Z M 61.90625 31.730469 C 61.863281 31.667969 61.914062 31.617188 62.015625 31.617188 C 62.117188 31.617188 62.199219 31.667969 62.199219 31.730469 C 62.199219 31.796875 62.148438 31.851562 62.089844 31.851562 C 62.027344 31.851562 61.945312 31.796875 61.90625 31.730469 Z M 8.101562 30.558594 C 7.65625 30.1875 7.78125 30.097656 8.339844 30.386719 C 8.53125 30.484375 8.6875 30.644531 8.6875 30.738281 C 8.6875 30.988281 8.566406 30.949219 8.101562 30.558594 Z M 3.785156 30.09375 C 2.960938 29.796875 2.226562 29.34375 2.488281 29.292969 C 2.6875 29.253906 4.667969 30.023438 4.867188 30.214844 C 5.058594 30.402344 4.445312 30.332031 3.785156 30.09375 Z M 1.347656 28.671875 C 1.222656 28.464844 1.355469 28.4375 1.597656 28.621094 C 1.796875 28.769531 1.796875 28.792969 1.625 28.792969 C 1.515625 28.796875 1.390625 28.742188 1.347656 28.671875 Z M 5.785156 23.039062 C 5.511719 22.9375 5.441406 22.757812 5.621094 22.648438 C 5.726562 22.582031 6.183594 23.015625 6.09375 23.09375 C 6.070312 23.117188 5.929688 23.09375 5.785156 23.039062 Z M 54.449219 21.433594 C 54.695312 20.742188 54.976562 19.988281 55.078125 19.761719 L 55.257812 19.351562 L 55.265625 19.734375 C 55.277344 20.136719 55.382812 20.191406 55.757812 19.992188 C 55.886719 19.921875 56.074219 19.882812 56.171875 19.902344 C 56.429688 19.957031 55.554688 21.054688 55.253906 21.054688 C 55.105469 21.054688 55.035156 21.128906 55.046875 21.257812 C 55.058594 21.371094 55.0625 21.53125 55.054688 21.609375 C 55.039062 21.785156 54.234375 22.695312 54.09375 22.695312 C 54.042969 22.695312 54.203125 22.128906 54.449219 21.433594 Z M 49.410156 14.863281 C 49.414062 14.714844 49.871094 13.300781 49.976562 13.105469 C 50.152344 12.796875 50.226562 13.128906 50.09375 13.613281 C 49.898438 14.324219 49.402344 15.226562 49.410156 14.863281 Z M 14.804688 8.945312 C 14.613281 8.433594 14.523438 7.878906 14.648438 7.953125 C 14.832031 8.070312 15.140625 9.070312 15.015625 9.148438 C 14.957031 9.183594 14.859375 9.09375 14.804688 8.945312 Z M 50.933594 7.589844 C 50.9375 7.425781 51.152344 7.152344 51.222656 7.222656 C 51.316406 7.316406 51.167969 7.675781 51.039062 7.675781 C 50.980469 7.675781 50.933594 7.636719 50.933594 7.589844 Z M 21.019531 3.140625 C 20.761719 2.816406 20.691406 2.566406 20.894531 2.6875 C 21.023438 2.769531 21.398438 3.453125 21.3125 3.453125 C 21.285156 3.453125 21.152344 3.3125 21.019531 3.140625 Z M 21.019531 3.140625 "/>
</g>
</svg>
