<?xml version="1.0" encoding="UTF-8"?>
<svg xmlns="http://www.w3.org/2000/svg" xmlns:xlink="http://www.w3.org/1999/xlink" width="64px" height="64px" viewBox="0 0 64 64" version="1.1">
<defs>
<linearGradient id="linear0" gradientUnits="userSpaceOnUse" x1="0" y1="0" x2="0" y2="1" gradientTransform="matrix(56,0,0,56,4,4)">
<stop offset="0" style="stop-color:rgb(3.921569%,74.117649%,77.64706%);stop-opacity:1;"/>
<stop offset="1" style="stop-color:rgb(72.156864%,0%,100%);stop-opacity:1;"/>
</linearGradient>
</defs>
<g id="surface1">
<path style=" stroke:none;fill-rule:nonzero;fill:url(#linear0);" d="M 4 4 L 4 26.398438 L 26.398438 26.398438 L 26.398438 4 Z M 37.601562 4 L 37.601562 26.398438 L 60 26.398438 L 60 4 Z M 4 37.601562 L 4 60 L 26.398438 60 L 26.398438 37.601562 Z M 37.601562 37.601562 L 37.601562 60 L 60 60 L 60 37.601562 Z M 37.601562 37.601562 "/>
</g>
</svg>
