<?xml version="1.0" encoding="UTF-8"?>
<svg xmlns="http://www.w3.org/2000/svg" xmlns:xlink="http://www.w3.org/1999/xlink" width="64px" height="64px" viewBox="0 0 64 64" version="1.1">
<defs>
<linearGradient id="linear0" gradientUnits="userSpaceOnUse" x1="0" y1="0" x2="0" y2="1" gradientTransform="matrix(56,0,0,49.539062,4,7.230469)">
<stop offset="0" style="stop-color:rgb(3.921569%,74.117649%,77.64706%);stop-opacity:1;"/>
<stop offset="1" style="stop-color:rgb(72.156864%,0%,100%);stop-opacity:1;"/>
</linearGradient>
</defs>
<g id="surface1">
<path style=" stroke:none;fill-rule:nonzero;fill:url(#linear0);" d="M 60 7.230469 L 60 48.152344 C 44.925781 56.769531 34.15625 58.925781 19.074219 54.617188 C 8.308594 43.84375 6.164062 35.230469 4 24.289062 C 19.074219 37.386719 40.617188 37.386719 60 33.054688 L 23.382812 41.671875 L 35.726562 14.796875 L 49.230469 37.363281 L 40.617188 28.746094 "/>
</g>
</svg>
