<?xml version="1.0" encoding="UTF-8"?>
<svg xmlns="http://www.w3.org/2000/svg" xmlns:xlink="http://www.w3.org/1999/xlink" width="64px" height="64px" viewBox="0 0 64 64" version="1.1">
<defs>
<linearGradient id="linear0" gradientUnits="userSpaceOnUse" x1="0" y1="0" x2="0" y2="1" gradientTransform="matrix(61.53125,0,0,56,1.234375,4)">
<stop offset="0" style="stop-color:rgb(3.921569%,74.117649%,77.64706%);stop-opacity:1;"/>
<stop offset="1" style="stop-color:rgb(72.156864%,0%,100%);stop-opacity:1;"/>
</linearGradient>
</defs>
<g id="surface1">
<path style=" stroke:none;fill-rule:evenodd;fill:url(#linear0);" d="M 2.546875 16.734375 L 28.832031 4.605469 C 30.578125 3.800781 33.421875 3.800781 35.167969 4.605469 L 61.457031 16.734375 C 63.203125 17.542969 63.203125 18.855469 61.457031 19.660156 L 35.167969 31.792969 C 33.421875 32.601562 30.578125 32.601562 28.832031 31.792969 L 2.546875 19.660156 C 0.796875 18.855469 0.796875 17.542969 2.546875 16.734375 Z M 11.953125 26.328125 L 3.539062 30.210938 C 1.230469 31.277344 1.230469 32.992188 3.539062 34.054688 L 27.835938 45.269531 C 30.144531 46.332031 33.855469 46.332031 36.164062 45.269531 L 60.460938 34.054688 C 62.769531 32.992188 62.769531 31.277344 60.460938 30.210938 L 52.046875 26.328125 L 36.164062 33.65625 C 33.855469 34.722656 30.144531 34.722656 27.835938 33.65625 Z M 11.953125 40.261719 L 3.539062 44.144531 C 1.230469 45.207031 1.230469 46.925781 3.539062 47.988281 L 27.835938 59.199219 C 30.144531 60.269531 33.855469 60.269531 36.164062 59.199219 L 60.460938 47.988281 C 62.769531 46.925781 62.769531 45.207031 60.460938 44.144531 L 52.046875 40.261719 L 36.164062 47.589844 C 33.855469 48.65625 30.144531 48.65625 27.835938 47.589844 Z M 11.953125 40.261719 "/>
</g>
</svg>
