<?xml version="1.0" encoding="UTF-8"?>
<svg xmlns="http://www.w3.org/2000/svg" xmlns:xlink="http://www.w3.org/1999/xlink" width="64px" height="64px" viewBox="0 0 64 64" version="1.1">
<defs>
<linearGradient id="linear0" gradientUnits="userSpaceOnUse" x1="0" y1="0" x2="0" y2="1" gradientTransform="matrix(56,0,0,56,4,4)">
<stop offset="0" style="stop-color:rgb(3.921569%,74.117649%,77.64706%);stop-opacity:1;"/>
<stop offset="1" style="stop-color:rgb(72.156864%,0%,100%);stop-opacity:1;"/>
</linearGradient>
</defs>
<g id="surface1">
<path style=" stroke:none;fill-rule:nonzero;fill:url(#linear0);" d="M 4 4 L 4 22.667969 L 22.667969 22.667969 L 22.667969 4 M 41.332031 22.667969 L 22.667969 22.667969 L 22.667969 32 L 13.332031 32 L 13.332031 60 L 22.667969 60 L 22.667969 50.667969 L 41.332031 50.667969 L 41.332031 60 L 50.667969 60 L 50.667969 32 L 41.332031 32 L 41.332031 22.667969 L 60 22.667969 L 60 4 L 41.332031 4 "/>
</g>
</svg>
