<?xml version="1.0" encoding="UTF-8"?>
<svg xmlns="http://www.w3.org/2000/svg" xmlns:xlink="http://www.w3.org/1999/xlink" width="64px" height="64px" viewBox="0 0 64 64" version="1.1">
<defs>
<linearGradient id="linear0" gradientUnits="userSpaceOnUse" x1="0" y1="0" x2="0" y2="1" gradientTransform="matrix(56,0,0,56.007812,4,3.996094)">
<stop offset="0" style="stop-color:rgb(3.921569%,74.117649%,77.64706%);stop-opacity:1;"/>
<stop offset="1" style="stop-color:rgb(72.156864%,0%,100%);stop-opacity:1;"/>
</linearGradient>
</defs>
<g id="surface1">
<path style=" stroke:none;fill-rule:nonzero;fill:url(#linear0);" d="M 48.988281 4.015625 C 48.019531 3.941406 47.019531 4.058594 46.035156 4.394531 C 44.859375 4.789062 44.046875 5.300781 43.140625 6.191406 C 41.964844 7.367188 41.34375 8.617188 41.058594 10.292969 C 40.90625 11.21875 40.789062 11.585938 40.515625 12.164062 C 39.46875 14.378906 37.171875 15.925781 34.882812 15.925781 C 34.691406 15.925781 34.09375 15.882812 33.515625 15.8125 C 31.222656 15.511719 30.171875 15.476562 27.78125 15.703125 C 27.132812 15.769531 26.347656 15.8125 26.085938 15.8125 C 24.945312 15.8125 24.253906 15.382812 23.789062 14.449219 C 23.496094 13.863281 23.394531 13.570312 23.402344 12.53125 C 23.414062 11.675781 23.433594 11.574219 23.296875 11.167969 C 23.066406 10.535156 22.863281 10.246094 22.371094 9.761719 C 21.652344 9.035156 20.890625 8.71875 19.90625 8.71875 C 19.261719 8.71875 18.804688 8.820312 18.269531 9.105469 C 17.128906 9.695312 16.425781 10.800781 16.359375 12.054688 C 16.3125 12.933594 16.488281 13.460938 16.960938 14.1875 C 17.308594 14.714844 17.726562 15.097656 18.492188 15.5 C 19.320312 15.929688 19.753906 16.335938 20.128906 17.089844 C 20.363281 17.558594 20.351562 17.609375 20.351562 18.125 C 20.351562 18.617188 20.351562 18.667969 20.1875 19 C 20.089844 19.199219 19.804688 19.570312 19.585938 19.820312 C 17.535156 22.101562 16.285156 24.554688 15.753906 27.199219 C 15.5 28.449219 15.429688 29.121094 15.484375 30.476562 C 15.511719 31.125 15.664062 31.84375 15.664062 32.0625 C 15.644531 33.300781 14.636719 34.152344 12.753906 34.796875 C 12.296875 34.953125 12.089844 34.992188 11.496094 35.019531 C 11.03125 35.039062 10.664062 35.019531 10.394531 34.96875 C 10.160156 34.921875 9.675781 34.921875 9.191406 34.921875 C 8.273438 34.921875 7.835938 35.019531 7.117188 35.359375 C 4.4375 36.597656 3.253906 39.710938 4.492188 42.355469 C 6.074219 45.722656 10.558594 46.457031 13.128906 43.777344 C 13.511719 43.375 13.699219 43.070312 14.113281 42.355469 C 14.238281 42.117188 14.511719 41.800781 14.710938 41.59375 C 15.625 40.636719 16.871094 40.179688 18.320312 40.179688 C 19.359375 40.179688 19.972656 40.398438 20.78125 41.054688 C 22.128906 42.140625 23.996094 43.085938 25.648438 43.566406 C 27.46875 44.097656 28.5 44.179688 31.546875 44.105469 C 32.445312 44.074219 32.722656 44.132812 33.136719 44.203125 C 34.285156 44.445312 35.398438 44.878906 36.363281 45.523438 C 37.074219 46 38.242188 47.164062 38.722656 47.878906 C 39.363281 48.835938 39.828125 50.039062 39.984375 50.996094 C 40.234375 52.601562 40.546875 53.554688 41.074219 54.605469 C 42.515625 57.4375 45.105469 59.332031 48.292969 59.902344 C 49.167969 60.058594 51.070312 60.03125 51.953125 59.851562 C 54.988281 59.230469 57.511719 57.320312 58.894531 54.605469 C 59.644531 53.128906 60 51.78125 60 50.066406 C 60.007812 46.066406 57.675781 42.523438 53.988281 40.941406 C 53.140625 40.585938 52.519531 40.429688 51.363281 40.226562 C 50.214844 40.035156 49.453125 39.785156 48.632812 39.351562 C 46.707031 38.359375 44.828125 36.519531 44.144531 34.5 C 43.773438 33.367188 43.652344 31.984375 43.652344 30.949219 L 43.652344 25.371094 C 43.652344 24.125 43.78125 23.367188 44.308594 22.308594 C 44.910156 21.097656 46.246094 20.097656 47.484375 19.464844 C 48.125 19.136719 48.597656 19.015625 49.507812 18.859375 C 50.472656 18.695312 51.164062 18.480469 51.902344 18.101562 C 53.632812 17.203125 54.957031 15.691406 55.5625 13.835938 C 55.828125 13.042969 55.890625 12.390625 55.890625 11.472656 C 55.890625 10.558594 55.777344 9.921875 55.519531 9.113281 C 54.527344 6.175781 51.910156 4.242188 49.015625 4.023438 Z M 29.65625 20.316406 C 34.808594 20.316406 38.984375 24.492188 38.984375 29.644531 C 38.984375 34.796875 34.808594 38.972656 29.65625 38.972656 C 24.503906 38.972656 20.328125 34.796875 20.328125 29.644531 C 20.328125 24.492188 24.503906 20.316406 29.65625 20.316406 Z M 29.933594 23.757812 C 27.105469 23.542969 24.519531 25.394531 23.765625 28.238281 C 23.625 28.738281 23.601562 28.859375 23.601562 29.714844 C 23.601562 30.558594 23.628906 30.734375 23.765625 31.242188 C 24.070312 32.398438 24.808594 33.5625 25.675781 34.308594 C 28.1875 36.367188 30.015625 34.570312 31.253906 32.941406 L 31.253906 32.71875 L 30.210938 32.71875 C 29.46875 32.71875 29.074219 32.710938 28.847656 32.667969 C 27.515625 32.3125 26.605469 31.109375 26.605469 29.773438 C 26.605469 28.945312 26.886719 28.230469 27.480469 27.640625 C 28.042969 27.074219 28.800781 26.765625 29.554688 26.765625 C 30.902344 26.765625 32.507812 27.757812 32.519531 29.125 L 32.566406 34.863281 L 32.90625 34.863281 C 33.59375 34.792969 34.316406 34.457031 34.765625 33.988281 C 35.019531 33.726562 35.296875 33.144531 35.421875 32.742188 C 35.519531 32.410156 35.53125 32.214844 35.53125 30.722656 C 35.53125 28.574219 35.460938 28.070312 34.875 26.953125 C 34.140625 25.542969 32.679688 24.386719 31.15625 23.996094 C 30.742188 23.882812 30.285156 23.789062 29.941406 23.761719 Z M 29.933594 23.757812 "/>
</g>
</svg>
