<?xml version="1.0" encoding="UTF-8"?>
<svg xmlns="http://www.w3.org/2000/svg" xmlns:xlink="http://www.w3.org/1999/xlink" width="64px" height="64px" viewBox="0 0 64 64" version="1.1">
<defs>
<linearGradient id="linear0" gradientUnits="userSpaceOnUse" x1="0" y1="0" x2="0" y2="1" gradientTransform="matrix(46.9375,0,0,64,8.53125,0)">
<stop offset="0" style="stop-color:rgb(3.921569%,74.117649%,77.64706%);stop-opacity:1;"/>
<stop offset="1" style="stop-color:rgb(72.156864%,0%,100%);stop-opacity:1;"/>
</linearGradient>
</defs>
<g id="surface1">
<path style=" stroke:none;fill-rule:evenodd;fill:url(#linear0);" d="M 50.003906 55.835938 C 50.53125 55.453125 50.746094 53.742188 50.648438 50.785156 C 50.550781 47.972656 50.304688 46.832031 49.710938 46.484375 C 49.4375 46.324219 49.304688 46.378906 48.949219 46.808594 C 48.300781 47.589844 47.207031 50.515625 47.1875 51.535156 C 47.183594 51.652344 47.425781 51.507812 47.722656 51.21875 C 48.105469 50.847656 48.445312 50.691406 48.878906 50.691406 C 49.445312 50.691406 49.535156 50.777344 49.933594 51.621094 C 50.433594 52.679688 50.410156 54.109375 49.886719 54.617188 C 49.261719 55.226562 47.335938 54.785156 47.128906 53.980469 C 47.078125 53.804688 47.070312 53.933594 47.105469 54.265625 C 47.179688 55.019531 47.457031 55.34375 48.382812 55.757812 C 49.265625 56.144531 49.566406 56.160156 50.003906 55.835938 Z M 37.8125 54.09375 C 39.097656 53.523438 38.878906 51.050781 37.546875 51.050781 C 36.90625 51.050781 35.898438 52.171875 35.902344 52.878906 C 35.90625 53.566406 36.023438 53.789062 36.546875 54.074219 C 37.019531 54.335938 37.257812 54.339844 37.8125 54.09375 Z M 39.128906 49.070312 C 39.53125 49.070312 39.601562 49.152344 39.601562 49.628906 C 39.601562 50.027344 39.496094 50.210938 39.242188 50.277344 C 38.921875 50.359375 38.910156 50.410156 39.152344 50.972656 C 39.472656 51.714844 39.496094 53.558594 39.191406 54.203125 C 38.785156 55.078125 37.277344 55.515625 35.992188 55.128906 C 35.105469 54.863281 34.796875 54.351562 34.792969 53.132812 C 34.789062 50.957031 36.792969 49.070312 39.128906 49.070312 Z M 37.253906 44.835938 C 37.007812 44.832031 36.761719 44.855469 36.515625 44.902344 C 34.464844 45.308594 32.027344 46.792969 30.726562 48.4375 C 29.765625 49.648438 29.234375 51.0625 29.109375 52.769531 L 29.011719 54.035156 L 29.984375 55.066406 C 31.625 56.8125 33.339844 57.363281 36.824219 57.277344 C 38.378906 57.234375 38.921875 57.152344 39.535156 56.84375 C 40.566406 56.324219 41.015625 55.722656 41.277344 54.515625 C 41.546875 53.230469 41.402344 49.136719 41.042969 47.890625 C 40.515625 46.070312 38.949219 44.851562 37.253906 44.835938 Z M 29.980469 63.640625 C 29.777344 63.445312 29.609375 63.152344 29.609375 62.992188 C 29.609375 62.785156 29.519531 62.742188 29.285156 62.84375 C 29.109375 62.921875 28.238281 63.019531 27.355469 63.058594 L 25.753906 63.136719 L 25.460938 62.585938 C 25.195312 62.09375 25.113281 62.050781 24.691406 62.207031 C 23.539062 62.632812 22.394531 62.300781 22.394531 61.539062 C 22.394531 61.070312 22.390625 61.070312 21.210938 61.191406 C 20.535156 61.261719 19.820312 61.230469 19.535156 61.128906 C 19.121094 60.972656 19.050781 60.851562 19.101562 60.359375 L 19.15625 59.777344 L 18.027344 59.6875 C 16.707031 59.578125 16.242188 59.292969 16.402344 58.675781 C 16.503906 58.289062 16.457031 58.246094 15.894531 58.242188 C 15.125 58.230469 14.644531 57.894531 14.460938 57.230469 C 14.34375 56.8125 14.230469 56.726562 13.835938 56.777344 C 13.085938 56.859375 12.679688 56.113281 12.71875 54.707031 C 12.753906 53.578125 12.664062 53.390625 12.28125 53.765625 C 12.167969 53.871094 11.878906 53.9375 11.640625 53.898438 C 11.085938 53.824219 10.960938 52.945312 11.363281 51.957031 C 11.691406 51.164062 11.621094 51.035156 10.941406 51.167969 C 10.042969 51.339844 9.828125 50.707031 10.292969 49.269531 C 10.410156 48.890625 10.382812 48.851562 10.074219 48.976562 C 9.339844 49.269531 9.171875 49.183594 9.113281 48.503906 C 9.074219 48.09375 9.199219 47.5625 9.441406 47.109375 C 9.835938 46.351562 9.820312 46.316406 9.125 46.367188 C 8.449219 46.425781 8.425781 45.902344 9.050781 44.921875 C 9.371094 44.421875 9.632812 43.953125 9.632812 43.875 C 9.632812 43.800781 9.425781 43.644531 9.167969 43.53125 C 8.578125 43.273438 8.585938 42.878906 9.1875 42.035156 C 9.695312 41.320312 9.65625 40.980469 9.058594 40.980469 C 8.285156 40.980469 8.375 39.996094 9.246094 38.929688 C 9.6875 38.390625 9.78125 38.136719 9.695312 37.683594 C 9.640625 37.371094 9.433594 36.980469 9.238281 36.816406 C 9.046875 36.652344 8.890625 36.363281 8.890625 36.175781 C 8.890625 35.8125 9.636719 35.046875 10.324219 34.703125 C 10.816406 34.457031 10.851562 34.117188 10.445312 33.511719 C 10.167969 33.105469 10.167969 33.03125 10.453125 32.613281 C 10.621094 32.359375 11.035156 32.027344 11.371094 31.871094 C 11.707031 31.714844 12.128906 31.347656 12.304688 31.054688 C 12.613281 30.550781 12.613281 30.511719 12.292969 30.167969 C 11.765625 29.601562 12.242188 28.960938 13.511719 28.539062 C 14.832031 28.105469 15.164062 27.796875 14.84375 27.300781 C 14.378906 26.574219 14.851562 26.113281 16.382812 25.785156 C 17.191406 25.613281 17.398438 25.375 17.28125 24.785156 C 17.1875 24.347656 17.253906 24.230469 17.675781 24.042969 C 18.121094 23.847656 18.164062 23.753906 18.066406 23.183594 C 17.792969 21.609375 17.734375 20.699219 17.902344 20.601562 C 18.003906 20.539062 18.34375 20.585938 18.660156 20.699219 C 18.976562 20.816406 19.285156 20.867188 19.339844 20.8125 C 19.394531 20.757812 19.347656 20.097656 19.230469 19.34375 C 19.117188 18.589844 19.074219 17.6875 19.144531 17.335938 C 19.257812 16.757812 19.320312 16.703125 19.90625 16.703125 C 20.648438 16.703125 20.625 16.796875 20.273438 15.171875 C 19.914062 13.542969 19.921875 13.351562 20.335938 12.949219 C 21.011719 12.292969 21.121094 10.648438 20.644531 8.238281 C 20.257812 6.265625 20.347656 5.191406 20.910156 5.191406 C 21.101562 5.191406 21.421875 5.394531 21.621094 5.640625 C 22.039062 6.160156 22.308594 6.210938 22.46875 5.808594 C 22.675781 5.277344 22.585938 4.824219 22.046875 3.792969 C 21.457031 2.648438 20.914062 1.03125 20.914062 0.390625 C 20.914062 -0.246094 21.339844 -0.117188 22.445312 0.863281 C 23.488281 1.792969 24.347656 3.175781 24.886719 4.785156 C 25.390625 6.308594 25.707031 6.042969 25.824219 4.011719 C 25.898438 2.628906 25.988281 2.3125 26.289062 2.3125 C 26.632812 2.3125 27.023438 3.414062 27.402344 5.488281 C 27.746094 7.34375 27.785156 7.984375 27.671875 10.4375 C 27.601562 11.984375 27.601562 13.441406 27.675781 13.664062 L 27.808594 14.074219 L 28.660156 13.035156 L 28.792969 13.546875 C 28.863281 13.824219 28.878906 15.316406 28.828125 16.859375 C 28.777344 18.402344 28.773438 19.769531 28.820312 19.890625 C 29.027344 20.460938 30.046875 19.90625 30.191406 19.148438 C 30.324219 18.464844 30.816406 18.390625 31.65625 18.9375 C 32.089844 19.210938 32.699219 19.511719 33.011719 19.601562 C 33.5 19.734375 33.632812 19.695312 33.898438 19.355469 C 34.191406 18.980469 34.257812 18.96875 34.824219 19.195312 C 35.980469 19.652344 36.183594 19.585938 36.132812 18.746094 C 36.101562 18.261719 36.179688 17.929688 36.363281 17.78125 C 36.523438 17.652344 36.644531 17.238281 36.652344 16.816406 C 36.660156 16.402344 36.726562 15.914062 36.808594 15.722656 C 36.894531 15.5 36.726562 14.773438 36.332031 13.65625 C 35.320312 10.832031 35.585938 9.03125 36.824219 10.316406 C 37.4375 10.949219 37.753906 10.890625 37.753906 10.152344 C 37.753906 9.757812 37.355469 8.796875 36.640625 7.441406 C 35.136719 4.59375 35.148438 3.871094 36.679688 4.816406 C 37.730469 5.464844 38.746094 6.632812 39.691406 8.28125 C 40.722656 10.074219 40.980469 10.105469 40.847656 8.398438 C 40.675781 6.1875 41.289062 5.789062 42.1875 7.527344 C 43.070312 9.226562 43.304688 10.398438 43.5 14.179688 C 43.605469 16.109375 43.761719 17.761719 43.851562 17.851562 C 43.953125 17.949219 44.152344 17.746094 44.34375 17.351562 C 44.964844 16.085938 45.277344 16.816406 45.441406 19.941406 C 45.578125 22.550781 45.5625 22.511719 46.183594 22.234375 C 46.617188 22.042969 46.710938 22.066406 47.019531 22.4375 C 47.210938 22.667969 47.367188 23.078125 47.367188 23.351562 C 47.367188 24.121094 47.824219 24.386719 48.476562 24.015625 C 48.953125 23.742188 49.03125 23.738281 49.289062 23.988281 C 49.449219 24.140625 49.625 24.566406 49.6875 24.9375 C 49.855469 25.960938 50.105469 26.410156 50.488281 26.410156 C 50.972656 26.410156 51.214844 26.753906 51.355469 27.613281 C 51.535156 28.699219 51.707031 28.894531 52.140625 28.515625 C 52.949219 27.804688 53.484375 28.707031 53.019531 29.988281 C 52.863281 30.421875 52.730469 30.8125 52.730469 30.851562 C 52.730469 30.894531 53.109375 30.875 53.566406 30.8125 C 54.347656 30.695312 54.398438 30.714844 54.398438 31.101562 C 54.398438 31.324219 54.273438 31.644531 54.121094 31.8125 C 53.6875 32.277344 53.949219 33.246094 54.507812 33.246094 C 54.757812 33.246094 55.027344 33.402344 55.144531 33.617188 C 55.308594 33.910156 55.257812 34.144531 54.871094 34.808594 C 54.285156 35.828125 54.285156 35.871094 54.890625 36.160156 C 55.570312 36.480469 55.605469 36.707031 55.050781 37.34375 C 54.488281 37.996094 54.464844 38.210938 54.953125 38.335938 C 55.371094 38.441406 55.464844 39.15625 55.109375 39.503906 C 54.941406 39.664062 54.96875 39.800781 55.226562 40.078125 C 55.507812 40.378906 55.53125 40.519531 55.355469 40.894531 C 55.238281 41.144531 54.9375 41.441406 54.679688 41.550781 C 54.148438 41.789062 54.085938 42.09375 54.5 42.425781 C 54.714844 42.601562 54.753906 42.847656 54.660156 43.480469 C 54.519531 44.433594 54.308594 44.757812 53.832031 44.757812 C 53.316406 44.757812 53.257812 45.027344 53.660156 45.527344 C 54.296875 46.3125 53.976562 47 53.164062 46.597656 C 52.738281 46.378906 52.363281 46.503906 52.363281 46.851562 C 52.363281 47 52.578125 47.476562 52.839844 47.910156 C 53.425781 48.878906 53.382812 49.5 52.730469 49.585938 C 52.011719 49.679688 51.914062 49.898438 52.339844 50.480469 C 52.847656 51.171875 52.855469 51.886719 52.363281 52.039062 C 51.890625 52.1875 51.894531 52.570312 52.375 53.226562 C 52.84375 53.863281 52.78125 54.359375 52.222656 54.4375 C 51.707031 54.507812 51.699219 54.679688 52.195312 55.117188 C 52.921875 55.753906 53.007812 56.109375 52.53125 56.460938 C 52.152344 56.738281 52.128906 56.828125 52.328125 57.246094 C 52.8125 58.289062 52.472656 59.3125 51.765625 58.945312 C 51.339844 58.722656 51.375 58.683594 51.101562 59.625 C 50.933594 60.195312 50.753906 60.410156 50.339844 60.550781 C 50.003906 60.667969 49.78125 60.882812 49.742188 61.136719 C 49.648438 61.746094 49.132812 61.984375 48.707031 61.613281 C 48.214844 61.179688 48.15625 61.210938 48.015625 62.027344 C 47.894531 62.714844 47.523438 63.285156 47.183594 63.285156 C 47.097656 63.285156 46.855469 63.070312 46.644531 62.8125 C 46.214844 62.28125 45.765625 62.335938 45.671875 62.941406 C 45.640625 63.15625 45.464844 63.425781 45.285156 63.53125 C 45.015625 63.695312 44.878906 63.636719 44.515625 63.191406 L 44.066406 62.652344 L 43.535156 63.148438 C 42.945312 63.695312 42.421875 63.789062 42.257812 63.371094 C 42.109375 62.992188 41.863281 63.035156 41.230469 63.550781 C 40.933594 63.796875 40.5625 64 40.410156 64 C 40.269531 64 40.066406 63.796875 39.972656 63.550781 C 39.871094 63.304688 39.761719 63.101562 39.71875 63.101562 C 39.679688 63.101562 39.164062 63.308594 38.578125 63.558594 C 37.328125 64.097656 36.625 64.078125 36.363281 63.503906 C 36.242188 63.234375 36.085938 63.136719 35.898438 63.210938 C 34.496094 63.804688 34.039062 63.898438 33.675781 63.679688 C 33.371094 63.496094 33.105469 63.503906 32.214844 63.726562 C 30.789062 64.085938 30.425781 64.070312 29.980469 63.640625 Z M 49.296875 53.828125 C 49.710938 53.425781 49.65625 52.769531 49.160156 52.207031 C 48.609375 51.585938 47.992188 51.730469 47.769531 52.546875 C 47.527344 53.429688 47.839844 54.113281 48.484375 54.113281 C 48.773438 54.113281 49.136719 53.984375 49.296875 53.828125 Z M 49.296875 53.828125 "/>
</g>
</svg>
