<?xml version="1.0" encoding="UTF-8"?>
<svg xmlns="http://www.w3.org/2000/svg" xmlns:xlink="http://www.w3.org/1999/xlink" width="64px" height="64px" viewBox="0 0 64 64" version="1.1">
<defs>
<linearGradient id="linear0" gradientUnits="userSpaceOnUse" x1="0" y1="0" x2="0" y2="1" gradientTransform="matrix(64,0,0,38.398438,0,12.800781)">
<stop offset="0" style="stop-color:rgb(3.921569%,74.117649%,77.64706%);stop-opacity:1;"/>
<stop offset="1" style="stop-color:rgb(72.156864%,0%,100%);stop-opacity:1;"/>
</linearGradient>
</defs>
<g id="surface1">
<path style=" stroke:none;fill-rule:evenodd;fill:url(#linear0);" d="M 22.207031 46.277344 C 24.496094 49.347656 28.117188 51.195312 32 51.199219 C 35.882812 51.199219 39.503906 49.347656 41.792969 46.277344 L 43.101562 46.042969 C 44.746094 46.042969 45.363281 42.398438 44.195312 41.167969 L 33.3125 30.972656 C 32.964844 30.605469 32.488281 30.398438 32 30.398438 C 31.507812 30.398438 31.035156 30.605469 30.6875 30.972656 L 19.804688 41.167969 C 18.636719 42.398438 19.246094 46.042969 20.898438 46.042969 Z M 19.085938 20.039062 C 18.265625 14.902344 13.347656 11.792969 8.113281 13.097656 C 2.878906 14.402344 -0.703125 19.632812 0.117188 24.765625 C 0.9375 29.898438 5.851562 33.007812 11.089844 31.703125 C 16.324219 30.398438 19.902344 25.171875 19.085938 20.039062 Z M 44.914062 20.035156 C 45.734375 14.902344 50.652344 11.792969 55.886719 13.097656 C 61.121094 14.398438 64.703125 19.628906 63.882812 24.765625 C 63.0625 29.898438 58.148438 33.007812 52.910156 31.703125 C 47.675781 30.398438 44.097656 25.171875 44.914062 20.035156 Z M 44.914062 20.035156 "/>
</g>
</svg>
