<?xml version="1.0" encoding="UTF-8"?>
<svg xmlns="http://www.w3.org/2000/svg" xmlns:xlink="http://www.w3.org/1999/xlink" width="64px" height="64px" viewBox="0 0 64 64" version="1.1">
<defs>
<linearGradient id="linear0" gradientUnits="userSpaceOnUse" x1="0" y1="0" x2="0" y2="1" gradientTransform="matrix(64,0,0,48,0,8)">
<stop offset="0" style="stop-color:rgb(3.921569%,74.117649%,77.64706%);stop-opacity:1;"/>
<stop offset="1" style="stop-color:rgb(72.156864%,0%,100%);stop-opacity:1;"/>
</linearGradient>
</defs>
<g id="surface1">
<path style=" stroke:none;fill-rule:nonzero;fill:url(#linear0);" d="M 24 8 C 10.667969 8 0 18.667969 0 32 C 0 45.332031 10.667969 56 24 56 C 37.332031 56 48 45.332031 48 32 C 48 18.667969 37.332031 8 24 8 Z M 38.414062 8.835938 C 46.101562 14.035156 50.695312 22.71875 50.667969 32 C 50.695312 41.28125 46.105469 49.96875 38.414062 55.167969 C 48.550781 52.226562 56 43.195312 56 32 C 56 20.800781 48.550781 11.773438 38.414062 8.832031 Z M 46.414062 8.835938 C 54.101562 14.035156 58.695312 22.71875 58.667969 32 C 58.695312 41.28125 54.105469 49.96875 46.414062 55.167969 C 56.550781 52.226562 64 43.195312 64 32 C 64 20.800781 56.550781 11.773438 46.414062 8.832031 Z M 23.167969 13.332031 L 26.164062 13.332031 L 26.164062 17.585938 C 28.042969 17.800781 29.753906 18.765625 30.914062 20.253906 C 31.980469 21.585938 32.835938 23.773438 32.835938 26.164062 L 27.164062 26.164062 C 27.164062 24.832031 26.949219 23.46875 26.421875 22.667969 C 25.882812 21.867188 25.3125 21.832031 24.253906 21.832031 C 23.449219 21.832031 22.6875 22.117188 22.414062 22.914062 C 22.035156 23.757812 21.835938 24.664062 21.832031 25.585938 C 21.832031 26.382812 22.148438 27.21875 22.421875 27.746094 C 22.949219 28.285156 23.753906 29.027344 25.085938 29.832031 C 27.753906 30.894531 29.605469 32 30.667969 33.332031 C 32 34.667969 32.5 36.519531 32.5 38.914062 C 32.5 41.050781 32 42.914062 30.667969 44.253906 C 29.332031 45.585938 27.71875 46.394531 25.585938 46.667969 L 25.585938 50.667969 L 22.914062 50.667969 L 22.914062 46.667969 C 20.78125 46.394531 18.914062 45.605469 17.585938 44 C 16.253906 42.667969 15.5 40.519531 15.5 37.585938 L 20.832031 37.585938 C 20.832031 39.1875 21.03125 40.53125 21.832031 41.332031 C 22.363281 42.132812 23.1875 42.667969 24.253906 42.667969 C 25.3125 42.667969 25.882812 42.386719 26.414062 41.585938 C 26.949219 41.050781 27.164062 39.980469 27.164062 38.914062 C 27.164062 37.851562 26.949219 37.050781 26.421875 36.253906 C 25.882812 35.714844 25.058594 34.949219 24 34.414062 C 21.332031 33.355469 19.5 32.253906 18.164062 30.914062 C 16.832031 29.585938 16.253906 27.726562 16.253906 25.332031 C 16.253906 23.199219 16.832031 21.332031 18.164062 20 C 19.5 18.667969 21.03125 17.585938 23.164062 17.585938 Z M 23.167969 13.332031 "/>
</g>
</svg>
