<?xml version="1.0" encoding="UTF-8"?>
<svg xmlns="http://www.w3.org/2000/svg" xmlns:xlink="http://www.w3.org/1999/xlink" width="64px" height="64px" viewBox="0 0 64 64" version="1.1">
<defs>
<linearGradient id="linear0" gradientUnits="userSpaceOnUse" x1="0" y1="0" x2="0" y2="1" gradientTransform="matrix(56.328125,0,0,61.335938,3.835938,1.332031)">
<stop offset="0" style="stop-color:rgb(3.921569%,74.117649%,77.64706%);stop-opacity:1;"/>
<stop offset="1" style="stop-color:rgb(72.156864%,0%,100%);stop-opacity:1;"/>
</linearGradient>
</defs>
<g id="surface1">
<path style=" stroke:none;fill-rule:evenodd;fill:url(#linear0);" d="M 19.167969 6.667969 L 25.835938 6.667969 L 25.835938 24.507812 L 23.445312 22.117188 C 22.925781 21.597656 22.078125 21.597656 21.558594 22.117188 L 19.167969 24.507812 Z M 15.167969 46.667969 L 10.5 46.667969 C 10.042969 46.667969 9.597656 46.710938 9.167969 46.800781 L 9.167969 10.667969 C 9.167969 8.457031 10.960938 6.667969 13.167969 6.667969 L 15.167969 6.667969 L 15.167969 30.160156 C 15.167969 32.367188 16.433594 32.890625 17.996094 31.332031 L 22.5 26.828125 L 27.007812 31.332031 C 28.566406 32.890625 29.835938 32.367188 29.835938 30.160156 L 29.835938 6.667969 L 45.167969 6.667969 C 47.375 6.667969 49.167969 8.457031 49.167969 10.667969 L 49.167969 26.667969 C 49.167969 28.136719 50.363281 29.332031 51.835938 29.332031 C 53.308594 29.332031 54.5 28.136719 54.5 26.667969 L 54.5 8 C 54.5 4.320312 51.511719 1.332031 47.835938 1.332031 L 10.5 1.332031 C 6.820312 1.332031 3.835938 4.320312 3.835938 8 L 3.835938 56 C 3.835938 59.679688 6.820312 62.667969 10.5 62.667969 L 31.835938 62.667969 C 33.308594 62.667969 34.5 61.472656 34.5 60 C 34.5 58.527344 33.308594 57.332031 31.835938 57.332031 L 11.835938 57.332031 C 10.363281 57.332031 9.167969 56.136719 9.167969 54.667969 C 9.167969 53.195312 10.363281 52 11.835938 52 L 26.5 52 C 27.972656 52 29.167969 50.804688 29.167969 49.332031 C 29.167969 47.863281 27.972656 46.667969 26.5 46.667969 L 19.167969 46.667969 L 19.167969 40 C 19.167969 38.894531 18.273438 38 17.167969 38 C 16.0625 38 15.167969 38.894531 15.167969 40 Z M 50.859375 56.328125 C 49.761719 55.25 48.703125 54.121094 47.691406 52.9375 C 46.855469 51.945312 46.125 50.867188 45.484375 49.734375 C 44.824219 48.570312 44.320312 47.320312 44.003906 46.015625 C 43.765625 45.082031 44.328125 44.136719 45.257812 43.902344 C 46.1875 43.664062 47.140625 44.230469 47.378906 45.164062 C 47.621094 46.171875 48.003906 47.128906 48.511719 48.03125 C 49.050781 48.96875 49.660156 49.875 50.351562 50.710938 C 51.726562 52.3125 53.207031 53.824219 54.789062 55.234375 C 54.808594 55.234375 54.808594 55.25 54.824219 55.25 L 55.035156 55.441406 C 55.414062 55.808594 55.625 56.3125 55.589844 56.832031 C 55.554688 57.375 55.292969 57.84375 54.859375 58.15625 C 52.960938 59.476562 50.71875 60.226562 48.40625 60.277344 C 47.292969 60.261719 46.195312 60.105469 45.136719 59.757812 C 43.9375 59.375 42.789062 58.832031 41.726562 58.15625 C 40.4375 57.214844 39.257812 56.15625 38.160156 54.988281 C 37.1875 53.929688 36.316406 52.78125 35.585938 51.546875 C 34.230469 49.199219 33.5 46.535156 33.5 43.824219 C 33.515625 41.542969 33.96875 39.28125 34.820312 37.144531 C 35.792969 34.726562 37.082031 32.429688 38.628906 30.324219 C 39.066406 29.714844 39.761719 29.351562 40.492188 29.332031 C 41.222656 29.351562 41.898438 29.699219 42.316406 30.273438 C 43.726562 32.0625 45.414062 33.613281 47.308594 34.867188 C 49.171875 36.066406 51.101562 37.125 53.101562 38.066406 C 54.179688 38.570312 55.171875 39.195312 56.09375 39.925781 C 57 40.65625 57.765625 41.527344 58.390625 42.5 C 59.015625 43.542969 59.484375 44.691406 59.746094 45.890625 C 60.042969 47.285156 60.179688 48.691406 60.164062 50.101562 C 60.164062 50.988281 60.113281 51.875 60.042969 52.746094 C 59.964844 53.707031 59.128906 54.417969 58.171875 54.335938 C 57.21875 54.257812 56.503906 53.417969 56.582031 52.46875 C 56.652344 51.667969 56.683594 50.867188 56.683594 50.066406 C 56.703125 48.917969 56.582031 47.769531 56.335938 46.640625 C 56.164062 45.824219 55.851562 45.039062 55.414062 44.328125 C 55.015625 43.683594 54.511719 43.109375 53.921875 42.640625 C 53.222656 42.082031 52.441406 41.613281 51.625 41.214844 C 49.484375 40.207031 47.398438 39.054688 45.414062 37.769531 C 43.621094 36.605469 42.003906 35.195312 40.578125 33.613281 C 39.585938 35.125 38.734375 36.761719 38.054688 38.449219 C 37.359375 40.167969 36.996094 41.996094 36.976562 43.839844 C 36.976562 45.929688 37.550781 47.980469 38.597656 49.789062 C 39.1875 50.796875 39.898438 51.753906 40.699219 52.605469 C 41.621094 53.582031 42.628906 54.484375 43.710938 55.285156 C 44.476562 55.773438 45.308594 56.171875 46.179688 56.449219 C 46.890625 56.660156 47.621094 56.78125 48.371094 56.78125 C 49.222656 56.765625 50.058594 56.609375 50.859375 56.328125 Z M 50.859375 56.328125 "/>
</g>
</svg>
