<?xml version="1.0" encoding="UTF-8"?>
<svg xmlns="http://www.w3.org/2000/svg" xmlns:xlink="http://www.w3.org/1999/xlink" width="64px" height="64px" viewBox="0 0 64 64" version="1.1">
<defs>
<linearGradient id="linear0" gradientUnits="userSpaceOnUse" x1="0" y1="0" x2="0" y2="1" gradientTransform="matrix(26.945312,0,0,64,18.527344,0)">
<stop offset="0" style="stop-color:rgb(3.921569%,74.117649%,77.64706%);stop-opacity:1;"/>
<stop offset="1" style="stop-color:rgb(72.156864%,0%,100%);stop-opacity:1;"/>
</linearGradient>
</defs>
<g id="surface1">
<path style=" stroke:none;fill-rule:nonzero;fill:url(#linear0);" d="M 25.265625 0 L 18.527344 25.265625 L 27.285156 25.265625 L 20.210938 40.421875 L 27.285156 40.421875 L 20.210938 64 L 43.789062 35.367188 L 35.535156 35.367188 L 45.472656 20.210938 L 33.683594 20.210938 L 43.789062 0 Z M 25.265625 0 "/>
</g>
</svg>
