<?xml version="1.0" encoding="UTF-8"?>
<svg xmlns="http://www.w3.org/2000/svg" xmlns:xlink="http://www.w3.org/1999/xlink" width="64px" height="64px" viewBox="0 0 64 64" version="1.1">
<defs>
<linearGradient id="linear0" gradientUnits="userSpaceOnUse" x1="0" y1="0" x2="0" y2="1" gradientTransform="matrix(51.34375,0,0,64,6.328125,0)">
<stop offset="0" style="stop-color:rgb(3.921569%,74.117649%,77.64706%);stop-opacity:1;"/>
<stop offset="1" style="stop-color:rgb(72.156864%,0%,100%);stop-opacity:1;"/>
</linearGradient>
</defs>
<g id="surface1">
<path style=" stroke:none;fill-rule:nonzero;fill:url(#linear0);" d="M 32.632812 0 C 27.9375 0 24.042969 6.824219 20.109375 22.042969 C 20.136719 22.226562 17.285156 32.910156 17.285156 32.910156 C 17.117188 33.53125 16.546875 33.957031 15.9375 33.957031 C 15.816406 33.957031 15.699219 33.945312 15.589844 33.910156 C 14.847656 33.710938 14.386719 32.957031 14.589844 32.214844 L 15.410156 29.089844 C 14.773438 29.527344 14.121094 29.984375 13.5 30.390625 C 9.800781 32.828125 6.328125 35.113281 6.328125 38.042969 C 6.328125 39.230469 6.835938 39.902344 7.285156 40.261719 C 8.707031 41.390625 11.011719 40.886719 13.890625 40.21875 C 14.644531 40.042969 15.394531 39.84375 16.152344 39.695312 C 15.972656 40.570312 15.800781 41.425781 15.628906 42.261719 C 14.726562 46.742188 13.761719 51.667969 13.019531 54.261719 L 52.285156 54.261719 C 51.546875 51.679688 50.570312 46.789062 49.671875 42.347656 C 49.164062 39.808594 46.589844 29.128906 46.589844 29.128906 C 46.394531 28.375 46.839844 27.605469 47.589844 27.390625 C 48.332031 27.203125 49.089844 27.648438 49.285156 28.390625 L 50.019531 31.089844 C 53.496094 27.707031 56.285156 22.289062 56.285156 18.214844 C 56.285156 14.125 53.5625 13.910156 53.019531 13.910156 C 51.640625 13.910156 51.011719 15.078125 50.410156 16.214844 C 49.546875 17.863281 48.421875 20.085938 44.890625 20.957031 C 41.046875 6.484375 37.246094 0 32.632812 0 Z M 28.457031 11.132812 C 31.085938 11.132812 32.042969 13.308594 32.632812 14.609375 C 32.710938 14.789062 32.839844 15.03125 32.9375 15.21875 C 33.589844 14.902344 34.804688 13.90625 35.804688 12.910156 C 36.359375 12.371094 37.246094 12.371094 37.804688 12.910156 C 38.347656 13.457031 38.347656 14.367188 37.804688 14.910156 C 37.429688 15.289062 36.808594 15.832031 36.109375 16.390625 C 37.375 17.28125 38.195312 18.648438 38.195312 20.171875 C 38.195312 22.859375 35.699219 25.042969 32.632812 25.042969 C 29.558594 25.042969 27.0625 22.859375 27.0625 20.171875 C 27.0625 18.273438 28.332031 16.628906 30.152344 15.828125 C 30.136719 15.800781 30.125 15.769531 30.109375 15.738281 C 29.488281 14.363281 29.167969 13.910156 28.457031 13.910156 C 27.851562 13.910156 26.847656 14.597656 26.457031 14.957031 C 26.183594 15.203125 25.828125 15.335938 25.460938 15.316406 C 25.09375 15.300781 24.746094 15.140625 24.5 14.867188 C 23.980469 14.289062 24.019531 13.398438 24.589844 12.867188 C 24.78125 12.691406 26.578125 11.132812 28.457031 11.132812 Z M 32.632812 18.089844 C 31.121094 18.089844 29.847656 19.042969 29.847656 20.171875 C 29.847656 21.304688 31.121094 22.261719 32.632812 22.261719 C 34.140625 22.261719 35.410156 21.304688 35.410156 20.171875 C 35.410156 19.042969 34.140625 18.089844 32.632812 18.089844 Z M 32.632812 27.828125 C 35.699219 27.828125 38.195312 30.011719 38.195312 32.695312 C 38.195312 35.378906 35.699219 37.5625 32.632812 37.5625 C 29.558594 37.5625 27.0625 35.378906 27.0625 32.695312 C 27.0625 30.011719 29.558594 27.828125 32.632812 27.828125 Z M 32.632812 30.609375 C 31.121094 30.609375 29.847656 31.5625 29.847656 32.695312 C 29.847656 33.828125 31.121094 34.785156 32.632812 34.785156 C 34.140625 34.785156 35.410156 33.824219 35.410156 32.695312 C 35.410156 31.5625 34.140625 30.609375 32.632812 30.609375 Z M 32.632812 40.347656 C 36.46875 40.347656 39.589844 42.84375 39.589844 45.910156 C 39.589844 48.984375 36.46875 51.480469 32.632812 51.480469 C 28.792969 51.480469 25.671875 48.984375 25.671875 45.910156 C 25.671875 42.84375 28.792969 40.347656 32.632812 40.347656 Z M 32.632812 43.132812 C 30.367188 43.132812 28.457031 44.402344 28.457031 45.910156 C 28.457031 47.425781 30.367188 48.695312 32.632812 48.695312 C 34.890625 48.695312 36.804688 47.425781 36.804688 45.910156 C 36.804688 44.402344 34.890625 43.132812 32.632812 43.132812 Z M 11.0625 57.042969 C 9.148438 57.046875 7.59375 58.605469 7.589844 60.519531 C 7.589844 62.4375 9.152344 64 11.0625 64 L 54.195312 64 C 56.109375 64 57.671875 62.4375 57.671875 60.519531 C 57.671875 58.609375 56.109375 57.042969 54.195312 57.042969 Z M 11.0625 57.042969 "/>
</g>
</svg>
