<?xml version="1.0" encoding="UTF-8"?>
<svg xmlns="http://www.w3.org/2000/svg" xmlns:xlink="http://www.w3.org/1999/xlink" width="64px" height="64px" viewBox="0 0 64 64" version="1.1">
<defs>
<linearGradient id="linear0" gradientUnits="userSpaceOnUse" x1="0" y1="0" x2="0" y2="1" gradientTransform="matrix(64,0,0,50.289063,0,6.855469)">
<stop offset="0" style="stop-color:rgb(3.921569%,74.117649%,77.64706%);stop-opacity:1;"/>
<stop offset="1" style="stop-color:rgb(72.156864%,0%,100%);stop-opacity:1;"/>
</linearGradient>
</defs>
<g id="surface1">
<path style=" stroke:none;fill-rule:nonzero;fill:url(#linear0);" d="M 0 6.855469 L 0 22.855469 L 38.398438 22.855469 C 43.890625 22.855469 48 26.609375 48 32 C 48 37.390625 43.890625 41.070312 38.398438 41.144531 L 16 41.144531 L 16 27.429688 L 0 27.429688 L 0 57.144531 L 38.398438 57.144531 C 52.539062 57.144531 64 45.886719 64 32 C 64 18.113281 52.539062 6.855469 38.398438 6.855469 Z M 0 6.855469 "/>
</g>
</svg>
