<?xml version="1.0" encoding="UTF-8"?>
<svg xmlns="http://www.w3.org/2000/svg" xmlns:xlink="http://www.w3.org/1999/xlink" width="64px" height="64px" viewBox="0 0 64 64" version="1.1">
<defs>
<linearGradient id="linear0" gradientUnits="userSpaceOnUse" x1="0" y1="0" x2="0" y2="1" gradientTransform="matrix(64,0,0,57.078125,0,3.460938)">
<stop offset="0" style="stop-color:rgb(3.921569%,74.117649%,77.64706%);stop-opacity:1;"/>
<stop offset="1" style="stop-color:rgb(72.156864%,0%,100%);stop-opacity:1;"/>
</linearGradient>
</defs>
<g id="surface1">
<path style=" stroke:none;fill-rule:evenodd;fill:url(#linear0);" d="M 22.960938 3.460938 L 59.058594 3.460938 C 61.789062 3.460938 64 5.675781 64 8.398438 L 64 35.113281 C 64 37.835938 61.789062 40.046875 59.058594 40.046875 L 22.960938 40.046875 C 20.230469 40.046875 18.019531 37.835938 18.019531 35.113281 L 18.019531 8.398438 C 18.019531 5.675781 20.230469 3.460938 22.960938 3.460938 Z M 4.195312 35.382812 L 13.628906 35.382812 C 13.996094 45.355469 20.578125 44.714844 31.925781 44.53125 L 31.925781 56.34375 C 31.925781 58.660156 30.042969 60.539062 27.726562 60.539062 L 4.195312 60.539062 C 1.878906 60.539062 0 58.660156 0 56.34375 L 0 39.578125 C 0 37.265625 1.878906 35.382812 4.195312 35.382812 Z M 36.496094 44.53125 L 36.589844 55.785156 L 48.023438 55.847656 C 50.449219 55.863281 52.394531 53.90625 52.378906 51.484375 L 52.324219 44.347656 Z M 36.496094 44.53125 "/>
</g>
</svg>
