<?xml version="1.0" encoding="UTF-8"?>
<svg xmlns="http://www.w3.org/2000/svg" xmlns:xlink="http://www.w3.org/1999/xlink" width="64px" height="64px" viewBox="0 0 64 64" version="1.1">
<defs>
<linearGradient id="linear0" gradientUnits="userSpaceOnUse" x1="0" y1="0" x2="0" y2="1" gradientTransform="matrix(57.144531,0,0,64,3.425781,0)">
<stop offset="0" style="stop-color:rgb(3.921569%,74.117649%,77.64706%);stop-opacity:1;"/>
<stop offset="1" style="stop-color:rgb(72.156864%,0%,100%);stop-opacity:1;"/>
</linearGradient>
</defs>
<g id="surface1">
<path style=" stroke:none;fill-rule:nonzero;fill:url(#linear0);" d="M 56.238281 40.902344 L 55.007812 43.808594 L 20.066406 33.324219 C 20.015625 33.539062 19.925781 33.855469 19.796875 34.277344 C 19.671875 34.660156 19.585938 34.960938 19.535156 35.175781 C 18.601562 39.070312 18.808594 42.253906 20.15625 44.722656 C 21.53125 47.203125 24.035156 48.992188 27.675781 50.085938 C 30.816406 51.027344 34.269531 51.414062 38.035156 51.238281 C 41.832031 51.074219 45.933594 50.371094 50.339844 49.128906 L 44.480469 63.34375 C 40.429688 63.964844 36.5 64.144531 32.6875 63.882812 C 28.894531 63.664062 25.136719 62.996094 21.410156 61.878906 C 14.128906 59.691406 9.019531 55.84375 6.078125 50.328125 C 3.164062 44.820312 2.652344 38.113281 4.542969 30.214844 C 5.636719 25.644531 7.324219 21.398438 9.601562 17.484375 C 11.914062 13.546875 14.707031 10.152344 17.980469 7.304688 C 21.871094 3.875 26.066406 1.648438 30.570312 0.625 C 35.105469 -0.390625 39.804688 -0.167969 44.667969 1.292969 C 50.980469 3.183594 55.464844 6.847656 58.128906 12.28125 C 60.820312 17.722656 61.285156 24.105469 59.53125 31.433594 C 59.191406 32.863281 58.742188 34.355469 58.191406 35.914062 C 57.675781 37.445312 57.027344 39.109375 56.238281 40.902344 Z M 44.253906 27.882812 C 44.445312 27.445312 44.613281 26.996094 44.753906 26.539062 C 44.929688 26.054688 45.070312 25.578125 45.179688 25.117188 C 45.867188 22.257812 45.742188 19.789062 44.808594 17.707031 C 43.875 15.628906 42.269531 14.246094 39.992188 13.558594 C 37.070312 12.683594 34.335938 12.976562 31.785156 14.433594 C 29.265625 15.859375 26.988281 18.410156 24.945312 22.089844 Z M 44.253906 27.882812 "/>
</g>
</svg>
