<?xml version="1.0" encoding="UTF-8"?>
<svg xmlns="http://www.w3.org/2000/svg" xmlns:xlink="http://www.w3.org/1999/xlink" width="64px" height="64px" viewBox="0 0 64 64" version="1.1">
<defs>
<linearGradient id="linear0" gradientUnits="userSpaceOnUse" x1="0" y1="0" x2="0" y2="1" gradientTransform="matrix(64,0,0,61.335937,0,1.332031)">
<stop offset="0" style="stop-color:rgb(3.921569%,74.117649%,77.64706%);stop-opacity:1;"/>
<stop offset="1" style="stop-color:rgb(72.156864%,0%,100%);stop-opacity:1;"/>
</linearGradient>
<linearGradient id="linear1" gradientUnits="userSpaceOnUse" x1="0" y1="0" x2="0" y2="1" gradientTransform="matrix(42.664062,0,0,61.335937,10.667969,1.332031)">
<stop offset="0" style="stop-color:rgb(3.921569%,74.117649%,77.64706%);stop-opacity:1;"/>
<stop offset="1" style="stop-color:rgb(72.156864%,0%,100%);stop-opacity:1;"/>
</linearGradient>
</defs>
<g id="surface1">
<path style=" stroke:none;fill-rule:nonzero;fill:url(#linear0);" d="M 46.667969 1.332031 C 37.09375 1.332031 29.332031 9.09375 29.332031 18.667969 L 29.332031 28 L 17.332031 28 C 7.761719 28 0 35.761719 0 45.332031 C 0 54.90625 7.761719 62.667969 17.332031 62.667969 C 26.90625 62.667969 34.667969 54.90625 34.667969 45.332031 L 34.667969 36 L 46.667969 36 C 56.238281 36 64 28.238281 64 18.667969 C 64 9.09375 56.238281 1.332031 46.667969 1.332031 Z M 46.667969 9.332031 C 51.820312 9.332031 56 13.511719 56 18.667969 C 56 23.820312 51.820312 28 46.667969 28 L 39.796875 28 C 39.796875 28 37.332031 28 37.332031 25.226562 L 37.332031 18.667969 C 37.332031 13.511719 41.511719 9.332031 46.667969 9.332031 Z M 17.332031 36 L 24.203125 36 C 24.203125 36 26.667969 36 26.667969 38.773438 L 26.667969 45.332031 C 26.667969 50.488281 22.488281 54.667969 17.332031 54.667969 C 12.179688 54.667969 8 50.488281 8 45.332031 C 8 40.179688 12.179688 36 17.332031 36 Z M 17.332031 36 "/>
<path style=" stroke:none;fill-rule:nonzero;fill:url(#linear1);" d="M 46.667969 1.332031 C 37.09375 1.332031 29.332031 9.09375 29.332031 18.667969 L 29.332031 28 L 19.929688 28 C 17.742188 28.164062 16.023438 29.921875 16.027344 32.140625 C 16.027344 33.902344 17.109375 35.386719 18.644531 36 L 24.203125 36 C 24.203125 36 26.667969 36 26.667969 38.773438 L 26.667969 45.332031 C 26.667969 50.488281 22.488281 54.667969 17.332031 54.667969 C 16 54.667969 15.492188 54.546875 14.667969 54.398438 C 12.457031 54.398438 10.667969 56.191406 10.667969 58.398438 C 10.671875 60.507812 12.308594 62.253906 14.410156 62.382812 C 14.457031 62.394531 14.488281 62.429688 14.535156 62.4375 C 15.449219 62.589844 16.378906 62.667969 17.332031 62.667969 C 26.90625 62.667969 34.667969 54.90625 34.667969 45.332031 L 34.667969 36 L 45.289062 36 C 46.832031 35.390625 47.929688 33.902344 47.929688 32.136719 C 47.925781 29.945312 46.253906 28.1875 44.117188 28 L 39.796875 28 C 39.796875 28 37.332031 28 37.332031 25.226562 L 37.332031 18.667969 C 37.332031 13.511719 41.511719 9.332031 46.667969 9.332031 C 47.3125 9.332031 47.949219 9.398438 48.554688 9.527344 L 48.5625 9.527344 C 48.816406 9.574219 49.074219 9.601562 49.332031 9.601562 C 51.542969 9.601562 53.332031 7.808594 53.332031 5.601562 C 53.332031 3.832031 52.171875 2.277344 50.480469 1.773438 C 50.476562 1.773438 50.472656 1.773438 50.46875 1.773438 C 50.167969 1.679688 49.859375 1.628906 49.546875 1.609375 C 48.609375 1.449219 47.652344 1.332031 46.667969 1.332031 Z M 46.667969 1.332031 "/>
</g>
</svg>
