<?xml version="1.0" encoding="UTF-8"?>
<svg xmlns="http://www.w3.org/2000/svg" xmlns:xlink="http://www.w3.org/1999/xlink" width="64px" height="64px" viewBox="0 0 64 64" version="1.1">
<defs>
<linearGradient id="linear0" gradientUnits="userSpaceOnUse" x1="0" y1="0" x2="0" y2="1" gradientTransform="matrix(64,0,0,57.398438,0,3.300781)">
<stop offset="0" style="stop-color:rgb(3.921569%,74.117649%,77.64706%);stop-opacity:1;"/>
<stop offset="1" style="stop-color:rgb(72.156864%,0%,100%);stop-opacity:1;"/>
</linearGradient>
</defs>
<g id="surface1">
<path style=" stroke:none;fill-rule:evenodd;fill:url(#linear0);" d="M 38.457031 33.007812 C 38.78125 30.65625 40.453125 28.820312 42.1875 28.914062 C 43.925781 29.007812 45.066406 30.992188 44.742188 33.347656 C 44.421875 35.699219 42.746094 37.535156 41.011719 37.445312 C 39.277344 37.347656 38.132812 35.363281 38.457031 33.007812 Z M 57.164062 39.824219 C 54.992188 39.300781 52.078125 40.339844 50.714844 40.933594 C 48.996094 41.679688 48.371094 41.585938 47.472656 41.710938 C 47.28125 41.738281 47.097656 41.761719 46.914062 41.777344 L 45.960938 41.777344 C 44.652344 41.660156 43.316406 41.054688 40.535156 39.660156 C 38.855469 38.84375 36.980469 37.984375 35.089844 37.640625 C 34.300781 35.144531 34.019531 31.683594 34.355469 28.761719 C 35.257812 24.113281 37.46875 20.960938 41.804688 20.441406 C 42.0625 20.40625 42.324219 20.402344 42.589844 20.421875 C 44.433594 20.535156 46.320312 21.78125 47.65625 23.429688 C 48.757812 24.789062 49.46875 26.375 49.863281 28.367188 C 50.019531 29.144531 50.105469 29.121094 50.1875 30.53125 C 50.445312 34.835938 50.921875 36.664062 51.738281 37.183594 C 52.050781 37.378906 52.230469 37.335938 52.550781 36.984375 C 53.46875 35.542969 54.0625 34.214844 55.3125 31.609375 C 55.476562 31.179688 55.792969 30.503906 56.324219 29.441406 C 56.457031 29.109375 56.789062 28.414062 57.15625 27.652344 C 58.546875 25.34375 59.640625 24.378906 60.425781 24.78125 C 60.515625 24.824219 60.652344 24.949219 60.722656 25.046875 C 61.933594 26.679688 62.039062 33.140625 60.664062 37.640625 C 60.121094 37.714844 59.511719 37.976562 58.902344 38.347656 C 58.214844 38.773438 57.703125 39.203125 57.164062 39.824219 Z M 60.78125 37.625 C 61.980469 35.222656 62.8125 32.613281 63.449219 30.074219 C 63.808594 28.578125 63.964844 27.542969 63.996094 26.386719 C 64.03125 25.023438 63.894531 24.253906 63.464844 23.375 C 63.257812 22.957031 63.171875 22.832031 62.898438 22.558594 C 62.683594 22.347656 62.472656 22.183594 62.269531 22.078125 C 61.9375 21.902344 61.398438 21.746094 61.136719 21.746094 C 60.984375 21.746094 60.964844 21.734375 60.875 21.558594 L 60.785156 21.367188 L 60.941406 21.035156 C 61.714844 19.371094 61.597656 17.070312 61.828125 14.421875 C 61.886719 13.6875 61.933594 12.449219 61.894531 12.273438 C 61.863281 12.089844 61.882812 12.097656 61.007812 12.003906 C 58.914062 11.789062 57.023438 11.84375 54.359375 12.160156 L 53.585938 12.253906 L 53.183594 11.894531 C 51.054688 10.015625 48.460938 8.5625 45.796875 7.277344 C 41.921875 5.402344 37.738281 4.097656 32.945312 3.566406 C 31.351562 3.390625 29.683594 3.304688 27.964844 3.300781 C 22.347656 3.292969 16.175781 4.339844 10.195312 6.0625 C 8.488281 6.554688 5.875 7.429688 5.746094 7.550781 C 5.683594 7.613281 5.789062 7.65625 6.148438 7.714844 C 7.078125 7.863281 8.449219 8.289062 9.472656 8.738281 C 13.207031 10.394531 16.703125 13.816406 19.066406 18.480469 C 19.503906 19.335938 19.835938 20.074219 19.835938 20.183594 C 19.835938 20.210938 19.566406 20.277344 19.121094 20.347656 C 14.605469 21.085938 10.320312 23.074219 6.390625 27.335938 C 4.746094 29.125 3.003906 31.476562 1.636719 33.746094 C 0.710938 35.285156 -0.117188 36.890625 0.0117188 36.890625 C 0.0234375 36.890625 0.460938 36.789062 0.988281 36.660156 C 6.601562 35.292969 11.722656 35.03125 15.328125 35.933594 C 16.84375 36.3125 18.136719 36.566406 19.046875 37.246094 C 19.4375 37.539062 19.835938 37.90625 19.835938 37.976562 C 16.21875 41.054688 14.0625 44.757812 12.542969 48.832031 C 11.203125 52.738281 10.628906 56.667969 10.667969 60.699219 C 12.976562 58.929688 16.628906 55.28125 19.425781 54.253906 C 22.714844 53.078125 25.652344 52.695312 29.714844 52.484375 C 30.714844 52.433594 34.132812 52.441406 34.605469 52.519531 C 35.597656 53.046875 36.457031 53.324219 37.769531 53.769531 C 39.488281 54.269531 41.3125 54.511719 43.347656 54.511719 C 45.339844 54.511719 46.910156 54.316406 48.652344 53.84375 C 52.496094 52.800781 55.726562 50.484375 57.609375 47.429688 C 57.875 46.886719 58.148438 46.378906 58.429688 45.886719 C 58.828125 45.851562 59.273438 45.722656 59.6875 45.542969 C 60.910156 45.015625 62.1875 43.898438 63.007812 42.640625 C 63.671875 41.617188 63.957031 40.824219 63.992188 39.871094 C 64.011719 39.390625 64.003906 39.320312 63.875 38.921875 C 63.71875 38.429688 63.53125 38.160156 63.15625 37.882812 C 62.5625 37.449219 61.734375 37.339844 60.78125 37.625 Z M 60.78125 37.625 "/>
</g>
</svg>
