<?xml version="1.0" encoding="UTF-8"?>
<svg xmlns="http://www.w3.org/2000/svg" xmlns:xlink="http://www.w3.org/1999/xlink" width="64px" height="64px" viewBox="0 0 64 64" version="1.1">
<defs>
<linearGradient id="linear0" gradientUnits="userSpaceOnUse" x1="0" y1="0" x2="0" y2="1" gradientTransform="matrix(52.921875,0,0,60.003906,6,3.996094)">
<stop offset="0" style="stop-color:rgb(3.921569%,74.117649%,77.64706%);stop-opacity:1;"/>
<stop offset="1" style="stop-color:rgb(72.156864%,0%,100%);stop-opacity:1;"/>
</linearGradient>
</defs>
<g id="surface1">
<path style=" stroke:none;fill-rule:nonzero;fill:url(#linear0);" d="M 25.113281 64 L 44.214844 64 C 44.226562 59.929688 44.238281 55.132812 44.238281 52.003906 C 44.238281 48.316406 42.714844 45.902344 41.332031 44.679688 C 49.914062 43.703125 58.921875 40.355469 58.921875 25.167969 C 58.921875 20.851562 57.722656 17.320312 55.253906 14.558594 C 55.648438 13.558594 56.972656 9.535156 54.871094 4.089844 C 54.871094 4.089844 54.667969 4.03125 54.25 4 L 54.246094 4 C 52.996094 3.941406 49.464844 4.359375 43.949219 8.199219 C 40.863281 7.265625 37.339844 6.921875 33.667969 6.933594 C 30.308594 6.9375 26.824219 7.214844 23.4375 8.199219 C 17.917969 4.359375 15.097656 3.945312 13.84375 4.003906 C 13.425781 4.019531 13.222656 4.078125 13.222656 4.078125 C 11.125 9.519531 12.453125 13.546875 12.851562 14.546875 C 10.386719 17.308594 8.941406 20.839844 8.941406 25.152344 C 8.941406 40.304688 18.757812 43.699219 27.3125 44.699219 C 26.210938 45.6875 25.519531 47.730469 25.171875 50.28125 C 22.976562 51.296875 17.089844 53.773438 13.652344 47.730469 C 13.652344 47.730469 11.617188 43.933594 7.75 43.652344 C 7.75 43.652344 3.992188 43.609375 7.488281 46.054688 C 7.488281 46.054688 10.015625 47.273438 11.769531 51.839844 C 11.769531 51.839844 14.371094 58.796875 25.085938 56.40625 C 25.097656 58.03125 25.105469 61.058594 25.113281 63.988281 Z M 25.113281 64 "/>
</g>
</svg>
