<?xml version="1.0" encoding="UTF-8"?>
<svg xmlns="http://www.w3.org/2000/svg" xmlns:xlink="http://www.w3.org/1999/xlink" width="64px" height="64px" viewBox="0 0 64 64" version="1.1">
<defs>
<linearGradient id="linear0" gradientUnits="userSpaceOnUse" x1="0" y1="0" x2="0" y2="1" gradientTransform="matrix(64,0,0,34.910156,0,14.542969)">
<stop offset="0" style="stop-color:rgb(3.921569%,74.117649%,77.64706%);stop-opacity:1;"/>
<stop offset="1" style="stop-color:rgb(72.156864%,0%,100%);stop-opacity:1;"/>
</linearGradient>
</defs>
<g id="surface1">
<path style=" stroke:none;fill-rule:nonzero;fill:url(#linear0);" d="M 35.636719 14.542969 C 35.558594 14.542969 35.488281 14.558594 35.414062 14.566406 L 32 14.566406 C 31.824219 14.566406 24.167969 14.535156 22.339844 14.5625 C 22.605469 14.570312 22.558594 14.574219 21.253906 14.566406 C 10.003906 14.515625 2.566406 20.679688 0.464844 31.792969 C -1.265625 40.921875 1.871094 46.925781 9.460938 49 C 12.21875 49.757812 20.769531 49.390625 24.394531 48.363281 C 30.765625 46.558594 30.378906 45.964844 31.609375 39.765625 C 32.589844 34.8125 32.542969 32 30.542969 32 C 29.957031 31.988281 28.902344 32.050781 28.363281 32 L 22.542969 32 C 21.335938 32 20.363281 32.972656 20.363281 34.179688 C 20.363281 35.390625 21.335938 36.363281 22.542969 36.363281 L 24.535156 36.363281 C 24.476562 37.125 24.273438 38.214844 23.941406 39.929688 C 23.050781 44.503906 22.992188 45.480469 20.964844 46.300781 C 13.398438 49.34375 8.707031 45.613281 9.070312 36.847656 C 9.597656 24.378906 14.617188 16.792969 22.347656 16.792969 C 29.152344 16.792969 31.65625 19.945312 33.960938 31.394531 C 37.765625 50.3125 37.171875 49.296875 40.03125 49.398438 C 43.074219 49.511719 41.671875 50.726562 52.507812 31.886719 C 56.964844 24.144531 59 20.617188 60.164062 18.90625 L 61.820312 18.90625 C 63.027344 18.90625 64 17.9375 64 16.726562 C 64 16.707031 63.996094 16.691406 63.996094 16.671875 C 63.996094 16.65625 64 16.636719 64 16.617188 C 64 15.578125 63.253906 14.734375 62.28125 14.597656 C 62.132812 14.5625 61.976562 14.542969 61.820312 14.542969 L 56 14.542969 C 54.792969 14.542969 53.820312 15.519531 53.820312 16.726562 C 53.820312 17.9375 54.792969 18.90625 56 18.90625 L 56.929688 18.90625 C 54.628906 23.324219 46.066406 38.332031 45.253906 39.261719 C 44.511719 40.101562 44.292969 39.355469 42.152344 28.859375 C 40.976562 23.109375 40.40625 20.335938 40.328125 18.90625 L 41.457031 18.90625 C 42.285156 18.90625 42.996094 18.445312 43.367188 17.765625 C 43.578125 17.4375 43.707031 17.042969 43.707031 16.617188 C 43.707031 15.480469 42.816406 14.566406 41.707031 14.566406 L 41.675781 14.566406 C 41.605469 14.558594 41.53125 14.542969 41.457031 14.542969 Z M 21.253906 14.566406 C 21.269531 14.5625 22.132812 14.566406 22.339844 14.5625 C 21.777344 14.550781 19.347656 14.527344 21.253906 14.566406 Z M 21.253906 14.566406 "/>
</g>
</svg>
