<?xml version="1.0" encoding="UTF-8"?>
<svg xmlns="http://www.w3.org/2000/svg" xmlns:xlink="http://www.w3.org/1999/xlink" width="64px" height="64px" viewBox="0 0 64 64" version="1.1">
<defs>
<linearGradient id="linear0" gradientUnits="userSpaceOnUse" x1="0" y1="0" x2="0" y2="1" gradientTransform="matrix(64,0,0,64,0,0)">
<stop offset="0" style="stop-color:rgb(3.921569%,74.117649%,77.64706%);stop-opacity:1;"/>
<stop offset="1" style="stop-color:rgb(72.156864%,0%,100%);stop-opacity:1;"/>
</linearGradient>
</defs>
<g id="surface1">
<path style=" stroke:none;fill-rule:nonzero;fill:url(#linear0);" d="M 57.902344 0 C 54.785156 0 52.265625 2.355469 51.902344 5.378906 C 47.953125 6.144531 45.308594 9.011719 43.523438 12.097656 C 39.929688 10.230469 36.019531 9.144531 32 9.144531 C 27.980469 9.144531 24.070312 10.230469 20.476562 12.097656 C 19.570312 10.785156 18.296875 9.773438 16.808594 9.191406 C 15.390625 8.640625 13.804688 8.511719 12.097656 8.378906 C 11.71875 5.378906 9.195312 3.046875 6.097656 3.046875 C 2.730469 3.046875 0 5.78125 0 9.144531 C 0 12.503906 2.730469 15.238281 6.097656 15.238281 C 8.597656 15.238281 10.84375 13.707031 11.765625 11.378906 C 13.398438 11.511719 14.769531 11.683594 15.714844 12.046875 C 16.574219 12.378906 17.226562 12.839844 17.808594 13.667969 C 9.214844 19.335938 3.046875 29.648438 3.046875 40.664062 C 3.046875 55.046875 14.144531 64 32 64 C 49.855469 64 60.953125 55.046875 60.953125 40.664062 C 60.953125 29.625 54.769531 19.289062 46.144531 13.621094 C 47.601562 11.042969 49.496094 8.976562 52.289062 8.378906 C 53.203125 10.679688 55.429688 12.1875 57.902344 12.191406 C 61.269531 12.191406 64 9.460938 64 6.097656 C 64 2.730469 61.269531 0 57.902344 0 Z M 32 24.378906 C 37.890625 24.378906 42.667969 29.15625 42.667969 35.046875 C 42.667969 40.941406 37.890625 45.714844 32 45.714844 C 26.109375 45.714844 21.332031 40.941406 21.332031 35.046875 C 21.332031 29.15625 26.109375 24.378906 32 24.378906 Z M 32 30.476562 C 29.40625 30.476562 27.429688 32.457031 27.429688 35.046875 C 27.429688 37.640625 29.40625 39.621094 32 39.621094 C 34.59375 39.621094 36.570312 37.640625 36.570312 35.046875 L 36.570312 34.761719 C 36.269531 34.914062 35.96875 35.046875 35.667969 35.046875 C 34.601562 35.046875 33.8125 34.304688 33.8125 33.234375 C 33.8125 32.476562 34.296875 31.828125 34.902344 31.523438 C 34.144531 30.921875 33.066406 30.476562 32 30.476562 Z M 43.144531 50.570312 C 43.753906 50.519531 44.335938 50.839844 44.621094 51.378906 C 45.011719 52.125 44.742188 53.085938 44 53.476562 C 43.777344 53.597656 38.398438 56.378906 32 56.378906 C 25.601562 56.378906 20.222656 53.597656 20 53.476562 C 19.257812 53.085938 18.988281 52.125 19.378906 51.378906 C 19.566406 51.027344 19.890625 50.761719 20.277344 50.644531 C 20.660156 50.527344 21.074219 50.570312 21.429688 50.761719 C 21.480469 50.792969 26.378906 53.332031 32 53.332031 C 37.652344 53.332031 42.523438 50.785156 42.570312 50.761719 C 42.746094 50.660156 42.945312 50.597656 43.144531 50.570312 Z M 43.144531 50.570312 "/>
</g>
</svg>
