<?xml version="1.0" encoding="UTF-8"?>
<svg xmlns="http://www.w3.org/2000/svg" xmlns:xlink="http://www.w3.org/1999/xlink" width="64px" height="64px" viewBox="0 0 64 64" version="1.1">
<defs>
<linearGradient id="linear0" gradientUnits="userSpaceOnUse" x1="0" y1="0" x2="0" y2="1" gradientTransform="matrix(17.648438,0,0,64,23.175781,0)">
<stop offset="0" style="stop-color:rgb(3.921569%,74.117649%,77.64706%);stop-opacity:1;"/>
<stop offset="1" style="stop-color:rgb(72.156864%,0%,100%);stop-opacity:1;"/>
</linearGradient>
</defs>
<g id="surface1">
<path style=" stroke:none;fill-rule:evenodd;fill:url(#linear0);" d="M 33.777344 12.863281 C 31.792969 12.863281 30.285156 12.335938 29.253906 11.28125 C 28.21875 10.222656 27.699219 8.707031 27.699219 6.722656 C 27.699219 4.65625 28.292969 3.015625 29.480469 1.8125 C 30.664062 0.605469 32.269531 0 34.296875 0 C 36.191406 0 37.667969 0.539062 38.722656 1.617188 C 39.78125 2.691406 40.308594 4.203125 40.308594 6.140625 C 40.308594 8.210938 39.726562 9.847656 38.558594 11.054688 C 37.398438 12.261719 35.800781 12.863281 33.777344 12.863281 Z M 26.210938 64 L 23.175781 61.21875 L 23.304688 60.253906 C 25.15625 58.441406 26.40625 56.542969 27.054688 54.558594 C 27.703125 52.578125 28.023438 49.671875 28.023438 45.835938 L 28.023438 27.992188 C 28.023438 26.570312 27.875 25.589844 27.570312 25.050781 C 27.269531 24.511719 26.710938 24.242188 25.890625 24.242188 C 25.375 24.242188 24.933594 24.265625 24.5625 24.308594 C 24.199219 24.351562 23.953125 24.394531 23.824219 24.4375 L 24.339844 19.199219 C 27.832031 18.683594 31.0625 18.175781 34.035156 17.679688 C 37.007812 17.183594 38.992188 16.851562 39.984375 16.679688 L 40.824219 18.101562 C 39.660156 20.730469 39.078125 30.988281 39.078125 48.871094 C 39.078125 51.84375 37.914062 54.703125 35.589844 57.441406 C 33.261719 60.175781 30.132812 62.363281 26.210938 64 Z M 26.210938 64 "/>
</g>
</svg>
