<?xml version="1.0" encoding="UTF-8"?>
<svg xmlns="http://www.w3.org/2000/svg" xmlns:xlink="http://www.w3.org/1999/xlink" width="64px" height="64px" viewBox="0 0 64 64" version="1.1">
<defs>
<linearGradient id="linear0" gradientUnits="userSpaceOnUse" x1="0" y1="0" x2="0" y2="1" gradientTransform="matrix(64,0,0,56.691406,0,3.199219)">
<stop offset="0" style="stop-color:rgb(3.921569%,74.117649%,77.64706%);stop-opacity:1;"/>
<stop offset="1" style="stop-color:rgb(72.156864%,0%,100%);stop-opacity:1;"/>
</linearGradient>
</defs>
<g id="surface1">
<path style=" stroke:none;fill-rule:evenodd;fill:url(#linear0);" d="M 6.398438 28.800781 C 6.398438 16 12.800781 3.199219 32 3.199219 C 51.199219 3.199219 57.601562 16 57.601562 28.800781 L 57.601562 54.398438 C 40.570312 61.738281 23.46875 61.699219 6.398438 54.398438 L 6.398438 48 L 3.199219 48 C 1.28125 48 0 46.71875 0 44.800781 L 0 32 C 0 30.078125 1.28125 28.800781 3.199219 28.800781 Z M 50.667969 38.398438 C 51.019531 37.375 51.199219 36.304688 51.199219 35.199219 L 51.199219 28.800781 C 51.199219 23.039062 46.398438 16 32 16 C 17.601562 16 12.800781 22.71875 12.800781 28.800781 L 12.800781 35.199219 C 12.800781 42.238281 20.160156 48 32 48 C 37.429688 48 41.914062 46.789062 45.179688 44.800781 L 36.800781 44.800781 C 34.238281 44.800781 32 42.558594 32 40 C 32 37.441406 34.238281 35.199219 36.800781 35.199219 C 38.71875 35.199219 40.640625 36.480469 41.28125 38.398438 Z M 57.601562 48 L 60.800781 48 C 62.71875 48 64 46.71875 64 44.800781 L 64 32 C 64 30.078125 62.71875 28.800781 60.800781 28.800781 L 57.601562 28.800781 Z M 57.601562 48 "/>
</g>
</svg>
