<?xml version="1.0" encoding="UTF-8"?>
<svg xmlns="http://www.w3.org/2000/svg" xmlns:xlink="http://www.w3.org/1999/xlink" width="64px" height="64px" viewBox="0 0 64 64" version="1.1">
<defs>
<linearGradient id="linear0" gradientUnits="userSpaceOnUse" x1="0" y1="0" x2="0" y2="1" gradientTransform="matrix(64,0,0,46.9375,0,8.53125)">
<stop offset="0" style="stop-color:rgb(3.921569%,74.117649%,77.64706%);stop-opacity:1;"/>
<stop offset="1" style="stop-color:rgb(72.156864%,0%,100%);stop-opacity:1;"/>
</linearGradient>
</defs>
<g id="surface1">
<path style=" stroke:none;fill-rule:nonzero;fill:url(#linear0);" d="M 17.039062 8.53125 C 11.671875 8.59375 7.742188 8.410156 4.53125 10.179688 C 2.871094 11.128906 1.605469 12.636719 0.960938 14.4375 C 0.257812 16.304688 0 18.53125 0 21.335938 L 0 42.664062 C 0 45.472656 0.257812 47.695312 0.960938 49.5625 C 1.660156 51.4375 2.925781 52.933594 4.53125 53.820312 C 7.742188 55.59375 11.671875 55.40625 17.039062 55.46875 L 46.960938 55.46875 C 52.328125 55.40625 56.257812 55.589844 59.46875 53.820312 C 61.132812 52.875 62.398438 51.363281 63.046875 49.5625 C 63.746094 47.695312 64 45.46875 64 42.664062 L 64 21.335938 C 64 18.527344 63.742188 16.304688 63.039062 14.4375 C 62.394531 12.636719 61.128906 11.128906 59.46875 10.179688 C 56.257812 8.40625 52.328125 8.59375 46.960938 8.53125 Z M 17.070312 12.796875 L 46.929688 12.796875 C 52.300781 12.859375 55.835938 13.050781 57.398438 13.914062 C 58.183594 14.339844 58.632812 14.820312 59.046875 15.929688 C 59.460938 17.039062 59.734375 18.808594 59.734375 21.335938 L 59.734375 42.664062 C 59.734375 45.191406 59.460938 46.960938 59.046875 48.070312 C 58.628906 49.179688 58.183594 49.65625 57.398438 50.085938 C 55.835938 50.949219 52.300781 51.140625 46.929688 51.203125 L 17.070312 51.203125 C 11.699219 51.140625 8.164062 50.949219 6.601562 50.085938 C 5.816406 49.660156 5.367188 49.179688 4.953125 48.070312 C 4.539062 46.960938 4.265625 45.191406 4.265625 42.664062 L 4.265625 21.335938 C 4.265625 18.808594 4.539062 17.039062 4.953125 15.929688 C 5.371094 14.820312 5.816406 14.34375 6.601562 13.914062 C 8.164062 13.050781 11.699219 12.859375 17.070312 12.796875 Z M 12.796875 21.335938 L 12.796875 25.601562 L 17.070312 25.601562 L 17.070312 21.335938 Z M 21.335938 21.335938 L 21.335938 25.601562 L 25.601562 25.601562 L 25.601562 21.335938 Z M 29.867188 21.335938 L 29.867188 25.601562 L 34.132812 25.601562 L 34.132812 21.335938 Z M 38.398438 21.335938 L 38.398438 25.601562 L 42.664062 25.601562 L 42.664062 21.335938 Z M 46.929688 21.335938 L 46.929688 25.601562 L 51.203125 25.601562 L 51.203125 21.335938 Z M 17.054688 29.867188 L 17.078125 34.132812 L 21.335938 34.132812 L 21.335938 29.867188 Z M 25.601562 29.867188 L 25.601562 34.132812 L 29.867188 34.132812 L 29.867188 29.867188 Z M 34.132812 29.867188 L 34.132812 34.132812 L 38.398438 34.132812 L 38.398438 29.867188 Z M 42.664062 29.867188 L 42.664062 34.132812 L 46.929688 34.132812 L 46.929688 29.867188 Z M 12.796875 38.398438 L 12.796875 42.664062 L 17.070312 42.664062 L 17.070312 38.398438 Z M 21.335938 38.398438 L 21.335938 42.664062 L 42.664062 42.664062 L 42.664062 38.398438 Z M 46.929688 38.398438 L 46.984375 42.664062 L 51.226562 42.664062 L 51.171875 38.398438 Z M 46.929688 38.398438 "/>
</g>
</svg>
