<?xml version="1.0" encoding="UTF-8"?>
<svg xmlns="http://www.w3.org/2000/svg" xmlns:xlink="http://www.w3.org/1999/xlink" width="64px" height="64px" viewBox="0 0 64 64" version="1.1">
<defs>
<linearGradient id="linear0" gradientUnits="userSpaceOnUse" x1="0" y1="0" x2="0" y2="1" gradientTransform="matrix(54.398438,0,0,64,4.800781,0)">
<stop offset="0" style="stop-color:rgb(3.921569%,74.117649%,77.64706%);stop-opacity:1;"/>
<stop offset="1" style="stop-color:rgb(72.156864%,0%,100%);stop-opacity:1;"/>
</linearGradient>
</defs>
<g id="surface1">
<path style=" stroke:none;fill-rule:evenodd;fill:url(#linear0);" d="M 17.601562 50.285156 L 17.601562 64 L 4.800781 64 L 4.800781 0 L 17.601562 0 L 17.601562 36.117188 L 25.601562 22.398438 L 40 22.398438 L 28.207031 43.199219 L 40 64 L 25.601562 64 Z M 44.800781 22.398438 L 33.601562 41.601562 L 32.640625 43.199219 L 33.601562 44.800781 L 44.800781 64 L 59.199219 64 L 47.40625 43.199219 L 59.199219 22.398438 Z M 44.800781 22.398438 "/>
</g>
</svg>
