<?xml version="1.0" encoding="UTF-8"?>
<svg xmlns="http://www.w3.org/2000/svg" xmlns:xlink="http://www.w3.org/1999/xlink" width="64px" height="64px" viewBox="0 0 64 64" version="1.1">
<defs>
<linearGradient id="linear0" gradientUnits="userSpaceOnUse" x1="0" y1="0" x2="0" y2="1" gradientTransform="matrix(36.570312,0,0,64,13.714844,0)">
<stop offset="0" style="stop-color:rgb(3.921569%,74.117649%,77.64706%);stop-opacity:1;"/>
<stop offset="1" style="stop-color:rgb(72.156864%,0%,100%);stop-opacity:1;"/>
</linearGradient>
</defs>
<g id="surface1">
<path style=" stroke:none;fill-rule:evenodd;fill:url(#linear0);" d="M 37.792969 36.570312 L 37.886719 35.597656 C 40.515625 34.703125 42.933594 33.214844 44.929688 31.214844 C 48.359375 27.789062 50.285156 23.136719 50.285156 18.285156 C 50.285156 8.1875 42.101562 0 32 0 C 21.898438 0 13.714844 8.1875 13.714844 18.285156 C 13.714844 23.136719 15.640625 27.789062 19.070312 31.214844 C 21.066406 33.214844 23.484375 34.703125 26.113281 35.597656 L 26.207031 36.570312 L 19.808594 36.570312 L 19.808594 42.667969 L 26.820312 42.667969 L 28.953125 64 L 35.046875 64 L 37.179688 42.667969 L 44.191406 42.667969 L 44.191406 36.570312 Z M 32 3.046875 C 35.230469 3.046875 38.332031 4.332031 40.621094 6.621094 C 42.90625 8.902344 44.191406 12.003906 44.191406 15.238281 C 44.191406 18.472656 42.90625 21.570312 40.621094 23.859375 C 38.332031 26.144531 35.230469 27.429688 32 27.429688 C 28.769531 27.429688 25.667969 26.144531 23.378906 23.859375 C 21.09375 21.570312 19.808594 18.472656 19.808594 15.238281 C 19.808594 12.003906 21.09375 8.902344 23.378906 6.621094 C 25.667969 4.332031 28.769531 3.046875 32 3.046875 Z M 32 3.046875 "/>
</g>
</svg>
