<?xml version="1.0" encoding="UTF-8"?>
<svg xmlns="http://www.w3.org/2000/svg" xmlns:xlink="http://www.w3.org/1999/xlink" width="64px" height="64px" viewBox="0 0 64 64" version="1.1">
<defs>
<linearGradient id="linear0" gradientUnits="userSpaceOnUse" x1="0" y1="0" x2="0" y2="1" gradientTransform="matrix(64,0,0,40.296875,0,11.851562)">
<stop offset="0" style="stop-color:rgb(3.921569%,74.117649%,77.64706%);stop-opacity:1;"/>
<stop offset="1" style="stop-color:rgb(72.156864%,0%,100%);stop-opacity:1;"/>
</linearGradient>
</defs>
<g id="surface1">
<path style=" stroke:none;fill-rule:evenodd;fill:url(#linear0);" d="M 16.078125 34.871094 L 27.558594 32 L 16.078125 29.128906 C 15.195312 26.738281 13.242188 24.867188 10.773438 24.152344 C 13.523438 13.882812 26.421875 15.597656 26.421875 15.597656 C 12.984375 10.824219 7.566406 20.015625 4.921875 24.535156 C 2 25.753906 0 28.648438 0 32 C 0 35.246094 1.875 38.0625 4.644531 39.347656 C 7.429688 44.023438 13.246094 53.121094 26.421875 48.445312 C 26.421875 48.445312 13.113281 48.929688 10.636719 39.902344 C 13.167969 39.203125 15.179688 37.304688 16.078125 34.871094 Z M 30.476562 11.851562 C 29.363281 11.851562 28.445312 12.65625 28.445312 13.628906 L 28.445312 19.554688 C 28.445312 20.53125 29.363281 21.332031 30.476562 21.332031 L 54.855469 21.332031 C 55.972656 21.332031 56.886719 20.53125 56.886719 19.554688 L 56.886719 13.628906 C 56.886719 12.65625 55.972656 11.851562 54.855469 11.851562 Z M 35.289062 28.445312 C 34.136719 28.445312 33.183594 29.246094 33.183594 30.222656 L 33.183594 33.777344 C 33.183594 34.753906 34.136719 35.554688 35.289062 35.554688 L 61.898438 35.554688 C 63.050781 35.554688 64 34.753906 64 33.777344 L 64 30.222656 C 64 29.246094 63.050781 28.445312 61.898438 28.445312 Z M 30.476562 42.667969 C 29.363281 42.667969 28.445312 43.46875 28.445312 44.445312 L 28.445312 50.371094 C 28.445312 51.34375 29.363281 52.148438 30.476562 52.148438 L 54.855469 52.148438 C 55.972656 52.148438 56.886719 51.34375 56.886719 50.371094 L 56.886719 44.445312 C 56.886719 43.46875 55.972656 42.667969 54.855469 42.667969 Z M 30.476562 42.667969 "/>
</g>
</svg>
