<?xml version="1.0" encoding="UTF-8"?>
<svg xmlns="http://www.w3.org/2000/svg" xmlns:xlink="http://www.w3.org/1999/xlink" width="64px" height="64px" viewBox="0 0 64 64" version="1.1">
<defs>
<linearGradient id="linear0" gradientUnits="userSpaceOnUse" x1="0" y1="0" x2="0" y2="1" gradientTransform="matrix(29.535156,0,0,29.535156,12.308594,0)">
<stop offset="0" style="stop-color:rgb(3.921569%,74.117649%,77.64706%);stop-opacity:1;"/>
<stop offset="1" style="stop-color:rgb(72.156864%,0%,100%);stop-opacity:1;"/>
</linearGradient>
<linearGradient id="linear1" gradientUnits="userSpaceOnUse" x1="0" y1="0" x2="0" y2="1" gradientTransform="matrix(19.699219,0,0,19.695313,17.226562,4.921875)">
<stop offset="0" style="stop-color:rgb(3.921569%,74.117649%,77.64706%);stop-opacity:1;"/>
<stop offset="1" style="stop-color:rgb(72.156864%,0%,100%);stop-opacity:1;"/>
</linearGradient>
<linearGradient id="linear2" gradientUnits="userSpaceOnUse" x1="0" y1="0" x2="0" y2="1" gradientTransform="matrix(59.078125,0,0,52.511719,2.460937,11.488281)">
<stop offset="0" style="stop-color:rgb(3.921569%,74.117649%,77.64706%);stop-opacity:1;"/>
<stop offset="1" style="stop-color:rgb(72.156864%,0%,100%);stop-opacity:1;"/>
</linearGradient>
</defs>
<g id="surface1">
<path style=" stroke:none;fill-rule:nonzero;fill:url(#linear0);" d="M 41.84375 14.769531 C 41.84375 22.925781 35.230469 29.535156 27.074219 29.535156 C 18.917969 29.535156 12.308594 22.925781 12.308594 14.769531 C 12.308594 6.613281 18.917969 0 27.074219 0 C 35.230469 0 41.84375 6.613281 41.84375 14.769531 Z M 41.84375 14.769531 "/>
<path style=" stroke:none;fill-rule:nonzero;fill:url(#linear1);" d="M 36.925781 14.769531 C 36.925781 20.207031 32.515625 24.617188 27.074219 24.617188 C 21.636719 24.617188 17.226562 20.207031 17.226562 14.769531 C 17.226562 9.328125 21.636719 4.921875 27.074219 4.921875 C 32.515625 4.921875 36.925781 9.328125 36.925781 14.769531 Z M 36.925781 14.769531 "/>
<path style=" stroke:none;fill-rule:nonzero;fill:url(#linear2);" d="M 27.007812 11.488281 C 22.078125 11.488281 22.078125 14.769531 22.066406 18.050781 C 22.035156 20.078125 22.042969 24.3125 22.078125 30.558594 C 22.144531 40.539062 22.125 43.675781 22.003906 44.105469 C 18.601562 43.742188 13.457031 42.367188 11.152344 40.546875 C 9.648438 39.351562 8.152344 38.261719 7.835938 38.117188 C 6.515625 37.53125 4.640625 37.898438 3.5625 38.964844 C 2.820312 39.699219 2.546875 40.355469 2.480469 41.535156 C 2.433594 42.4375 2.460938 42.648438 2.734375 43.246094 C 2.910156 43.625 3.226562 44.128906 3.4375 44.367188 C 3.644531 44.609375 6.511719 48.324219 9.804688 52.632812 C 15.902344 60.605469 21.972656 63.5625 23.015625 63.859375 C 23.65625 64.042969 56.621094 64.046875 57.285156 63.867188 C 57.585938 63.785156 58.019531 63.507812 58.328125 63.199219 C 58.765625 62.769531 58.929688 62.453125 59.265625 61.410156 C 60.230469 58.429688 61.195312 53.886719 61.472656 51.367188 C 61.59375 48.4375 61.527344 48.324219 61.472656 45.949219 C 61.472656 45.902344 61.460938 45.863281 61.460938 45.820312 C 61.464844 43.710938 61.476562 41.929688 61.460938 41.027344 C 61.46875 37.742188 61.476562 34.464844 56.558594 34.464844 C 52.125 34.464844 51.707031 37.152344 51.660156 40.085938 C 51.652344 40.164062 51.628906 40.242188 51.628906 40.320312 C 51.628906 39.527344 51.636719 38.226562 51.628906 37.742188 C 51.636719 34.464844 51.636719 31.179688 46.71875 31.179688 C 42.3125 31.179688 41.875 33.835938 41.820312 36.742188 C 41.808594 36.753906 41.796875 36.757812 41.785156 36.765625 C 41.785156 36.746094 41.777344 36.589844 41.777344 36.550781 C 41.777344 35.964844 41.785156 34.855469 41.777344 34.464844 C 41.789062 31.179688 41.789062 27.898438 36.871094 27.898438 C 33.132812 27.898438 32.234375 29.796875 32.015625 32.148438 C 32.007812 32.148438 31.933594 32.167969 31.933594 32.167969 C 31.859375 32.191406 31.921875 28.179688 31.921875 23.859375 C 31.921875 20.898438 31.941406 19.144531 31.921875 18.050781 C 31.929688 14.769531 31.933594 11.488281 27.007812 11.488281 Z M 27.007812 11.488281 "/>
</g>
</svg>
