<?xml version="1.0" encoding="UTF-8"?>
<svg xmlns="http://www.w3.org/2000/svg" xmlns:xlink="http://www.w3.org/1999/xlink" width="64px" height="64px" viewBox="0 0 64 64" version="1.1">
<defs>
<linearGradient id="linear0" gradientUnits="userSpaceOnUse" x1="0" y1="0" x2="0" y2="1" gradientTransform="matrix(28.800781,0,0,32,20,16)">
<stop offset="0" style="stop-color:rgb(3.921569%,74.117649%,77.64706%);stop-opacity:1;"/>
<stop offset="1" style="stop-color:rgb(72.156864%,0%,100%);stop-opacity:1;"/>
</linearGradient>
<linearGradient id="linear1" gradientUnits="userSpaceOnUse" x1="0" y1="0" x2="0" y2="1" gradientTransform="matrix(64,0,0,64,0,0)">
<stop offset="0" style="stop-color:rgb(3.921569%,74.117649%,77.64706%);stop-opacity:1;"/>
<stop offset="1" style="stop-color:rgb(72.156864%,0%,100%);stop-opacity:1;"/>
</linearGradient>
</defs>
<g id="surface1">
<path style=" stroke:none;fill-rule:nonzero;fill:url(#linear0);" d="M 22.355469 16 C 22.054688 15.992188 21.757812 16.046875 21.476562 16.152344 C 21.199219 16.261719 20.945312 16.421875 20.730469 16.628906 C 20.515625 16.835938 20.34375 17.082031 20.226562 17.351562 C 20.109375 17.625 20.050781 17.917969 20.050781 18.210938 L 20.023438 31.996094 L 20 45.78125 C 20 46.171875 20.101562 46.554688 20.300781 46.890625 C 20.496094 47.226562 20.78125 47.507812 21.121094 47.703125 C 21.464844 47.898438 21.851562 48 22.246094 48 C 22.640625 48 23.027344 47.898438 23.371094 47.707031 L 35.519531 40.832031 L 47.667969 33.960938 C 48.011719 33.765625 48.296875 33.488281 48.496094 33.152344 C 48.695312 32.8125 48.800781 32.433594 48.800781 32.042969 C 48.800781 31.652344 48.695312 31.269531 48.5 30.933594 C 48.300781 30.597656 48.015625 30.316406 47.675781 30.121094 L 35.550781 23.210938 L 23.425781 16.296875 C 23.101562 16.109375 22.730469 16.007812 22.355469 16 Z M 22.355469 16 "/>
<path style=" stroke:none;fill-rule:evenodd;fill:url(#linear1);" d="M 27.824219 0.269531 C 29.191406 0.09375 30.585938 0 32 0 C 33.414062 0 34.808594 0.09375 36.175781 0.269531 C 37.207031 0.40625 37.933594 1.347656 37.800781 2.378906 C 37.664062 3.410156 36.722656 4.136719 35.691406 4.003906 C 34.484375 3.847656 33.25 3.765625 32 3.765625 C 30.75 3.765625 29.515625 3.847656 28.308594 4.003906 C 27.277344 4.136719 26.335938 3.410156 26.199219 2.378906 C 26.066406 1.347656 26.792969 0.40625 27.824219 0.269531 Z M 48.84375 6.957031 C 49.476562 6.132812 50.65625 5.980469 51.480469 6.613281 C 53.699219 8.316406 55.683594 10.300781 57.386719 12.519531 C 58.019531 13.34375 57.867188 14.523438 57.042969 15.15625 C 56.21875 15.789062 55.035156 15.636719 54.402344 14.8125 C 52.898438 12.855469 51.144531 11.101562 49.1875 9.597656 C 48.363281 8.964844 48.210938 7.78125 48.84375 6.957031 Z M 15.15625 6.957031 C 15.789062 7.78125 15.636719 8.964844 14.8125 9.597656 C 12.855469 11.101562 11.101562 12.855469 9.597656 14.8125 C 8.964844 15.636719 7.78125 15.789062 6.957031 15.15625 C 6.132812 14.523438 5.980469 13.34375 6.613281 12.519531 C 8.316406 10.300781 10.300781 8.316406 12.519531 6.613281 C 13.34375 5.980469 14.523438 6.132812 15.15625 6.957031 Z M 2.378906 26.199219 C 3.410156 26.335938 4.136719 27.277344 4.003906 28.308594 C 3.847656 29.515625 3.765625 30.75 3.765625 32 C 3.765625 33.25 3.847656 34.484375 4.003906 35.691406 C 4.136719 36.722656 3.410156 37.664062 2.378906 37.800781 C 1.347656 37.933594 0.40625 37.207031 0.269531 36.175781 C 0.09375 34.808594 0 33.414062 0 32 C 0 30.585938 0.09375 29.191406 0.269531 27.824219 C 0.40625 26.792969 1.347656 26.066406 2.378906 26.199219 Z M 61.621094 26.199219 C 62.652344 26.066406 63.59375 26.792969 63.730469 27.824219 C 63.90625 29.191406 64 30.585938 64 32 C 64 33.414062 63.90625 34.808594 63.730469 36.175781 C 63.59375 37.207031 62.652344 37.933594 61.621094 37.800781 C 60.589844 37.664062 59.863281 36.722656 59.996094 35.691406 C 60.152344 34.484375 60.234375 33.25 60.234375 32 C 60.234375 30.75 60.152344 29.515625 59.996094 28.308594 C 59.863281 27.277344 60.589844 26.335938 61.621094 26.199219 Z M 57.042969 48.84375 C 57.867188 49.476562 58.019531 50.65625 57.386719 51.480469 C 55.683594 53.699219 53.699219 55.683594 51.480469 57.386719 C 50.65625 58.019531 49.476562 57.867188 48.84375 57.042969 C 48.210938 56.21875 48.363281 55.035156 49.1875 54.402344 C 51.144531 52.898438 52.898438 51.144531 54.402344 49.1875 C 55.035156 48.363281 56.21875 48.210938 57.042969 48.84375 Z M 6.957031 48.84375 C 7.78125 48.210938 8.964844 48.363281 9.597656 49.1875 C 11.101562 51.144531 12.855469 52.898438 14.8125 54.402344 C 15.636719 55.035156 15.789062 56.21875 15.15625 57.042969 C 14.523438 57.867188 13.34375 58.019531 12.519531 57.386719 C 10.300781 55.683594 8.316406 53.699219 6.613281 51.480469 C 5.980469 50.65625 6.132812 49.476562 6.957031 48.84375 Z M 26.199219 61.621094 C 26.335938 60.589844 27.277344 59.863281 28.308594 59.996094 C 29.515625 60.152344 30.75 60.234375 32 60.234375 C 33.25 60.234375 34.484375 60.152344 35.691406 59.996094 C 36.722656 59.863281 37.664062 60.589844 37.800781 61.621094 C 37.933594 62.652344 37.207031 63.59375 36.175781 63.730469 C 34.808594 63.90625 33.414062 64 32 64 C 30.585938 64 29.191406 63.90625 27.824219 63.730469 C 26.792969 63.59375 26.066406 62.652344 26.199219 61.621094 Z M 26.199219 61.621094 "/>
</g>
</svg>
