<?xml version="1.0" encoding="UTF-8"?>
<svg xmlns="http://www.w3.org/2000/svg" xmlns:xlink="http://www.w3.org/1999/xlink" width="64px" height="64px" viewBox="0 0 64 64" version="1.1">
<defs>
<linearGradient id="linear0" gradientUnits="userSpaceOnUse" x1="0" y1="0" x2="0" y2="1" gradientTransform="matrix(64,0,0,64,0,0)">
<stop offset="0" style="stop-color:rgb(3.921569%,74.117649%,77.64706%);stop-opacity:1;"/>
<stop offset="1" style="stop-color:rgb(72.156864%,0%,100%);stop-opacity:1;"/>
</linearGradient>
</defs>
<g id="surface1">
<path style=" stroke:none;fill-rule:nonzero;fill:url(#linear0);" d="M 31.964844 0 C 14.304688 0.0234375 0 14.339844 0 32 C 0 49.671875 14.328125 64 32 64 C 49.671875 64 64 49.671875 64 32 C 63.984375 20.519531 57.820312 9.929688 47.847656 4.242188 C 47.902344 4.628906 47.9375 5.011719 47.9375 5.398438 L 47.9375 11.484375 C 52.070312 15.667969 54.390625 21.316406 54.398438 27.199219 C 54.398438 39.566406 44.371094 49.601562 32 49.601562 C 19.628906 49.601562 9.601562 39.566406 9.601562 27.199219 C 9.609375 16.488281 17.199219 7.285156 27.707031 5.230469 C 28.730469 3.960938 29.878906 2.535156 30.390625 1.882812 C 30.859375 1.289062 31.3125 0.734375 31.753906 0.226562 C 31.816406 0.15625 31.894531 0.0742188 31.964844 0 Z M 38.796875 4.800781 C 38.644531 4.792969 38.507812 4.804688 38.414062 4.84375 C 38.253906 4.921875 37.476562 5.820312 36.679688 6.828125 C 35.886719 7.839844 34.152344 10 32.824219 11.640625 C 31.5 13.277344 28.976562 16.414062 27.230469 18.605469 C 23.800781 22.90625 23.253906 23.773438 22.6875 25.816406 C 22.335938 27.09375 22.304688 29.15625 22.621094 30.351562 C 23.484375 33.632812 26.371094 36.097656 30.101562 36.726562 C 30.269531 36.757812 30.855469 36.792969 31.394531 36.800781 C 33.65625 36.832031 35.578125 36.035156 37.207031 34.394531 C 38.0625 33.527344 38.300781 33.1875 38.828125 32.085938 C 39.167969 31.371094 39.535156 30.421875 39.652344 29.976562 C 39.953125 28.835938 40.09375 26.484375 39.9375 21.097656 L 39.9375 5.398438 C 39.875 5.078125 39.257812 4.835938 38.796875 4.800781 Z M 38.796875 4.800781 "/>
</g>
</svg>
