<?xml version="1.0" encoding="UTF-8"?>
<svg xmlns="http://www.w3.org/2000/svg" xmlns:xlink="http://www.w3.org/1999/xlink" width="64px" height="64px" viewBox="0 0 64 64" version="1.1">
<defs>
<linearGradient id="linear0" gradientUnits="userSpaceOnUse" x1="0" y1="0" x2="0" y2="1" gradientTransform="matrix(61.789063,0,0,64,1.105469,0)">
<stop offset="0" style="stop-color:rgb(3.921569%,74.117649%,77.64706%);stop-opacity:1;"/>
<stop offset="1" style="stop-color:rgb(72.156864%,0%,100%);stop-opacity:1;"/>
</linearGradient>
</defs>
<g id="surface1">
<path style=" stroke:none;fill-rule:evenodd;fill:url(#linear0);" d="M 25.113281 50.421875 L 20.023438 61.695312 C 19.808594 62.171875 19.808594 62.757812 20.023438 63.230469 C 20.234375 63.707031 20.632812 64 21.0625 64 L 42.9375 64 C 43.367188 64 43.765625 63.707031 43.976562 63.230469 C 44.191406 62.757812 44.191406 62.171875 43.976562 61.695312 L 38.886719 50.421875 C 41.894531 52.023438 45.316406 53.007812 49.222656 52.964844 C 53.886719 52.828125 58.542969 50.800781 61.003906 47.308594 C 64.734375 42.011719 62.957031 35.0625 55.601562 24.648438 C 50.871094 17.957031 34.3125 0.699219 32 0 C 29.691406 0.699219 13.128906 17.957031 8.398438 24.648438 C 1.042969 35.0625 -0.734375 42.011719 2.996094 47.308594 C 5.457031 50.800781 10.113281 52.828125 14.777344 52.964844 C 18.683594 53.007812 22.105469 52.023438 25.113281 50.421875 Z M 17.871094 19.414062 L 17.871094 45.808594 L 23.964844 45.808594 L 23.964844 27.859375 L 28.0625 32.367188 L 32.085938 36.382812 L 36.105469 32.367188 L 40.203125 27.859375 L 40.203125 45.808594 L 46.296875 45.808594 L 46.296875 19.414062 L 40.203125 19.414062 L 32.085938 27.941406 L 23.964844 19.414062 Z M 17.871094 19.414062 "/>
</g>
</svg>
