<?xml version="1.0" encoding="UTF-8"?>
<svg xmlns="http://www.w3.org/2000/svg" xmlns:xlink="http://www.w3.org/1999/xlink" width="64px" height="64px" viewBox="0 0 64 64" version="1.1">
<defs>
<linearGradient id="linear0" gradientUnits="userSpaceOnUse" x1="58.377636" y1="29.910934" x2="93.322655" y2="29.910934" gradientTransform="matrix(1,-0.000000000000000056,-0.000000000000000056,1,-0.000000000000014211,0)">
<stop offset="0" style="stop-color:rgb(3.921569%,74.117649%,77.64706%);stop-opacity:1;"/>
<stop offset="1" style="stop-color:rgb(72.156864%,0%,100%);stop-opacity:1;"/>
</linearGradient>
<linearGradient id="linear1" gradientUnits="userSpaceOnUse" x1="6.500003" y1="23.99999" x2="41.500019" y2="23.99999" >
<stop offset="0" style="stop-color:rgb(3.921569%,74.117649%,77.64706%);stop-opacity:1;"/>
<stop offset="1" style="stop-color:rgb(72.156864%,0%,100%);stop-opacity:1;"/>
</linearGradient>
<linearGradient id="linear2" gradientUnits="userSpaceOnUse" x1="15.126323" y1="24.000002" x2="32.873653" y2="24.000002" >
<stop offset="0" style="stop-color:rgb(3.921569%,74.117649%,77.64706%);stop-opacity:1;"/>
<stop offset="1" style="stop-color:rgb(72.156864%,0%,100%);stop-opacity:1;"/>
</linearGradient>
<linearGradient id="linear3" gradientUnits="userSpaceOnUse" x1="0" y1="0" x2="0" y2="1" gradientTransform="matrix(12,0,0,16,28,24)">
<stop offset="0" style="stop-color:rgb(3.921569%,74.117649%,77.64706%);stop-opacity:1;"/>
<stop offset="1" style="stop-color:rgb(72.156864%,0%,100%);stop-opacity:1;"/>
</linearGradient>
</defs>
<g id="surface1">
<path style="fill:none;stroke-width:3.000024;stroke-linecap:butt;stroke-linejoin:miter;stroke:url(#linear0);stroke-miterlimit:4;" d="M 64.592621 12.49449 L 87.108619 12.492911 C 90.540417 12.49264 93.322446 15.276293 93.32102 18.707807 L 93.322997 41.11569 C 93.321571 44.547204 90.539494 47.327093 87.107696 47.327364 L 64.591699 47.328944 C 61.1599 47.329214 58.377871 44.545562 58.379298 41.114048 L 58.37732 18.706164 C 58.377275 15.277191 61.15829 12.493303 64.592621 12.49449 Z M 64.592621 12.49449 " transform="matrix(1.156516,-0.66351,0.669828,1.152869,-75.575495,47.843959)"/>
<path style="fill:none;stroke-width:3;stroke-linecap:butt;stroke-linejoin:miter;stroke:url(#linear1);stroke-miterlimit:4;" d="M 12.714844 7.5 L 35.285156 7.5 C 38.71875 7.5 41.499023 10.283203 41.499023 13.713867 L 41.499023 34.286133 C 41.499023 37.716797 38.71875 40.5 35.285156 40.5 L 12.714844 40.5 C 9.28125 40.5 6.500977 37.716797 6.500977 34.286133 L 6.500977 13.713867 C 6.500977 10.283203 9.28125 7.5 12.714844 7.5 Z M 12.714844 7.5 " transform="matrix(1.333333,0,0,1.333333,0,0)"/>
<path style="fill:none;stroke-width:2.252651;stroke-linecap:round;stroke-linejoin:round;stroke:url(#linear2);stroke-miterlimit:0;" d="M 15.125977 24 C 15.125977 19.098633 19.098633 15.128906 23.99707 15.125977 C 28.895508 15.123047 32.868164 19.092773 32.874023 23.991211 C 32.879883 28.889648 28.913086 32.865234 24.014648 32.874023 C 19.116211 32.882812 15.137695 28.918945 15.125977 24.020508 " transform="matrix(1.333333,0,0,1.333333,0,0)"/>
<path style=" stroke:none;fill-rule:evenodd;fill:url(#linear3);" d="M 28.023438 24 L 40 32.21875 L 28 40 Z M 28.023438 24 "/>
</g>
</svg>
