<?xml version="1.0" encoding="UTF-8"?>
<svg xmlns="http://www.w3.org/2000/svg" xmlns:xlink="http://www.w3.org/1999/xlink" width="64px" height="64px" viewBox="0 0 64 64" version="1.1">
<defs>
<linearGradient id="linear0" gradientUnits="userSpaceOnUse" x1="4.632812" y1="30.859375" x2="60.53125" y2="30.859375" >
<stop offset="0" style="stop-color:rgb(3.921569%,74.117649%,77.64706%);stop-opacity:1;"/>
<stop offset="1" style="stop-color:rgb(72.156864%,0%,100%);stop-opacity:1;"/>
</linearGradient>
<linearGradient id="linear1" gradientUnits="userSpaceOnUse" x1="14.806488" y1="28.292814" x2="54.806488" y2="28.292814" >
<stop offset="0" style="stop-color:rgb(3.921569%,74.117649%,77.64706%);stop-opacity:1;"/>
<stop offset="1" style="stop-color:rgb(72.156864%,0%,100%);stop-opacity:1;"/>
</linearGradient>
</defs>
<g id="surface1">
<path style=" stroke:none;fill-rule:nonzero;fill:url(#linear0);" d="M 32.582031 2.910156 C 17.144531 2.910156 4.632812 15.421875 4.632812 30.859375 C 4.632812 46.296875 17.144531 58.808594 32.582031 58.808594 C 48.019531 58.808594 60.53125 46.296875 60.53125 30.859375 C 60.53125 15.421875 48.019531 2.910156 32.582031 2.910156 Z M 33.308594 4.054688 C 47.640625 4.054688 59.261719 15.671875 59.261719 30.003906 C 59.257812 44.335938 47.640625 55.957031 33.308594 55.953125 C 18.976562 55.953125 7.359375 44.335938 7.359375 30.003906 C 7.359375 15.675781 18.976562 4.054688 33.308594 4.054688 Z M 33.308594 4.054688 "/>
<path style=" stroke:none;fill-rule:evenodd;fill:url(#linear1);" d="M 32.214844 18.128906 C 25.117188 18.128906 19.363281 23.882812 19.363281 30.980469 C 19.367188 38.074219 25.117188 43.828125 32.214844 43.828125 C 39.3125 43.828125 45.0625 38.074219 45.0625 30.980469 C 45.066406 23.882812 39.3125 18.128906 32.214844 18.128906 Z M 28.957031 25.207031 L 38.171875 30.792969 L 28.957031 36.65625 Z M 54.804688 28.292969 C 54.804688 39.339844 45.851562 48.292969 34.804688 48.292969 C 23.761719 48.292969 14.804688 39.339844 14.804688 28.292969 C 14.804688 17.246094 23.761719 8.292969 34.804688 8.292969 C 45.851562 8.292969 54.804688 17.246094 54.804688 28.292969 Z M 54.804688 28.292969 "/>
</g>
</svg>
