<?xml version="1.0" encoding="UTF-8"?>
<svg xmlns="http://www.w3.org/2000/svg" xmlns:xlink="http://www.w3.org/1999/xlink" width="64px" height="64px" viewBox="0 0 64 64" version="1.1">
<defs>
<linearGradient id="linear0" gradientUnits="userSpaceOnUse" x1="0" y1="0" x2="0" y2="1" gradientTransform="matrix(53.417969,0,0,64,5.289063,0)">
<stop offset="0" style="stop-color:rgb(3.921569%,74.117649%,77.64706%);stop-opacity:1;"/>
<stop offset="1" style="stop-color:rgb(72.156864%,0%,100%);stop-opacity:1;"/>
</linearGradient>
</defs>
<g id="surface1">
<path style=" stroke:none;fill-rule:nonzero;fill:url(#linear0);" d="M 37.152344 63.570312 C 36.9375 63.332031 35.894531 61.445312 34.832031 59.367188 C 33.378906 56.542969 32.914062 55.40625 32.96875 54.839844 C 33.0625 53.890625 33.511719 53.78125 35.152344 54.316406 L 36.386719 54.722656 L 37.1875 53.800781 C 39.085938 51.621094 40.945312 46.613281 42.324219 39.972656 C 43.058594 36.445312 45.253906 20.242188 45.066406 19.78125 C 44.976562 19.566406 30.34375 22.964844 30.074219 23.261719 C 29.964844 23.378906 28.824219 26.652344 27.539062 30.53125 C 26.253906 34.410156 24.792969 38.441406 24.296875 39.496094 C 22.578125 43.121094 16.269531 50.066406 12.070312 52.949219 C 8.757812 55.226562 5.691406 56.347656 5.488281 55.359375 C 5.441406 55.136719 6.015625 54.339844 6.839844 53.488281 C 9.578125 50.652344 14.675781 42.777344 16.480469 38.597656 C 16.976562 37.449219 17.753906 35.242188 18.210938 33.695312 C 18.988281 31.070312 20.492188 24.902344 20.492188 24.347656 C 20.492188 24.210938 20.089844 24.03125 19.59375 23.953125 C 14.96875 23.210938 10.382812 21.949219 7.476562 20.625 C 5.609375 19.773438 5.011719 19.125 5.40625 18.382812 C 5.835938 17.582031 11.257812 15.789062 18.644531 14.003906 C 20.910156 13.453125 22.800781 12.976562 22.851562 12.9375 C 22.898438 12.890625 23.203125 11.648438 23.527344 10.164062 C 24.246094 6.886719 24.117188 6.019531 22.515625 3.242188 C 20.320312 -0.570312 21.046875 -0.808594 28.007812 1.425781 C 31.273438 2.476562 32.609375 3.261719 33.578125 4.699219 C 34.589844 6.203125 34.730469 7.339844 34.21875 9.882812 L 34.070312 10.628906 L 36.664062 10.058594 C 38.089844 9.75 40.660156 9.160156 42.371094 8.753906 L 45.488281 8.019531 L 49.378906 9.011719 C 54.082031 10.21875 56.308594 10.960938 57.726562 11.789062 C 58.765625 12.398438 58.789062 12.4375 58.644531 13.359375 C 58.558594 13.882812 56.871094 20.457031 54.894531 27.976562 C 51.121094 42.308594 50.121094 45.382812 47.640625 50.210938 C 46.09375 53.21875 44.097656 56.464844 42.273438 58.925781 C 40.832031 60.867188 38.019531 64 37.714844 64 C 37.617188 64 37.363281 63.808594 37.152344 63.570312 Z M 37.152344 63.570312 "/>
</g>
</svg>
