<?xml version="1.0" encoding="UTF-8"?>
<svg xmlns="http://www.w3.org/2000/svg" xmlns:xlink="http://www.w3.org/1999/xlink" width="64px" height="64px" viewBox="0 0 64 64" version="1.1">
<defs>
<linearGradient id="linear0" gradientUnits="userSpaceOnUse" x1="0" y1="0" x2="0" y2="1" gradientTransform="matrix(64,0,0,49.773438,0,7.113281)">
<stop offset="0" style="stop-color:rgb(3.921569%,74.117649%,77.64706%);stop-opacity:1;"/>
<stop offset="1" style="stop-color:rgb(72.156864%,0%,100%);stop-opacity:1;"/>
</linearGradient>
</defs>
<g id="surface1">
<path style=" stroke:none;fill-rule:nonzero;fill:url(#linear0);" d="M 37.449219 7.113281 C 31.382812 7.113281 26.136719 10.539062 23.53125 15.519531 C 21.84375 14.460938 19.847656 13.839844 17.699219 13.839844 C 11.683594 13.839844 6.808594 18.65625 6.808594 24.601562 C 6.808594 25.542969 6.960938 26.460938 7.191406 27.332031 C 2.847656 30.226562 0 35.15625 0 40.742188 C 0 49.6875 7.289062 56.886719 16.339844 56.886719 L 47.660156 56.886719 C 56.710938 56.886719 64 49.6875 64 40.742188 C 64 33.605469 59.332031 27.578125 52.851562 25.441406 C 53.027344 24.511719 53.109375 23.558594 53.109375 22.585938 C 53.109375 14.039062 46.097656 7.113281 37.449219 7.113281 Z M 37.449219 7.113281 "/>
</g>
</svg>
