<?xml version="1.0" encoding="UTF-8"?>
<svg xmlns="http://www.w3.org/2000/svg" xmlns:xlink="http://www.w3.org/1999/xlink" width="64px" height="64px" viewBox="0 0 64 64" version="1.1">
<defs>
<linearGradient id="linear0" gradientUnits="userSpaceOnUse" x1="0" y1="0" x2="0" y2="1" gradientTransform="matrix(64,0,0,20.515625,0,21.742188)">
<stop offset="0" style="stop-color:rgb(3.921569%,74.117649%,77.64706%);stop-opacity:1;"/>
<stop offset="1" style="stop-color:rgb(72.156864%,0%,100%);stop-opacity:1;"/>
</linearGradient>
</defs>
<g id="surface1">
<path style=" stroke:none;fill-rule:nonzero;fill:url(#linear0);" d="M 19.691406 42.257812 L 27.898438 42.257812 L 27.898438 38.152344 L 36.101562 38.152344 L 36.101562 21.742188 L 19.691406 21.742188 Z M 27.898438 25.847656 L 32 25.847656 L 32 34.050781 L 27.898438 34.050781 Z M 39.382812 21.742188 L 39.382812 38.152344 L 47.589844 38.152344 L 47.589844 25.847656 L 51.691406 25.847656 L 51.691406 38.152344 L 55.792969 38.152344 L 55.792969 25.847656 L 59.898438 25.847656 L 59.898438 38.152344 L 64 38.152344 L 64 21.742188 Z M 0 38.152344 L 8.207031 38.152344 L 8.207031 25.847656 L 12.308594 25.847656 L 12.308594 38.152344 L 16.410156 38.152344 L 16.410156 21.742188 L 0 21.742188 Z M 0 38.152344 "/>
</g>
</svg>
