<?xml version="1.0" encoding="UTF-8"?>
<svg xmlns="http://www.w3.org/2000/svg" xmlns:xlink="http://www.w3.org/1999/xlink" width="64px" height="64px" viewBox="0 0 64 64" version="1.1">
<defs>
<linearGradient id="linear0" gradientUnits="userSpaceOnUse" x1="0" y1="0" x2="0" y2="1" gradientTransform="matrix(60.953125,0,0,64,1.523438,0)">
<stop offset="0" style="stop-color:rgb(3.921569%,74.117649%,77.64706%);stop-opacity:1;"/>
<stop offset="1" style="stop-color:rgb(72.156864%,0%,100%);stop-opacity:1;"/>
</linearGradient>
</defs>
<g id="surface1">
<path style=" stroke:none;fill-rule:nonzero;fill:url(#linear0);" d="M 32 0 L 32 6.097656 L 44.191406 6.097656 L 41.144531 3.046875 L 44.191406 0 Z M 32 9.144531 L 53.332031 30.476562 L 53.332031 36.570312 C 53.332031 36.570312 54.070312 39.621094 57.902344 39.621094 C 57.902344 39.621094 62.476562 36.570312 62.476562 36.570312 L 62.476562 30.476562 Z M 32 9.144531 L 35.046875 30.476562 L 35.046875 36.570312 C 35.046875 36.570312 36.558594 39.621094 41.144531 39.621094 C 41.144531 39.621094 47.238281 36.570312 47.238281 36.570312 L 47.238281 30.476562 Z M 32 9.144531 L 16.761719 30.476562 L 16.761719 36.570312 C 16.761719 36.570312 18.273438 39.621094 22.855469 39.621094 C 22.855469 39.621094 28.953125 36.570312 28.953125 36.570312 L 28.953125 30.476562 Z M 32 9.144531 L 1.523438 30.476562 L 1.523438 36.570312 C 1.523438 36.570312 2.261719 39.621094 6.097656 39.621094 C 9.929688 39.621094 10.667969 36.570312 10.667969 36.570312 L 10.667969 30.476562 Z M 13.714844 39.621094 C 13.714844 39.621094 10.691406 42.667969 6.097656 42.667969 C 5.441406 42.667969 4.84375 42.585938 4.285156 42.476562 L 1.523438 64 L 22.855469 64 L 25.902344 51.808594 L 38.097656 51.808594 L 41.144531 64 L 62.476562 64 L 59.714844 42.476562 C 59.121094 42.597656 58.511719 42.660156 57.902344 42.667969 C 52.609375 42.667969 50.285156 39.621094 50.285156 39.621094 C 50.285156 39.621094 46.789062 42.667969 41.144531 42.667969 C 36.273438 42.667969 32 39.621094 32 39.621094 C 32 39.621094 27.703125 42.667969 22.855469 42.667969 C 17.300781 42.667969 13.714844 39.621094 13.714844 39.621094 Z M 13.714844 39.621094 "/>
</g>
</svg>
