<?xml version="1.0" encoding="UTF-8"?>
<svg xmlns="http://www.w3.org/2000/svg" xmlns:xlink="http://www.w3.org/1999/xlink" width="64px" height="64px" viewBox="0 0 64 64" version="1.1">
<defs>
<linearGradient id="linear0" gradientUnits="userSpaceOnUse" x1="0" y1="0" x2="0" y2="1" gradientTransform="matrix(43.792969,0,0,64,0,0)">
<stop offset="0" style="stop-color:rgb(3.921569%,74.117649%,77.64706%);stop-opacity:1;"/>
<stop offset="1" style="stop-color:rgb(72.156864%,0%,100%);stop-opacity:1;"/>
</linearGradient>
</defs>
<g id="surface1">
<path style=" stroke:none;fill-rule:evenodd;fill:url(#linear0);" d="M 32 0 C 14.328125 0 0 14.328125 0 32 C 0 49.671875 14.328125 64 32 64 C 35.871094 63.988281 39.707031 63.273438 43.328125 61.886719 L 41.601562 55.214844 C 38.554688 56.480469 35.296875 57.136719 32 57.144531 C 18.117188 57.144531 6.855469 45.886719 6.855469 32 C 6.855469 25.332031 9.507812 18.9375 14.21875 14.21875 C 18.9375 9.507812 25.332031 6.855469 32 6.855469 C 35.300781 6.859375 38.5625 7.515625 41.613281 8.78125 L 43.347656 2.09375 C 39.722656 0.710938 35.878906 0.00390625 32 0 Z M 32 10.105469 C 19.90625 10.105469 10.105469 19.90625 10.105469 32 C 10.105469 44.09375 19.90625 53.894531 32 53.894531 C 34.972656 53.890625 37.914062 53.289062 40.648438 52.113281 L 38.976562 45.644531 C 36.816406 46.746094 34.425781 47.324219 32 47.328125 C 27.9375 47.328125 24.035156 45.710938 21.164062 42.835938 C 18.289062 39.964844 16.671875 36.0625 16.671875 32 C 16.671875 27.9375 18.289062 24.035156 21.164062 21.164062 C 24.035156 18.289062 27.9375 16.671875 32 16.671875 C 34.429688 16.679688 36.816406 17.261719 38.976562 18.371094 L 40.648438 11.914062 C 37.914062 10.726562 34.976562 10.117188 32 10.105469 Z M 37.78125 21.714844 C 34.191406 19.703125 29.8125 19.707031 26.222656 21.726562 L 27.828125 27.828125 L 21.714844 26.21875 C 19.703125 29.808594 19.707031 34.1875 21.726562 37.777344 L 27.828125 36.171875 L 26.21875 42.285156 C 29.808594 44.296875 34.1875 44.292969 37.777344 42.273438 L 36.171875 36.171875 L 42.285156 37.78125 C 44.296875 34.191406 44.292969 29.8125 42.273438 26.222656 L 36.171875 27.828125 Z M 37.78125 21.714844 "/>
</g>
</svg>
