<?xml version="1.0" encoding="UTF-8"?>
<svg xmlns="http://www.w3.org/2000/svg" xmlns:xlink="http://www.w3.org/1999/xlink" width="64px" height="64px" viewBox="0 0 64 64" version="1.1">
<defs>
<linearGradient id="linear0" gradientUnits="userSpaceOnUse" x1="0" y1="0" x2="0" y2="1" gradientTransform="matrix(64,0,0,40.140625,0,11.929688)">
<stop offset="0" style="stop-color:rgb(3.921569%,74.117649%,77.64706%);stop-opacity:1;"/>
<stop offset="1" style="stop-color:rgb(72.156864%,0%,100%);stop-opacity:1;"/>
</linearGradient>
</defs>
<g id="surface1">
<path style=" stroke:none;fill-rule:evenodd;fill:url(#linear0);" d="M 0.460938 44.203125 L 0.00390625 44.207031 L 0.00390625 44.195312 L 0 43.804688 C 0 43.804688 0 43.800781 0 43.796875 C -0.00390625 39.535156 0.847656 35.316406 2.503906 31.390625 C 4.109375 27.605469 6.429688 24.167969 9.335938 21.265625 C 12.242188 18.351562 15.683594 16.035156 19.46875 14.433594 C 23.394531 12.777344 27.617188 11.925781 31.875 11.929688 C 36.136719 11.925781 40.359375 12.777344 44.285156 14.433594 C 48.070312 16.035156 51.511719 18.351562 54.414062 21.265625 C 57.324219 24.167969 59.644531 27.605469 61.246094 31.390625 C 62.902344 35.316406 63.757812 39.535156 63.753906 43.796875 C 63.753906 43.800781 63.753906 43.804688 63.753906 43.804688 L 63.753906 44.097656 L 64 44.222656 L 49.28125 51.3125 L 48.441406 49.570312 L 57.703125 45.109375 L 39.746094 45.109375 C 39.53125 46.855469 38.738281 48.492188 37.488281 49.746094 C 36 51.234375 33.976562 52.070312 31.871094 52.070312 C 29.769531 52.070312 27.746094 51.234375 26.261719 49.746094 C 24.996094 48.484375 24.199219 46.839844 23.992188 45.078125 L 6.167969 45.105469 L 15.722656 49.707031 L 14.882812 51.449219 L 0.164062 44.355469 Z M 60.820312 42.597656 C 60.679688 39.136719 59.921875 35.71875 58.566406 32.523438 C 57.113281 29.085938 55.003906 25.957031 52.359375 23.316406 C 49.71875 20.675781 46.59375 18.566406 43.152344 17.113281 C 39.585938 15.605469 35.753906 14.832031 31.875 14.835938 C 28.003906 14.832031 24.167969 15.605469 20.601562 17.113281 C 17.160156 18.566406 14.03125 20.675781 11.390625 23.316406 C 8.746094 25.957031 6.640625 29.085938 5.183594 32.523438 C 3.789062 35.828125 3.023438 39.363281 2.921875 42.949219 L 14.863281 36.835938 L 15.742188 38.554688 L 6.695312 43.1875 L 23.992188 43.164062 C 24.207031 41.421875 25.003906 39.78125 26.261719 38.523438 C 27.746094 37.035156 29.769531 36.199219 31.871094 36.199219 C 33.976562 36.199219 36 37.035156 37.488281 38.523438 C 38.742188 39.78125 39.53125 41.414062 39.746094 43.164062 L 57.6875 43.164062 L 48.421875 38.421875 L 49.300781 36.703125 Z M 37.871094 44.136719 C 37.871094 45.726562 37.238281 47.257812 36.117188 48.378906 C 34.992188 49.503906 33.464844 50.136719 31.871094 50.136719 C 30.285156 50.136719 28.753906 49.503906 27.632812 48.378906 C 26.503906 47.257812 25.867188 45.726562 25.867188 44.136719 C 25.867188 42.542969 26.503906 41.019531 27.632812 39.890625 C 28.753906 38.769531 30.285156 38.136719 31.871094 38.136719 C 33.464844 38.136719 34.992188 38.769531 36.117188 39.890625 C 37.238281 41.019531 37.871094 42.542969 37.871094 44.136719 Z M 37.871094 44.136719 "/>
</g>
</svg>
