<?xml version="1.0" encoding="UTF-8"?>
<svg xmlns="http://www.w3.org/2000/svg" xmlns:xlink="http://www.w3.org/1999/xlink" width="64px" height="64px" viewBox="0 0 64 64" version="1.1">
<defs>
<linearGradient id="linear0" gradientUnits="userSpaceOnUse" x1="0" y1="0" x2="0" y2="1" gradientTransform="matrix(54.855469,0,0,64,4,0)">
<stop offset="0" style="stop-color:rgb(3.921569%,74.117649%,77.64706%);stop-opacity:1;"/>
<stop offset="1" style="stop-color:rgb(72.156864%,0%,100%);stop-opacity:1;"/>
</linearGradient>
</defs>
<g id="surface1">
<path style=" stroke:none;fill-rule:nonzero;fill:url(#linear0);" d="M 31.429688 0 C 20.066406 0 10.855469 9.3125 10.855469 20.800781 C 10.855469 21.488281 10.890625 22.171875 10.960938 22.855469 L 7.429688 22.855469 C 5.527344 22.855469 4 24.328125 4 26.160156 L 4 49.269531 C 4 51.101562 5.527344 52.570312 7.429688 52.570312 L 10.855469 52.570312 L 10.855469 60.800781 C 10.855469 62.570312 12.269531 64 14.023438 64 L 25.101562 64 L 29.847656 57.144531 L 33.011719 57.144531 L 37.761719 64 L 48.835938 64 C 50.589844 64 52 62.570312 52 60.800781 L 52 52.570312 L 55.429688 52.570312 C 57.328125 52.570312 58.855469 51.101562 58.855469 49.269531 L 58.855469 26.160156 C 58.855469 24.328125 57.328125 22.855469 55.429688 22.855469 L 51.890625 22.855469 C 51.960938 22.171875 51.996094 21.488281 52 20.800781 C 52 9.3125 42.789062 0 31.429688 0 Z M 31.429688 6.855469 C 39.003906 6.855469 45.144531 12.730469 45.144531 19.976562 C 45.140625 20.339844 45.121094 21.765625 45.085938 22.855469 L 17.777344 22.855469 C 17.738281 21.765625 17.71875 20.339844 17.710938 19.976562 C 17.710938 12.730469 23.855469 6.855469 31.429688 6.855469 Z M 25.710938 12.570312 C 23.820312 12.570312 22.285156 14.109375 22.289062 16 C 22.285156 17.890625 23.820312 19.429688 25.710938 19.429688 C 26.625 19.429688 27.496094 19.066406 28.140625 18.425781 C 28.78125 17.78125 29.144531 16.90625 29.144531 16 C 29.144531 15.09375 28.78125 14.21875 28.140625 13.574219 C 27.496094 12.933594 26.625 12.570312 25.710938 12.570312 Z M 37.144531 12.570312 C 36.230469 12.570312 35.359375 12.933594 34.71875 13.574219 C 34.074219 14.21875 33.710938 15.09375 33.710938 16 C 33.710938 16.90625 34.074219 17.78125 34.71875 18.425781 C 35.359375 19.066406 36.230469 19.429688 37.144531 19.429688 C 38.050781 19.429688 38.925781 19.066406 39.566406 18.425781 C 40.210938 17.78125 40.570312 16.90625 40.570312 16 C 40.570312 15.09375 40.210938 14.21875 39.566406 13.574219 C 38.925781 12.933594 38.050781 12.570312 37.144531 12.570312 Z M 31.464844 30.828125 C 33.398438 30.828125 34.96875 32.394531 34.96875 34.332031 L 34.96875 35.730469 L 36.136719 35.730469 C 36.585938 35.671875 36.964844 36.152344 37.046875 36.640625 C 37.0625 36.710938 37.066406 36.785156 37.066406 36.851562 L 37.066406 43.136719 C 37.066406 43.691406 36.652344 44.136719 36.136719 44.136719 L 26.796875 44.136719 C 26.28125 44.136719 25.859375 43.691406 25.859375 43.136719 L 25.859375 36.851562 C 25.859375 36.296875 26.28125 35.730469 26.796875 35.730469 L 27.964844 35.730469 L 27.964844 34.332031 C 27.964844 32.394531 29.53125 30.828125 31.464844 30.828125 Z M 31.464844 32.226562 C 30.375 32.226562 29.484375 33.054688 29.375 34.117188 C 29.367188 34.1875 29.363281 34.261719 29.363281 34.332031 L 29.363281 35.730469 L 33.503906 35.730469 C 33.507812 35.726562 33.566406 35.703125 33.566406 35.703125 L 33.566406 34.332031 C 33.566406 33.171875 32.625 32.226562 31.464844 32.226562 Z M 31.464844 32.226562 "/>
</g>
</svg>
