<?xml version="1.0" encoding="UTF-8"?>
<svg xmlns="http://www.w3.org/2000/svg" xmlns:xlink="http://www.w3.org/1999/xlink" width="64px" height="64px" viewBox="0 0 64 64" version="1.1">
<defs>
<linearGradient id="linear0" gradientUnits="userSpaceOnUse" x1="0" y1="0" x2="0" y2="1" gradientTransform="matrix(64,0,0,64,0,0)">
<stop offset="0" style="stop-color:rgb(3.921569%,74.117649%,77.64706%);stop-opacity:1;"/>
<stop offset="1" style="stop-color:rgb(72.156864%,0%,100%);stop-opacity:1;"/>
</linearGradient>
</defs>
<g id="surface1">
<path style=" stroke:none;fill-rule:nonzero;fill:url(#linear0);" d="M 32 0 C 14.351562 0 0 14.351562 0 32 C 0 49.648438 14.351562 64 32 64 C 49.648438 64 64 49.648438 64 32 C 64 14.351562 49.648438 0 32 0 Z M 32 4 C 47.488281 4 60 16.511719 60 32 C 60 47.488281 47.488281 60 32 60 C 16.511719 60 4 47.488281 4 32 C 4 16.511719 16.511719 4 32 4 Z M 40.085938 17.984375 C 13.359375 48.660156 26.722656 33.324219 40.085938 17.984375 Z M 21.453125 19.453125 C 18.140625 19.453125 15.453125 22.140625 15.453125 25.453125 C 15.453125 28.765625 18.140625 31.453125 21.453125 31.453125 C 24.765625 31.453125 27.453125 28.765625 27.453125 25.453125 C 27.453125 22.140625 24.765625 19.453125 21.453125 19.453125 Z M 45.453125 19.453125 C 42.140625 19.453125 39.453125 22.140625 39.453125 25.453125 C 39.453125 28.765625 42.140625 31.453125 45.453125 31.453125 C 48.765625 31.453125 51.453125 28.765625 51.453125 25.453125 C 51.453125 22.140625 48.765625 19.453125 45.453125 19.453125 Z M 27.695312 39.460938 L 32.03125 50.234375 L 37.390625 39.726562 Z M 27.695312 39.460938 "/>
</g>
</svg>
