<?xml version="1.0" encoding="UTF-8"?>
<svg xmlns="http://www.w3.org/2000/svg" xmlns:xlink="http://www.w3.org/1999/xlink" width="64px" height="64px" viewBox="0 0 64 64" version="1.1">
<defs>
<linearGradient id="linear0" gradientUnits="userSpaceOnUse" x1="0" y1="0" x2="0" y2="1" gradientTransform="matrix(53.328125,0,0,64,5.335938,0)">
<stop offset="0" style="stop-color:rgb(3.921569%,74.117649%,77.64706%);stop-opacity:1;"/>
<stop offset="1" style="stop-color:rgb(72.156864%,0%,100%);stop-opacity:1;"/>
</linearGradient>
</defs>
<g id="surface1">
<path style=" stroke:none;fill-rule:nonzero;fill:url(#linear0);" d="M 46.246094 0 C 45.890625 -0.0195312 45.324219 0.207031 44.285156 0.660156 C 43.046875 1.199219 40.242188 1.640625 38.046875 1.640625 C 30.273438 1.800781 24.050781 4.464844 19.011719 9.480469 C 12.171875 16.335938 10.015625 24.964844 13.136719 32.972656 C 13.859375 34.824219 14.296875 36.703125 14.109375 37.152344 C 13.925781 37.605469 12.609375 38.847656 11.191406 39.925781 C 8.121094 42.261719 5.996094 46.027344 5.464844 50.074219 C 5.144531 52.507812 5.363281 53.667969 6.71875 56.5625 C 9.632812 62.777344 16.234375 65.441406 23.277344 63.234375 C 27.351562 61.960938 31.429688 57.433594 34.691406 50.5625 C 37.511719 44.632812 37.632812 44.484375 40.660156 43.414062 C 45.761719 41.617188 48.976562 39.628906 52.171875 36.292969 C 57.835938 30.378906 59.941406 22.714844 57.90625 15.394531 C 56.996094 12.109375 56.226562 10.972656 52.097656 6.789062 C 49.480469 4.132812 47.160156 1.449219 46.9375 0.820312 C 46.746094 0.292969 46.605469 0.0234375 46.246094 0 Z M 32.5 7.113281 C 34.921875 7.125 36.792969 7.851562 37.304688 9.308594 C 37.472656 9.785156 36.765625 12.03125 35.726562 14.300781 C 33.058594 20.132812 32.207031 23.335938 30.597656 33.621094 C 28.597656 46.375 26.410156 51.882812 22.03125 55.195312 C 19.273438 57.285156 15.882812 57.460938 14.074219 55.621094 C 12.507812 54.023438 12.054688 52.027344 12.785156 49.941406 C 13.359375 48.28125 13.914062 48.015625 18.125 47.394531 C 21.050781 46.964844 23.113281 44.941406 23.113281 42.285156 C 23.113281 40.617188 22.441406 39.65625 20.164062 37.253906 C 16.648438 33.53125 15.113281 29.960938 15.097656 25.453125 C 15.070312 18.402344 18.519531 12.40625 24.414062 9.261719 C 27.113281 7.820312 30.074219 7.105469 32.5 7.113281 Z M 41.503906 10.675781 C 42.230469 10.566406 43.152344 11.414062 44.457031 13.1875 C 49.609375 20.191406 49.078125 30.792969 43.277344 36.882812 C 40.804688 39.480469 40.21875 39.636719 38.503906 38.234375 C 37.511719 37.429688 37.324219 36.695312 37.332031 33.734375 C 37.34375 29.203125 38.691406 18.109375 39.738281 13.886719 C 40.253906 11.847656 40.78125 10.785156 41.503906 10.675781 Z M 41.503906 10.675781 "/>
</g>
</svg>
