<?xml version="1.0" encoding="UTF-8"?>
<svg xmlns="http://www.w3.org/2000/svg" xmlns:xlink="http://www.w3.org/1999/xlink" width="64px" height="64px" viewBox="0 0 64 64" version="1.1">
<defs>
<linearGradient id="linear0" gradientUnits="userSpaceOnUse" x1="0" y1="0" x2="0" y2="1" gradientTransform="matrix(48,0,0,44,0,4)">
<stop offset="0" style="stop-color:rgb(3.921569%,74.117649%,77.64706%);stop-opacity:1;"/>
<stop offset="1" style="stop-color:rgb(72.156864%,0%,100%);stop-opacity:1;"/>
</linearGradient>
<linearGradient id="linear1" gradientUnits="userSpaceOnUse" x1="0" y1="0" x2="0" y2="1" gradientTransform="matrix(40,0,0,40,24,20)">
<stop offset="0" style="stop-color:rgb(3.921569%,74.117649%,77.64706%);stop-opacity:1;"/>
<stop offset="1" style="stop-color:rgb(72.156864%,0%,100%);stop-opacity:1;"/>
</linearGradient>
</defs>
<g id="surface1">
<path style=" stroke:none;fill-rule:nonzero;fill:url(#linear0);" d="M 15.976562 4 C 10.945312 4.058594 7.261719 3.878906 4.246094 5.539062 C 2.691406 6.429688 1.503906 7.84375 0.898438 9.53125 C 0.238281 11.285156 0 13.371094 0 16 L 0 28 C 0 30.632812 0.238281 32.714844 0.898438 34.46875 C 1.554688 36.222656 2.742188 37.628906 4.246094 38.460938 C 7.261719 40.125 10.945312 39.941406 15.976562 40 L 19.832031 40 C 19.445312 43 18.175781 43.785156 16 43.929688 L 16 48 L 20 48 L 20 36 L 16 36 C 10.964844 35.941406 7.640625 35.761719 6.179688 34.953125 C 5.449219 34.550781 5.03125 34.105469 4.640625 33.0625 C 4.253906 32.023438 4 30.367188 4 28 L 4 16 C 4 13.632812 4.253906 11.976562 4.640625 10.9375 C 5.03125 9.894531 5.449219 9.453125 6.179688 9.046875 C 7.644531 8.238281 10.964844 8.058594 16 8 L 32 8 C 37.035156 8.058594 40.347656 8.238281 41.8125 9.046875 C 42.546875 9.449219 42.972656 9.894531 43.359375 10.9375 C 43.746094 11.976562 44 13.632812 44 16 L 48 16 C 48 13.367188 47.761719 11.285156 47.101562 9.53125 C 46.496094 7.84375 45.308594 6.429688 43.753906 5.539062 C 40.738281 3.875 37.054688 4.058594 32.023438 4 Z M 15.976562 4 "/>
<path style=" stroke:none;fill-rule:nonzero;fill:url(#linear1);" d="M 32 20 L 32 28.109375 C 30.457031 28.214844 29.105469 28.445312 27.859375 28.96875 C 26.550781 29.511719 25.476562 30.503906 24.835938 31.769531 C 24.203125 33.046875 24 34.515625 24 36.246094 L 24 43.746094 C 24 45.484375 24.203125 46.949219 24.835938 48.234375 C 25.46875 49.519531 26.597656 50.5 27.859375 51.03125 C 27.898438 51.050781 27.957031 51.050781 28 51.070312 L 28 36.246094 C 28 34.859375 28.195312 33.992188 28.425781 33.527344 C 28.648438 33.070312 28.835938 32.886719 29.40625 32.648438 C 30.546875 32.167969 33.328125 32.035156 37.453125 32 L 50.546875 32 C 54.667969 32.035156 57.453125 32.167969 58.59375 32.648438 C 59.167969 32.886719 59.351562 33.070312 59.578125 33.527344 C 59.804688 33.992188 60 34.859375 60 36.246094 L 60 51.070312 C 60.042969 51.050781 60.097656 51.050781 60.140625 51.03125 C 61.398438 50.5 62.53125 49.519531 63.164062 48.230469 C 63.796875 46.953125 64 45.484375 64 43.753906 L 64 36.253906 C 64 34.515625 63.796875 33.050781 63.164062 31.765625 C 62.519531 30.5 61.449219 29.511719 60.140625 28.96875 C 58.894531 28.445312 57.542969 28.214844 56 28.109375 L 56 20 Z M 36 24 L 52 24 L 52 28.023438 C 51.492188 28.023438 51.113281 28.003906 50.558594 28 L 37.441406 28 C 36.890625 28 36.511719 28.019531 36 28.023438 Z M 54 36 C 52.894531 36 52 36.894531 52 38 C 52 39.105469 52.894531 40 54 40 C 55.105469 40 56 39.105469 56 38 C 56 36.894531 55.105469 36 54 36 Z M 32 44 L 32 60 L 56 60 L 56 44 L 52 44 L 52 56 L 36 56 L 36 44 Z M 32 44 "/>
</g>
</svg>
