<?xml version="1.0" encoding="UTF-8"?>
<svg xmlns="http://www.w3.org/2000/svg" xmlns:xlink="http://www.w3.org/1999/xlink" width="64px" height="64px" viewBox="0 0 64 64" version="1.1">
<defs>
<linearGradient id="linear0" gradientUnits="userSpaceOnUse" x1="0" y1="0" x2="0" y2="1" gradientTransform="matrix(64,0,0,54.523438,0,4.738281)">
<stop offset="0" style="stop-color:rgb(3.921569%,74.117649%,77.64706%);stop-opacity:1;"/>
<stop offset="1" style="stop-color:rgb(72.156864%,0%,100%);stop-opacity:1;"/>
</linearGradient>
</defs>
<g id="surface1">
<path style=" stroke:none;fill-rule:evenodd;fill:url(#linear0);" d="M 20.367188 39.515625 C 19.496094 37.667969 19.003906 35.691406 18.851562 33.695312 C 18.601562 30.882812 19.019531 28.015625 20.160156 25.378906 C 19.160156 25.734375 18.160156 26.105469 17.203125 26.492188 C 13.664062 27.921875 10.515625 29.636719 8.707031 31.074219 C 7.933594 31.691406 7.558594 32.132812 7.339844 32.414062 C 7.558594 32.699219 7.933594 33.140625 8.707031 33.757812 C 10.515625 35.195312 13.664062 36.910156 17.203125 38.339844 C 18.222656 38.757812 19.292969 39.148438 20.367188 39.515625 Z M 30.578125 49.433594 C 40.433594 55.867188 56.207031 62.648438 61.488281 57.371094 C 65.753906 53.109375 62.148438 42 57.179688 32.691406 C 62.484375 23.054688 66.558594 11.132812 62.085938 6.65625 C 56.496094 1.066406 39.300781 8.808594 29.492188 15.554688 C 17.628906 17.8125 0 24.503906 0 32.414062 C 0 40.59375 18.832031 47.46875 30.578125 49.433594 Z M 50.539062 42.90625 C 51.316406 41.921875 52.113281 40.855469 52.929688 39.679688 C 53.179688 40.21875 53.414062 40.746094 53.640625 41.277344 C 55.109375 44.734375 56.105469 48.121094 56.363281 50.378906 C 56.472656 51.347656 56.425781 51.910156 56.378906 52.265625 C 56.027344 52.308594 55.464844 52.355469 54.496094 52.242188 C 52.234375 51.984375 48.851562 50.992188 45.394531 49.523438 C 44.703125 49.226562 44.003906 48.910156 43.300781 48.589844 C 46.21875 47.402344 48.714844 45.421875 50.539062 42.90625 Z M 33.226562 42.722656 C 31.097656 41.347656 29.550781 40.152344 28.785156 39.382812 C 24.664062 35.261719 24.664062 28.789062 28.785156 24.667969 C 29.902344 23.546875 31.195312 22.730469 32.574219 22.246094 C 34.175781 21.992188 35.5625 21.839844 36.425781 21.839844 C 38.210938 21.839844 39.882812 22.265625 41.351562 23.019531 C 42.121094 23.453125 42.839844 24.007812 43.5 24.667969 C 44.089844 25.253906 44.921875 26.289062 45.949219 27.792969 C 46.628906 29.175781 47 30.742188 47 32.414062 C 47 38.339844 42.347656 42.992188 36.425781 42.992188 C 35.65625 42.992188 34.46875 42.871094 33.226562 42.722656 Z M 52.023438 24.1875 C 52.234375 24.460938 52.453125 24.765625 52.667969 25.074219 C 53.203125 23.925781 53.6875 22.835938 54.128906 21.800781 C 55.613281 18.296875 56.625 14.863281 56.882812 12.570312 C 56.996094 11.589844 56.949219 11.019531 56.902344 10.660156 C 56.546875 10.617188 55.976562 10.566406 54.996094 10.679688 C 52.703125 10.945312 49.273438 11.953125 45.765625 13.441406 C 44.335938 14.042969 42.875 14.742188 41.464844 15.511719 C 41.769531 15.613281 42.070312 15.710938 42.359375 15.847656 C 42.808594 16.003906 43.242188 16.191406 43.675781 16.402344 C 45.386719 17.222656 46.988281 18.34375 48.40625 19.761719 C 49.488281 20.84375 50.726562 22.363281 52.023438 24.1875 Z M 52.023438 24.1875 "/>
</g>
</svg>
