<?xml version="1.0" encoding="UTF-8"?>
<svg xmlns="http://www.w3.org/2000/svg" xmlns:xlink="http://www.w3.org/1999/xlink" width="64px" height="64px" viewBox="0 0 64 64" version="1.1">
<defs>
<linearGradient id="linear0" gradientUnits="userSpaceOnUse" x1="0" y1="0" x2="0" y2="1" gradientTransform="matrix(64,0,0,27.960938,0,18.019531)">
<stop offset="0" style="stop-color:rgb(3.921569%,74.117649%,77.64706%);stop-opacity:1;"/>
<stop offset="1" style="stop-color:rgb(72.156864%,0%,100%);stop-opacity:1;"/>
</linearGradient>
</defs>
<g id="surface1">
<path style=" stroke:none;fill-rule:evenodd;fill:url(#linear0);" d="M 5.871094 45.519531 L 0 45.519531 L 0 18.480469 L 11.972656 18.480469 C 15.191406 18.480469 17.566406 19.316406 19.101562 20.992188 C 20.628906 22.667969 21.394531 24.726562 21.394531 27.171875 C 21.394531 28.226562 21.214844 29.253906 20.855469 30.242188 C 20.496094 31.234375 19.957031 32.152344 19.234375 33.003906 C 18.511719 33.855469 17.519531 34.539062 16.261719 35.050781 C 15 35.566406 13.570312 35.824219 11.972656 35.824219 L 5.871094 35.824219 Z M 5.871094 30.300781 L 12.203125 30.300781 C 13.234375 30.300781 14.007812 29.992188 14.523438 29.371094 C 15.039062 28.757812 15.296875 28.023438 15.296875 27.171875 C 15.296875 26.347656 15.050781 25.621094 14.558594 24.988281 C 14.070312 24.359375 13.285156 24.042969 12.203125 24.042969 L 5.871094 24.042969 Z M 29.257812 45.015625 C 28.574219 45.660156 27.746094 45.980469 26.769531 45.980469 C 25.789062 45.980469 24.96875 45.660156 24.3125 45.015625 C 23.65625 44.375 23.328125 43.574219 23.328125 42.621094 C 23.328125 41.667969 23.65625 40.855469 24.3125 40.1875 C 24.96875 39.519531 25.789062 39.183594 26.769531 39.183594 C 27.746094 39.183594 28.574219 39.519531 29.257812 40.1875 C 29.9375 40.855469 30.28125 41.667969 30.28125 42.621094 C 30.28125 43.574219 29.9375 44.375 29.257812 45.015625 Z M 43.875 45.980469 C 41.25 45.980469 38.992188 45.277344 37.101562 43.875 C 35.207031 42.472656 33.847656 40.535156 33.023438 38.0625 L 38.277344 36.097656 C 38.894531 37.40625 39.707031 38.457031 40.707031 39.238281 C 41.714844 40.027344 42.820312 40.421875 44.03125 40.421875 C 45.292969 40.421875 46.285156 40.179688 47.003906 39.703125 C 47.726562 39.230469 48.089844 38.542969 48.089844 37.640625 C 48.089844 37.046875 47.824219 36.519531 47.296875 36.054688 C 46.769531 35.59375 46.214844 35.25 45.636719 35.03125 C 45.054688 34.8125 44.160156 34.511719 42.949219 34.125 C 42.152344 33.867188 41.550781 33.667969 41.152344 33.523438 C 40.753906 33.382812 40.183594 33.15625 39.4375 32.847656 C 38.6875 32.542969 38.121094 32.257812 37.734375 32 C 37.347656 31.742188 36.886719 31.394531 36.34375 30.957031 C 35.804688 30.519531 35.398438 30.0625 35.128906 29.585938 C 34.859375 29.109375 34.621094 28.53125 34.414062 27.847656 C 34.207031 27.164062 34.105469 26.4375 34.105469 25.664062 C 34.105469 23.5 34.953125 21.6875 36.65625 20.21875 C 38.355469 18.753906 40.660156 18.019531 43.566406 18.019531 C 45.988281 18.019531 48.023438 18.652344 49.671875 19.910156 C 51.320312 21.171875 52.414062 22.792969 52.953125 24.777344 L 47.699219 26.476562 C 46.851562 24.546875 45.371094 23.578125 43.261719 23.578125 C 41.070312 23.578125 39.976562 24.3125 39.976562 25.78125 C 39.976562 26.117188 40.078125 26.410156 40.285156 26.667969 C 40.488281 26.925781 40.863281 27.183594 41.402344 27.445312 C 41.945312 27.699219 42.390625 27.890625 42.734375 28.019531 C 43.085938 28.152344 43.699219 28.371094 44.570312 28.679688 C 45.5 28.988281 46.214844 29.230469 46.714844 29.410156 C 47.21875 29.59375 47.90625 29.871094 48.785156 30.242188 C 49.660156 30.617188 50.347656 31.015625 50.847656 31.441406 C 51.347656 31.863281 51.871094 32.371094 52.410156 32.964844 C 52.953125 33.554688 53.347656 34.253906 53.59375 35.050781 C 53.835938 35.847656 53.957031 36.722656 53.957031 37.675781 C 53.957031 40.226562 53.003906 42.246094 51.101562 43.738281 C 49.191406 45.234375 46.785156 45.980469 43.875 45.980469 Z M 62.976562 45.015625 C 62.292969 45.660156 61.460938 45.980469 60.484375 45.980469 C 59.503906 45.980469 58.6875 45.660156 58.03125 45.015625 C 57.375 44.375 57.046875 43.574219 57.046875 42.621094 C 57.046875 41.667969 57.375 40.855469 58.03125 40.1875 C 58.6875 39.519531 59.503906 39.183594 60.484375 39.183594 C 61.460938 39.183594 62.292969 39.519531 62.976562 40.1875 C 63.660156 40.855469 64 41.667969 64 42.621094 C 64 43.574219 63.660156 44.375 62.976562 45.015625 Z M 62.976562 45.015625 "/>
</g>
</svg>
