<?xml version="1.0" encoding="UTF-8"?>
<svg xmlns="http://www.w3.org/2000/svg" xmlns:xlink="http://www.w3.org/1999/xlink" width="64px" height="64px" viewBox="0 0 64 64" version="1.1">
<defs>
<linearGradient id="linear0" gradientUnits="userSpaceOnUse" x1="0" y1="0" x2="0" y2="1" gradientTransform="matrix(59.460938,0,0,64,2.269531,0)">
<stop offset="0" style="stop-color:rgb(3.921569%,74.117649%,77.64706%);stop-opacity:1;"/>
<stop offset="1" style="stop-color:rgb(72.156864%,0%,100%);stop-opacity:1;"/>
</linearGradient>
</defs>
<g id="surface1">
<path style=" stroke:none;fill-rule:nonzero;fill:url(#linear0);" d="M 31.476562 26.707031 C 31.78125 26.679688 32.089844 26.667969 32.398438 26.667969 C 35.277344 26.667969 37.882812 27.808594 39.804688 29.660156 L 40.753906 29.027344 C 40.523438 28.28125 40.398438 27.488281 40.398438 26.667969 C 40.398438 22.253906 43.984375 18.667969 48.398438 18.667969 C 52.816406 18.667969 56.398438 22.253906 56.398438 26.667969 C 56.398438 31.085938 52.816406 34.667969 48.398438 34.667969 C 46.5625 34.667969 44.875 34.046875 43.523438 33.007812 L 42.441406 33.730469 C 42.84375 34.855469 43.0625 36.066406 43.0625 37.332031 C 43.0625 39.292969 42.535156 41.128906 41.613281 42.707031 L 46.964844 47.085938 C 48.496094 45.980469 50.371094 45.332031 52.398438 45.332031 C 57.550781 45.332031 61.730469 49.515625 61.730469 54.667969 C 61.730469 59.816406 57.550781 64 52.398438 64 C 47.246094 64 43.066406 59.816406 43.066406 54.667969 C 43.066406 53.300781 43.359375 52.003906 43.886719 50.835938 L 38.269531 46.238281 C 36.585938 47.351562 34.566406 48 32.398438 48 C 29.84375 48 27.496094 47.101562 25.660156 45.601562 L 18.554688 50.847656 C 18.882812 51.746094 19.0625 52.71875 19.0625 53.730469 C 19.0625 58.367188 15.304688 62.132812 10.667969 62.132812 C 6.03125 62.132812 2.269531 58.367188 2.269531 53.730469 C 2.269531 49.097656 6.03125 45.332031 10.667969 45.332031 C 12.527344 45.332031 14.253906 45.941406 15.644531 46.96875 L 22.691406 41.761719 C 22.074219 40.410156 21.730469 38.910156 21.730469 37.332031 C 21.730469 33.824219 23.433594 30.707031 26.050781 28.765625 L 21.664062 18.578125 C 21.253906 18.636719 20.828125 18.667969 20.398438 18.667969 C 15.246094 18.667969 11.0625 14.484375 11.0625 9.332031 C 11.0625 4.183594 15.246094 0 20.398438 0 C 25.550781 0 29.730469 4.183594 29.730469 9.332031 C 29.730469 12.023438 28.59375 14.453125 26.769531 16.15625 Z M 31.476562 26.707031 "/>
</g>
</svg>
