<?xml version="1.0" encoding="UTF-8"?>
<svg xmlns="http://www.w3.org/2000/svg" xmlns:xlink="http://www.w3.org/1999/xlink" width="64px" height="64px" viewBox="0 0 64 64" version="1.1">
<defs>
<linearGradient id="linear0" gradientUnits="userSpaceOnUse" x1="0" y1="0" x2="0" y2="1" gradientTransform="matrix(64,0,0,60.890625,0,1.554688)">
<stop offset="0" style="stop-color:rgb(3.921569%,74.117649%,77.64706%);stop-opacity:1;"/>
<stop offset="1" style="stop-color:rgb(72.156864%,0%,100%);stop-opacity:1;"/>
</linearGradient>
</defs>
<g id="surface1">
<path style=" stroke:none;fill-rule:nonzero;fill:url(#linear0);" d="M 13.175781 1.554688 C 13.175781 1.554688 10.011719 1.554688 6.484375 3.226562 L 6.484375 3.21875 C 3.785156 4.503906 1.511719 6.371094 0.421875 7.902344 C 0.0976562 8.324219 0.0273438 8.890625 0.238281 9.371094 C -0.144531 9.953125 -0.0585938 10.71875 0.4375 11.203125 C 0.929688 11.6875 1.695312 11.757812 2.269531 11.363281 C 2.839844 10.972656 3.050781 10.226562 2.777344 9.59375 C 3.300781 8.863281 5.53125 6.890625 7.730469 5.847656 C 10.664062 4.457031 13.175781 4.457031 13.175781 4.457031 C 13.695312 4.464844 14.183594 4.191406 14.449219 3.734375 C 14.710938 3.285156 14.710938 2.726562 14.449219 2.277344 C 14.183594 1.824219 13.695312 1.546875 13.175781 1.554688 Z M 42.035156 2.945312 C 38.066406 2.921875 34.105469 3.15625 30.171875 3.652344 C 24.210938 4.421875 18.832031 5.605469 13.71875 7.277344 C 5.03125 10.105469 2.152344 13.429688 1.070312 14.671875 L 0.972656 14.792969 C -1.171875 17.246094 1.550781 26 1.574219 26.085938 C 2.222656 28.066406 3.863281 29.066406 5.320312 29.066406 C 5.613281 29.066406 5.894531 29.027344 6.164062 28.949219 C 6.707031 28.785156 8.847656 27.933594 12.050781 26.664062 C 13.628906 26.03125 15.023438 25.476562 15.476562 25.3125 C 16.710938 24.859375 17.648438 23.554688 17.972656 21.832031 C 18.128906 21.027344 19.007812 17.347656 19.574219 15.007812 C 21.054688 14.410156 25.160156 12.953125 31.304688 12.15625 C 37.445312 11.363281 41.796875 11.675781 43.378906 11.835938 C 45 14.5625 47.339844 18.503906 47.449219 18.667969 C 48.230469 19.863281 49.265625 20.566406 50.355469 20.652344 C 50.851562 20.691406 52.457031 20.894531 54.226562 21.117188 C 57.496094 21.527344 59.675781 21.792969 60.296875 21.8125 C 61.886719 21.839844 63.835938 20.351562 63.980469 17.875 C 63.984375 17.785156 64.363281 8.816406 61.65625 6.980469 C 61.65625 6.980469 61.386719 6.800781 61.234375 6.703125 C 59.550781 5.605469 55.257812 3.234375 45.160156 2.988281 C 44.117188 2.960938 43.074219 2.945312 42.035156 2.945312 Z M 23.367188 18.90625 C 22.566406 18.90625 21.914062 19.558594 21.914062 20.359375 L 21.914062 24.085938 C 20.449219 25.492188 15.664062 30.15625 9.933594 36.828125 C 5.125 42.425781 4.488281 46.332031 4.5 49.425781 C 4.511719 52.140625 5.910156 60.851562 5.976562 61.21875 C 6.085938 61.925781 6.6875 62.449219 7.402344 62.445312 L 14.660156 62.445312 C 15.460938 62.445312 16.113281 61.792969 16.113281 60.992188 L 16.113281 59.542969 L 50.941406 59.542969 L 50.941406 60.992188 C 50.941406 61.792969 51.59375 62.445312 52.390625 62.445312 L 59.648438 62.445312 C 60.363281 62.445312 60.96875 61.929688 61.074219 61.21875 C 61.140625 60.851562 62.542969 52.121094 62.550781 49.382812 C 62.554688 46.3125 61.921875 42.410156 57.121094 36.828125 C 51.386719 30.15625 46.605469 25.488281 45.136719 24.085938 L 45.136719 20.359375 C 45.136719 19.558594 44.484375 18.90625 43.683594 18.90625 L 39.332031 18.90625 C 38.53125 18.90625 37.878906 19.558594 37.878906 20.359375 L 37.878906 23.261719 L 29.171875 23.261719 L 29.171875 20.359375 C 29.171875 19.558594 28.519531 18.90625 27.71875 18.90625 Z M 50.9375 23.324219 C 50.316406 23.320312 49.765625 23.703125 49.554688 24.289062 C 49.347656 24.871094 49.535156 25.519531 50.011719 25.90625 C 51.28125 26.957031 53.085938 27.484375 55.203125 27.617188 C 57.757812 27.769531 58.945312 27.472656 60.238281 26.980469 C 60.945312 26.660156 61.277344 25.847656 60.996094 25.128906 C 60.71875 24.402344 59.925781 24.027344 59.1875 24.265625 C 57.988281 24.730469 57.730469 24.859375 55.382812 24.710938 C 53.695312 24.613281 52.351562 24.074219 51.863281 23.667969 C 51.609375 23.449219 51.277344 23.324219 50.9375 23.324219 Z M 21.914062 31.96875 L 27.71875 31.96875 L 27.71875 34.871094 L 21.914062 34.871094 Z M 30.625 31.96875 L 36.429688 31.96875 L 36.429688 34.871094 L 30.625 34.871094 Z M 39.332031 31.96875 L 45.136719 31.96875 L 45.136719 34.871094 L 39.332031 34.871094 Z M 21.914062 37.773438 L 27.71875 37.773438 L 27.71875 40.675781 L 21.914062 40.675781 Z M 30.625 37.773438 L 36.429688 37.773438 L 36.429688 40.675781 L 30.625 40.675781 Z M 39.332031 37.773438 L 45.136719 37.773438 L 45.136719 40.675781 L 39.332031 40.675781 Z M 21.914062 43.578125 L 27.71875 43.578125 L 27.71875 46.480469 L 21.914062 46.480469 Z M 30.625 43.578125 L 36.429688 43.578125 L 36.429688 46.480469 L 30.625 46.480469 Z M 39.332031 43.578125 L 45.136719 43.578125 L 45.136719 46.480469 L 39.332031 46.480469 Z M 39.332031 43.578125 "/>
</g>
</svg>
