<?xml version="1.0" encoding="UTF-8"?>
<svg xmlns="http://www.w3.org/2000/svg" xmlns:xlink="http://www.w3.org/1999/xlink" width="64px" height="64px" viewBox="0 0 64 64" version="1.1">
<defs>
<linearGradient id="linear0" gradientUnits="userSpaceOnUse" x1="1.00002" y1="8.078731" x2="15.092021" y2="8.078731" gradientTransform="matrix(1.135646,0,0,1.129901,-1.13743,-1.128162)">
<stop offset="0" style="stop-color:rgb(3.921569%,74.117649%,77.64706%);stop-opacity:1;"/>
<stop offset="1" style="stop-color:rgb(72.156864%,0%,100%);stop-opacity:1;"/>
</linearGradient>
</defs>
<g id="surface1">
<path style="fill:none;stroke-width:1.38898;stroke-linecap:butt;stroke-linejoin:miter;stroke:url(#linear0);stroke-miterlimit:4;" d="M 0.694336 0.694336 C 2.671875 0.694336 4.561523 1.081055 6.363281 1.855469 C 8.166016 2.629883 9.719727 3.669922 11.024414 4.975586 C 12.330078 6.280273 13.370117 7.833984 14.144531 9.636719 C 14.918945 11.438477 15.305664 13.328125 15.305664 15.305664 L 12.5 15.305664 C 12.5 13.708008 12.188477 12.178711 11.56543 10.717773 C 10.941406 9.256836 10.101562 8 9.044922 6.948242 C 7.987305 5.896484 6.731445 5.057617 5.275391 4.43457 C 3.818359 3.811523 2.291992 3.5 0.694336 3.5 Z M 0.694336 5.662109 C 2.438477 5.662109 4.049805 6.092773 5.530273 6.955078 C 7.011719 7.817383 8.182617 8.988281 9.044922 10.46875 C 9.90625 11.949219 10.337891 13.561523 10.337891 15.305664 L 7.532227 15.305664 C 7.532227 13.416016 6.865234 11.803711 5.530273 10.46875 C 4.186523 9.125 2.574219 8.453125 0.694336 8.453125 Z M 2.637695 11.404297 C 3.173828 11.404297 3.630859 11.59375 4.010742 11.973633 C 4.390625 12.354492 4.581055 12.811523 4.581055 13.347656 C 4.581055 13.892578 4.390625 14.352539 4.010742 14.728516 C 3.630859 15.103516 3.173828 15.291016 2.637695 15.291016 C 2.101562 15.291016 1.643555 15.100586 1.263672 14.720703 C 0.883789 14.34082 0.694336 13.882812 0.694336 13.347656 C 0.694336 12.811523 0.883789 12.354492 1.263672 11.973633 C 1.643555 11.59375 2.101562 11.404297 2.637695 11.404297 Z M 2.637695 11.404297 " transform="matrix(4,0,0,4,0,0)"/>
</g>
</svg>
