<?xml version="1.0" encoding="UTF-8"?>
<svg xmlns="http://www.w3.org/2000/svg" xmlns:xlink="http://www.w3.org/1999/xlink" width="64px" height="64px" viewBox="0 0 64 64" version="1.1">
<defs>
<linearGradient id="linear0" gradientUnits="userSpaceOnUse" x1="0" y1="0" x2="0" y2="1" gradientTransform="matrix(49.773438,0,0,64,7.113281,0)">
<stop offset="0" style="stop-color:rgb(3.921569%,74.117649%,77.64706%);stop-opacity:1;"/>
<stop offset="1" style="stop-color:rgb(72.156864%,0%,100%);stop-opacity:1;"/>
</linearGradient>
</defs>
<g id="surface1">
<path style=" stroke:none;fill-rule:nonzero;fill:url(#linear0);" d="M 32 0 C 21.972656 0 14.222656 8.15625 14.222656 18.285156 L 14.222656 26.667969 L 10.277344 26.667969 C 8.523438 26.667969 7.113281 28.347656 7.113281 30.117188 L 7.113281 60.800781 C 7.113281 62.566406 8.523438 64 10.277344 64 L 53.722656 64 C 55.476562 64 56.886719 62.566406 56.886719 60.800781 L 56.886719 30.117188 C 56.886719 28.347656 55.472656 26.550781 53.722656 26.667969 L 49.777344 26.667969 L 49.777344 18.289062 C 49.777344 8.15625 42.027344 0 32 0 Z M 32 7.113281 C 38.269531 7.113281 42.667969 11.953125 42.667969 18.285156 L 42.667969 26.667969 L 21.332031 26.667969 L 21.332031 18.285156 C 21.332031 11.953125 25.730469 7.113281 32 7.113281 Z M 32 32 C 36.90625 32 40.886719 35.980469 40.886719 40.886719 C 40.882812 44.421875 38.792969 47.613281 35.554688 49.023438 L 35.554688 55.113281 C 35.554688 57.078125 33.96875 58.667969 32 58.667969 C 30.03125 58.667969 28.445312 57.078125 28.445312 55.113281 L 28.445312 49.03125 C 25.207031 47.621094 23.113281 44.421875 23.113281 40.886719 C 23.113281 35.980469 27.09375 32 32 32 Z M 32 32 "/>
</g>
</svg>
