<?xml version="1.0" encoding="UTF-8"?>
<svg xmlns="http://www.w3.org/2000/svg" xmlns:xlink="http://www.w3.org/1999/xlink" width="64px" height="64px" viewBox="0 0 64 64" version="1.1">
<defs>
<linearGradient id="linear0" gradientUnits="userSpaceOnUse" x1="0" y1="0" x2="0" y2="1" gradientTransform="matrix(64,0,0,38.914062,0,12.542969)">
<stop offset="0" style="stop-color:rgb(3.921569%,74.117649%,77.64706%);stop-opacity:1;"/>
<stop offset="1" style="stop-color:rgb(72.156864%,0%,100%);stop-opacity:1;"/>
</linearGradient>
</defs>
<g id="surface1">
<path style=" stroke:none;fill-rule:evenodd;fill:url(#linear0);" d="M 0 12.542969 L 14.867188 12.542969 L 14.867188 27.410156 L 0 27.410156 Z M 16.375 20.558594 L 31.242188 20.558594 L 31.242188 35.429688 L 16.375 35.429688 Z M 32.757812 28.570312 L 47.625 28.570312 L 47.625 43.441406 L 32.757812 43.441406 Z M 49.132812 36.589844 L 64 36.589844 L 64 51.457031 L 49.132812 51.457031 Z M 49.132812 36.589844 "/>
</g>
</svg>
