<?xml version="1.0" encoding="UTF-8"?>
<svg xmlns="http://www.w3.org/2000/svg" xmlns:xlink="http://www.w3.org/1999/xlink" width="64px" height="64px" viewBox="0 0 64 64" version="1.1">
<defs>
<linearGradient id="linear0" gradientUnits="userSpaceOnUse" x1="0" y1="0" x2="0" y2="1" gradientTransform="matrix(64,0,0,64,0,0)">
<stop offset="0" style="stop-color:rgb(3.921569%,74.117649%,77.64706%);stop-opacity:1;"/>
<stop offset="1" style="stop-color:rgb(72.156864%,0%,100%);stop-opacity:1;"/>
</linearGradient>
</defs>
<g id="surface1">
<path style=" stroke:none;fill-rule:nonzero;fill:url(#linear0);" d="M 32 0 C 14.355469 0 0 14.355469 0 32 C 0 49.644531 14.355469 64 32 64 C 49.644531 64 64 49.644531 64 32 C 64 14.355469 49.644531 0 32 0 Z M 29.167969 5.476562 C 28.21875 20.621094 20.3125 34.3125 7.699219 42.734375 C 6.21875 39.394531 4.949219 35.898438 4.949219 32 C 4.949219 18.027344 15.597656 6.945312 29.167969 5.476562 Z M 34.832031 5.476562 C 48.402344 6.945312 59.050781 18.027344 59.050781 32 C 59.050781 35.898438 57.78125 39.394531 56.300781 42.734375 C 43.6875 34.3125 35.78125 20.621094 34.832031 5.476562 Z M 32 17.933594 C 34.390625 25.828125 38.539062 33.015625 44.183594 39.03125 C 36.152344 37.152344 27.847656 37.152344 19.816406 39.03125 C 25.460938 33.015625 29.609375 25.828125 32 17.933594 Z M 32 42.382812 C 39.363281 42.382812 46.640625 44.320312 53.417969 47.660156 C 48.5 54.359375 40.964844 59.050781 32 59.050781 C 23.035156 59.050781 15.5 54.359375 10.582031 47.660156 C 17.359375 44.320312 24.636719 42.382812 32 42.382812 Z M 32 42.382812 "/>
</g>
</svg>
