<?xml version="1.0" encoding="UTF-8"?>
<svg xmlns="http://www.w3.org/2000/svg" xmlns:xlink="http://www.w3.org/1999/xlink" width="64px" height="64px" viewBox="0 0 64 64" version="1.1">
<defs>
<linearGradient id="linear0" gradientUnits="userSpaceOnUse" x1="0" y1="0" x2="0" y2="1" gradientTransform="matrix(64,0,0,64,0,0)">
<stop offset="0" style="stop-color:rgb(3.921569%,74.117649%,77.64706%);stop-opacity:1;"/>
<stop offset="1" style="stop-color:rgb(72.156864%,0%,100%);stop-opacity:1;"/>
</linearGradient>
</defs>
<g id="surface1">
<path style=" stroke:none;fill-rule:evenodd;fill:url(#linear0);" d="M 32 0 C 14.273438 0 0 14.273438 0 32 C 0 49.726562 14.273438 64 32 64 C 49.726562 64 64 49.726562 64 32 L 54.398438 32 C 54.398438 44.371094 44.371094 54.398438 32 54.398438 C 19.628906 54.398438 9.601562 44.371094 9.601562 32 C 9.601562 19.628906 19.628906 9.601562 32 9.601562 Z M 32 0 "/>
</g>
</svg>
