<?xml version="1.0" encoding="UTF-8"?>
<svg xmlns="http://www.w3.org/2000/svg" xmlns:xlink="http://www.w3.org/1999/xlink" width="64px" height="64px" viewBox="0 0 64 64" version="1.1">
<defs>
<linearGradient id="linear0" gradientUnits="userSpaceOnUse" x1="0" y1="0" x2="0" y2="1" gradientTransform="matrix(64,0,0,52,0,8)">
<stop offset="0" style="stop-color:rgb(3.921569%,74.117649%,77.64706%);stop-opacity:1;"/>
<stop offset="1" style="stop-color:rgb(72.156864%,0%,100%);stop-opacity:1;"/>
</linearGradient>
</defs>
<g id="surface1">
<path style=" stroke:none;fill-rule:nonzero;fill:url(#linear0);" d="M 50 8 C 43.132812 8.003906 37.285156 12.988281 36.1875 19.765625 L 26.273438 36.226562 C 25.523438 36.078125 24.761719 36.003906 24 36 C 22.1875 36.003906 20.402344 36.417969 18.773438 37.210938 L 1.070312 26.992188 C 0.375 29.945312 0.015625 32.964844 0 36 C 0.015625 37.46875 0.113281 38.9375 0.289062 40.398438 L 12.03125 47.171875 C 12.011719 47.449219 12 47.722656 12 48 C 12 54.628906 17.371094 60 24 60 C 30.628906 60 36 54.628906 36 48 C 35.996094 47.621094 35.976562 47.242188 35.9375 46.867188 L 53.445312 35.546875 C 59.644531 33.972656 63.988281 28.398438 64 22 C 64 14.269531 57.730469 8 50 8 Z M 50 12 C 55.523438 12 60 16.476562 60 22 C 60 27.523438 55.523438 32 50 32 C 44.476562 32 40 27.523438 40 22 C 40 16.476562 44.476562 12 50 12 Z M 50 16 C 46.6875 16 44 18.6875 44 22 C 44 25.3125 46.6875 28 50 28 C 53.3125 28 56 25.3125 56 22 C 56 18.6875 53.3125 16 50 16 Z M 24 40 C 28.417969 40 32 43.582031 32 48 C 32 52.417969 28.417969 56 24 56 C 20.183594 55.996094 16.90625 53.296875 16.164062 49.554688 L 18.984375 51.1875 C 21.863281 52.847656 25.519531 51.871094 27.179688 48.992188 C 28.839844 46.113281 27.863281 42.457031 24.984375 40.796875 L 23.632812 40.015625 C 23.753906 40.007812 23.878906 40.003906 24 40 Z M 24 40 "/>
</g>
</svg>
