<?xml version="1.0" encoding="UTF-8"?>
<svg xmlns="http://www.w3.org/2000/svg" xmlns:xlink="http://www.w3.org/1999/xlink" width="64px" height="64px" viewBox="0 0 64 64" version="1.1">
<defs>
<linearGradient id="linear0" gradientUnits="userSpaceOnUse" x1="0" y1="0" x2="0" y2="1" gradientTransform="matrix(64,0,0,64,0,0)">
<stop offset="0" style="stop-color:rgb(3.921569%,74.117649%,77.64706%);stop-opacity:1;"/>
<stop offset="1" style="stop-color:rgb(72.156864%,0%,100%);stop-opacity:1;"/>
</linearGradient>
</defs>
<g id="surface1">
<path style=" stroke:none;fill-rule:nonzero;fill:url(#linear0);" d="M 56.824219 33.132812 C 58.910156 34.316406 60.628906 35.800781 61.976562 37.589844 C 63.324219 39.378906 64 41.6875 64 44.523438 C 64 47.328125 63.195312 49.902344 61.585938 52.238281 C 59.976562 54.578125 57.714844 56.613281 54.800781 58.347656 C 51.539062 60.273438 47.691406 61.703125 43.253906 62.636719 C 38.863281 63.546875 34.035156 64 28.773438 64 C 23.378906 64 18.074219 63.585938 12.851562 62.761719 C 7.632812 61.964844 3.347656 61.082031 0 60.121094 L 0 51.496094 L 0.980469 51.496094 C 4.675781 53.039062 9.027344 54.316406 14.027344 55.335938 C 19.03125 56.351562 23.859375 56.859375 28.511719 56.859375 C 31.25 56.859375 34.164062 56.570312 37.253906 55.992188 C 40.339844 55.417969 42.84375 54.5625 44.753906 53.4375 C 46.753906 52.226562 48.234375 50.890625 49.191406 49.433594 C 50.191406 47.976562 50.691406 46.132812 50.691406 43.902344 C 50.691406 41.703125 50.125 39.886719 48.996094 38.457031 C 47.910156 37 46.386719 35.859375 44.429688 35.03125 C 42.472656 34.179688 40.101562 33.601562 37.316406 33.300781 C 34.535156 32.96875 31.535156 32.804688 28.316406 32.804688 L 22.445312 32.804688 L 22.445312 25.953125 L 27.011719 25.953125 C 33.621094 25.953125 38.882812 25.089844 42.796875 23.355469 C 46.757812 21.59375 48.734375 19.035156 48.734375 15.679688 C 48.734375 14.195312 48.234375 12.902344 47.234375 11.800781 C 46.234375 10.671875 44.839844 9.75 43.058594 9.035156 C 41.1875 8.320312 39.1875 7.824219 37.058594 7.550781 C 34.925781 7.273438 32.511719 7.136719 29.816406 7.136719 C 25.683594 7.136719 21.289062 7.605469 16.636719 8.539062 C 11.984375 9.476562 7.589844 10.796875 3.460938 12.503906 L 2.804688 12.503906 L 2.804688 3.878906 C 5.894531 2.914062 10.003906 2.035156 15.136719 1.238281 C 20.3125 0.414062 25.3125 0 30.140625 0 C 34.882812 0 39.058594 0.273438 42.667969 0.824219 C 46.277344 1.375 49.539062 2.253906 52.453125 3.464844 C 55.585938 4.785156 57.957031 6.382812 59.5625 8.253906 C 61.171875 10.121094 61.976562 12.308594 61.976562 14.8125 C 61.976562 18.222656 60.0625 21.207031 56.234375 23.765625 C 52.453125 26.296875 47.972656 27.894531 42.796875 28.554688 L 42.796875 29.132812 C 44.886719 29.351562 47.277344 29.820312 49.972656 30.535156 C 52.671875 31.222656 54.953125 32.089844 56.824219 33.132812 Z M 56.824219 33.132812 "/>
</g>
</svg>
