<?xml version="1.0" encoding="UTF-8"?>
<svg xmlns="http://www.w3.org/2000/svg" xmlns:xlink="http://www.w3.org/1999/xlink" width="64px" height="64px" viewBox="0 0 64 64" version="1.1">
<defs>
<linearGradient id="linear0" gradientUnits="userSpaceOnUse" x1="0" y1="0" x2="0" y2="1" gradientTransform="matrix(45.554688,0,0,64,9.222656,0)">
<stop offset="0" style="stop-color:rgb(3.921569%,74.117649%,77.64706%);stop-opacity:1;"/>
<stop offset="1" style="stop-color:rgb(72.156864%,0%,100%);stop-opacity:1;"/>
</linearGradient>
</defs>
<g id="surface1">
<path style=" stroke:none;fill-rule:nonzero;fill:url(#linear0);" d="M 23.683594 0 L 22.6875 0.0273438 C 22.6875 0.0273438 24.695312 2.65625 26.117188 3.773438 L 25.90625 4.652344 C 25.796875 5.632812 25.664062 6.679688 25.625 6.984375 L 25.554688 7.535156 L 25.011719 7.152344 L 24.023438 6.769531 L 24.410156 7.40625 L 24.804688 8.046875 L 22.816406 8.046875 L 22.816406 6.792969 L 21.867188 7.164062 L 20.910156 7.535156 L 21.238281 8.070312 L 21.5625 8.605469 L 20.285156 9.835938 L 19.007812 10.753906 L 19.480469 11.28125 L 19.953125 11.8125 L 19.117188 11.320312 L 18.277344 10.832031 L 19.371094 9.601562 L 20.46875 8.371094 L 19.886719 8.316406 C 19.570312 8.285156 18.726562 8.191406 18.007812 8.109375 L 16.699219 7.957031 L 16.613281 9.128906 L 16.53125 10.300781 L 14.980469 11.765625 L 13.4375 13.21875 L 11.996094 19.042969 C 11.207031 22.242188 10.277344 25.78125 10.117188 26.511719 L 9.824219 27.839844 C 11.265625 28.445312 12.542969 28.726562 13.910156 28.808594 C 14.273438 28.578125 14.765625 27.601562 15.007812 26.625 C 15.246094 25.648438 15.777344 24.542969 16.003906 24.542969 L 16.414062 24.542969 L 16.472656 26.644531 C 16.503906 27.800781 17.003906 30.433594 17.589844 32.496094 C 18.167969 34.558594 18.46875 36.960938 18.640625 37.792969 L 18.960938 39.34375 L 18.3125 39.746094 L 17.664062 40.15625 L 18.699219 40.753906 L 19.0625 41.347656 L 18.148438 40.988281 L 17.238281 40.632812 L 15.796875 43.65625 L 14.355469 46.675781 L 11.230469 48.707031 L 9.222656 50.746094 L 9.726562 53.003906 L 10.222656 55.269531 L 10.121094 58.871094 L 10.019531 62.480469 L 10.480469 63.238281 L 10.945312 64 L 14.378906 64 L 15.808594 63.253906 L 16.695312 62.074219 L 15.503906 60.9375 C 15.253906 60.3125 14.90625 57.972656 14.734375 55.742188 L 14.425781 51.695312 L 16.167969 48.675781 L 17.910156 45.652344 L 20.574219 43.023438 L 23.238281 40.386719 L 23.640625 36.972656 L 24.035156 33.554688 L 23.269531 33.996094 L 22.5 34.433594 L 23.226562 33.632812 L 23.957031 32.832031 L 25.460938 33.621094 C 26.285156 34.050781 27.890625 35.113281 29.027344 35.972656 L 31.101562 37.542969 L 31.101562 40.796875 L 32.675781 44.296875 C 33.542969 46.21875 34.441406 47.003906 34.671875 47.992188 C 34.902344 48.980469 35.359375 50.128906 35.679688 50.539062 L 36.261719 51.292969 L 38.050781 50.773438 C 39.035156 50.484375 40.472656 49.910156 41.238281 49.496094 C 42.007812 49.074219 45.246094 49.550781 48.441406 48.597656 L 54.246094 46.859375 L 54.511719 46.046875 L 54.777344 44.921875 L 52.570312 44.921875 C 51.359375 44.921875 49.476562 45.105469 48.386719 45.324219 L 46.410156 45.726562 L 46.753906 46.289062 L 47.09375 46.847656 L 46.101562 46.460938 L 45.113281 46.074219 L 42.550781 47.117188 C 41.144531 47.6875 39.433594 47.984375 38.800781 48.15625 L 37.609375 48.15625 L 36.589844 45.886719 L 35.566406 43.300781 L 35.164062 39.777344 L 34.753906 36.242188 L 32.234375 32.820312 C 30.851562 30.9375 28.8125 28.578125 27.703125 27.585938 L 25.65625 25.601562 C 26.402344 25.609375 26.480469 25.6875 27.226562 25.578125 L 26.769531 25.351562 L 26.609375 24.542969 L 27.402344 24.703125 L 28.199219 24.863281 L 28.03125 23.808594 L 27.859375 23.707031 L 28.828125 23.332031 C 29.171875 23.195312 29.460938 22.671875 29.632812 22.398438 L 27.878906 22.398438 L 27.878906 20.777344 C 27.878906 20.242188 28.0625 19.804688 28.289062 19.804688 C 29.253906 20.460938 30.097656 20.59375 31.023438 20.984375 C 31.925781 20.308594 33.929688 19.960938 34.964844 19.550781 L 35.382812 16.578125 C 35.617188 14.945312 35.300781 13.328125 35.511719 12.984375 L 35.894531 12.355469 L 34.945312 11.390625 C 34.421875 10.859375 32.671875 10.300781 32.226562 10.148438 L 31.421875 9.871094 L 32.238281 8.867188 L 32.410156 7.984375 L 32.488281 5.988281 C 32.320312 5.03125 32.078125 4.511719 31.640625 3.976562 C 30.488281 3.304688 30.09375 3.160156 28.839844 3.28125 L 26.867188 3.253906 Z M 29.175781 11.605469 L 29.777344 11.605469 C 30.105469 11.605469 31.335938 11.910156 31.335938 12.289062 L 31.335938 12.976562 L 31.925781 12.605469 L 32.519531 12.230469 L 32.980469 12.988281 L 33.445312 13.742188 L 32.707031 13.285156 L 32.488281 13.300781 L 32.402344 14.652344 L 32.402344 16.039062 L 31.335938 16.078125 L 31.335938 16.085938 L 29.144531 16.03125 C 29.105469 15.765625 29.28125 14.449219 29.167969 13.46875 Z M 29.175781 11.605469 "/>
</g>
</svg>
