<?xml version="1.0" encoding="UTF-8"?>
<svg xmlns="http://www.w3.org/2000/svg" xmlns:xlink="http://www.w3.org/1999/xlink" width="64px" height="64px" viewBox="0 0 64 64" version="1.1">
<defs>
<linearGradient id="linear0" gradientUnits="userSpaceOnUse" x1="0" y1="0" x2="0" y2="1" gradientTransform="matrix(64,0,0,34.546875,0,29.453125)">
<stop offset="0" style="stop-color:rgb(3.921569%,74.117649%,77.64706%);stop-opacity:1;"/>
<stop offset="1" style="stop-color:rgb(72.156864%,0%,100%);stop-opacity:1;"/>
</linearGradient>
</defs>
<g id="surface1">
<path style=" stroke:none;fill-rule:evenodd;fill:url(#linear0);" d="M 31.769531 29.464844 C 31.664062 29.480469 31.554688 29.511719 31.460938 29.539062 C 30.316406 29.796875 29.511719 30.828125 29.539062 32 L 29.539062 39.382812 C 29.527344 40.273438 29.992188 41.097656 30.761719 41.546875 C 31.527344 41.992188 32.472656 41.992188 33.238281 41.546875 C 34.007812 41.097656 34.472656 40.269531 34.460938 39.382812 L 34.460938 32 C 34.488281 31.292969 34.203125 30.609375 33.6875 30.121094 C 33.175781 29.636719 32.476562 29.394531 31.769531 29.464844 Z M 46.617188 33.382812 C 46.511719 33.402344 46.402344 33.433594 46.308594 33.460938 C 45.589844 33.597656 44.96875 34.046875 44.617188 34.691406 L 40.925781 41.078125 C 40.597656 41.648438 40.507812 42.328125 40.679688 42.964844 C 40.855469 43.597656 41.277344 44.136719 41.847656 44.464844 C 42.414062 44.792969 43.097656 44.875 43.730469 44.703125 C 44.363281 44.53125 44.902344 44.113281 45.230469 43.539062 L 48.925781 37.15625 C 49.421875 36.359375 49.429688 35.351562 48.9375 34.550781 C 48.449219 33.757812 47.546875 33.304688 46.617188 33.382812 Z M 16.847656 33.460938 C 16.03125 33.574219 15.332031 34.09375 14.976562 34.832031 C 14.621094 35.574219 14.660156 36.445312 15.074219 37.152344 L 18.769531 43.539062 C 19.449219 44.726562 20.964844 45.144531 22.152344 44.464844 C 23.34375 43.785156 23.757812 42.269531 23.074219 41.078125 L 19.382812 34.691406 C 18.878906 33.789062 17.867188 33.296875 16.847656 33.464844 Z M 57.464844 44.230469 C 57.382812 44.253906 57.308594 44.277344 57.230469 44.308594 C 56.933594 44.355469 56.644531 44.460938 56.382812 44.617188 L 50 48.308594 C 48.808594 48.988281 48.390625 50.5 49.078125 51.691406 C 49.761719 52.882812 51.269531 53.296875 52.464844 52.617188 L 58.84375 48.925781 C 60 48.4375 60.605469 47.160156 60.246094 45.960938 C 59.890625 44.757812 58.691406 44.011719 57.460938 44.230469 Z M 6 44.308594 C 4.933594 44.445312 4.078125 45.253906 3.882812 46.308594 C 3.691406 47.363281 4.207031 48.421875 5.15625 48.925781 L 11.539062 52.617188 C 12.730469 53.296875 14.238281 52.886719 14.925781 51.691406 C 15.253906 51.121094 15.339844 50.445312 15.164062 49.808594 C 14.992188 49.171875 14.570312 48.632812 14 48.308594 L 7.617188 44.617188 C 7.128906 44.328125 6.558594 44.21875 6 44.308594 Z M 32 44.308594 C 23.363281 44.308594 16.199219 50.761719 15 59.074219 L 0 59.074219 L 0 64 L 64 64 L 64 59.074219 L 49 59.074219 C 47.800781 50.761719 40.636719 44.308594 32 44.308594 Z M 32 44.308594 "/>
</g>
</svg>
