<?xml version="1.0" encoding="UTF-8"?>
<svg xmlns="http://www.w3.org/2000/svg" xmlns:xlink="http://www.w3.org/1999/xlink" width="64px" height="64px" viewBox="0 0 64 64" version="1.1">
<defs>
<linearGradient id="linear0" gradientUnits="userSpaceOnUse" x1="0" y1="0" x2="0" y2="1" gradientTransform="matrix(64,0,0,28.882812,0,17.558594)">
<stop offset="0" style="stop-color:rgb(3.921569%,74.117649%,77.64706%);stop-opacity:1;"/>
<stop offset="1" style="stop-color:rgb(72.156864%,0%,100%);stop-opacity:1;"/>
</linearGradient>
</defs>
<g id="surface1">
<path style=" stroke:none;fill-rule:evenodd;fill:url(#linear0);" d="M 12.660156 25 L 9.378906 25 L 9.378906 36.183594 L 12.660156 36.183594 C 13.789062 36.183594 14.6875 35.914062 15.347656 35.371094 C 16.007812 34.832031 16.339844 34.066406 16.339844 33.078125 L 16.339844 28.105469 C 16.339844 27.117188 16.007812 26.351562 15.347656 25.8125 C 14.6875 25.269531 13.789062 25 12.660156 25 Z M 0.976562 17.96875 L 12.480469 17.96875 C 15.125 17.96875 17.421875 18.316406 19.371094 19.011719 C 21.320312 19.710938 22.894531 20.890625 24.097656 22.546875 C 25.296875 24.207031 25.898438 26.273438 25.898438 28.753906 L 25.898438 32.433594 C 25.898438 36.28125 24.601562 39.082031 22.003906 40.835938 C 19.621094 42.421875 16.449219 43.214844 12.480469 43.214844 L 0.976562 43.214844 C 0.710938 43.214844 0.480469 43.121094 0.289062 42.929688 C 0.0976562 42.734375 0 42.507812 0 42.242188 L 0 18.941406 C 0 18.675781 0.0976562 18.449219 0.289062 18.257812 C 0.480469 18.0625 0.710938 17.96875 0.976562 17.96875 Z M 52.855469 34.558594 L 52.855469 24.742188 L 49.28125 24.742188 L 49.28125 31.894531 C 49.28125 33.226562 49.175781 34.113281 48.964844 34.558594 Z M 41.8125 17.558594 L 60.320312 17.558594 C 60.574219 17.558594 60.796875 17.652344 60.984375 17.839844 C 61.171875 18.027344 61.265625 18.246094 61.265625 18.503906 L 61.265625 34.558594 L 63.050781 34.558594 C 63.3125 34.558594 63.535156 34.652344 63.71875 34.839844 C 63.90625 35.027344 64 35.246094 64 35.503906 L 64 45.496094 C 64 45.753906 63.90625 45.972656 63.71875 46.160156 C 63.535156 46.347656 63.3125 46.441406 63.050781 46.441406 L 57.375 46.441406 C 57.121094 46.441406 56.898438 46.347656 56.707031 46.160156 C 56.519531 45.972656 56.429688 45.753906 56.429688 45.496094 L 56.429688 42.097656 L 44.476562 42.097656 L 44.476562 45.496094 C 44.476562 45.753906 44.382812 45.972656 44.195312 46.160156 C 44.007812 46.347656 43.789062 46.441406 43.53125 46.441406 L 37.886719 46.441406 C 37.632812 46.441406 37.410156 46.351562 37.222656 46.175781 C 37.035156 46.003906 36.941406 45.777344 36.941406 45.496094 L 36.941406 35.503906 C 36.941406 35.246094 37.035156 35.027344 37.222656 34.839844 C 37.410156 34.652344 37.632812 34.558594 37.886719 34.558594 L 38.449219 34.558594 C 39.011719 34.558594 39.554688 34.316406 40.078125 33.824219 C 40.605469 33.332031 40.867188 32.679688 40.867188 31.859375 L 40.867188 18.503906 C 40.867188 18.246094 40.960938 18.027344 41.148438 17.839844 C 41.335938 17.652344 41.554688 17.558594 41.8125 17.558594 Z M 41.8125 17.558594 "/>
</g>
</svg>
