<?xml version="1.0" encoding="UTF-8"?>
<svg xmlns="http://www.w3.org/2000/svg" xmlns:xlink="http://www.w3.org/1999/xlink" width="64px" height="64px" viewBox="0 0 64 64" version="1.1">
<defs>
<linearGradient id="linear0" gradientUnits="userSpaceOnUse" x1="0" y1="0" x2="0" y2="1" gradientTransform="matrix(64,0,0,64,0,0)">
<stop offset="0" style="stop-color:rgb(3.921569%,74.117649%,77.64706%);stop-opacity:1;"/>
<stop offset="1" style="stop-color:rgb(72.156864%,0%,100%);stop-opacity:1;"/>
</linearGradient>
</defs>
<g id="surface1">
<path style=" stroke:none;fill-rule:nonzero;fill:url(#linear0);" d="M 32 0.00390625 C 14.328125 0.00390625 0 14.335938 0 32.011719 C 0.015625 45.335938 8.28125 57.253906 20.753906 61.9375 C 20.734375 61.480469 20.730469 60.894531 20.703125 60.554688 C 20.609375 59.496094 20.863281 54.757812 21.097656 53.316406 C 21.175781 52.816406 21.464844 51.835938 21.738281 51.136719 C 22.285156 49.753906 22.898438 47.671875 23.121094 46.449219 C 23.195312 46.019531 23.390625 45.203125 23.554688 44.632812 C 23.808594 43.757812 23.839844 43.375 23.757812 42.210938 C 23.675781 41.148438 23.707031 40.675781 23.878906 40.144531 C 24.171875 39.234375 24.160156 38.925781 23.816406 38.109375 C 23.640625 37.6875 23.53125 37.078125 23.527344 36.5 L 23.519531 35.5625 L 23.242188 35.925781 C 23.097656 36.117188 22.867188 36.679688 22.742188 37.167969 C 22.195312 39.3125 21.355469 40.558594 18.921875 42.863281 C 18.035156 43.699219 17.261719 44.527344 17.191406 44.710938 C 16.242188 47.242188 16.152344 47.605469 16.226562 48.578125 C 16.269531 49.117188 16.34375 49.699219 16.398438 49.878906 C 16.53125 50.324219 16.09375 50.507812 15.734375 50.160156 C 15.589844 50.019531 15.371094 49.957031 15.234375 50.007812 C 15.042969 50.089844 15.011719 50.261719 15.066406 50.878906 C 15.152344 51.8125 15.195312 51.875 15.804688 51.855469 C 16.199219 51.855469 16.300781 51.910156 16.433594 52.292969 C 16.519531 52.542969 16.535156 52.742188 16.460938 52.742188 C 16.386719 52.742188 16.328125 52.945312 16.328125 53.207031 C 16.328125 53.65625 16.304688 53.675781 15.691406 53.675781 C 15.140625 53.675781 15.042969 53.71875 15.003906 54.019531 C 14.976562 54.238281 14.84375 54.390625 14.640625 54.421875 C 14.214844 54.488281 13.046875 53.230469 12.597656 52.21875 C 12.144531 51.207031 12.226562 49.640625 12.835938 47.6875 C 13.074219 46.921875 13.351562 45.867188 13.449219 45.355469 C 13.675781 44.144531 13.949219 43.597656 14.375 43.480469 C 14.640625 43.410156 14.882812 43.019531 15.433594 41.808594 C 15.824219 40.9375 16.300781 39.773438 16.480469 39.214844 C 16.875 38.011719 17.308594 37.296875 18.460938 35.921875 C 18.9375 35.355469 19.398438 34.628906 19.5 34.300781 C 19.601562 33.964844 19.980469 33 20.339844 32.144531 L 21 30.59375 L 21.09375 27.792969 C 21.144531 26.257812 21.257812 24.742188 21.347656 24.445312 C 21.4375 24.140625 21.867188 23.429688 22.304688 22.855469 C 22.773438 22.238281 23.097656 21.664062 23.097656 21.449219 C 23.097656 21.007812 23.769531 19.960938 24.285156 19.597656 C 24.484375 19.453125 24.835938 19.292969 25.0625 19.234375 C 25.871094 19.039062 25.980469 18.980469 26.128906 18.679688 C 26.253906 18.4375 26.1875 18.179688 25.828125 17.414062 C 25.574219 16.886719 25.289062 16.316406 25.179688 16.148438 C 25.003906 15.878906 25.011719 15.816406 25.265625 15.628906 C 25.421875 15.507812 25.953125 15.316406 26.449219 15.214844 C 27.289062 15.023438 27.347656 14.992188 27.386719 14.5625 C 27.429688 14.152344 27.34375 14.050781 26.523438 13.535156 C 24.636719 12.34375 23.957031 11.5625 23.96875 10.621094 C 23.976562 9.558594 24.542969 8.957031 26.167969 8.277344 C 26.996094 7.933594 27.210938 7.773438 27.253906 7.480469 C 27.277344 7.289062 27.355469 7.050781 27.429688 6.972656 C 27.5 6.882812 27.5625 6.53125 27.5625 6.179688 C 27.5625 5.117188 27.867188 3.71875 28.191406 3.332031 C 28.792969 2.613281 29.265625 2.460938 30.804688 2.46875 C 32.011719 2.46875 32.34375 2.527344 32.863281 2.816406 C 33.566406 3.210938 33.707031 3.492188 34.1875 5.480469 C 34.363281 6.207031 34.625 6.914062 34.769531 7.054688 C 34.914062 7.191406 35.070312 7.476562 35.121094 7.683594 C 35.183594 7.96875 35.425781 8.152344 36.070312 8.429688 C 37.753906 9.148438 38.652344 10.421875 38.339844 11.632812 C 38.070312 12.683594 36.695312 13.878906 35.757812 13.878906 C 35.605469 13.878906 35.480469 13.988281 35.480469 14.113281 C 35.480469 14.234375 35.570312 14.34375 35.675781 14.34375 C 35.816406 14.34375 35.894531 14.671875 35.960938 15.492188 C 36.011719 16.125 36.128906 16.828125 36.21875 17.046875 C 36.382812 17.4375 36.441406 17.449219 37.628906 17.449219 C 38.683594 17.449219 39.03125 17.515625 40.015625 17.945312 C 40.648438 18.21875 41.21875 18.53125 41.285156 18.644531 C 41.347656 18.765625 41.703125 19.019531 42.074219 19.226562 C 43.019531 19.746094 44.367188 21.300781 45.398438 23.042969 C 45.878906 23.855469 46.40625 24.6875 46.566406 24.886719 C 46.726562 25.085938 46.855469 25.355469 46.855469 25.484375 C 46.855469 25.617188 47.003906 25.941406 47.183594 26.207031 C 47.359375 26.484375 47.515625 26.960938 47.527344 27.285156 C 47.558594 28.039062 48.125 29.320312 49.554688 31.859375 C 50.449219 33.441406 50.738281 34.101562 50.816406 34.710938 C 50.871094 35.152344 50.960938 37.351562 51.007812 39.605469 C 51.101562 43.539062 51.117188 43.707031 51.425781 44.058594 C 51.738281 44.425781 51.738281 44.425781 51.613281 48.234375 C 51.539062 50.328125 51.414062 52.226562 51.335938 52.457031 C 51.257812 52.683594 50.996094 52.976562 50.761719 53.113281 C 50.523438 53.238281 50.296875 53.476562 50.246094 53.636719 C 50.203125 53.792969 49.773438 54.121094 49.292969 54.371094 C 48.8125 54.621094 48.386719 54.875 48.351562 54.9375 C 48.316406 55 48.558594 55.632812 48.886719 56.339844 C 49.230469 57.074219 49.640625 57.675781 50.164062 58.320312 C 58.816406 52.351562 63.988281 42.515625 64 32.007812 C 64 14.332031 49.671875 0 32 0 Z M 40.628906 30.363281 C 40.570312 30.363281 40.539062 30.726562 40.554688 31.175781 C 40.585938 31.835938 40.519531 32.097656 40.230469 32.527344 C 40.03125 32.820312 39.570312 33.691406 39.207031 34.46875 L 38.542969 35.878906 L 41.285156 41.707031 C 44.308594 48.128906 44.605469 48.699219 44.90625 48.699219 C 45.023438 48.699219 45.367188 48.300781 45.675781 47.808594 L 45.683594 47.808594 C 45.992188 47.316406 46.472656 46.617188 46.757812 46.253906 C 47.105469 45.800781 47.324219 45.308594 47.449219 44.695312 C 47.542969 44.207031 47.667969 43.734375 47.722656 43.648438 C 48.085938 43.117188 48.011719 42.476562 47.410156 40.828125 C 46.726562 38.9375 46.445312 37.496094 46.433594 35.855469 L 46.425781 34.738281 L 45.402344 34.300781 C 44.59375 33.949219 44.128906 33.601562 43.117188 32.578125 C 42.414062 31.875 41.742188 31.296875 41.621094 31.296875 C 41.496094 31.296875 41.320312 31.140625 41.222656 30.953125 C 41.050781 30.597656 40.824219 30.371094 40.628906 30.367188 Z M 40.234375 45.097656 C 40.03125 44.933594 40.058594 45.542969 40.089844 46.753906 C 40.117188 48.117188 40.566406 50.292969 40.84375 50.390625 C 40.945312 50.429688 41.183594 50.636719 41.386719 50.859375 L 41.761719 51.257812 L 41.949219 57.308594 C 42.023438 59.894531 42.117188 61.3125 42.191406 62.3125 C 44.457031 61.550781 46.632812 60.539062 48.671875 59.296875 C 46.914062 58.289062 45.324219 56.269531 44.148438 53.421875 C 43.765625 52.488281 42.691406 50.117188 41.773438 48.152344 C 40.867188 46.21875 40.441406 45.265625 40.234375 45.097656 Z M 46.996094 49.285156 C 46.898438 49.242188 46.8125 49.253906 46.691406 49.332031 C 46.039062 49.707031 46.058594 50.113281 46.792969 51.796875 C 47.253906 52.847656 47.523438 53.304688 47.601562 53.171875 C 47.664062 53.054688 47.714844 52.332031 47.714844 51.546875 C 47.714844 50.238281 47.691406 50.085938 47.351562 49.648438 C 47.195312 49.449219 47.09375 49.332031 46.996094 49.289062 Z M 30.359375 57.097656 C 30.214844 57.097656 30.15625 57.273438 30.152344 57.675781 C 30.152344 58.253906 29.703125 60.96875 29.425781 62.105469 C 29.378906 62.28125 29.230469 63.207031 29.121094 63.875 C 29.941406 63.949219 30.765625 63.988281 31.589844 64 C 31.578125 62.953125 31.265625 61.074219 30.949219 60.265625 C 30.785156 59.847656 30.722656 59.316406 30.746094 58.570312 C 30.792969 57.429688 30.703125 57.09375 30.359375 57.09375 Z M 30.359375 57.097656 "/>
</g>
</svg>
