<?xml version="1.0" encoding="UTF-8"?>
<svg xmlns="http://www.w3.org/2000/svg" xmlns:xlink="http://www.w3.org/1999/xlink" width="64px" height="64px" viewBox="0 0 64 64" version="1.1">
<defs>
<linearGradient id="linear0" gradientUnits="userSpaceOnUse" x1="0" y1="0" x2="0" y2="1" gradientTransform="matrix(64,0,0,64,0,0)">
<stop offset="0" style="stop-color:rgb(3.921569%,74.117649%,77.64706%);stop-opacity:1;"/>
<stop offset="1" style="stop-color:rgb(72.156864%,0%,100%);stop-opacity:1;"/>
</linearGradient>
</defs>
<g id="surface1">
<path style=" stroke:none;fill-rule:nonzero;fill:url(#linear0);" d="M 40.992188 0 L 40.152344 0.910156 L 40.152344 4.261719 L 40.886719 5.066406 L 44.792969 5.066406 L 44.792969 8.296875 L 18.972656 36.617188 L 18.972656 5.109375 L 23.261719 5.109375 L 24.140625 4.15625 L 24.140625 0.769531 L 23.332031 0.0820312 L 0.734375 0.0820312 L 0 0.890625 L 0 4.355469 L 0.742188 5.160156 L 4.675781 5.160156 L 4.675781 63.195312 L 5.410156 64 L 9.871094 64 L 64 3.585938 L 64 0.925781 L 63.160156 0.015625 L 40.992188 0.015625 M 40.984375 0.00390625 "/>
</g>
</svg>
