<?xml version="1.0" encoding="UTF-8"?>
<svg xmlns="http://www.w3.org/2000/svg" xmlns:xlink="http://www.w3.org/1999/xlink" width="64px" height="64px" viewBox="0 0 64 64" version="1.1">
<defs>
<linearGradient id="linear0" gradientUnits="userSpaceOnUse" x1="0" y1="0" x2="0" y2="1" gradientTransform="matrix(49.617188,0,0,58.6875,7.191406,2.65625)">
<stop offset="0" style="stop-color:rgb(3.921569%,74.117649%,77.64706%);stop-opacity:1;"/>
<stop offset="1" style="stop-color:rgb(72.156864%,0%,100%);stop-opacity:1;"/>
</linearGradient>
</defs>
<g id="surface1">
<path style=" stroke:none;fill-rule:nonzero;fill:url(#linear0);" d="M 29.085938 20.828125 C 27.546875 19.949219 25.3125 18.664062 24.121094 17.976562 C 22.933594 17.289062 20.988281 16.183594 19.804688 15.519531 C 17.828125 14.410156 17.683594 14.296875 18.042969 14.15625 C 18.257812 14.074219 19.550781 13.488281 20.917969 12.855469 C 22.285156 12.21875 25.023438 10.960938 27.003906 10.058594 C 28.988281 9.15625 30.90625 8.261719 31.273438 8.078125 L 31.9375 7.738281 L 37.039062 10.074219 C 39.84375 11.363281 43.003906 12.808594 44.0625 13.289062 C 45.121094 13.773438 46.039062 14.21875 46.109375 14.28125 C 46.175781 14.347656 45.058594 15.050781 43.625 15.847656 C 41.132812 17.230469 33.875 21.296875 32.53125 22.0625 L 31.890625 22.425781 Z M 33.8125 20.492188 C 34.78125 19.941406 35.574219 19.394531 35.574219 19.273438 C 35.574219 19.15625 34.984375 18.722656 34.265625 18.3125 L 32.960938 17.5625 L 34.226562 16.007812 C 35.398438 14.570312 35.667969 14.132812 35.382812 14.132812 C 35.320312 14.132812 34.273438 14.539062 33.050781 15.03125 C 31.828125 15.523438 30.796875 15.898438 30.761719 15.863281 C 30.722656 15.824219 31.199219 15.230469 31.8125 14.542969 C 32.867188 13.363281 33.152344 12.851562 32.761719 12.851562 C 32.667969 12.851562 31.675781 13.242188 30.558594 13.71875 C 27.726562 14.925781 25.691406 15.734375 25.492188 15.734375 C 25.402344 15.734375 26.285156 14.777344 27.457031 13.601562 C 29.792969 11.261719 29.742188 11.417969 28.347656 10.785156 L 27.53125 10.417969 L 24.585938 11.777344 C 19.835938 13.972656 19.476562 14.15625 19.480469 14.347656 C 19.480469 14.453125 20.96875 15.363281 22.78125 16.375 C 24.597656 17.390625 27.355469 18.953125 28.90625 19.851562 C 30.460938 20.75 31.800781 21.488281 31.890625 21.488281 C 31.976562 21.492188 32.84375 21.042969 33.8125 20.492188 Z M 39.179688 17.511719 C 43.035156 15.40625 44.515625 14.539062 44.574219 14.359375 C 44.605469 14.265625 44.46875 14.109375 44.265625 14.015625 C 44.066406 13.917969 42.351562 13.121094 40.457031 12.246094 C 38.566406 11.367188 35.914062 10.136719 34.570312 9.507812 C 33.226562 8.882812 32.058594 8.367188 31.972656 8.367188 C 31.601562 8.367188 28.421875 9.980469 28.476562 10.144531 C 28.511719 10.242188 28.96875 10.503906 29.492188 10.722656 C 30.019531 10.945312 30.480469 11.15625 30.519531 11.191406 C 30.558594 11.230469 30.035156 11.820312 29.359375 12.5 C 28.679688 13.183594 28.125 13.792969 28.125 13.855469 C 28.125 14.125 28.804688 13.902344 31.925781 12.605469 C 33.734375 11.855469 35.25 11.277344 35.292969 11.320312 C 35.335938 11.363281 34.859375 11.964844 34.230469 12.660156 C 33.179688 13.824219 32.890625 14.292969 33.21875 14.292969 C 33.289062 14.292969 34.3125 13.898438 35.484375 13.410156 C 36.660156 12.925781 37.644531 12.546875 37.671875 12.574219 C 37.722656 12.625 35.839844 15.046875 34.753906 16.320312 C 34.367188 16.777344 34.050781 17.226562 34.050781 17.320312 C 34.050781 17.488281 36.363281 18.753906 36.695312 18.769531 C 36.785156 18.773438 37.902344 18.207031 39.179688 17.511719 Z M 18.429688 49.890625 L 18.1875 47.097656 L 14.109375 44 C 11.867188 42.296875 9.867188 40.796875 9.667969 40.667969 C 9.46875 40.539062 8.984375 36.769531 8.589844 32.285156 C 8.191406 27.804688 7.667969 21.902344 7.425781 19.167969 C 7.082031 15.320312 7.109375 14.082031 7.546875 13.679688 C 7.855469 13.390625 10.558594 12.089844 13.546875 10.789062 C 23.652344 6.386719 26.222656 5.253906 29.074219 3.953125 L 31.917969 2.65625 L 41.984375 7.109375 C 47.523438 9.5625 53.125 12.023438 54.433594 12.585938 C 55.914062 13.21875 56.8125 13.882812 56.808594 14.339844 C 56.808594 14.746094 56.402344 19.765625 55.90625 25.5 C 55.410156 31.230469 55.003906 36.851562 55.003906 37.992188 L 54.949219 40.128906 L 50.808594 43.238281 L 46.617188 46.410156 L 46.300781 49.238281 C 45.21875 65.332031 19.851562 65.203125 18.429688 49.890625 Z M 28.722656 40.332031 L 28.722656 30.472656 L 20.230469 25.179688 C 15.558594 22.269531 11.378906 19.75 10.941406 19.585938 C 10.25 19.324219 10.148438 19.589844 10.144531 21.710938 C 10.558594 27.75 10.925781 31.921875 11.640625 37.648438 L 14.585938 40.222656 C 16.328125 41.742188 20.226562 44.394531 22.976562 46.449219 C 25.730469 48.507812 28.148438 50.1875 28.351562 50.1875 C 28.558594 50.1875 28.722656 45.753906 28.722656 40.332031 Z M 44.261719 43.78125 L 52.601562 37.601562 L 53.195312 28.945312 C 53.523438 24.183594 53.652344 20.148438 53.484375 19.980469 C 53.1875 19.683594 50.535156 20.992188 48.203125 22.585938 C 47.582031 23.011719 44.371094 25.039062 41.070312 27.09375 L 35.066406 30.828125 L 35.066406 40.546875 C 35.066406 46.460938 35.234375 50.207031 35.496094 50.113281 C 35.730469 50.03125 39.675781 47.179688 44.261719 43.78125 Z M 41.269531 19.578125 C 46.207031 16.699219 50.402344 14.183594 50.597656 13.992188 C 50.789062 13.800781 46.675781 11.675781 41.449219 9.269531 L 31.945312 4.894531 L 26.597656 7.316406 C 15.207031 12.476562 12.84375 13.648438 13.1875 13.980469 C 13.703125 14.472656 31.605469 24.78125 31.984375 24.800781 C 32.15625 24.8125 36.335938 22.460938 41.269531 19.578125 Z M 41.269531 19.578125 "/>
</g>
</svg>
