<?xml version="1.0" encoding="UTF-8"?>
<svg xmlns="http://www.w3.org/2000/svg" xmlns:xlink="http://www.w3.org/1999/xlink" width="64px" height="64px" viewBox="0 0 64 64" version="1.1">
<defs>
<linearGradient id="linear0" gradientUnits="userSpaceOnUse" x1="0" y1="0" x2="0" y2="1" gradientTransform="matrix(64,0,0,58.1875,0,2.90625)">
<stop offset="0" style="stop-color:rgb(3.921569%,74.117649%,77.64706%);stop-opacity:1;"/>
<stop offset="1" style="stop-color:rgb(72.156864%,0%,100%);stop-opacity:1;"/>
</linearGradient>
</defs>
<g id="surface1">
<path style=" stroke:none;fill-rule:nonzero;fill:url(#linear0);" d="M 31.773438 2.90625 C 22.277344 2.90625 16.609375 8.835938 16.609375 8.835938 L 25.324219 25.394531 C 27.28125 24.019531 29.609375 23.277344 32 23.273438 C 34.261719 23.277344 36.464844 23.941406 38.355469 25.175781 L 46.964844 8.835938 C 46.964844 8.835938 41.269531 2.90625 31.773438 2.90625 Z M 32 29.09375 C 28.789062 29.09375 26.179688 31.695312 26.179688 34.90625 C 26.179688 38.125 28.789062 40.726562 32 40.726562 C 35.214844 40.726562 37.820312 38.125 37.820312 34.90625 C 37.820312 31.695312 35.214844 29.09375 32 29.09375 Z M 43.796875 34.5625 C 43.769531 35.414062 43.628906 36.273438 43.425781 37.121094 C 43.394531 37.242188 43.367188 37.371094 43.335938 37.496094 C 43.320312 37.550781 43.308594 37.617188 43.292969 37.675781 C 42.503906 40.882812 40.390625 43.605469 37.480469 45.164062 L 48.160156 60.851562 C 48.160156 60.851562 56.351562 59.078125 61.101562 51.183594 C 65.847656 43.285156 63.335938 35.609375 63.335938 35.609375 L 63.335938 35.601562 Z M 20.195312 34.800781 L 0.65625 35.84375 C 0.65625 35.84375 -1.839844 43.546875 2.90625 51.445312 C 7.65625 59.34375 15.832031 61.09375 15.832031 61.09375 L 26.542969 45.359375 C 25.507812 44.738281 24.558594 43.964844 23.714844 43.074219 C 23.5625 42.914062 23.421875 42.757812 23.28125 42.59375 C 23.152344 42.445312 23.015625 42.308594 22.894531 42.152344 C 22.890625 42.148438 22.886719 42.144531 22.882812 42.140625 C 22.59375 41.765625 22.324219 41.371094 22.078125 40.964844 C 22.050781 40.925781 22.019531 40.890625 21.996094 40.847656 C 21.945312 40.765625 21.910156 40.675781 21.863281 40.59375 C 21.726562 40.351562 21.601562 40.109375 21.484375 39.855469 C 20.6875 38.226562 20.257812 36.511719 20.195312 34.800781 Z M 20.195312 34.800781 "/>
</g>
</svg>
