<?xml version="1.0" encoding="UTF-8"?>
<svg xmlns="http://www.w3.org/2000/svg" xmlns:xlink="http://www.w3.org/1999/xlink" width="64px" height="64px" viewBox="0 0 64 64" version="1.1">
<defs>
<linearGradient id="linear0" gradientUnits="userSpaceOnUse" x1="0" y1="0" x2="0" y2="1" gradientTransform="matrix(64,0,0,58.667969,0,2.667969)">
<stop offset="0" style="stop-color:rgb(3.921569%,74.117649%,77.64706%);stop-opacity:1;"/>
<stop offset="1" style="stop-color:rgb(72.156864%,0%,100%);stop-opacity:1;"/>
</linearGradient>
</defs>
<g id="surface1">
<path style=" stroke:none;fill-rule:nonzero;fill:url(#linear0);" d="M 27.457031 60.863281 C 26.183594 60.613281 23.402344 59.5625 21.28125 58.523438 C 17.941406 56.890625 16.265625 55.484375 8.84375 48.09375 C 3.222656 42.5 0.195312 39.105469 0.0703125 38.261719 C -0.296875 35.773438 0.703125 33.902344 4.390625 30.191406 L 8.097656 26.460938 L 4.910156 23.140625 C 1.867188 19.976562 1.4375 19.066406 1.707031 16.390625 C 1.855469 14.949219 4.128906 12.679688 5.734375 12.375 C 7.808594 11.976562 9.4375 12.839844 12.789062 16.121094 L 15.875 19.148438 L 17.578125 17.707031 L 19.277344 16.265625 L 18.210938 12.082031 C 16.984375 7.277344 17.183594 5.832031 19.316406 4.035156 C 22.925781 1 26.738281 3.148438 28.355469 9.128906 L 29.316406 12.675781 L 34.308594 12.675781 L 35.550781 9.128906 C 37.671875 3.066406 41.335938 1.070312 44.878906 4.050781 C 47.085938 5.90625 47.257812 7.511719 45.742188 11.972656 C 45.027344 14.074219 44.5 15.820312 44.570312 15.859375 C 44.640625 15.902344 45.480469 16.558594 46.4375 17.335938 L 48.171875 18.746094 L 51.324219 15.722656 C 54.675781 12.511719 56.453125 11.714844 58.511719 12.496094 C 60.773438 13.355469 61.941406 15.085938 61.941406 17.566406 C 61.941406 19.640625 61.675781 20.109375 58.882812 23 L 55.828125 26.164062 L 59.914062 30.347656 C 63.882812 34.414062 64 34.605469 64 37.03125 L 64 39.527344 L 55.378906 48.070312 C 47.945312 55.4375 46.226562 56.875 42.898438 58.507812 C 37.316406 61.238281 32.882812 61.914062 27.457031 60.863281 Z M 41.539062 51.445312 C 49.078125 47.757812 52.050781 36.832031 47.785156 28.503906 C 42.378906 17.957031 27.625 15.808594 19.480469 24.386719 L 17.421875 26.554688 L 19.898438 24.691406 C 26.246094 19.925781 34.582031 20.394531 40.1875 25.835938 C 46.914062 32.367188 45.269531 43.242188 36.980469 47.070312 C 28.332031 51.058594 18.804688 42.1875 22.824219 33.886719 C 25.007812 29.378906 30.734375 27.320312 34.410156 29.726562 C 35.183594 30.234375 35.644531 30.371094 35.433594 30.03125 C 34.269531 28.144531 28.128906 27.328125 25.464844 28.707031 C 23.386719 29.78125 20.472656 33.199219 19.742188 35.421875 C 19.390625 36.476562 19.203125 38.691406 19.324219 40.335938 C 20.035156 50.191406 31.9375 56.144531 41.539062 51.445312 Z M 41.539062 51.445312 "/>
</g>
</svg>
