<?xml version="1.0" encoding="UTF-8"?>
<svg xmlns="http://www.w3.org/2000/svg" xmlns:xlink="http://www.w3.org/1999/xlink" width="64px" height="64px" viewBox="0 0 64 64" version="1.1">
<defs>
<linearGradient id="linear0" gradientUnits="userSpaceOnUse" x1="0" y1="0" x2="0" y2="1" gradientTransform="matrix(64,0,0,56.71875,0,2.878906)">
<stop offset="0" style="stop-color:rgb(3.921569%,74.117649%,77.64706%);stop-opacity:1;"/>
<stop offset="1" style="stop-color:rgb(72.156864%,0%,100%);stop-opacity:1;"/>
</linearGradient>
</defs>
<g id="surface1">
<path style=" stroke:none;fill-rule:evenodd;fill:url(#linear0);" d="M 10.667969 7.453125 L 53.332031 7.453125 L 53.332031 13.734375 L 32 24.210938 L 10.667969 13.734375 Z M 8.257812 2.878906 L 55.742188 2.878906 C 56.9375 2.878906 57.902344 3.847656 57.902344 5.039062 L 57.902344 35.769531 C 57.902344 36.960938 56.9375 37.929688 55.742188 37.929688 L 8.257812 37.929688 C 7.0625 37.929688 6.097656 36.960938 6.097656 35.769531 L 6.097656 5.039062 C 6.097656 3.847656 7.0625 2.878906 8.257812 2.878906 Z M 9.769531 44.742188 C 9.210938 45.785156 7.167969 49.125 5.863281 51.269531 C 4.539062 49.074219 2.976562 46.550781 1.957031 44.742188 L 1.953125 44.746094 L 1.957031 44.742188 C 1.148438 44.914062 0.808594 44.929688 0.00390625 44.742188 L 0.0078125 44.746094 C 0.00390625 44.746094 0.00390625 44.742188 0 44.742188 C 1.601562 47.15625 4.167969 51.753906 5.039062 53.261719 L 4.925781 59.550781 L 4.929688 59.546875 L 4.925781 59.550781 C 4.925781 59.550781 5.488281 59.457031 5.863281 59.457031 C 6.28125 59.457031 6.800781 59.550781 6.800781 59.550781 L 6.800781 59.546875 L 6.804688 59.550781 L 6.683594 53.261719 L 6.679688 53.261719 C 8.308594 50.402344 10.992188 45.753906 11.730469 44.746094 L 11.734375 44.742188 C 11.035156 44.902344 10.398438 44.90625 9.773438 44.742188 Z M 62.976562 44.894531 C 62.507812 44.894531 62.042969 45.171875 62.042969 45.875 C 61.765625 49.402344 61.476562 52.941406 61 56.308594 L 60.996094 56.308594 C 61 56.308594 61 56.308594 61 56.308594 L 61.007812 56.308594 C 61.292969 56.261719 61.511719 56.335938 61.726562 56.421875 C 62.269531 53 63.550781 47.878906 63.882812 46.433594 C 63.929688 46.226562 64 45.984375 64 45.8125 C 64 45.296875 63.671875 44.996094 63.179688 44.914062 C 63.179688 44.914062 63.058594 44.894531 62.976562 44.894531 Z M 52.367188 46.171875 C 55.46875 46.171875 57.753906 48.050781 57.753906 52.207031 C 57.753906 56.71875 54.988281 58.183594 52.371094 58.183594 C 49.578125 58.183594 47.03125 56.542969 47.03125 52.117188 C 47.03125 47.527344 49.855469 46.171875 52.367188 46.171875 Z M 21.019531 46.308594 C 21.191406 50.21875 21.175781 54.128906 21.019531 58.027344 C 21.65625 57.875 22.304688 57.867188 22.972656 58.027344 L 22.96875 58.023438 L 22.972656 58.027344 C 22.875 56.207031 22.828125 54.390625 22.824219 52.574219 C 25.003906 52.542969 27.1875 52.542969 29.371094 52.574219 C 29.363281 54.390625 29.316406 56.207031 29.21875 58.027344 L 29.226562 58.023438 L 29.222656 58.027344 C 29.886719 57.867188 30.539062 57.875 31.171875 58.027344 C 31.171875 58.027344 31.175781 58.027344 31.175781 58.027344 C 31.019531 54.128906 31.003906 50.21875 31.175781 46.308594 L 31.171875 46.308594 C 30.511719 46.464844 29.859375 46.460938 29.21875 46.308594 C 29.316406 48.128906 29.363281 49.953125 29.371094 51.777344 C 27.1875 51.828125 25.003906 51.832031 22.824219 51.777344 C 22.828125 49.953125 22.878906 48.128906 22.972656 46.308594 C 22.332031 46.460938 21.683594 46.464844 21.019531 46.308594 Z M 37.957031 46.859375 C 37.992188 46.855469 38.027344 46.859375 38.0625 46.859375 C 40.601562 46.859375 42.460938 48.585938 42.460938 52.191406 C 42.460938 55.792969 40.601562 57.519531 38.066406 57.519531 C 35.308594 57.519531 33.683594 55.539062 33.683594 52.199219 C 33.683594 48.425781 35.683594 46.902344 37.957031 46.859375 Z M 14.605469 48.328125 C 15.253906 50.132812 15.964844 51.949219 16.683594 53.773438 C 15.300781 53.820312 13.914062 53.820312 12.527344 53.773438 C 13.371094 51.625 14.179688 49.550781 14.605469 48.328125 Z M 60.941406 57.722656 C 60.324219 57.722656 60.015625 58.191406 60.015625 58.695312 C 60.015625 59.292969 60.492188 59.597656 61.078125 59.597656 C 61.503906 59.597656 61.96875 59.339844 61.96875 58.640625 C 61.96875 58.074219 61.527344 57.722656 60.941406 57.722656 Z M 52.363281 45.445312 C 48.234375 45.445312 45.085938 47.785156 45.085938 52.144531 C 45.085938 55.730469 47.179688 58.890625 52.394531 58.890625 C 56.816406 58.890625 59.699219 56.464844 59.699219 52.203125 C 59.699219 48.191406 57.007812 45.445312 52.363281 45.445312 Z M 38.054688 46.148438 C 33.910156 46.148438 31.738281 48.777344 31.738281 52.183594 C 31.738281 55.90625 34.113281 58.183594 38.050781 58.183594 C 42.308594 58.183594 44.386719 55.621094 44.386719 52.21875 C 44.386719 48.429688 41.902344 46.148438 38.054688 46.148438 Z M 13.925781 46.300781 C 12.351562 50.246094 10.539062 54.703125 8.90625 58.027344 L 8.914062 58.023438 C 8.910156 58.027344 8.910156 58.027344 8.910156 58.027344 L 8.925781 58.023438 L 8.914062 58.023438 C 9.660156 57.839844 10.371094 57.894531 10.84375 58.023438 C 10.839844 58.023438 10.839844 58.023438 10.835938 58.019531 L 10.84375 58.023438 C 11.261719 56.972656 11.730469 55.785156 12.203125 54.589844 L 12.207031 54.589844 C 13.808594 54.542969 15.40625 54.535156 17.007812 54.589844 C 17.464844 55.734375 17.921875 56.878906 18.363281 58.027344 C 18.367188 58.027344 18.367188 58.027344 18.367188 58.027344 C 19.078125 57.839844 19.792969 57.890625 20.316406 58.023438 C 19.144531 55.832031 16.785156 50.09375 15.289062 46.304688 L 15.277344 46.308594 L 15.285156 46.304688 C 14.796875 46.472656 14.398438 46.464844 13.925781 46.304688 Z M 13.925781 46.300781 "/>
</g>
</svg>
