<?xml version="1.0" encoding="UTF-8"?>
<svg xmlns="http://www.w3.org/2000/svg" xmlns:xlink="http://www.w3.org/1999/xlink" width="64px" height="64px" viewBox="0 0 64 64" version="1.1">
<defs>
<linearGradient id="linear0" gradientUnits="userSpaceOnUse" x1="0" y1="0" x2="0" y2="1" gradientTransform="matrix(45.296875,0,0,56,9.351562,4)">
<stop offset="0" style="stop-color:rgb(3.921569%,74.117649%,77.64706%);stop-opacity:1;"/>
<stop offset="1" style="stop-color:rgb(72.156864%,0%,100%);stop-opacity:1;"/>
</linearGradient>
</defs>
<g id="surface1">
<path style=" stroke:none;fill-rule:nonzero;fill:url(#linear0);" d="M 25.925781 16.230469 L 31.878906 28.21875 L 32.84375 28.21875 L 38.800781 17.277344 L 44.832031 4 L 54.648438 5.449219 L 47.246094 18.882812 L 36.789062 39.320312 L 37.671875 60 L 26.40625 60 L 27.210938 40.6875 L 17.074219 20.09375 L 9.351562 6.011719 L 20.695312 4 Z M 25.925781 16.230469 "/>
</g>
</svg>
