<?xml version="1.0" encoding="UTF-8"?>
<svg xmlns="http://www.w3.org/2000/svg" xmlns:xlink="http://www.w3.org/1999/xlink" width="64px" height="64px" viewBox="0 0 64 64" version="1.1">
<defs>
<linearGradient id="linear0" gradientUnits="userSpaceOnUse" x1="0" y1="0" x2="0" y2="1" gradientTransform="matrix(64,0,0,52.804688,0,5.597656)">
<stop offset="0" style="stop-color:rgb(3.921569%,74.117649%,77.64706%);stop-opacity:1;"/>
<stop offset="1" style="stop-color:rgb(72.156864%,0%,100%);stop-opacity:1;"/>
</linearGradient>
</defs>
<g id="surface1">
<path style=" stroke:none;fill-rule:nonzero;fill:url(#linear0);" d="M 46.710938 8.265625 C 46.679688 8.34375 46.648438 8.417969 46.601562 8.480469 C 46.441406 8.726562 46.277344 8.960938 46.09375 9.183594 C 45.386719 10.023438 44.652344 10.851562 43.898438 11.660156 C 42.8125 12.820312 41.703125 13.96875 40.574219 15.089844 C 39.445312 16.21875 38.3125 17.34375 37.15625 18.445312 C 35.851562 19.699219 34.539062 20.9375 33.210938 22.167969 C 31.886719 23.394531 30.546875 24.609375 29.207031 25.820312 C 27.796875 27.082031 26.378906 28.34375 24.957031 29.582031 C 23.53125 30.828125 22.101562 32.078125 20.667969 33.316406 C 19.394531 34.421875 18.117188 35.523438 16.835938 36.617188 C 15.554688 37.722656 14.277344 38.816406 12.996094 39.914062 C 12 40.765625 11 41.621094 9.996094 42.472656 C 9 43.328125 7.996094 44.171875 6.992188 45.019531 C 6.472656 45.453125 5.949219 45.886719 5.429688 46.3125 C 5.128906 46.5625 4.804688 46.792969 4.472656 46.996094 C 4.164062 47.179688 3.835938 47.328125 3.5 47.453125 C 3.164062 47.578125 2.816406 47.671875 2.460938 47.738281 C 2.082031 47.796875 1.703125 47.835938 1.320312 47.835938 C 1.164062 47.835938 1.003906 47.847656 0.847656 47.875 C 0.71875 47.894531 0.585938 47.941406 0.46875 48.011719 C 0.375 48.066406 0.289062 48.128906 0.226562 48.210938 C 0.144531 48.292969 0.0859375 48.398438 0.046875 48.503906 C 0.0078125 48.617188 -0.00390625 48.726562 0 48.839844 C 0 48.945312 0.0195312 49.042969 0.0546875 49.140625 C 0.09375 49.257812 0.152344 49.378906 0.226562 49.488281 C 0.296875 49.601562 0.382812 49.691406 0.472656 49.777344 C 0.578125 49.863281 0.683594 49.9375 0.808594 49.996094 C 0.945312 50.054688 1.097656 50.101562 1.25 50.125 C 3.507812 50.191406 5.765625 50.347656 8.007812 50.597656 C 10.292969 50.855469 12.570312 51.203125 14.828125 51.640625 C 17.105469 52.089844 19.375 52.546875 21.648438 53.027344 C 23.785156 53.480469 25.921875 53.953125 28.046875 54.445312 C 30.179688 54.9375 32.320312 55.421875 34.457031 55.894531 C 36.386719 56.320312 38.324219 56.742188 40.265625 57.15625 C 42.214844 57.570312 44.183594 57.890625 46.167969 58.113281 C 47.816406 58.304688 49.476562 58.402344 51.136719 58.402344 C 52.148438 58.402344 53.15625 58.289062 54.148438 58.074219 C 54.921875 57.902344 55.671875 57.621094 56.375 57.234375 C 57.050781 56.859375 57.707031 56.445312 58.328125 56 C 59.15625 55.402344 59.949219 54.773438 60.71875 54.101562 C 61.261719 53.628906 61.773438 53.125 62.253906 52.585938 C 62.59375 52.21875 62.890625 51.820312 63.160156 51.394531 C 63.421875 50.972656 63.644531 50.527344 63.816406 50.058594 C 63.933594 49.746094 64 49.410156 64 49.074219 C 64 48.9375 63.988281 48.792969 63.972656 48.648438 C 63.960938 48.539062 63.933594 48.433594 63.894531 48.328125 C 63.863281 48.242188 63.824219 48.164062 63.769531 48.089844 C 63.703125 48 63.621094 47.921875 63.519531 47.863281 C 63.394531 47.789062 63.246094 47.757812 63.09375 47.761719 C 62.976562 47.769531 62.859375 47.796875 62.753906 47.855469 C 62.554688 47.945312 62.390625 48.097656 62.265625 48.28125 C 62.128906 48.492188 62.011719 48.722656 61.933594 48.964844 C 61.78125 49.390625 61.597656 49.8125 61.394531 50.210938 C 61.21875 50.558594 61.015625 50.894531 60.789062 51.207031 C 60.582031 51.496094 60.335938 51.761719 60.054688 51.988281 C 59.6875 52.292969 59.28125 52.554688 58.855469 52.777344 C 58.421875 53 57.960938 53.183594 57.496094 53.320312 C 56.746094 53.546875 55.980469 53.722656 55.210938 53.847656 C 54.429688 53.972656 53.644531 54.0625 52.855469 54.117188 C 51.65625 54.195312 50.460938 54.234375 49.265625 54.234375 C 47.734375 54.234375 46.207031 54.183594 44.683594 54.082031 C 42.898438 53.972656 41.121094 53.808594 39.347656 53.597656 C 37.5625 53.382812 35.785156 53.144531 34.011719 52.882812 C 32.339844 52.640625 30.664062 52.371094 29 52.074219 C 27.332031 51.78125 25.671875 51.464844 24.011719 51.125 C 22.644531 50.839844 21.285156 50.539062 19.925781 50.210938 C 18.570312 49.882812 17.210938 49.546875 15.859375 49.207031 C 15.144531 49.03125 14.425781 48.839844 13.71875 48.648438 C 13.621094 48.617188 13.527344 48.578125 13.441406 48.53125 C 13.402344 48.511719 13.371094 48.484375 13.339844 48.453125 C 13.320312 48.4375 13.304688 48.417969 13.296875 48.398438 C 13.398438 48.195312 13.507812 48.007812 13.640625 47.820312 C 15.039062 46.363281 16.449219 44.921875 17.886719 43.503906 C 19.777344 41.625 21.691406 39.769531 23.621094 37.9375 C 25.558594 36.101562 27.5 34.277344 29.449219 32.457031 C 31.40625 30.632812 33.363281 28.820312 35.332031 27.015625 C 37.300781 25.210938 39.277344 23.414062 41.25 21.621094 C 42.996094 20.035156 44.742188 18.457031 46.503906 16.882812 C 48.253906 15.308594 50.015625 13.746094 51.785156 12.183594 C 52.886719 11.210938 54.003906 10.246094 55.121094 9.296875 C 55.285156 9.136719 55.449219 8.980469 55.613281 8.835938 C 55.789062 8.683594 55.964844 8.542969 56.15625 8.402344 C 56.3125 8.277344 56.492188 8.171875 56.667969 8.082031 C 56.761719 8.035156 56.859375 8.003906 56.957031 7.984375 C 57.101562 7.964844 57.238281 7.925781 57.378906 7.878906 C 57.507812 7.832031 57.632812 7.765625 57.746094 7.679688 C 57.882812 7.582031 57.996094 7.453125 58.078125 7.300781 C 58.164062 7.148438 58.21875 6.984375 58.238281 6.808594 C 58.242188 6.703125 58.238281 6.589844 58.21875 6.488281 C 58.191406 6.375 58.152344 6.261719 58.085938 6.171875 C 58.027344 6.074219 57.949219 5.988281 57.855469 5.914062 C 57.769531 5.851562 57.679688 5.792969 57.582031 5.75 C 57.449219 5.691406 57.3125 5.652344 57.175781 5.632812 C 57.003906 5.605469 56.828125 5.601562 56.648438 5.601562 C 56.445312 5.59375 56.242188 5.601562 56.046875 5.601562 C 55.289062 5.613281 54.535156 5.632812 53.773438 5.648438 C 53.019531 5.667969 52.269531 5.679688 51.515625 5.691406 C 50.53125 5.710938 49.546875 5.730469 48.5625 5.746094 C 47.578125 5.765625 46.585938 5.785156 45.601562 5.804688 C 44.5 5.832031 43.40625 5.863281 42.300781 5.894531 C 41.207031 5.929688 40.109375 5.949219 39.011719 5.96875 C 38.128906 5.980469 37.242188 5.996094 36.355469 5.988281 C 34.847656 6.027344 33.328125 6.058594 31.820312 6.097656 C 30.324219 6.144531 28.828125 6.191406 27.335938 6.238281 C 25.835938 6.289062 24.339844 6.355469 22.839844 6.441406 C 21.714844 6.5 20.585938 6.585938 19.457031 6.683594 C 19.1875 6.722656 18.921875 6.789062 18.667969 6.875 C 18.445312 6.953125 18.234375 7.050781 18.039062 7.167969 C 17.855469 7.28125 17.683594 7.414062 17.527344 7.5625 C 17.367188 7.714844 17.230469 7.878906 17.113281 8.054688 C 16.910156 8.371094 16.710938 8.691406 16.535156 9.019531 C 16.210938 9.609375 15.917969 10.214844 15.628906 10.824219 C 15.621094 10.984375 15.628906 11.148438 15.648438 11.304688 C 15.65625 11.402344 15.675781 11.496094 15.707031 11.578125 C 15.753906 11.730469 15.84375 11.875 15.957031 11.988281 C 16.09375 12.125 16.273438 12.210938 16.460938 12.230469 C 16.671875 12.25 16.890625 12.195312 17.074219 12.085938 C 17.269531 11.960938 17.453125 11.816406 17.625 11.652344 C 17.964844 11.335938 18.347656 11.066406 18.757812 10.851562 C 19.382812 10.515625 20.039062 10.246094 20.714844 10.03125 C 21.410156 9.808594 22.121094 9.625 22.835938 9.480469 C 23.722656 9.300781 24.613281 9.164062 25.511719 9.074219 C 26.851562 8.910156 28.191406 8.777344 29.53125 8.671875 C 31.339844 8.527344 33.152344 8.417969 34.96875 8.335938 C 36.78125 8.253906 38.601562 8.191406 40.417969 8.148438 C 42.085938 8.109375 43.753906 8.089844 45.425781 8.089844 C 45.6875 8.09375 45.949219 8.109375 46.207031 8.132812 C 46.332031 8.148438 46.457031 8.171875 46.582031 8.214844 C 46.628906 8.226562 46.667969 8.246094 46.710938 8.265625 Z M 46.710938 8.265625 "/>
</g>
</svg>
