<?xml version="1.0" encoding="UTF-8"?>
<svg xmlns="http://www.w3.org/2000/svg" xmlns:xlink="http://www.w3.org/1999/xlink" width="64px" height="64px" viewBox="0 0 64 64" version="1.1">
<defs>
<filter id="alpha" filterUnits="objectBoundingBox" x="0%" y="0%" width="100%" height="100%">
  <feColorMatrix type="matrix" in="SourceGraphic" values="0 0 0 0 1 0 0 0 0 1 0 0 0 0 1 0 0 0 1 0"/>
</filter>
<mask id="mask0">
  <g filter="url(#alpha)">
<rect x="0" y="0" width="64" height="64" style="fill:rgb(0%,0%,0%);fill-opacity:0.3;stroke:none;"/>
  </g>
</mask>
<linearGradient id="linear0" gradientUnits="userSpaceOnUse" x1="0" y1="0" x2="0" y2="1" gradientTransform="matrix(20.449219,0,0,19.835938,36.128906,27.230469)">
<stop offset="0" style="stop-color:rgb(3.921569%,74.117649%,77.64706%);stop-opacity:1;"/>
<stop offset="1" style="stop-color:rgb(72.156864%,0%,100%);stop-opacity:1;"/>
</linearGradient>
<clipPath id="clip1">
  <rect x="0" y="0" width="64" height="64"/>
</clipPath>
<g id="surface5" clip-path="url(#clip1)">
<path style=" stroke:none;fill-rule:nonzero;fill:url(#linear0);" d="M 39.132812 27.230469 L 36.128906 30.351562 L 53.574219 47.066406 L 56.578125 43.945312 Z M 39.132812 27.230469 "/>
</g>
<linearGradient id="linear1" gradientUnits="userSpaceOnUse" x1="0" y1="0" x2="0" y2="1" gradientTransform="matrix(16.675781,0,0,8.730469,45.320312,40.199219)">
<stop offset="0" style="stop-color:rgb(3.921569%,74.117649%,77.64706%);stop-opacity:1;"/>
<stop offset="1" style="stop-color:rgb(72.156864%,0%,100%);stop-opacity:1;"/>
</linearGradient>
<mask id="mask1">
  <g filter="url(#alpha)">
<rect x="0" y="0" width="64" height="64" style="fill:rgb(0%,0%,0%);fill-opacity:0.3;stroke:none;"/>
  </g>
</mask>
<linearGradient id="linear2" gradientUnits="userSpaceOnUse" x1="0" y1="0" x2="0" y2="1" gradientTransform="matrix(4.378906,0,0,17.566406,29.273438,8.28125)">
<stop offset="0" style="stop-color:rgb(3.921569%,74.117649%,77.64706%);stop-opacity:1;"/>
<stop offset="1" style="stop-color:rgb(72.156864%,0%,100%);stop-opacity:1;"/>
</linearGradient>
<clipPath id="clip2">
  <rect x="0" y="0" width="64" height="64"/>
</clipPath>
<g id="surface8" clip-path="url(#clip2)">
<path style=" stroke:none;fill-rule:nonzero;fill:url(#linear2);" d="M 29.273438 8.28125 L 29.3125 25.847656 L 33.652344 25.847656 L 33.613281 8.28125 Z M 29.273438 8.28125 "/>
</g>
<linearGradient id="linear3" gradientUnits="userSpaceOnUse" x1="0" y1="0" x2="0" y2="1" gradientTransform="matrix(18.363281,0,0,9.527344,21.28125,3.601562)">
<stop offset="0" style="stop-color:rgb(3.921569%,74.117649%,77.64706%);stop-opacity:1;"/>
<stop offset="1" style="stop-color:rgb(72.156864%,0%,100%);stop-opacity:1;"/>
</linearGradient>
<mask id="mask2">
  <g filter="url(#alpha)">
<rect x="0" y="0" width="64" height="64" style="fill:rgb(0%,0%,0%);fill-opacity:0.3;stroke:none;"/>
  </g>
</mask>
<linearGradient id="linear4" gradientUnits="userSpaceOnUse" x1="0" y1="0" x2="0" y2="1" gradientTransform="matrix(8.925781,0,0,20.570312,32.316406,35.992187)">
<stop offset="0" style="stop-color:rgb(3.921569%,74.117649%,77.64706%);stop-opacity:1;"/>
<stop offset="1" style="stop-color:rgb(72.156864%,0%,100%);stop-opacity:1;"/>
</linearGradient>
<clipPath id="clip3">
  <rect x="0" y="0" width="64" height="64"/>
</clipPath>
<g id="surface11" clip-path="url(#clip3)">
<path style=" stroke:none;fill-rule:nonzero;fill:url(#linear4);" d="M 36.535156 35.992188 L 32.316406 37.046875 L 37.023438 56.5625 L 41.242188 55.546875 Z M 36.535156 35.992188 "/>
</g>
<mask id="mask3">
  <g filter="url(#alpha)">
<rect x="0" y="0" width="64" height="64" style="fill:rgb(0%,0%,0%);fill-opacity:0.3;stroke:none;"/>
  </g>
</mask>
<linearGradient id="linear5" gradientUnits="userSpaceOnUse" x1="0" y1="0" x2="0" y2="1" gradientTransform="matrix(20.488281,0,0,19.839844,6.878906,14.042969)">
<stop offset="0" style="stop-color:rgb(3.921569%,74.117649%,77.64706%);stop-opacity:1;"/>
<stop offset="1" style="stop-color:rgb(72.156864%,0%,100%);stop-opacity:1;"/>
</linearGradient>
<clipPath id="clip4">
  <rect x="0" y="0" width="64" height="64"/>
</clipPath>
<g id="surface14" clip-path="url(#clip4)">
<path style=" stroke:none;fill-rule:nonzero;fill:url(#linear5);" d="M 9.878906 14.042969 L 6.878906 17.167969 L 24.363281 33.882812 L 27.367188 30.757812 Z M 9.878906 14.042969 "/>
</g>
<linearGradient id="linear6" gradientUnits="userSpaceOnUse" x1="0" y1="0" x2="0" y2="1" gradientTransform="matrix(18.261719,0,0,9.417969,3.160156,14.320312)">
<stop offset="0" style="stop-color:rgb(3.921569%,74.117649%,77.64706%);stop-opacity:1;"/>
<stop offset="1" style="stop-color:rgb(72.156864%,0%,100%);stop-opacity:1;"/>
</linearGradient>
<linearGradient id="linear7" gradientUnits="userSpaceOnUse" x1="0" y1="0" x2="0" y2="1" gradientTransform="matrix(42.722656,0,0,36.714844,18.945313,8.410156)">
<stop offset="0" style="stop-color:rgb(3.921569%,74.117649%,77.64706%);stop-opacity:1;"/>
<stop offset="1" style="stop-color:rgb(72.156864%,0%,100%);stop-opacity:1;"/>
</linearGradient>
<linearGradient id="linear8" gradientUnits="userSpaceOnUse" x1="0" y1="0" x2="0" y2="1" gradientTransform="matrix(16.089844,0,0,9.019531,30.800781,50.960938)">
<stop offset="0" style="stop-color:rgb(3.921569%,74.117649%,77.64706%);stop-opacity:1;"/>
<stop offset="1" style="stop-color:rgb(72.156864%,0%,100%);stop-opacity:1;"/>
</linearGradient>
<linearGradient id="linear9" gradientUnits="userSpaceOnUse" x1="0" y1="0" x2="0" y2="1" gradientTransform="matrix(21.679688,0,0,19.996094,2,38.738281)">
<stop offset="0" style="stop-color:rgb(3.921569%,74.117649%,77.64706%);stop-opacity:1;"/>
<stop offset="1" style="stop-color:rgb(72.156864%,0%,100%);stop-opacity:1;"/>
</linearGradient>
</defs>
<g id="surface1">
<use xlink:href="#surface5" mask="url(#mask0)"/>
<path style=" stroke:none;fill-rule:nonzero;fill:url(#linear1);" d="M 48.019531 40.199219 L 59.296875 40.199219 C 60.789062 40.199219 61.996094 41.410156 61.996094 42.898438 L 61.996094 46.226562 C 61.996094 47.71875 60.789062 48.929688 59.296875 48.929688 L 48.019531 48.929688 C 46.527344 48.929688 45.320312 47.71875 45.320312 46.226562 L 45.320312 42.898438 C 45.320312 41.410156 46.527344 40.199219 48.019531 40.199219 Z M 48.019531 40.199219 "/>
<use xlink:href="#surface8" mask="url(#mask1)"/>
<path style=" stroke:none;fill-rule:nonzero;fill:url(#linear3);" d="M 24.613281 3.601562 L 36.3125 3.601562 C 38.152344 3.601562 39.644531 5.089844 39.644531 6.933594 L 39.644531 9.796875 C 39.644531 11.636719 38.152344 13.128906 36.3125 13.128906 L 24.613281 13.128906 C 22.773438 13.128906 21.28125 11.636719 21.28125 9.796875 L 21.28125 6.933594 C 21.28125 5.089844 22.773438 3.601562 24.613281 3.601562 Z M 24.613281 3.601562 "/>
<use xlink:href="#surface11" mask="url(#mask2)"/>
<use xlink:href="#surface14" mask="url(#mask3)"/>
<path style=" stroke:none;fill-rule:nonzero;fill:url(#linear6);" d="M 6.5 14.320312 L 18.078125 14.320312 C 19.925781 14.320312 21.421875 15.816406 21.421875 17.660156 L 21.421875 20.398438 C 21.421875 22.246094 19.925781 23.738281 18.078125 23.738281 L 6.5 23.738281 C 4.65625 23.738281 3.160156 22.246094 3.160156 20.398438 L 3.160156 17.660156 C 3.160156 15.816406 4.65625 14.320312 6.5 14.320312 Z M 6.5 14.320312 "/>
<path style=" stroke:none;fill-rule:evenodd;fill:url(#linear7);" d="M 60.945312 9.566406 C 60.945312 9.566406 60.402344 8.921875 59.476562 8.5 C 57.167969 7.445312 42.871094 15.980469 41.726562 16.574219 C 40.582031 17.164062 27.753906 24.660156 23.730469 29.214844 C 19.710938 33.769531 19.488281 31.945312 18.945312 36.957031 C 20.328125 38.800781 23.425781 43.125 25.585938 44.875 C 30.746094 45.039062 30.546875 45.980469 35.722656 42.71875 C 40.898438 39.457031 50.269531 28.082031 51.027344 27.058594 C 51.785156 26.035156 61.992188 13.476562 61.660156 11.007812 C 61.539062 10.074219 60.75 9.351562 60.75 9.351562 "/>
<path style=" stroke:none;fill-rule:nonzero;fill:url(#linear8);" d="M 33.941406 50.960938 L 43.753906 50.960938 C 45.484375 50.960938 46.890625 52.367188 46.890625 54.101562 L 46.890625 56.839844 C 46.890625 58.574219 45.484375 59.980469 43.753906 59.980469 L 33.941406 59.980469 C 32.207031 59.980469 30.800781 58.574219 30.800781 56.839844 L 30.800781 54.101562 C 30.800781 52.367188 32.207031 50.960938 33.941406 50.960938 Z M 33.941406 50.960938 "/>
<path style=" stroke:none;fill-rule:evenodd;fill:url(#linear9);" d="M 12.5625 38.757812 C 9.535156 38.992188 7.882812 41.25 7.273438 43.765625 C 6.738281 45.988281 6.371094 47.574219 5.929688 50.179688 C 5.6875 51.597656 1.414062 55.230469 2.1875 57.796875 L 2 57.953125 C 2.117188 58.097656 2.277344 58.144531 2.414062 58.25 C 2.480469 58.363281 2.484375 58.488281 2.578125 58.59375 L 2.71875 58.476562 C 5.101562 59.703125 9.445312 56.167969 10.882812 56.1875 C 13.527344 56.226562 15.15625 56.15625 17.4375 56.03125 C 20.390625 55.871094 23.253906 54.300781 23.539062 50.375 C 23.578125 49.828125 23.871094 49.203125 23.476562 48.835938 C 22.34375 47.792969 20.597656 45.941406 19.367188 44.296875 L 19.390625 44.273438 C 17.933594 42.753906 16.3125 40.507812 15.445312 39.132812 C 15.15625 38.675781 14.488281 38.847656 13.945312 38.789062 C 13.457031 38.734375 12.996094 38.722656 12.5625 38.757812 Z M 12.5625 38.757812 "/>
</g>
</svg>
