<?xml version="1.0" encoding="UTF-8"?>
<svg xmlns="http://www.w3.org/2000/svg" xmlns:xlink="http://www.w3.org/1999/xlink" width="64px" height="64px" viewBox="0 0 64 64" version="1.1">
<defs>
<linearGradient id="linear0" gradientUnits="userSpaceOnUse" x1="0" y1="0" x2="0" y2="1" gradientTransform="matrix(56,0,0,56,4,4)">
<stop offset="0" style="stop-color:rgb(32.156864%,36.078432%,40.000001%);stop-opacity:1;"/>
<stop offset="1" style="stop-color:rgb(21.176471%,25.882354%,30.588236%);stop-opacity:1;"/>
</linearGradient>
</defs>
<g id="surface1">
<path style=" stroke:none;fill-rule:nonzero;fill:url(#linear0);" d="M 60 32 C 60 47.464844 47.464844 60 32 60 C 16.535156 60 4 47.464844 4 32 C 4 16.535156 16.535156 4 32 4 C 47.464844 4 60 16.535156 60 32 Z M 60 32 "/>
<path style=" stroke:none;fill-rule:nonzero;fill:rgb(92.54902%,92.54902%,92.54902%);fill-opacity:1;" d="M 33.054688 16.015625 C 31.820312 16.0625 30.5625 16.242188 29.265625 16.5625 C 21.578125 18.269531 15.898438 24.960938 16 32 L 12 32 L 18 40 L 24 32 L 20 32 C 19.980469 28.917969 21.601562 25.859375 24.015625 23.648438 C 28.183594 19.582031 34.371094 18.675781 39.648438 21.523438 C 41.476562 23.648438 45.550781 21.359375 43.375 19.164062 C 40.179688 16.953125 36.753906 15.875 33.054688 16.015625 Z M 46 24 L 40 32 L 44 32 C 44.019531 35.082031 42.398438 38.140625 39.984375 40.351562 C 35.816406 44.417969 29.628906 45.324219 24.351562 42.476562 C 22.523438 40.351562 18.449219 42.640625 20.625 44.835938 C 24.886719 47.78125 29.546875 48.726562 34.734375 47.4375 C 42.421875 45.730469 48.101562 39.039062 48 32 L 52 32 Z M 46 24 "/>
</g>
</svg>
