<?xml version="1.0" encoding="UTF-8"?>
<svg xmlns="http://www.w3.org/2000/svg" xmlns:xlink="http://www.w3.org/1999/xlink" width="64px" height="64px" viewBox="0 0 64 64" version="1.1">
<defs>
<linearGradient id="linear0" gradientUnits="userSpaceOnUse" x1="0" y1="0" x2="0" y2="1" gradientTransform="matrix(56,0,0,56,4,4)">
<stop offset="0" style="stop-color:rgb(32.156864%,36.078432%,40.000001%);stop-opacity:1;"/>
<stop offset="1" style="stop-color:rgb(21.176471%,25.882354%,30.588236%);stop-opacity:1;"/>
</linearGradient>
</defs>
<g id="surface1">
<path style=" stroke:none;fill-rule:nonzero;fill:url(#linear0);" d="M 60 32 C 60 47.464844 47.464844 60 32 60 C 16.535156 60 4 47.464844 4 32 C 4 16.535156 16.535156 4 32 4 C 47.464844 4 60 16.535156 60 32 Z M 60 32 "/>
<path style=" stroke:none;fill-rule:nonzero;fill:rgb(92.54902%,92.54902%,92.54902%);fill-opacity:1;" d="M 38 18 C 34.6875 18 32 20.6875 32 24 C 32 24.460938 32.089844 24.878906 32.1875 25.3125 L 25.75 29.3125 C 24.722656 28.488281 23.417969 28 22 28 C 18.6875 28 16 30.6875 16 34 C 16 37.3125 18.6875 40 22 40 C 23.417969 40 24.722656 39.511719 25.75 38.6875 L 32.1875 42.6875 C 32.089844 43.121094 32 43.539062 32 44 C 32 47.3125 34.6875 50 38 50 C 41.3125 50 44 47.3125 44 44 C 44 40.6875 41.3125 38 38 38 C 36.582031 38 35.277344 38.488281 34.25 39.3125 L 27.8125 35.3125 C 27.910156 34.878906 28 34.460938 28 34 C 28 33.539062 27.910156 33.121094 27.8125 32.6875 L 34.25 28.6875 C 35.277344 29.511719 36.582031 30 38 30 C 41.3125 30 44 27.3125 44 24 C 44 20.6875 41.3125 18 38 18 Z M 38 18 "/>
</g>
</svg>
