<?xml version="1.0" encoding="UTF-8"?>
<svg xmlns="http://www.w3.org/2000/svg" xmlns:xlink="http://www.w3.org/1999/xlink" width="64px" height="64px" viewBox="0 0 64 64" version="1.1">
<defs>
<linearGradient id="linear0" gradientUnits="userSpaceOnUse" x1="0" y1="0" x2="0" y2="1" gradientTransform="matrix(34.90625,0,0,64,0,0)">
<stop offset="0" style="stop-color:rgb(3.921569%,74.117649%,77.64706%);stop-opacity:1;"/>
<stop offset="1" style="stop-color:rgb(72.156864%,0%,100%);stop-opacity:1;"/>
</linearGradient>
<linearGradient id="linear1" gradientUnits="userSpaceOnUse" x1="0" y1="0" x2="0" y2="1" gradientTransform="matrix(25.441406,0,0,64,38.558594,0)">
<stop offset="0" style="stop-color:rgb(3.921569%,74.117649%,77.64706%);stop-opacity:1;"/>
<stop offset="1" style="stop-color:rgb(72.156864%,0%,100%);stop-opacity:1;"/>
</linearGradient>
</defs>
<g id="surface1">
<path style=" stroke:none;fill-rule:nonzero;fill:url(#linear0);" d="M 0 0 L 0 64 L 10.296875 64 C 10.335938 55.660156 10.214844 47.316406 10.367188 38.976562 C 10.625 35.0625 10.824219 30.074219 14.292969 27.929688 C 16.203125 26.746094 18.761719 26.460938 20.863281 27.195312 C 23.945312 28.273438 24.464844 32.546875 24.597656 35.625 C 24.648438 45.082031 24.605469 54.542969 24.617188 64 L 34.875 64 C 34.855469 53.371094 34.953125 42.628906 34.875 32 C 34.769531 26.660156 32.734375 20.808594 27.988281 18.371094 C 23.925781 16.289062 19.121094 16.910156 15 18.589844 C 13.054688 19.382812 10.371094 23.242188 10.371094 23.242188 C 10.347656 15.496094 10.324219 7.746094 10.296875 0 Z M 0 0 "/>
<path style=" stroke:none;fill-rule:evenodd;fill:url(#linear1);" d="M 47.496094 27.34375 L 47.5 17.917969 L 38.578125 17.914062 L 38.582031 9.476562 L 47.503906 9.484375 L 47.511719 0 L 55.136719 0.00390625 L 55.128906 9.488281 L 64 9.492188 L 63.996094 17.929688 L 55.125 17.921875 L 55.121094 27.347656 Z M 47.476562 63.996094 L 47.480469 54.570312 L 38.558594 54.566406 L 38.5625 46.128906 L 47.484375 46.132812 L 47.492188 36.652344 L 55.117188 36.65625 L 55.109375 46.140625 L 63.980469 46.144531 L 63.976562 54.582031 L 55.105469 54.574219 L 55.101562 64 Z M 47.476562 63.996094 "/>
</g>
</svg>
