<?xml version="1.0" encoding="UTF-8"?>
<svg xmlns="http://www.w3.org/2000/svg" xmlns:xlink="http://www.w3.org/1999/xlink" width="64px" height="64px" viewBox="0 0 64 64" version="1.1">
<defs>
<linearGradient id="linear0" gradientUnits="userSpaceOnUse" x1="0" y1="0" x2="0" y2="1" gradientTransform="matrix(64,0,0,50.289063,0,6.855469)">
<stop offset="0" style="stop-color:rgb(3.921569%,74.117649%,77.64706%);stop-opacity:1;"/>
<stop offset="1" style="stop-color:rgb(72.156864%,0%,100%);stop-opacity:1;"/>
</linearGradient>
</defs>
<g id="surface1">
<path style=" stroke:none;fill-rule:evenodd;fill:url(#linear0);" d="M 13.714844 52.570312 L 13.714844 57.144531 L 64 57.144531 L 64 52.570312 Z M 13.714844 6.855469 L 13.714844 11.429688 L 64 11.429688 L 64 6.855469 Z M 13.714844 25.144531 L 13.714844 29.714844 L 64 29.714844 L 64 25.144531 Z M 13.714844 34.285156 L 13.714844 38.855469 L 64 38.855469 L 64 34.285156 Z M 13.714844 43.429688 L 13.714844 48 L 64 48 L 64 43.429688 Z M 13.714844 16 L 13.714844 20.570312 L 64 20.570312 L 64 16 Z M 0 6.855469 L 9.144531 6.855469 L 9.144531 11.429688 L 0 11.429688 Z M 0 16 L 9.144531 16 L 9.144531 20.570312 L 0 20.570312 Z M 0 25.144531 L 9.144531 25.144531 L 9.144531 29.714844 L 0 29.714844 Z M 0 34.285156 L 9.144531 34.285156 L 9.144531 38.855469 L 0 38.855469 Z M 0 43.429688 L 9.144531 43.429688 L 9.144531 48 L 0 48 Z M 0 52.570312 L 9.144531 52.570312 L 9.144531 57.144531 L 0 57.144531 Z M 0 52.570312 "/>
</g>
</svg>
