<?xml version="1.0" encoding="UTF-8"?>
<svg xmlns="http://www.w3.org/2000/svg" xmlns:xlink="http://www.w3.org/1999/xlink" width="64px" height="64px" viewBox="0 0 64 64" version="1.1">
<defs>
<linearGradient id="linear0" gradientUnits="userSpaceOnUse" x1="0" y1="0" x2="0" y2="1" gradientTransform="matrix(63.953125,0,0,64,0.0234375,0)">
<stop offset="0" style="stop-color:rgb(3.921569%,74.117649%,77.64706%);stop-opacity:1;"/>
<stop offset="1" style="stop-color:rgb(72.156864%,0%,100%);stop-opacity:1;"/>
</linearGradient>
</defs>
<g id="surface1">
<path style=" stroke:none;fill-rule:nonzero;fill:url(#linear0);" d="M 32.523438 0 L 32.457031 1.976562 L 34.292969 2.035156 L 36.597656 2.308594 L 36.828125 0.347656 L 34.523438 0.0703125 L 34.445312 0.0703125 Z M 28.128906 0.246094 L 26.460938 0.46875 L 26.414062 0.476562 L 26.375 0.484375 L 23.875 1.042969 L 24.300781 2.96875 L 26.722656 2.429688 L 26.746094 2.429688 L 28.390625 2.199219 Z M 41.125 1.320312 L 40.5625 3.210938 L 41.804688 3.578125 L 44.234375 4.535156 L 44.242188 4.535156 L 44.3125 4.566406 L 44.390625 4.605469 L 45.269531 2.847656 L 45.113281 2.769531 L 45.078125 2.746094 L 45.039062 2.730469 L 42.53125 1.742188 L 42.453125 1.710938 Z M 19.710938 2.476562 L 18.730469 2.871094 L 18.691406 2.886719 L 18.652344 2.910156 L 16.300781 4.105469 L 16.261719 4.128906 L 16.230469 4.152344 L 15.761719 4.4375 L 16.808594 6.117188 L 17.203125 5.863281 L 17.25 5.839844 L 17.273438 5.824219 L 19.554688 4.667969 L 20.453125 4.304688 Z M 55.746094 2.660156 C 52.628906 2.660156 50.105469 5.183594 50.105469 8.300781 C 50.105469 11.417969 52.628906 13.949219 55.746094 13.949219 C 58.863281 13.949219 61.382812 11.417969 61.382812 8.300781 C 61.382812 5.183594 58.863281 2.660156 55.746094 2.660156 Z M 12.195312 6.890625 L 11.75 7.222656 L 11.71875 7.242188 L 11.6875 7.273438 L 9.667969 9.09375 L 9.628906 9.117188 L 9.605469 9.148438 L 8.941406 9.859375 L 10.382812 11.210938 L 10.984375 10.5625 L 11.046875 10.5 L 12.9375 8.800781 L 12.945312 8.792969 L 13.386719 8.464844 Z M 32.046875 7.175781 C 18.335938 7.175781 7.222656 18.289062 7.222656 32 C 7.222656 45.710938 18.335938 56.824219 32.046875 56.824219 C 45.757812 56.824219 56.871094 45.710938 56.871094 32 C 56.871094 18.289062 45.757812 7.175781 32.046875 7.175781 Z M 6.15625 13.175781 L 5.886719 13.523438 L 5.855469 13.5625 L 5.832031 13.601562 L 4.296875 16 L 4.273438 16.03125 L 4.257812 16.078125 L 3.820312 16.925781 L 5.570312 17.828125 L 5.996094 17.003906 L 6.007812 16.980469 L 7.445312 14.734375 L 7.46875 14.703125 L 7.5 14.65625 L 7.714844 14.386719 Z M 42.207031 16.199219 C 45.324219 16.203125 47.847656 18.730469 47.847656 21.847656 C 47.84375 24.960938 45.320312 27.484375 42.207031 27.488281 C 39.089844 27.488281 36.5625 24.964844 36.558594 21.847656 C 36.558594 18.726562 39.085938 16.199219 42.207031 16.199219 Z M 60.597656 17.503906 L 58.800781 18.320312 L 59.949219 20.867188 L 59.957031 20.882812 L 60.398438 22.148438 L 62.265625 21.5 L 61.792969 20.152344 L 61.777344 20.105469 L 61.753906 20.066406 Z M 2.027344 20.867188 L 1.882812 21.230469 L 1.859375 21.277344 L 1.851562 21.316406 L 1.042969 23.960938 L 1.027344 24.007812 L 1.019531 24.046875 L 0.792969 25.109375 L 2.730469 25.511719 L 2.945312 24.484375 L 2.953125 24.457031 L 3.710938 21.980469 L 3.734375 21.925781 L 3.742188 21.894531 L 3.855469 21.609375 Z M 63.445312 25.75 L 61.5 26.058594 L 61.902344 28.621094 L 62.007812 30.179688 L 63.976562 30.046875 L 63.875 28.488281 L 63.867188 28.445312 L 63.863281 28.40625 Z M 0.140625 29.386719 L 0.117188 29.546875 L 0.109375 29.59375 L 0.109375 29.640625 L 0.0234375 32.371094 L 0.0234375 32.464844 L 0.101562 33.796875 L 2.074219 33.683594 L 2 32.378906 L 2 32.347656 L 2.082031 29.738281 L 2.097656 29.617188 Z M 62 34.246094 L 61.722656 36.691406 L 61.386719 38.347656 L 63.320312 38.75 L 63.660156 37.089844 L 63.667969 37.046875 L 63.675781 37 L 63.960938 34.46875 Z M 2.554688 37.722656 L 0.632812 38.179688 L 1.242188 40.757812 L 1.257812 40.800781 L 1.265625 40.839844 L 1.773438 42.351562 L 3.648438 41.726562 L 3.148438 40.246094 L 3.140625 40.214844 Z M 60.28125 42.253906 L 59.355469 44.535156 L 59.347656 44.550781 L 58.578125 46.039062 L 60.335938 46.945312 L 61.136719 45.378906 L 61.160156 45.339844 L 61.175781 45.292969 L 62.109375 42.992188 Z M 5.199219 45.476562 L 3.472656 46.425781 L 4.691406 48.640625 L 4.738281 48.71875 L 5.699219 50.144531 L 7.335938 49.035156 L 6.417969 47.691406 L 6.394531 47.644531 L 6.371094 47.613281 Z M 56.457031 49.503906 L 55.089844 51.285156 L 55.082031 51.292969 L 53.800781 52.691406 L 55.25 54.03125 L 56.546875 52.621094 L 56.578125 52.589844 L 56.601562 52.558594 L 58.019531 50.699219 Z M 9.84375 52.226562 L 8.441406 53.609375 L 10.261719 55.460938 L 10.292969 55.492188 L 10.320312 55.515625 L 11.585938 56.585938 L 12.859375 55.074219 L 11.664062 54.070312 L 11.648438 54.046875 Z M 50.808594 55.445312 L 49.101562 56.742188 L 49.074219 56.765625 L 49.027344 56.792969 L 47.398438 57.804688 L 48.441406 59.480469 L 50.144531 58.414062 L 50.222656 58.367188 L 52.003906 57.019531 Z M 16.140625 57.472656 L 15.152344 59.1875 L 17.289062 60.414062 L 17.328125 60.4375 L 17.367188 60.453125 L 18.984375 61.199219 L 19.8125 59.410156 L 18.277344 58.699219 Z M 43.78125 59.640625 L 41.875 60.398438 L 41.851562 60.40625 L 39.851562 60.992188 L 40.410156 62.890625 L 42.429688 62.296875 L 42.476562 62.28125 L 42.515625 62.265625 L 44.503906 61.476562 Z M 23.621094 60.820312 L 23.128906 62.734375 L 25.382812 63.3125 L 25.417969 63.328125 L 25.464844 63.335938 L 27.355469 63.644531 L 27.679688 61.703125 L 25.789062 61.386719 Z M 35.863281 61.777344 L 33.984375 61.988281 L 33.960938 61.988281 L 31.722656 62.023438 L 31.761719 64 L 34.011719 63.960938 L 34.058594 63.960938 L 34.105469 63.953125 L 36.082031 63.746094 Z M 35.863281 61.777344 "/>
</g>
</svg>
