<?xml version="1.0" encoding="UTF-8"?>
<svg xmlns="http://www.w3.org/2000/svg" xmlns:xlink="http://www.w3.org/1999/xlink" width="64px" height="64px" viewBox="0 0 64 64" version="1.1">
<defs>
<linearGradient id="linear0" gradientUnits="userSpaceOnUse" x1="0" y1="0" x2="0" y2="1" gradientTransform="matrix(53.328125,0,0,64,5.335938,0)">
<stop offset="0" style="stop-color:rgb(3.921569%,74.117649%,77.64706%);stop-opacity:1;"/>
<stop offset="1" style="stop-color:rgb(72.156864%,0%,100%);stop-opacity:1;"/>
</linearGradient>
</defs>
<g id="surface1">
<path style=" stroke:none;fill-rule:nonzero;fill:url(#linear0);" d="M 52.464844 27.398438 C 52.539062 29.128906 51.941406 29.96875 51.414062 31.445312 L 50.464844 31.910156 C 49.671875 33.378906 50.53125 32.847656 49.964844 34.007812 C 48.75 35.058594 46.261719 37.292969 45.46875 37.492188 C 44.878906 37.480469 45.855469 36.832031 45.980469 36.574219 C 44.34375 37.660156 44.667969 38.203125 42.164062 38.867188 L 42.089844 38.707031 C 35.917969 41.507812 27.335938 35.957031 27.457031 28.382812 C 27.382812 28.867188 27.269531 28.742188 27.132812 28.941406 C 26.808594 25.039062 28.996094 21.125 32.675781 19.527344 C 36.289062 17.808594 40.515625 18.507812 43.09375 20.828125 C 41.683594 19.042969 38.855469 17.148438 35.511719 17.324219 C 32.230469 17.367188 29.164062 19.382812 28.136719 21.550781 C 26.460938 22.570312 26.273438 25.484375 25.535156 26.011719 C 24.546875 32.988281 27.382812 36.007812 32.1875 39.542969 C 32.941406 40.027344 32.398438 40.101562 32.503906 40.480469 C 30.90625 39.753906 29.433594 38.675781 28.242188 37.34375 C 28.882812 38.246094 29.5625 39.117188 30.453125 39.808594 C 28.957031 39.3125 26.9375 36.292969 26.355469 36.167969 C 28.945312 40.648438 36.863281 44.019531 41.019531 42.335938 C 39.097656 42.410156 36.652344 42.382812 34.503906 41.613281 C 33.589844 41.160156 32.367188 40.230469 32.585938 40.058594 C 38.234375 42.097656 44.089844 41.605469 48.992188 37.816406 C 50.226562 36.882812 51.59375 35.285156 51.992188 35.269531 C 51.375 36.128906 52.082031 35.675781 51.632812 36.445312 C 52.875 34.515625 51.097656 35.65625 52.914062 33.105469 L 53.59375 33.996094 C 53.34375 32.394531 55.652344 30.453125 55.425781 27.914062 C 55.957031 27.136719 56.007812 28.753906 55.457031 30.539062 C 56.230469 28.558594 55.652344 28.242188 55.855469 26.601562 C 56.074219 27.160156 56.355469 27.734375 56.503906 28.316406 C 55.996094 26.40625 57.023438 25.09375 57.28125 23.992188 C 57.023438 23.875 56.488281 24.832031 56.375 22.578125 C 56.386719 21.589844 56.660156 22.070312 56.753906 21.824219 C 56.558594 21.710938 56.027344 20.984375 55.714844 19.535156 C 55.945312 19.199219 56.332031 20.414062 56.648438 20.472656 C 56.453125 19.324219 56.089844 18.445312 56.082031 17.5625 C 55.160156 15.714844 55.757812 17.847656 55.011719 16.777344 C 54.039062 13.828125 55.820312 16.097656 55.949219 14.753906 C 57.425781 16.828125 58.277344 20.027344 58.664062 21.363281 C 58.371094 19.742188 57.890625 18.171875 57.304688 16.648438 C 57.753906 16.835938 56.574219 13.351562 57.890625 15.652344 C 56.492188 10.679688 51.898438 6.042969 47.683594 3.871094 C 48.195312 4.324219 48.847656 4.902344 48.617188 4.984375 C 46.519531 3.789062 46.882812 3.695312 46.582031 3.183594 C 44.867188 2.507812 44.753906 3.230469 43.621094 3.183594 C 40.402344 1.53125 39.78125 1.710938 36.8125 0.652344 L 36.949219 1.269531 C 34.8125 0.589844 34.464844 1.53125 32.144531 1.269531 C 32.007812 1.164062 32.890625 0.882812 33.613281 0.777344 C 31.546875 1.050781 31.644531 0.386719 29.632812 0.851562 C 30.125 0.511719 30.648438 0.292969 31.183594 0 C 29.496094 0.105469 27.164062 0.957031 27.886719 0.179688 C 25.136719 1.363281 20.261719 3.023438 17.523438 5.496094 L 17.429688 4.9375 C 16.183594 6.386719 11.964844 9.269531 11.628906 11.160156 L 11.292969 11.230469 C 10.640625 12.292969 10.210938 13.5 9.695312 14.597656 C 8.851562 16.003906 8.449219 15.132812 8.5625 15.355469 C 6.882812 18.636719 6.058594 21.394531 5.335938 23.660156 C 5.847656 24.398438 5.34375 28.117188 5.546875 31.089844 C 4.695312 45.777344 16.234375 60.023438 28.832031 63.320312 C 30.6875 63.957031 33.425781 63.9375 35.765625 64 C 33.019531 63.238281 32.648438 63.59375 29.964844 62.6875 C 28.035156 61.808594 27.605469 60.8125 26.230469 59.65625 L 26.773438 60.582031 C 24.089844 59.667969 25.210938 59.445312 23.023438 58.773438 L 23.605469 58.050781 C 22.738281 57.988281 21.289062 56.636719 20.894531 55.875 L 19.945312 55.921875 C 18.796875 54.546875 18.179688 53.574219 18.230469 52.804688 L 17.921875 53.339844 C 17.574219 52.753906 13.699219 48.222656 15.714844 49.28125 C 15.335938 48.945312 14.847656 48.746094 14.300781 47.800781 L 14.710938 47.351562 C 13.746094 46.152344 12.9375 44.609375 12.996094 44.109375 C 13.511719 44.777344 13.871094 44.894531 14.226562 45.011719 C 11.78125 39.175781 11.644531 44.695312 9.800781 39.070312 L 10.191406 39.039062 C 9.898438 38.609375 9.714844 38.140625 9.460938 37.675781 L 9.640625 36.042969 C 7.882812 34.078125 9.148438 27.710938 9.398438 24.230469 C 9.578125 22.800781 10.867188 21.289062 11.84375 18.921875 L 11.246094 18.824219 C 12.386719 16.90625 17.769531 11.105469 20.246094 11.398438 C 21.453125 9.9375 20.003906 11.398438 19.777344 11.03125 C 22.417969 8.375 23.253906 9.152344 25.050781 8.679688 C 27.003906 7.578125 23.390625 9.109375 24.324219 8.261719 C 27.621094 7.441406 26.6875 6.394531 31.039062 5.976562 C 31.5 6.226562 29.96875 6.363281 29.589844 6.6875 C 32.371094 5.375 38.371094 5.675781 42.285156 7.417969 C 46.828125 9.46875 51.917969 15.5 52.113281 21.183594 L 52.347656 21.238281 C 52.234375 23.515625 52.703125 26.117188 51.886719 28.507812 L 52.445312 27.375 "/>
</g>
</svg>
