<?xml version="1.0" encoding="UTF-8"?>
<svg xmlns="http://www.w3.org/2000/svg" xmlns:xlink="http://www.w3.org/1999/xlink" width="64px" height="64px" viewBox="0 0 64 64" version="1.1">
<defs>
<linearGradient id="linear0" gradientUnits="userSpaceOnUse" x1="0" y1="0" x2="0" y2="1" gradientTransform="matrix(54.859375,0,0,64,4.570312,0)">
<stop offset="0" style="stop-color:rgb(3.921569%,74.117649%,77.64706%);stop-opacity:1;"/>
<stop offset="1" style="stop-color:rgb(72.156864%,0%,100%);stop-opacity:1;"/>
</linearGradient>
</defs>
<g id="surface1">
<path style=" stroke:none;fill-rule:nonzero;fill:url(#linear0);" d="M 22.929688 0 C 21.609375 1.894531 20.542969 8.394531 24.359375 11.605469 C 28.867188 15.449219 29.824219 20.074219 29.824219 27.074219 C 29.824219 36.917969 22.058594 44.804688 27.515625 54.148438 C 12.253906 40.6875 27.632812 20.488281 16.019531 12.304688 C 20.613281 24.613281 4.523438 31.996094 4.570312 43.9375 C 4.53125 56.609375 13.734375 63.992188 24.761719 63.96875 C 16.898438 60.542969 13.3125 50.207031 13.726562 44.308594 C 19.257812 57.726562 27.511719 63.996094 41.316406 63.996094 C 36 56.566406 35.128906 55.625 34.824219 50.894531 C 34.851562 46.53125 36.496094 45.558594 39.367188 40.097656 C 46.597656 27.953125 43.292969 15.695312 33.449219 9.972656 C 31.449219 8.90625 30.910156 8.609375 27.265625 7.082031 C 25.164062 6.03125 23.074219 3.753906 22.929688 0.00390625 M 47.585938 20.570312 C 54.875 30.558594 46.574219 38.671875 42.761719 44.789062 C 39.636719 49.597656 42.644531 57.550781 45.914062 64 C 46.203125 58.546875 49.597656 54.789062 52.34375 52.847656 C 60.757812 46.070312 61.023438 37.207031 56.5625 29.320312 C 53.761719 24.992188 51.285156 23.589844 47.585938 20.570312 "/>
</g>
</svg>
