<?xml version="1.0" encoding="UTF-8"?>
<svg xmlns="http://www.w3.org/2000/svg" xmlns:xlink="http://www.w3.org/1999/xlink" width="64px" height="64px" viewBox="0 0 64 64" version="1.1">
<defs>
<linearGradient id="linear0" gradientUnits="userSpaceOnUse" x1="0" y1="0" x2="0" y2="1" gradientTransform="matrix(64,0,0,31.996094,0,25.628906)">
<stop offset="0" style="stop-color:rgb(3.921569%,74.117649%,77.64706%);stop-opacity:1;"/>
<stop offset="1" style="stop-color:rgb(72.156864%,0%,100%);stop-opacity:1;"/>
</linearGradient>
<filter id="alpha" filterUnits="objectBoundingBox" x="0%" y="0%" width="100%" height="100%">
  <feColorMatrix type="matrix" in="SourceGraphic" values="0 0 0 0 1 0 0 0 0 1 0 0 0 0 1 0 0 0 1 0"/>
</filter>
<image id="image13" width="64" height="64" xlink:href="data:image/png;base64,iVBORw0KGgoAAAANSUhEUgAAAEAAAABACAYAAACqaXHeAAAABmJLR0QA/wD/AP+gvaeTAAAAf0lEQVR4nO3aMRHAMAADMadsyp9GQRWGhrwQ/Hn2liRJkuRGZ9urI6Sz7dMR0qMDtAbQAVoD6ACtAXSA1gA6QGsAHaA1gA7QGkAHaA2gA7QG0AFaA+gArQF0gNYAOkBrAB2gNYAO0BpAB2gNoAO0BtABWgPoAO36m1ySJEmSO/09HAFsO4YrNAAAAABJRU5ErkJggg=="/>
<mask id="mask0">
  <g filter="url(#alpha)">
<use xlink:href="#image13"/>
  </g>
</mask>
<linearGradient id="linear1" gradientUnits="userSpaceOnUse" x1="0" y1="0" x2="0" y2="1" gradientTransform="matrix(64,0,0,32,0,16)">
<stop offset="0" style="stop-color:rgb(3.921569%,74.117649%,77.64706%);stop-opacity:1;"/>
<stop offset="1" style="stop-color:rgb(72.156864%,0%,100%);stop-opacity:1;"/>
</linearGradient>
<clipPath id="clip1">
  <rect x="0" y="0" width="64" height="64"/>
</clipPath>
<g id="surface12" clip-path="url(#clip1)">
<path style=" stroke:none;fill-rule:nonzero;fill:url(#linear1);" d="M 32.894531 48 L 0 32.371094 L 31.105469 16 L 64 31.628906 Z M 32.894531 48 "/>
</g>
<image id="image25" width="64" height="64" xlink:href="data:image/png;base64,iVBORw0KGgoAAAANSUhEUgAAAEAAAABACAYAAACqaXHeAAAABmJLR0QA/wD/AP+gvaeTAAAAf0lEQVR4nO3QQQ3DQADEwG10CIqt0AMoLDqPeBBY3pJX+2z76QjpbPvqCOnSAVoDdIDWAB2gNUAHaA3QAVoDdIDWAB2gNUAHaA3QAVoDdIDWAB2gNUAHaA3QAVoDdIDWAB2gNUAHaA3QAVoDdID2+gFn260jkiRJkiRJkiT5jwf0HQGMSSXWVwAAAABJRU5ErkJggg=="/>
<mask id="mask1">
  <g filter="url(#alpha)">
<use xlink:href="#image25"/>
  </g>
</mask>
<linearGradient id="linear2" gradientUnits="userSpaceOnUse" x1="0" y1="0" x2="0" y2="1" gradientTransform="matrix(64,0,0,31.996094,0,6.375)">
<stop offset="0" style="stop-color:rgb(3.921569%,74.117649%,77.64706%);stop-opacity:1;"/>
<stop offset="1" style="stop-color:rgb(72.156864%,0%,100%);stop-opacity:1;"/>
</linearGradient>
<clipPath id="clip2">
  <rect x="0" y="0" width="64" height="64"/>
</clipPath>
<g id="surface24" clip-path="url(#clip2)">
<path style=" stroke:none;fill-rule:nonzero;fill:url(#linear2);" d="M 32.894531 38.371094 L 0 22.746094 L 31.105469 6.375 L 64 22 Z M 32.894531 38.371094 "/>
</g>
</defs>
<g id="surface1">
<path style=" stroke:none;fill-rule:nonzero;fill:url(#linear0);" d="M 32.894531 57.625 L 0 42 L 31.105469 25.628906 L 64 41.253906 Z M 32.894531 57.625 "/>
<use xlink:href="#surface12" mask="url(#mask0)"/>
<use xlink:href="#surface24" mask="url(#mask1)"/>
</g>
</svg>
