<?xml version="1.0" encoding="UTF-8"?>
<svg xmlns="http://www.w3.org/2000/svg" xmlns:xlink="http://www.w3.org/1999/xlink" width="64px" height="64px" viewBox="0 0 64 64" version="1.1">
<defs>
<linearGradient id="linear0" gradientUnits="userSpaceOnUse" x1="0" y1="0" x2="0" y2="1" gradientTransform="matrix(40,0,0,60.039062,12,-0.0390625)">
<stop offset="0" style="stop-color:rgb(3.921569%,74.117649%,77.64706%);stop-opacity:1;"/>
<stop offset="1" style="stop-color:rgb(72.156864%,0%,100%);stop-opacity:1;"/>
</linearGradient>
</defs>
<g id="surface1">
<path style=" stroke:none;fill-rule:nonzero;fill:url(#linear0);" d="M 16 0 C 16 0 12 0 12 4 L 12 60 L 32 48 L 52 60 L 52 4 C 52 4 52 0 48 0 C 41.5625 0 40.503906 0.0195312 36.460938 -0.0390625 L 31.71875 11.195312 L 42.09375 20.234375 L 31.234375 34.921875 L 35.210938 21.242188 L 21.90625 12.265625 L 25.820312 0.046875 C 20.347656 0.0273438 20.335938 0 16 0 Z M 16 0 "/>
</g>
</svg>
