<?xml version="1.0" encoding="UTF-8"?>
<svg xmlns="http://www.w3.org/2000/svg" xmlns:xlink="http://www.w3.org/1999/xlink" width="64px" height="64px" viewBox="0 0 64 64" version="1.1">
<defs>
<filter id="alpha" filterUnits="objectBoundingBox" x="0%" y="0%" width="100%" height="100%">
  <feColorMatrix type="matrix" in="SourceGraphic" values="0 0 0 0 1 0 0 0 0 1 0 0 0 0 1 0 0 0 1 0"/>
</filter>
<mask id="mask0">
  <g filter="url(#alpha)">
<rect x="0" y="0" width="64" height="64" style="fill:rgb(0%,0%,0%);fill-opacity:0.3;stroke:none;"/>
  </g>
</mask>
<linearGradient id="linear0" gradientUnits="userSpaceOnUse" x1="0" y1="0" x2="0" y2="1" gradientTransform="matrix(32,0,0,24,16,29.332031)">
<stop offset="0" style="stop-color:rgb(3.921569%,74.117649%,77.64706%);stop-opacity:1;"/>
<stop offset="1" style="stop-color:rgb(72.156864%,0%,100%);stop-opacity:1;"/>
</linearGradient>
<clipPath id="clip1">
  <rect x="0" y="0" width="64" height="64"/>
</clipPath>
<g id="surface5" clip-path="url(#clip1)">
<path style=" stroke:none;fill-rule:nonzero;fill:url(#linear0);" d="M 18.667969 29.332031 C 17.195312 29.332031 16 30.527344 16 32 C 16 32.097656 16.003906 32.199219 16.015625 32.296875 C 16.183594 38.789062 21.863281 44.097656 29.332031 45.136719 L 29.332031 48 L 21.332031 48 C 19.859375 48 18.667969 49.195312 18.667969 50.667969 C 18.667969 52.140625 19.859375 53.332031 21.332031 53.332031 L 42.667969 53.332031 C 44.140625 53.332031 45.332031 52.140625 45.332031 50.667969 C 45.332031 49.195312 44.140625 48 42.667969 48 L 34.667969 48 L 34.667969 45.136719 C 42.144531 44.097656 47.828125 38.769531 47.984375 32.265625 C 47.992188 32.175781 48 32.089844 48 32 C 48 30.527344 46.804688 29.332031 45.332031 29.332031 C 43.859375 29.332031 42.667969 30.527344 42.667969 32 L 42.625 32 C 42.402344 37.515625 38.863281 40 32 40 C 25.136719 40 21.597656 37.515625 21.375 32 L 21.332031 32 C 21.332031 30.527344 20.140625 29.332031 18.667969 29.332031 Z M 18.667969 29.332031 "/>
</g>
<mask id="mask1">
  <g filter="url(#alpha)">
<rect x="0" y="0" width="64" height="64" style="fill:rgb(0%,0%,0%);fill-opacity:0.3;stroke:none;"/>
  </g>
</mask>
<linearGradient id="linear1" gradientUnits="userSpaceOnUse" x1="0" y1="0" x2="0" y2="1" gradientTransform="matrix(0,-26.664063,-21.335938,0,42.667969,37.332031)">
<stop offset="0" style="stop-color:rgb(3.921569%,74.117649%,77.64706%);stop-opacity:1;"/>
<stop offset="1" style="stop-color:rgb(72.156864%,0%,100%);stop-opacity:1;"/>
</linearGradient>
<clipPath id="clip2">
  <rect x="0" y="0" width="64" height="64"/>
</clipPath>
<g id="surface8" clip-path="url(#clip2)">
<path style=" stroke:none;fill-rule:nonzero;fill:url(#linear1);" d="M 42.667969 26.222656 L 42.667969 21.777344 C 42.667969 15.640625 37.890625 10.667969 32 10.667969 C 26.109375 10.667969 21.332031 15.640625 21.332031 21.777344 L 21.332031 26.222656 C 21.332031 32.359375 26.109375 37.332031 32 37.332031 C 37.890625 37.332031 42.667969 32.359375 42.667969 26.222656 Z M 42.667969 26.222656 "/>
</g>
</defs>
<g id="surface1">
<use xlink:href="#surface5" mask="url(#mask0)"/>
<use xlink:href="#surface8" mask="url(#mask1)"/>
</g>
</svg>
