<?xml version="1.0" encoding="UTF-8"?>
<svg xmlns="http://www.w3.org/2000/svg" xmlns:xlink="http://www.w3.org/1999/xlink" width="64px" height="64px" viewBox="0 0 64 64" version="1.1">
<defs>
<filter id="alpha" filterUnits="objectBoundingBox" x="0%" y="0%" width="100%" height="100%">
  <feColorMatrix type="matrix" in="SourceGraphic" values="0 0 0 0 1 0 0 0 0 1 0 0 0 0 1 0 0 0 1 0"/>
</filter>
<mask id="mask0">
  <g filter="url(#alpha)">
<rect x="0" y="0" width="64" height="64" style="fill:rgb(0%,0%,0%);fill-opacity:0.3;stroke:none;"/>
  </g>
</mask>
<clipPath id="clip1">
  <rect x="0" y="0" width="64" height="64"/>
</clipPath>
<g id="surface5" clip-path="url(#clip1)">
<path style=" stroke:none;fill-rule:evenodd;fill:rgb(3.921569%,74.117649%,77.64706%);fill-opacity:1;" d="M 10.667969 45.875 L 10.667969 47.332031 C 10.667969 50.566406 13.4375 53.332031 16.667969 53.332031 L 47.335938 53.332031 C 50.566406 53.332031 53.335938 50.566406 53.335938 47.332031 L 53.335938 45.875 C 51.914062 47.167969 50.066406 48 48 48 L 16 48 C 13.933594 48 12.085938 47.167969 10.667969 45.875 Z M 32.210938 19.457031 L 29.332031 30.105469 L 35.144531 30.105469 Z M 29.0625 16 L 35.234375 16 L 42.996094 40 L 37.902344 40 L 36.277344 34.667969 L 28.074219 34.667969 L 26.429688 40 L 21.335938 40 Z M 18.667969 10.667969 C 15.949219 10.667969 13.664062 12.710938 13.367188 15.410156 L 10.699219 39.410156 C 10.347656 42.570312 12.820312 45.332031 16 45.332031 L 48 45.332031 C 51.179688 45.332031 53.652344 42.570312 53.300781 39.410156 L 50.636719 15.410156 C 50.335938 12.710938 48.050781 10.667969 45.335938 10.667969 Z M 18.667969 10.667969 "/>
</g>
</defs>
<g id="surface1">
<use xlink:href="#surface5" mask="url(#mask0)"/>
</g>
</svg>
