<?xml version="1.0" encoding="UTF-8"?>
<svg xmlns="http://www.w3.org/2000/svg" xmlns:xlink="http://www.w3.org/1999/xlink" width="64px" height="64px" viewBox="0 0 64 64" version="1.1">
<defs>
<linearGradient id="linear0" gradientUnits="userSpaceOnUse" x1="0" y1="0" x2="0" y2="1" gradientTransform="matrix(42.664062,0,0,42.664062,10.667969,10.667969)">
<stop offset="0" style="stop-color:rgb(3.921569%,74.117649%,77.64706%);stop-opacity:1;"/>
<stop offset="1" style="stop-color:rgb(72.156864%,0%,100%);stop-opacity:1;"/>
</linearGradient>
</defs>
<g id="surface1">
<path style=" stroke:none;fill-rule:nonzero;fill:url(#linear0);" d="M 32 10.667969 C 24.027344 10.667969 17.113281 15.003906 13.453125 21.453125 C 16.5625 19.6875 20.15625 18.667969 24 18.667969 C 25.398438 18.667969 26.765625 18.808594 28.089844 19.0625 C 28.09375 19.050781 28.097656 19.039062 28.105469 19.027344 C 28.394531 18.269531 28.726562 17.539062 29.097656 16.828125 C 29.132812 16.761719 29.167969 16.695312 29.203125 16.628906 C 29.542969 15.996094 29.917969 15.382812 30.316406 14.785156 C 30.398438 14.667969 30.46875 14.542969 30.550781 14.425781 C 30.957031 13.851562 31.390625 13.296875 31.847656 12.765625 C 31.921875 12.679688 31.992188 12.585938 32.066406 12.5 C 32.613281 11.886719 33.183594 11.300781 33.796875 10.753906 C 33.203125 10.707031 32.605469 10.667969 32 10.667969 Z M 40.605469 12.472656 C 39.832031 12.875 39.109375 13.351562 38.421875 13.871094 C 38.25 13.996094 38.09375 14.140625 37.925781 14.277344 C 37.355469 14.742188 36.808594 15.238281 36.308594 15.78125 C 36.226562 15.867188 36.144531 15.949219 36.066406 16.035156 C 34.847656 17.414062 33.855469 19 33.160156 20.746094 C 40.363281 24.164062 45.332031 31.46875 45.332031 40 C 45.332031 40.816406 45.261719 41.613281 45.171875 42.40625 C 45.179688 42.40625 45.191406 42.40625 45.199219 42.40625 C 46.109375 42.566406 47.042969 42.667969 48 42.667969 C 48.882812 42.667969 49.746094 42.574219 50.589844 42.4375 C 52.324219 39.355469 53.332031 35.804688 53.332031 32 C 53.332031 23.25 48.109375 15.769531 40.605469 12.472656 Z M 24 24 C 18.453125 24 13.582031 26.789062 10.714844 31.050781 C 10.699219 31.367188 10.667969 31.679688 10.667969 32 C 10.667969 43.820312 20.179688 53.332031 32 53.332031 C 32.316406 53.332031 32.628906 53.300781 32.941406 53.285156 L 32.949219 53.285156 C 35.59375 51.503906 37.667969 48.949219 38.863281 45.9375 C 38.859375 45.9375 38.859375 45.933594 38.855469 45.933594 C 37.988281 45.523438 37.164062 45.054688 36.371094 44.535156 C 36.285156 44.480469 36.199219 44.421875 36.113281 44.363281 C 35.351562 43.855469 34.621094 43.304688 33.933594 42.703125 C 33.925781 42.695312 33.914062 42.6875 33.90625 42.683594 C 33.210938 42.070312 32.558594 41.40625 31.949219 40.707031 C 31.863281 40.613281 31.785156 40.519531 31.703125 40.421875 C 31.144531 39.757812 30.617188 39.070312 30.140625 38.34375 C 30.105469 38.292969 30.070312 38.242188 30.035156 38.1875 C 29.554688 37.433594 29.125 36.640625 28.738281 35.828125 C 28.664062 35.671875 28.597656 35.511719 28.527344 35.355469 C 28.175781 34.570312 27.859375 33.765625 27.605469 32.933594 C 27.585938 32.875 27.5625 32.820312 27.546875 32.765625 C 27.292969 31.90625 27.109375 31.015625 26.964844 30.113281 C 26.929688 29.902344 26.898438 29.691406 26.871094 29.480469 C 26.75 28.558594 26.667969 27.621094 26.667969 26.667969 C 26.667969 25.851562 26.714844 25.050781 26.800781 24.261719 C 25.890625 24.101562 24.957031 24 24 24 Z M 32.035156 26.167969 C 32.03125 26.335938 32 26.496094 32 26.667969 C 32 27.332031 32.050781 27.976562 32.128906 28.621094 C 32.152344 28.816406 32.1875 29.007812 32.21875 29.203125 C 32.292969 29.671875 32.386719 30.136719 32.5 30.589844 C 32.546875 30.777344 32.59375 30.964844 32.644531 31.152344 C 32.820312 31.753906 33.023438 32.351562 33.265625 32.921875 C 33.523438 33.527344 33.824219 34.113281 34.152344 34.675781 C 34.195312 34.753906 34.242188 34.824219 34.285156 34.902344 C 34.59375 35.414062 34.929688 35.90625 35.292969 36.378906 C 35.328125 36.425781 35.359375 36.476562 35.394531 36.519531 C 36.214844 37.5625 37.152344 38.5 38.203125 39.3125 C 38.246094 39.347656 38.289062 39.378906 38.332031 39.410156 C 38.84375 39.796875 39.378906 40.160156 39.9375 40.484375 C 39.949219 40.492188 39.957031 40.5 39.96875 40.503906 C 39.972656 40.335938 40 40.171875 40 40 C 40 34.074219 36.800781 28.929688 32.035156 26.167969 Z M 43.910156 47.582031 C 43.519531 48.605469 43.082031 49.605469 42.546875 50.546875 C 43.855469 49.804688 45.046875 48.898438 46.160156 47.90625 C 46.152344 47.90625 46.148438 47.902344 46.140625 47.902344 C 45.382812 47.835938 44.644531 47.722656 43.910156 47.582031 Z M 43.910156 47.582031 "/>
</g>
</svg>
