<?xml version="1.0" encoding="UTF-8"?>
<svg xmlns="http://www.w3.org/2000/svg" xmlns:xlink="http://www.w3.org/1999/xlink" width="64px" height="64px" viewBox="0 0 64 64" version="1.1">
<defs>
<linearGradient id="linear0" gradientUnits="userSpaceOnUse" x1="0" y1="0" x2="0" y2="1" gradientTransform="matrix(42.664062,0,0,32,10.667969,16)">
<stop offset="0" style="stop-color:rgb(3.921569%,74.117649%,77.64706%);stop-opacity:1;"/>
<stop offset="1" style="stop-color:rgb(72.156864%,0%,100%);stop-opacity:1;"/>
</linearGradient>
</defs>
<g id="surface1">
<path style=" stroke:none;fill-rule:nonzero;fill:url(#linear0);" d="M 30.578125 16 C 24.484375 16.003906 19.070312 19.980469 17.117188 25.886719 C 13.175781 27.820312 10.671875 31.894531 10.667969 36.363281 C 10.667969 42.789062 15.761719 48 22.042969 48 C 24.835938 47.996094 27.527344 46.941406 29.605469 45.039062 C 29.929688 45.066406 30.253906 45.085938 30.578125 45.089844 C 32.65625 45.085938 34.707031 44.613281 36.589844 43.710938 C 38.238281 44.613281 40.082031 45.089844 41.957031 45.089844 C 48.238281 45.089844 53.332031 39.878906 53.332031 33.449219 C 53.332031 27.023438 48.238281 21.816406 41.953125 21.816406 L 41.929688 21.816406 C 39.25 18.160156 35.042969 16.007812 30.574219 16 Z M 30.578125 16 "/>
</g>
</svg>
