<?xml version="1.0" encoding="UTF-8"?>
<svg xmlns="http://www.w3.org/2000/svg" xmlns:xlink="http://www.w3.org/1999/xlink" width="64px" height="64px" viewBox="0 0 64 64" version="1.1">
<defs>
<linearGradient id="linear0" gradientUnits="userSpaceOnUse" x1="0" y1="0" x2="0" y2="1" gradientTransform="matrix(50.667969,0,0,45.265625,5.332031,8.066406)">
<stop offset="0" style="stop-color:rgb(3.921569%,74.117649%,77.64706%);stop-opacity:1;"/>
<stop offset="1" style="stop-color:rgb(72.156864%,0%,100%);stop-opacity:1;"/>
</linearGradient>
</defs>
<g id="surface1">
<path style=" stroke:none;fill-rule:nonzero;fill:url(#linear0);" d="M 55.027344 8.066406 L 40.046875 26.25 L 45.332031 29.332031 L 56 8.9375 Z M 16 20 L 5.332031 29.332031 L 17 27.667969 L 19.53125 42.667969 L 28.5625 42.667969 L 20 21.332031 Z M 34.667969 26.746094 L 26.667969 29.332031 L 29.332031 37.332031 L 40 29.332031 Z M 42.667969 30.933594 L 28.949219 42.667969 L 51.199219 42.667969 L 48 34.667969 Z M 12.894531 45.332031 C 11.660156 45.332031 10.667969 46.328125 10.667969 47.5625 L 10.667969 51.105469 C 10.667969 52.339844 11.660156 53.332031 12.894531 53.332031 L 51.105469 53.332031 C 52.339844 53.332031 53.332031 52.332031 53.332031 51.097656 L 53.332031 47.5625 C 53.332031 46.328125 52.339844 45.332031 51.105469 45.332031 Z M 12.894531 45.332031 "/>
</g>
</svg>
