<?xml version="1.0" encoding="UTF-8"?>
<svg xmlns="http://www.w3.org/2000/svg" xmlns:xlink="http://www.w3.org/1999/xlink" width="64px" height="64px" viewBox="0 0 64 64" version="1.1">
<defs>
<filter id="alpha" filterUnits="objectBoundingBox" x="0%" y="0%" width="100%" height="100%">
  <feColorMatrix type="matrix" in="SourceGraphic" values="0 0 0 0 1 0 0 0 0 1 0 0 0 0 1 0 0 0 1 0"/>
</filter>
<mask id="mask0">
  <g filter="url(#alpha)">
<rect x="0" y="0" width="64" height="64" style="fill:rgb(0%,0%,0%);fill-opacity:0.3;stroke:none;"/>
  </g>
</mask>
<linearGradient id="linear0" gradientUnits="userSpaceOnUse" x1="0" y1="0" x2="0" y2="1" gradientTransform="matrix(42.664062,0,0,42.664062,10.667969,10.667969)">
<stop offset="0" style="stop-color:rgb(3.921569%,74.117649%,77.64706%);stop-opacity:1;"/>
<stop offset="1" style="stop-color:rgb(72.156864%,0%,100%);stop-opacity:1;"/>
</linearGradient>
<clipPath id="clip1">
  <rect x="0" y="0" width="64" height="64"/>
</clipPath>
<g id="surface5" clip-path="url(#clip1)">
<path style=" stroke:none;fill-rule:nonzero;fill:url(#linear0);" d="M 32 10.667969 C 20.21875 10.667969 10.667969 20.21875 10.667969 32 C 10.667969 38.953125 14.007812 45.109375 19.15625 49.003906 C 19.25 48.953125 19.351562 48.910156 19.441406 48.855469 C 20.972656 47.949219 22.4375 46.886719 23.847656 45.75 C 19.15625 42.960938 16 37.855469 16 32 C 16 23.164062 23.164062 16 32 16 C 33.9375 16 35.78125 16.359375 37.5 16.988281 C 37.507812 15.539062 37.4375 14.089844 37.1875 12.660156 C 37.332031 12.164062 37.386719 11.914062 37.496094 11.417969 C 37.496094 11.414062 37.492188 11.410156 37.496094 11.40625 C 35.738281 10.9375 33.902344 10.667969 32 10.667969 Z M 37.808594 11.484375 C 38.230469 13.414062 38.378906 15.367188 38.375 17.328125 C 44.039062 19.792969 48 25.429688 48 32 C 48 40.835938 40.835938 48 32 48 C 29.417969 48 26.988281 47.371094 24.828125 46.285156 C 24.804688 46.304688 24.785156 46.328125 24.761719 46.347656 C 23.214844 47.605469 21.550781 48.632812 19.785156 49.472656 C 23.25 51.898438 27.453125 53.332031 32 53.332031 C 43.78125 53.332031 53.332031 43.78125 53.332031 32 C 53.332031 22.234375 46.761719 14.015625 37.808594 11.484375 Z M 37.808594 11.484375 "/>
</g>
<linearGradient id="linear1" gradientUnits="userSpaceOnUse" x1="0" y1="0" x2="0" y2="1" gradientTransform="matrix(26.667969,0,0,42.660156,13.332031,10.671875)">
<stop offset="0" style="stop-color:rgb(3.921569%,74.117649%,77.64706%);stop-opacity:1;"/>
<stop offset="1" style="stop-color:rgb(72.156864%,0%,100%);stop-opacity:1;"/>
</linearGradient>
</defs>
<g id="surface1">
<use xlink:href="#surface5" mask="url(#mask0)"/>
<path style=" stroke:none;fill-rule:nonzero;fill:url(#linear1);" d="M 37.640625 10.671875 C 37.589844 10.964844 37.554688 11.113281 37.496094 11.417969 C 37.386719 11.914062 37.332031 12.164062 37.1875 12.660156 C 37.605469 15.035156 37.613281 17.480469 37.386719 19.871094 C 37.332031 20.414062 37.257812 20.957031 37.160156 21.5 C 37.113281 21.621094 38.15625 21.597656 38.15625 21.597656 C 38.234375 21.035156 38.292969 20.472656 38.316406 19.917969 C 38.457031 16.820312 38.441406 13.703125 37.640625 10.671875 Z M 37.109375 21.625 C 36.09375 22.527344 35.066406 23.484375 34.300781 24.574219 C 32.464844 27.203125 31.292969 30.527344 28.917969 32.796875 C 27.953125 33.714844 26.828125 34.519531 25.671875 35.222656 C 26.28125 35.3125 26.953125 35.375 27.5625 35.25 C 26.335938 36.023438 24.964844 36.761719 23.964844 37.796875 C 23.46875 38.304688 22.953125 38.820312 22.472656 39.347656 C 22.863281 39.109375 23.316406 38.839844 23.785156 38.832031 C 24.5625 38.824219 26.050781 37.964844 26.050781 37.964844 C 26.050781 37.964844 23.25 39.765625 22.097656 40.886719 C 21.445312 41.523438 20.707031 42.128906 20.144531 42.855469 C 19.640625 43.511719 19.628906 43.496094 19.628906 43.496094 C 20.574219 43.148438 21.535156 42.785156 22.527344 42.574219 C 22.128906 42.71875 21.933594 42.789062 21.53125 42.921875 C 20.652344 43.269531 19.648438 43.53125 18.894531 43.96875 C 17.542969 44.757812 16.199219 46.789062 15.261719 48.125 C 14.761719 48.832031 13.933594 49.429688 13.527344 50.15625 C 13.292969 50.574219 13.3125 51.011719 13.371094 51.121094 C 13.785156 51.878906 15.851562 52.523438 16.984375 52.800781 C 18.347656 53.128906 19.78125 53.277344 21.1875 53.332031 C 22.019531 53.160156 22.882812 52.816406 23.496094 52.230469 C 24.328125 51.433594 25.53125 50.664062 26.011719 49.636719 C 26.285156 49.054688 26.707031 48.714844 26.722656 48.703125 C 26.09375 49.742188 25.40625 50.75 24.660156 51.703125 C 24.304688 52.15625 23.8125 52.730469 23.8125 52.730469 C 24.644531 52.429688 25.515625 51.941406 26.332031 51.808594 C 26.839844 51.722656 27.398438 51.488281 27.785156 51.128906 C 28.199219 50.746094 28.824219 50.597656 29.191406 50.203125 C 30.210938 49.113281 30.894531 47.457031 31.863281 46.3125 C 31.988281 46.167969 32.28125 45.792969 32.503906 45.484375 C 32.683594 45.234375 32.828125 45.027344 32.828125 45.027344 C 32.3125 46.195312 31.796875 47.382812 31.222656 48.515625 C 31.21875 48.527344 31.21875 48.535156 31.214844 48.546875 C 31.039062 48.859375 30.78125 49.164062 30.515625 49.449219 C 30.480469 49.488281 30.445312 49.523438 30.410156 49.5625 C 30.367188 49.613281 30.390625 49.613281 30.464844 49.574219 C 31.5 49.027344 32.414062 48.191406 33.40625 47.535156 C 33.4375 47.515625 33.46875 47.5 33.488281 47.484375 C 34.230469 47.058594 34.886719 46.300781 35.433594 45.691406 C 35.949219 45.121094 36.210938 44.773438 36.347656 43.957031 C 36.355469 43.933594 36.355469 43.910156 36.359375 43.886719 C 36.527344 42.707031 36.707031 41.53125 36.957031 40.363281 C 37.007812 40.121094 37.046875 39.914062 37.078125 39.75 C 37.078125 39.730469 37.082031 39.703125 37.089844 39.683594 C 37.09375 39.640625 37.105469 39.601562 37.109375 39.566406 C 37.113281 39.546875 37.113281 39.53125 37.121094 39.511719 C 37.125 39.476562 37.128906 39.445312 37.136719 39.421875 L 37.136719 39.417969 C 37.136719 39.402344 37.144531 39.347656 37.152344 39.328125 C 37.160156 39.273438 37.230469 39.078125 37.230469 39.078125 L 37.230469 39.203125 C 37.1875 41.265625 36.855469 43.488281 37.171875 45.515625 C 37.40625 47.015625 37.542969 46.707031 37.542969 46.707031 C 37.679688 44.9375 37.496094 42.789062 38.078125 41.175781 C 38.472656 40.089844 39.101562 38.90625 39.308594 37.734375 C 39.515625 36.53125 39.511719 35.25 39.480469 34.015625 C 39.4375 32.421875 39.339844 30.816406 39.109375 29.222656 C 39.324219 29.980469 39.636719 30.773438 39.675781 31.546875 C 39.71875 32.28125 39.738281 33.042969 39.761719 33.792969 C 39.933594 32.867188 40.066406 31.882812 39.964844 30.941406 C 39.867188 30.078125 40.035156 29.195312 39.9375 28.34375 C 39.808594 27.230469 39.773438 26.027344 39.394531 24.96875 C 39.03125 23.933594 38.5625 22.902344 38.285156 21.863281 C 38.261719 21.769531 38.195312 21.691406 38.121094 21.625 C 37.71875 24.464844 36.746094 27.351562 35.855469 30 C 34.726562 33.351562 32.921875 36.1875 31.222656 39.222656 C 29.664062 42.011719 27.191406 44.367188 24.761719 46.347656 C 22.640625 48.074219 20.292969 49.390625 17.769531 50.34375 C 16.984375 50.636719 16.105469 50.738281 15.277344 50.765625 C 14.664062 50.78125 14.230469 50.746094 14.207031 50.746094 C 16.011719 50.359375 17.84375 49.800781 19.441406 48.855469 C 23.882812 46.222656 28.066406 42.621094 30.671875 38.03125 C 32.328125 35.117188 33.894531 32.257812 34.984375 29.058594 C 35.800781 26.652344 36.648438 24.152344 37.109375 21.625 Z M 37.109375 21.625 "/>
</g>
</svg>
