<?xml version="1.0" encoding="UTF-8"?>
<svg xmlns="http://www.w3.org/2000/svg" xmlns:xlink="http://www.w3.org/1999/xlink" width="64px" height="64px" viewBox="0 0 64 64" version="1.1">
<defs>
<linearGradient id="linear0" gradientUnits="userSpaceOnUse" x1="0" y1="0" x2="0" y2="1" gradientTransform="matrix(48,0,0,34.667969,8,16)">
<stop offset="0" style="stop-color:rgb(3.921569%,74.117649%,77.64706%);stop-opacity:1;"/>
<stop offset="1" style="stop-color:rgb(72.156864%,0%,100%);stop-opacity:1;"/>
</linearGradient>
</defs>
<g id="surface1">
<path style=" stroke:none;fill-rule:nonzero;fill:url(#linear0);" d="M 27.136719 16 C 27.136719 16 21.855469 15.886719 16.261719 19.996094 C 10.667969 24.105469 8 32.609375 8 44.863281 C 8 44.863281 13.929688 50.398438 22.515625 50.667969 C 22.515625 50.667969 23.953125 48.976562 25.121094 47.515625 C 20.1875 46.054688 18.316406 41.6875 18.316406 41.6875 C 22.863281 44.226562 25.953125 45.289062 30.667969 45.332031 C 35.378906 45.289062 41.136719 44.226562 45.683594 41.6875 C 45.683594 41.6875 43.8125 46.054688 38.878906 47.515625 C 40.046875 48.976562 41.484375 50.667969 41.484375 50.667969 C 50.070312 50.398438 56 44.863281 56 44.863281 C 56 32.609375 53.332031 24.105469 47.738281 19.996094 C 42.144531 15.886719 36.863281 16 36.863281 16 L 36.472656 16.457031 C 43.464844 18.417969 46.652344 22.785156 46.652344 22.785156 C 46.652344 22.785156 45.796875 22.328125 44.359375 21.714844 C 40 19.621094 34.667969 18.667969 30.667969 18.667969 C 26.667969 18.667969 24 19.621094 19.640625 21.714844 C 18.203125 22.328125 17.347656 22.785156 17.347656 22.785156 C 17.347656 22.785156 20.535156 18.417969 27.527344 16.457031 Z M 25.332031 32 C 27.570312 32 29.371094 33.78125 29.332031 36 C 29.332031 38.21875 27.570312 40 25.332031 40 C 23.136719 40 21.332031 38.21875 21.332031 36 C 21.332031 33.78125 23.097656 32 25.332031 32 Z M 38.667969 32 C 40.902344 32 42.667969 33.78125 42.667969 36 C 42.667969 38.21875 40.863281 40 38.667969 40 C 36.429688 40 34.667969 38.21875 34.667969 36 C 34.628906 33.78125 36.429688 32 38.667969 32 Z M 38.667969 32 "/>
<path style=" stroke:none;fill-rule:nonzero;fill:rgb(10.196079%,83.92157%,67.058825%);fill-opacity:1;" d="M 61.332031 18.667969 C 61.332031 21.613281 58.945312 24 56 24 C 53.054688 24 50.667969 21.613281 50.667969 18.667969 C 50.667969 15.722656 53.054688 13.332031 56 13.332031 C 58.945312 13.332031 61.332031 15.722656 61.332031 18.667969 Z M 61.332031 18.667969 "/>
</g>
</svg>
