<?xml version="1.0" encoding="UTF-8"?>
<svg xmlns="http://www.w3.org/2000/svg" xmlns:xlink="http://www.w3.org/1999/xlink" width="64px" height="64px" viewBox="0 0 64 64" version="1.1">
<defs>
<linearGradient id="linear0" gradientUnits="userSpaceOnUse" x1="0" y1="0" x2="0" y2="1" gradientTransform="matrix(50.691406,0,0,45.332031,8,10.667969)">
<stop offset="0" style="stop-color:rgb(3.921569%,74.117649%,77.64706%);stop-opacity:1;"/>
<stop offset="1" style="stop-color:rgb(72.156864%,0%,100%);stop-opacity:1;"/>
</linearGradient>
</defs>
<g id="surface1">
<path style=" stroke:none;fill-rule:nonzero;fill:url(#linear0);" d="M 21.359375 10.667969 L 8.027344 18.667969 L 18.691406 26.625 L 8 34.644531 L 21.359375 42.667969 L 32.027344 34.667969 L 18.691406 26.667969 L 32.027344 18.667969 L 45.359375 26.707031 L 32.027344 34.667969 L 36.765625 38.222656 C 39.207031 34.359375 43.457031 32.015625 48.027344 32.011719 C 50.890625 32.015625 53.679688 32.945312 55.976562 34.660156 L 56.054688 34.613281 L 45.363281 26.695312 L 56.027344 18.695312 L 42.695312 10.695312 L 32.027344 18.652344 L 21.363281 10.695312 Z M 48.027344 34.667969 C 42.136719 34.667969 37.359375 39.441406 37.359375 45.332031 C 37.359375 51.222656 42.136719 56 48.027344 56 C 53.917969 56 58.691406 51.222656 58.691406 45.332031 C 58.691406 39.441406 53.917969 34.667969 48.027344 34.667969 Z M 48.027344 35.980469 C 48.511719 35.984375 48.996094 36.023438 49.472656 36.105469 C 48.945312 36.019531 48.410156 35.976562 47.875 35.984375 C 47.925781 35.976562 47.976562 35.964844 48.027344 35.957031 Z M 47.84375 35.984375 C 47.414062 35.992188 46.988281 36.035156 46.5625 36.105469 C 46.988281 36.035156 47.414062 35.996094 47.84375 35.984375 Z M 46.496094 36.113281 C 46.054688 36.1875 45.617188 36.292969 45.1875 36.433594 C 45.613281 36.296875 46.050781 36.1875 46.496094 36.113281 Z M 49.886719 36.183594 C 50.25 36.257812 50.605469 36.351562 50.957031 36.46875 C 50.609375 36.351562 50.246094 36.257812 49.886719 36.183594 Z M 45.167969 36.4375 C 44.757812 36.570312 44.359375 36.738281 43.964844 36.933594 C 44.351562 36.738281 44.753906 36.574219 45.167969 36.4375 Z M 51.363281 36.613281 C 51.703125 36.746094 52.03125 36.898438 52.347656 37.066406 C 52.027344 36.898438 51.703125 36.746094 51.363281 36.613281 Z M 43.847656 36.988281 C 43.449219 37.191406 43.058594 37.421875 42.675781 37.6875 C 42.148438 38.058594 41.667969 38.476562 41.238281 38.925781 C 40.832031 39.359375 40.472656 39.824219 40.160156 40.3125 C 40.476562 39.816406 40.835938 39.355469 41.238281 38.925781 C 41.988281 38.132812 42.871094 37.476562 43.847656 36.988281 Z M 52.761719 37.296875 C 53.152344 37.527344 53.53125 37.785156 53.886719 38.066406 C 53.53125 37.777344 53.148438 37.527344 52.761719 37.296875 Z M 32.023438 37.296875 L 21.359375 45.296875 L 18.691406 43.699219 L 18.691406 45.296875 L 32.023438 53.296875 L 35.960938 50.9375 C 35.128906 49.167969 34.695312 47.238281 34.691406 45.285156 C 34.691406 43.496094 35.050781 41.730469 35.746094 40.085938 L 32.023438 37.285156 Z M 53.890625 38.03125 C 54.304688 38.371094 54.691406 38.75 55.046875 39.15625 C 55.921875 40.164062 56.570312 41.339844 56.953125 42.613281 C 57.070312 42.996094 57.164062 43.386719 57.234375 43.78125 C 57.296875 44.1875 57.335938 44.597656 57.347656 45.011719 C 57.335938 44.601562 57.296875 44.191406 57.230469 43.785156 C 57.167969 43.382812 57.070312 42.996094 56.949219 42.617188 C 56.832031 42.238281 56.6875 41.875 56.527344 41.511719 L 48.042969 51.203125 L 47.128906 52.289062 L 46.082031 51.289062 L 42.074219 47.28125 C 41.574219 46.78125 41.574219 45.863281 42.074219 45.359375 C 42.578125 44.859375 43.496094 44.859375 43.996094 45.359375 L 47.003906 48.367188 L 55.042969 39.15625 C 54.6875 38.746094 54.300781 38.371094 53.886719 38.03125 Z M 40.070312 40.417969 C 39.78125 40.886719 39.542969 41.378906 39.34375 41.886719 C 39.542969 41.375 39.785156 40.882812 40.070312 40.417969 Z M 39.296875 42.011719 C 39.101562 42.519531 38.957031 43.046875 38.859375 43.578125 C 38.957031 43.042969 39.105469 42.519531 39.296875 42.011719 Z M 38.828125 43.753906 C 38.738281 44.296875 38.691406 44.847656 38.695312 45.394531 C 38.695312 45.355469 38.691406 45.316406 38.691406 45.277344 C 38.695312 44.765625 38.738281 44.257812 38.828125 43.753906 Z M 57.351562 45.109375 C 57.355469 45.164062 57.355469 45.21875 57.359375 45.277344 C 57.359375 45.617188 57.339844 45.953125 57.300781 46.292969 C 57.34375 45.898438 57.359375 45.503906 57.351562 45.109375 Z M 38.707031 45.578125 C 38.722656 46.074219 38.777344 46.570312 38.875 47.0625 C 38.777344 46.574219 38.722656 46.078125 38.707031 45.578125 Z M 38.953125 47.417969 C 39.0625 47.890625 39.210938 48.363281 39.398438 48.824219 C 39.214844 48.367188 39.0625 47.898438 38.953125 47.417969 Z M 39.550781 49.160156 C 39.765625 49.628906 40.015625 50.089844 40.316406 50.53125 C 40.023438 50.097656 39.765625 49.640625 39.550781 49.160156 Z M 56.414062 49.332031 C 56.40625 49.351562 56.398438 49.371094 56.390625 49.390625 C 56.328125 49.527344 56.261719 49.660156 56.191406 49.792969 C 56.179688 49.808594 56.167969 49.824219 56.160156 49.84375 C 56.253906 49.675781 56.332031 49.503906 56.414062 49.332031 Z M 55.898438 50.265625 C 55.882812 50.292969 55.867188 50.324219 55.847656 50.355469 C 55.761719 50.488281 55.671875 50.617188 55.578125 50.746094 C 55.691406 50.585938 55.796875 50.429688 55.898438 50.265625 Z M 40.507812 50.792969 C 40.800781 51.191406 41.121094 51.554688 41.460938 51.894531 C 41.117188 51.554688 40.796875 51.183594 40.507812 50.792969 Z M 55.21875 51.21875 C 55.207031 51.230469 55.195312 51.246094 55.1875 51.261719 C 55.042969 51.425781 54.894531 51.589844 54.738281 51.746094 C 54.902344 51.574219 55.066406 51.398438 55.21875 51.21875 Z M 41.785156 52.207031 C 42.117188 52.511719 42.472656 52.777344 42.84375 53.027344 C 42.46875 52.78125 42.113281 52.507812 41.78125 52.210938 Z M 53.203125 53.035156 C 52.808594 53.296875 52.394531 53.53125 51.96875 53.730469 C 51.949219 53.738281 51.929688 53.746094 51.910156 53.753906 C 52.351562 53.550781 52.785156 53.316406 53.203125 53.035156 Z M 43.328125 53.332031 C 43.660156 53.527344 44.007812 53.699219 44.363281 53.847656 C 44.007812 53.699219 43.660156 53.527344 43.328125 53.332031 Z M 51.546875 53.917969 C 51.53125 53.921875 51.519531 53.925781 51.507812 53.933594 C 51.113281 54.089844 50.703125 54.222656 50.289062 54.324219 C 50.714844 54.214844 51.132812 54.085938 51.546875 53.917969 Z M 45.082031 54.121094 C 45.441406 54.238281 45.800781 54.351562 46.171875 54.425781 C 45.800781 54.347656 45.4375 54.242188 45.082031 54.121094 Z M 49.644531 54.457031 C 49.261719 54.527344 48.878906 54.574219 48.492188 54.59375 C 48.480469 54.59375 48.46875 54.59375 48.457031 54.59375 C 48.855469 54.574219 49.25 54.527344 49.644531 54.457031 Z M 46.726562 54.515625 C 47.09375 54.566406 47.464844 54.589844 47.835938 54.597656 C 47.820312 54.597656 47.804688 54.597656 47.789062 54.597656 C 47.449219 54.589844 47.109375 54.566406 46.769531 54.519531 C 46.753906 54.519531 46.742188 54.519531 46.726562 54.515625 Z M 46.726562 54.515625 "/>
</g>
</svg>
