<?xml version="1.0" encoding="UTF-8"?>
<svg xmlns="http://www.w3.org/2000/svg" xmlns:xlink="http://www.w3.org/1999/xlink" width="64px" height="64px" viewBox="0 0 64 64" version="1.1">
<defs>
<linearGradient id="linear0" gradientUnits="userSpaceOnUse" x1="0" y1="0" x2="0" y2="1" gradientTransform="matrix(42.664062,0,0,42.664062,10.667969,10.667969)">
<stop offset="0" style="stop-color:rgb(3.921569%,74.117649%,77.64706%);stop-opacity:1;"/>
<stop offset="1" style="stop-color:rgb(72.156864%,0%,100%);stop-opacity:1;"/>
</linearGradient>
</defs>
<g id="surface1">
<path style=" stroke:none;fill-rule:nonzero;fill:url(#linear0);" d="M 32 10.667969 C 20.21875 10.667969 10.667969 20.21875 10.667969 32 C 10.667969 43.78125 20.21875 53.332031 32 53.332031 C 43.78125 53.332031 53.332031 43.78125 53.332031 32 C 53.332031 20.21875 43.78125 10.667969 32 10.667969 Z M 24 21.332031 C 26.945312 21.332031 29.332031 23.722656 29.332031 26.667969 C 29.332031 29.613281 26.945312 32 24 32 C 21.054688 32 18.667969 29.613281 18.667969 26.667969 C 18.667969 23.722656 21.054688 21.332031 24 21.332031 Z M 40 21.332031 C 42.945312 21.332031 45.332031 23.722656 45.332031 26.667969 C 45.332031 29.613281 42.945312 32 40 32 C 37.054688 32 34.667969 29.613281 34.667969 26.667969 C 34.667969 23.722656 37.054688 21.332031 40 21.332031 Z M 21.167969 34.628906 C 21.253906 34.625 21.34375 34.625 21.433594 34.628906 C 22.730469 34.679688 23.800781 35.65625 23.972656 36.941406 C 23.972656 36.941406 24.175781 38.292969 25.25 39.746094 C 26.324219 41.199219 28.003906 42.667969 32 42.667969 C 35.996094 42.667969 37.675781 41.199219 38.75 39.746094 C 39.824219 38.292969 40.027344 36.941406 40.027344 36.941406 C 40.242188 35.484375 41.597656 34.476562 43.058594 34.691406 C 44.515625 34.90625 45.523438 36.265625 45.308594 37.722656 C 45.308594 37.722656 44.921875 40.375 43.035156 42.921875 C 41.152344 45.46875 37.492188 48 32 48 C 26.507812 48 22.847656 45.46875 20.964844 42.921875 C 19.078125 40.375 18.691406 37.722656 18.691406 37.722656 C 18.570312 36.980469 18.769531 36.214844 19.242188 35.625 C 19.714844 35.035156 20.414062 34.675781 21.167969 34.628906 Z M 21.167969 34.628906 "/>
</g>
</svg>
