<?xml version="1.0" encoding="UTF-8"?>
<svg xmlns="http://www.w3.org/2000/svg" xmlns:xlink="http://www.w3.org/1999/xlink" width="64px" height="64px" viewBox="0 0 64 64" version="1.1">
<defs>
<linearGradient id="linear0" gradientUnits="userSpaceOnUse" x1="0" y1="0" x2="0" y2="1" gradientTransform="matrix(42.664062,0,0,42.664062,10.667969,10.667969)">
<stop offset="0" style="stop-color:rgb(3.921569%,74.117649%,77.64706%);stop-opacity:1;"/>
<stop offset="1" style="stop-color:rgb(72.156864%,0%,100%);stop-opacity:1;"/>
</linearGradient>
</defs>
<g id="surface1">
<path style=" stroke:none;fill-rule:nonzero;fill:url(#linear0);" d="M 16 10.667969 C 13.046875 10.667969 10.667969 13.046875 10.667969 16 L 10.667969 48 C 10.667969 50.953125 13.046875 53.332031 16 53.332031 L 48 53.332031 C 50.953125 53.332031 53.332031 50.953125 53.332031 48 L 53.332031 16 C 53.332031 13.046875 50.953125 10.667969 48 10.667969 Z M 29.332031 16 L 32 16 L 32 34.621094 C 36.828125 34.402344 39.257812 33.003906 40.699219 30.640625 C 42.273438 28.066406 42.667969 23.945312 42.667969 18.667969 L 45.332031 18.667969 C 45.332031 24.054688 45.0625 28.601562 42.96875 32.027344 C 41.03125 35.195312 37.464844 37.023438 32 37.28125 L 32 45.332031 L 45.332031 45.332031 L 45.332031 48 L 16 48 L 16 45.332031 L 29.332031 45.332031 L 29.332031 37.28125 C 23.867188 37.023438 20.300781 35.195312 18.363281 32.027344 C 16.269531 28.601562 16 24.054688 16 18.667969 L 18.667969 18.667969 C 18.667969 23.945312 19.0625 28.066406 20.636719 30.640625 C 22.078125 33.003906 24.503906 34.402344 29.332031 34.621094 Z M 29.332031 16 "/>
</g>
</svg>
