<?xml version="1.0" encoding="UTF-8"?>
<svg xmlns="http://www.w3.org/2000/svg" xmlns:xlink="http://www.w3.org/1999/xlink" width="64px" height="64px" viewBox="0 0 64 64" version="1.1">
<defs>
<linearGradient id="linear0" gradientUnits="userSpaceOnUse" x1="0" y1="0" x2="0" y2="1" gradientTransform="matrix(42.664062,0,0,42.664062,10.667969,10.667969)">
<stop offset="0" style="stop-color:rgb(3.921569%,74.117649%,77.64706%);stop-opacity:1;"/>
<stop offset="1" style="stop-color:rgb(72.156864%,0%,100%);stop-opacity:1;"/>
</linearGradient>
</defs>
<g id="surface1">
<path style=" stroke:none;fill-rule:nonzero;fill:url(#linear0);" d="M 16 10.667969 C 13.046875 10.667969 10.667969 13.046875 10.667969 16 L 10.667969 48 C 10.667969 50.953125 13.046875 53.332031 16 53.332031 L 48 53.332031 C 50.953125 53.332031 53.332031 50.953125 53.332031 48 L 53.332031 16 C 53.332031 13.046875 50.953125 10.667969 48 10.667969 Z M 26.667969 21.332031 L 29.332031 21.332031 L 29.332031 32.78125 L 35.449219 26.667969 L 37.332031 26.667969 L 37.332031 21.332031 L 40 21.332031 L 40 32.78125 L 46.113281 26.667969 L 49.886719 26.667969 L 41.886719 34.667969 L 49.886719 42.667969 L 46.113281 42.667969 L 40 36.550781 L 40 42.667969 L 35.449219 42.667969 L 29.332031 36.550781 L 29.332031 42.667969 L 26.667969 42.667969 L 26.667969 37.332031 C 26.667969 38.886719 26.253906 40.296875 25.277344 41.277344 C 24.292969 42.257812 22.886719 42.667969 21.332031 42.667969 C 19.777344 42.667969 18.371094 42.257812 17.390625 41.277344 C 16.410156 40.296875 16 38.886719 16 37.332031 L 18.667969 37.332031 C 18.667969 38.445312 18.921875 39.039062 19.277344 39.390625 C 19.628906 39.742188 20.222656 40 21.332031 40 C 22.445312 40 23.039062 39.742188 23.390625 39.390625 C 23.746094 39.039062 24 38.445312 24 37.332031 C 24 36.222656 23.746094 35.628906 23.390625 35.277344 C 23.039062 34.921875 22.445312 34.667969 21.332031 34.667969 C 19.777344 34.667969 18.371094 34.253906 17.390625 33.277344 C 16.410156 32.292969 16 30.886719 16 29.332031 C 16 27.777344 16.410156 26.371094 17.390625 25.390625 C 18.371094 24.410156 19.777344 24 21.332031 24 C 22.886719 24 24.292969 24.410156 25.277344 25.390625 C 26.253906 26.371094 26.667969 27.777344 26.667969 29.332031 Z M 26.667969 29.332031 L 24 29.332031 C 24 28.222656 23.746094 27.628906 23.390625 27.277344 C 23.039062 26.921875 22.445312 26.667969 21.332031 26.667969 C 20.222656 26.667969 19.628906 26.921875 19.277344 27.277344 C 18.921875 27.628906 18.667969 28.222656 18.667969 29.332031 C 18.667969 30.445312 18.921875 31.039062 19.277344 31.390625 C 19.628906 31.746094 20.222656 32 21.332031 32 C 22.886719 32 24.292969 32.410156 25.277344 33.390625 C 26.253906 34.371094 26.667969 35.777344 26.667969 37.332031 Z M 37.332031 28.550781 L 31.21875 34.667969 L 37.332031 40.78125 Z M 37.332031 28.550781 "/>
</g>
</svg>
