<?xml version="1.0" encoding="UTF-8"?>
<svg xmlns="http://www.w3.org/2000/svg" xmlns:xlink="http://www.w3.org/1999/xlink" width="64px" height="64px" viewBox="0 0 64 64" version="1.1">
<defs>
<linearGradient id="linear0" gradientUnits="userSpaceOnUse" x1="0" y1="0" x2="0" y2="1" gradientTransform="matrix(42.664062,0,0,42.664062,10.667969,10.667969)">
<stop offset="0" style="stop-color:rgb(3.921569%,74.117649%,77.64706%);stop-opacity:1;"/>
<stop offset="1" style="stop-color:rgb(72.156864%,0%,100%);stop-opacity:1;"/>
</linearGradient>
</defs>
<g id="surface1">
<path style=" stroke:none;fill-rule:nonzero;fill:url(#linear0);" d="M 16 10.667969 C 13.046875 10.667969 10.667969 13.046875 10.667969 16 L 10.667969 48 C 10.667969 50.953125 13.046875 53.332031 16 53.332031 L 48 53.332031 C 50.953125 53.332031 53.332031 50.953125 53.332031 48 L 53.332031 16 C 53.332031 13.046875 50.953125 10.667969 48 10.667969 Z M 37.417969 13.3125 L 40.082031 13.355469 C 40.054688 15.167969 40.117188 16.921875 40.183594 18.667969 L 48 18.667969 L 48 21.332031 L 40.3125 21.332031 C 40.710938 27.488281 41.597656 33.066406 42.6875 37.421875 C 43.460938 40.511719 44.328125 43.003906 45.121094 44.644531 C 45.515625 45.464844 45.902344 46.070312 46.175781 46.394531 C 46.300781 46.539062 46.171875 46.476562 46.207031 46.5 C 46.84375 46.332031 47.199219 46.089844 47.484375 45.355469 C 47.808594 44.519531 47.953125 43.191406 47.972656 41.6875 L 50.640625 41.71875 C 50.617188 43.335938 50.515625 44.914062 49.96875 46.316406 C 49.421875 47.722656 48.207031 48.980469 46.496094 49.28125 C 46.425781 49.292969 46.351562 49.296875 46.28125 49.296875 C 45.289062 49.308594 44.660156 48.730469 44.144531 48.125 C 43.628906 47.519531 43.175781 46.75 42.71875 45.800781 C 41.804688 43.902344 40.910156 41.28125 40.105469 38.066406 C 38.960938 33.5 38.042969 27.714844 37.640625 21.332031 L 16 21.332031 L 16 18.667969 L 37.519531 18.667969 C 37.457031 16.90625 37.390625 15.140625 37.417969 13.3125 Z M 45.332031 13.332031 C 46.445312 14.34375 47.355469 15.402344 48.0625 16.515625 L 45.484375 18.03125 C 44.878906 16.917969 44.066406 15.808594 43.058594 14.699219 Z M 18.667969 24 L 34.667969 24 L 34.667969 26.667969 L 18.667969 26.667969 Z M 18.667969 29.332031 L 34.667969 29.332031 L 34.667969 32 L 18.667969 32 Z M 18.667969 34.667969 L 34.667969 34.667969 L 34.667969 42.667969 L 32 42.667969 L 32 37.332031 L 21.332031 37.332031 L 21.332031 42.667969 L 18.667969 42.667969 Z M 24.027344 40 L 26.910156 40 C 26.6875 43.210938 25.886719 45.640625 24.433594 47.183594 C 22.714844 49.101562 19.632812 50.261719 15.1875 50.667969 L 13.972656 48.089844 C 18.015625 47.683594 20.691406 46.773438 22.003906 45.359375 C 23.152344 44.214844 23.808594 42.40625 24.027344 40 Z M 28.542969 42.660156 C 31.066406 43.875 33.394531 45.289062 35.515625 46.90625 L 33.390625 49.332031 C 31.371094 47.617188 29.148438 46.148438 26.722656 44.9375 Z M 28.542969 42.660156 "/>
</g>
</svg>
