<?xml version="1.0" encoding="UTF-8"?>
<svg xmlns="http://www.w3.org/2000/svg" xmlns:xlink="http://www.w3.org/1999/xlink" width="64px" height="64px" viewBox="0 0 64 64" version="1.1">
<defs>
<linearGradient id="linear0" gradientUnits="userSpaceOnUse" x1="0" y1="0" x2="0" y2="1" gradientTransform="matrix(32,0,0,42.664062,16,10.667969)">
<stop offset="0" style="stop-color:rgb(3.921569%,74.117649%,77.64706%);stop-opacity:1;"/>
<stop offset="1" style="stop-color:rgb(72.156864%,0%,100%);stop-opacity:1;"/>
</linearGradient>
</defs>
<g id="surface1">
<path style=" stroke:none;fill-rule:nonzero;fill:url(#linear0);" d="M 24 10.667969 L 24 34.667969 L 16 34.667969 L 32 53.332031 L 48 34.667969 L 40 34.667969 L 40 10.667969 Z M 26.667969 13.332031 L 37.332031 13.332031 L 37.332031 16 L 29.332031 16 L 29.332031 21.332031 L 34.667969 21.332031 L 34.667969 24 L 29.332031 24 L 29.332031 34.667969 L 26.667969 34.667969 Z M 26.667969 13.332031 "/>
</g>
</svg>
