<?xml version="1.0" encoding="UTF-8"?>
<svg xmlns="http://www.w3.org/2000/svg" xmlns:xlink="http://www.w3.org/1999/xlink" width="64px" height="64px" viewBox="0 0 64 64" version="1.1">
<defs>
<filter id="alpha" filterUnits="objectBoundingBox" x="0%" y="0%" width="100%" height="100%">
  <feColorMatrix type="matrix" in="SourceGraphic" values="0 0 0 0 1 0 0 0 0 1 0 0 0 0 1 0 0 0 1 0"/>
</filter>
<mask id="mask0">
  <g filter="url(#alpha)">
<rect x="0" y="0" width="64" height="64" style="fill:rgb(0%,0%,0%);fill-opacity:0.3;stroke:none;"/>
  </g>
</mask>
<linearGradient id="linear0" gradientUnits="userSpaceOnUse" x1="0" y1="0" x2="0" y2="1" gradientTransform="matrix(42.664062,0,0,42.664062,10.667969,10.667969)">
<stop offset="0" style="stop-color:rgb(3.921569%,74.117649%,77.64706%);stop-opacity:1;"/>
<stop offset="1" style="stop-color:rgb(72.156864%,0%,100%);stop-opacity:1;"/>
</linearGradient>
<clipPath id="clip1">
  <rect x="0" y="0" width="64" height="64"/>
</clipPath>
<g id="surface5" clip-path="url(#clip1)">
<path style=" stroke:none;fill-rule:nonzero;fill:url(#linear0);" d="M 32 10.667969 C 26.410156 10.667969 21.042969 12.863281 17.058594 16.78125 L 24.40625 29.507812 C 25.480469 26.226562 28.542969 24.003906 32 24 L 51.765625 24 C 48.507812 15.945312 40.6875 10.671875 32 10.667969 Z M 15.199219 18.894531 C 12.269531 22.636719 10.675781 27.25 10.667969 32 C 10.675781 41.582031 17.074219 49.980469 26.308594 52.535156 L 33.644531 39.824219 C 33.105469 39.9375 32.554688 40 32 40 C 29.144531 39.996094 26.507812 38.46875 25.082031 35.996094 L 25.074219 36 Z M 32 26.667969 C 29.054688 26.667969 26.667969 29.054688 26.667969 32 C 26.667969 34.945312 29.054688 37.332031 32 37.332031 C 34.945312 37.332031 37.332031 34.945312 37.332031 32 C 37.332031 29.054688 34.945312 26.667969 32 26.667969 Z M 37.945312 26.667969 C 39.265625 28.132812 39.996094 30.03125 40 32 C 39.996094 33.402344 39.625 34.78125 38.921875 35.996094 L 38.929688 36 L 29.050781 53.105469 C 30.027344 53.25 31.011719 53.324219 32 53.332031 C 43.78125 53.332031 53.332031 43.78125 53.332031 32 C 53.328125 30.199219 53.09375 28.40625 52.640625 26.667969 Z M 37.945312 26.667969 "/>
</g>
</defs>
<g id="surface1">
<use xlink:href="#surface5" mask="url(#mask0)"/>
</g>
</svg>
