<?xml version="1.0" encoding="UTF-8"?>
<svg xmlns="http://www.w3.org/2000/svg" xmlns:xlink="http://www.w3.org/1999/xlink" width="64px" height="64px" viewBox="0 0 64 64" version="1.1">
<defs>
<linearGradient id="linear0" gradientUnits="userSpaceOnUse" x1="0" y1="0" x2="0" y2="1" gradientTransform="matrix(45.335938,0,0,45.332031,13.332031,10.667969)">
<stop offset="0" style="stop-color:rgb(3.921569%,74.117649%,77.64706%);stop-opacity:1;"/>
<stop offset="1" style="stop-color:rgb(72.156864%,0%,100%);stop-opacity:1;"/>
</linearGradient>
</defs>
<g id="surface1">
<path style=" stroke:none;fill-rule:nonzero;fill:url(#linear0);" d="M 45.332031 40 L 45.332031 56 L 50.667969 56 L 50.667969 40 Z M 53.332031 40 L 53.332031 56 L 58.667969 56 L 58.667969 40 Z M 15.550781 10.667969 C 14.992188 10.679688 14.5 10.882812 14.136719 11.246094 C 13.613281 11.753906 13.332031 12.578125 13.332031 13.648438 L 13.332031 50.339844 C 13.332031 51.40625 13.640625 52.230469 14.136719 52.742188 C 14.890625 53.492188 16.074219 53.5625 17.421875 52.761719 L 26.988281 47.183594 L 47.691406 35.121094 C 47.792969 34.605469 47.871094 34.082031 47.921875 33.558594 C 47.871094 34.082031 47.792969 34.605469 47.691406 35.121094 L 48.964844 34.382812 C 51.234375 33.070312 51.234375 30.9375 48.964844 29.605469 L 47.6875 28.859375 C 46.226562 21.527344 39.761719 16 32 16 C 30.253906 16 28.574219 16.285156 27.003906 16.804688 L 17.421875 11.21875 C 16.746094 10.832031 16.113281 10.65625 15.550781 10.667969 Z M 25.308594 17.484375 C 25.136719 17.5625 24.972656 17.652344 24.808594 17.734375 C 24.972656 17.652344 25.136719 17.5625 25.308594 17.484375 Z M 23.6875 18.359375 C 23.496094 18.476562 23.308594 18.59375 23.125 18.71875 C 23.308594 18.59375 23.496094 18.476562 23.6875 18.359375 Z M 32 18.667969 C 39.394531 18.667969 45.332031 24.605469 45.332031 32 C 45.332031 32.503906 45.242188 32.996094 45.1875 33.496094 L 26.796875 44.203125 C 26.453125 44.054688 26.097656 43.9375 25.769531 43.761719 L 25.714844 43.730469 L 25.652344 43.699219 C 25.601562 43.675781 25.609375 43.691406 25.5625 43.671875 C 25.53125 43.648438 25.457031 43.589844 25.152344 43.40625 L 25.144531 43.40625 C 24.949219 43.289062 24.75 43.164062 24.558594 43.035156 L 24.535156 43.019531 C 24.304688 42.863281 24.09375 42.710938 23.894531 42.558594 L 23.890625 42.550781 C 23.683594 42.390625 23.480469 42.222656 23.28125 42.046875 L 23.277344 42.046875 C 23.007812 41.808594 22.820312 41.65625 22.722656 41.5625 L 22.71875 41.558594 L 22.714844 41.550781 L 22.6875 41.519531 L 22.652344 41.484375 C 22.332031 41.171875 22.035156 40.847656 21.75 40.507812 C 21.648438 40.386719 21.511719 40.203125 21.332031 39.960938 L 21.328125 39.949219 L 21.324219 39.941406 C 21.152344 39.71875 20.988281 39.488281 20.832031 39.25 L 20.828125 39.242188 C 20.6875 39.023438 20.554688 38.8125 20.4375 38.609375 L 20.425781 38.589844 C 20.292969 38.347656 20.167969 38.105469 20.046875 37.855469 L 20.042969 37.84375 L 20.035156 37.835938 C 19.886719 37.523438 19.777344 37.320312 19.730469 37.210938 L 19.730469 37.203125 C 19.542969 36.753906 19.375 36.300781 19.238281 35.835938 L 19.238281 35.816406 C 19.210938 35.730469 19.164062 35.542969 19.09375 35.261719 C 19.003906 34.914062 18.933594 34.558594 18.875 34.203125 C 18.832031 33.949219 18.796875 33.761719 18.78125 33.621094 L 18.78125 33.59375 C 18.710938 33.0625 18.671875 32.535156 18.667969 32 C 18.671875 31.691406 18.6875 31.378906 18.714844 31.066406 L 18.714844 31.046875 L 18.71875 31.03125 C 18.738281 30.753906 18.765625 30.46875 18.808594 30.171875 L 18.808594 30.167969 L 18.8125 30.167969 C 18.828125 30.042969 18.84375 29.914062 18.863281 29.792969 L 18.863281 29.78125 C 18.921875 29.441406 18.992188 29.105469 19.074219 28.78125 C 19.089844 28.71875 19.105469 28.652344 19.125 28.589844 L 19.128906 28.574219 L 19.136719 28.558594 C 19.234375 28.183594 19.347656 27.820312 19.472656 27.46875 L 19.472656 27.464844 C 19.476562 27.460938 19.476562 27.457031 19.480469 27.453125 C 19.488281 27.421875 19.503906 27.394531 19.515625 27.363281 L 19.515625 27.355469 L 19.519531 27.347656 C 19.660156 26.972656 19.8125 26.609375 19.984375 26.25 L 19.996094 26.234375 L 19.996094 26.230469 C 20.011719 26.199219 20.027344 26.171875 20.042969 26.140625 L 20.046875 26.128906 L 20.050781 26.121094 C 20.222656 25.777344 20.410156 25.4375 20.609375 25.105469 C 20.644531 25.046875 20.679688 24.992188 20.714844 24.9375 C 20.941406 24.574219 21.171875 24.230469 21.421875 23.90625 C 21.695312 23.550781 21.972656 23.226562 22.261719 22.917969 L 22.269531 22.90625 L 22.296875 22.882812 C 24.738281 20.289062 28.160156 18.667969 32 18.667969 Z M 22.15625 19.429688 C 21.992188 19.558594 21.824219 19.683594 21.667969 19.820312 C 21.824219 19.683594 21.992188 19.558594 22.15625 19.429688 Z M 47.917969 30.375 C 47.972656 30.910156 48 31.453125 48 32 C 48 31.453125 47.96875 30.910156 47.917969 30.375 Z M 16 32 C 16.007812 32.339844 16.027344 32.675781 16.058594 33.011719 C 16.027344 32.675781 16.007812 32.339844 16 32 Z M 16.683594 36.585938 C 16.765625 36.84375 16.855469 37.101562 16.953125 37.355469 C 16.855469 37.101562 16.765625 36.84375 16.683594 36.585938 Z M 24.511719 46.109375 C 24.902344 46.316406 25.304688 46.507812 25.714844 46.683594 C 25.304688 46.507812 24.902344 46.316406 24.511719 46.109375 Z M 40 32 C 40 36.417969 36.417969 40 32 40 C 27.582031 40 24 36.417969 24 32 C 24 27.582031 27.582031 24 32 24 C 36.417969 24 40 27.582031 40 32 Z M 40 32 "/>
</g>
</svg>
