<?xml version="1.0" encoding="UTF-8"?>
<svg xmlns="http://www.w3.org/2000/svg" xmlns:xlink="http://www.w3.org/1999/xlink" width="64px" height="64px" viewBox="0 0 64 64" version="1.1">
<defs>
<linearGradient id="linear0" gradientUnits="userSpaceOnUse" x1="0" y1="0" x2="0" y2="1" gradientTransform="matrix(42.675781,0,0,42.667969,10.664062,10.667969)">
<stop offset="0" style="stop-color:rgb(3.921569%,74.117649%,77.64706%);stop-opacity:1;"/>
<stop offset="1" style="stop-color:rgb(72.156864%,0%,100%);stop-opacity:1;"/>
</linearGradient>
</defs>
<g id="surface1">
<path style=" stroke:none;fill-rule:nonzero;fill:url(#linear0);" d="M 19.59375 10.667969 C 19.214844 10.671875 18.910156 10.984375 18.917969 11.367188 L 18.917969 15.546875 C 17.1875 15.835938 15.835938 17.1875 15.542969 18.917969 L 11.363281 18.917969 C 11.117188 18.914062 10.886719 19.046875 10.757812 19.257812 C 10.632812 19.472656 10.632812 19.738281 10.757812 19.953125 C 10.886719 20.167969 11.117188 20.300781 11.363281 20.296875 L 15.472656 20.296875 L 15.472656 27.179688 L 11.363281 27.179688 C 11.117188 27.175781 10.886719 27.308594 10.757812 27.523438 C 10.632812 27.738281 10.632812 28.003906 10.757812 28.214844 C 10.886719 28.429688 11.117188 28.5625 11.363281 28.558594 L 15.472656 28.558594 L 15.472656 35.441406 L 11.363281 35.441406 C 11.117188 35.4375 10.886719 35.570312 10.757812 35.785156 C 10.632812 36 10.632812 36.265625 10.757812 36.480469 C 10.886719 36.695312 11.117188 36.824219 11.363281 36.820312 L 15.472656 36.820312 L 15.472656 43.707031 L 11.363281 43.707031 C 11.117188 43.703125 10.886719 43.832031 10.757812 44.046875 C 10.632812 44.261719 10.632812 44.527344 10.757812 44.742188 C 10.886719 44.957031 11.117188 45.085938 11.363281 45.082031 L 15.542969 45.082031 C 15.835938 46.8125 17.1875 48.164062 18.917969 48.457031 L 18.917969 52.636719 C 18.914062 52.882812 19.042969 53.113281 19.257812 53.242188 C 19.472656 53.367188 19.738281 53.367188 19.953125 53.242188 C 20.167969 53.113281 20.296875 52.882812 20.292969 52.636719 L 20.292969 48.527344 L 27.179688 48.527344 L 27.179688 52.636719 C 27.175781 52.882812 27.304688 53.113281 27.519531 53.242188 C 27.734375 53.367188 28 53.367188 28.214844 53.242188 C 28.429688 53.113281 28.5625 52.882812 28.558594 52.636719 L 28.558594 48.527344 L 35.441406 48.527344 L 35.441406 52.636719 C 35.4375 52.882812 35.570312 53.113281 35.785156 53.242188 C 35.996094 53.367188 36.261719 53.367188 36.476562 53.242188 C 36.691406 53.113281 36.824219 52.882812 36.820312 52.636719 L 36.820312 48.527344 L 43.703125 48.527344 L 43.703125 52.636719 C 43.699219 52.882812 43.832031 53.113281 44.046875 53.242188 C 44.261719 53.367188 44.527344 53.367188 44.742188 53.242188 C 44.953125 53.113281 45.085938 52.882812 45.082031 52.636719 L 45.082031 48.457031 C 46.8125 48.164062 48.164062 46.8125 48.453125 45.082031 L 52.632812 45.082031 C 52.820312 45.085938 53 45.011719 53.132812 44.882812 C 53.261719 44.75 53.335938 44.570312 53.332031 44.382812 C 53.328125 44.003906 53.015625 43.699219 52.632812 43.707031 L 48.523438 43.707031 L 48.523438 36.820312 L 52.632812 36.820312 C 52.820312 36.824219 53 36.75 53.132812 36.617188 C 53.261719 36.488281 53.335938 36.308594 53.332031 36.121094 C 53.328125 35.742188 53.015625 35.4375 52.632812 35.441406 L 48.523438 35.441406 L 48.523438 28.558594 L 52.632812 28.558594 C 52.820312 28.5625 53 28.488281 53.132812 28.355469 C 53.261719 28.222656 53.335938 28.046875 53.332031 27.859375 C 53.328125 27.476562 53.015625 27.175781 52.632812 27.179688 L 48.523438 27.179688 L 48.523438 20.296875 L 52.632812 20.296875 C 52.820312 20.300781 53.003906 20.226562 53.136719 20.09375 C 53.269531 19.964844 53.339844 19.78125 53.339844 19.597656 C 53.332031 19.214844 53.019531 18.914062 52.640625 18.917969 L 48.460938 18.917969 C 48.167969 17.1875 46.816406 15.835938 45.085938 15.546875 L 45.085938 11.367188 C 45.089844 11.179688 45.015625 11 44.882812 10.867188 C 44.75 10.734375 44.570312 10.664062 44.386719 10.667969 C 44.003906 10.671875 43.703125 10.984375 43.707031 11.367188 L 43.707031 15.476562 L 36.824219 15.476562 L 36.824219 11.367188 C 36.824219 11.179688 36.753906 11 36.621094 10.867188 C 36.488281 10.734375 36.308594 10.664062 36.125 10.667969 C 35.742188 10.671875 35.441406 10.984375 35.445312 11.367188 L 35.445312 15.476562 L 28.5625 15.476562 L 28.5625 11.367188 C 28.5625 11.179688 28.492188 11 28.359375 10.867188 C 28.226562 10.734375 28.046875 10.664062 27.863281 10.667969 C 27.679688 10.667969 27.503906 10.742188 27.378906 10.875 C 27.25 11.007812 27.179688 11.183594 27.183594 11.367188 L 27.183594 15.476562 L 20.296875 15.476562 L 20.296875 11.367188 C 20.300781 11.179688 20.226562 11 20.097656 10.867188 C 19.964844 10.738281 19.785156 10.664062 19.597656 10.667969 Z M 19.59375 10.667969 "/>
</g>
</svg>
