<?xml version="1.0" encoding="UTF-8"?>
<svg xmlns="http://www.w3.org/2000/svg" xmlns:xlink="http://www.w3.org/1999/xlink" width="64px" height="64px" viewBox="0 0 64 64" version="1.1">
<g id="surface1">
<path style="fill:none;stroke-width:2;stroke-linecap:round;stroke-linejoin:bevel;stroke:rgb(3.921569%,74.117649%,77.64706%);stroke-opacity:1;stroke-miterlimit:4;" d="M 8.023438 11.999023 L 10.024414 11.999023 M 9.023926 11.999023 L 9.023926 14 C 9.023926 15.000488 9.023926 15.000488 8.023438 14.999023 C 7.616211 14.999023 6.322754 15.000488 6.023926 15.000488 C 5.023438 15.000488 5.023438 15.000488 5.023438 14 L 5.023438 8 C 5.023438 6.999512 5.023438 6.999512 6.023926 6.999512 C 6.274414 6.999512 7.639648 6.999512 8.023438 6.999512 C 9.023926 6.999512 9.023926 6.999512 9.023926 8 " transform="matrix(2.666667,0,0,2.666667,2.666667,2.666667)"/>
<path style="fill:none;stroke-width:2;stroke-linecap:round;stroke-linejoin:bevel;stroke:rgb(3.921569%,74.117649%,77.64706%);stroke-opacity:1;stroke-miterlimit:4;" d="M 18.000488 7.005371 L 18.000488 13.005371 C 18.000488 14.005859 18.000488 15.004883 17 15.004883 C 16.604492 15.004883 16.38916 15.015137 15.999512 15.004883 C 15.615723 15.006348 15.999512 15.004883 15.000488 15.004883 C 14 15.004883 14 14.005859 14 13.005371 L 14 7.005371 " transform="matrix(2.666667,0,0,2.666667,2.666667,2.666667)"/>
</g>
</svg>
