<?xml version="1.0" encoding="UTF-8"?>
<svg xmlns="http://www.w3.org/2000/svg" xmlns:xlink="http://www.w3.org/1999/xlink" width="64px" height="64px" viewBox="0 0 64 64" version="1.1">
<defs>
<linearGradient id="linear0" gradientUnits="userSpaceOnUse" x1="0" y1="0" x2="0" y2="1" gradientTransform="matrix(32,0,0,34.664062,16,18.667969)">
<stop offset="0" style="stop-color:rgb(3.921569%,74.117649%,77.64706%);stop-opacity:1;"/>
<stop offset="1" style="stop-color:rgb(72.156864%,0%,100%);stop-opacity:1;"/>
</linearGradient>
</defs>
<g id="surface1">
<path style=" stroke:none;fill-rule:nonzero;fill:url(#linear0);" d="M 16 18.667969 L 16 50.667969 C 16 52.144531 17.1875 53.332031 18.667969 53.332031 L 45.332031 53.332031 C 46.8125 53.332031 48 52.144531 48 50.667969 L 48 18.667969 Z M 22.667969 24 L 41.332031 24 C 42.070312 24 42.667969 24.597656 42.667969 25.332031 L 42.667969 36 C 42.667969 36.738281 42.070312 37.332031 41.332031 37.332031 L 22.667969 37.332031 C 21.929688 37.332031 21.332031 36.738281 21.332031 36 L 21.332031 25.332031 C 21.332031 24.597656 21.929688 24 22.667969 24 Z M 24 26.667969 L 24 29.332031 L 40 29.332031 L 40 26.667969 Z M 24 32 L 24 34.667969 L 40 34.667969 L 40 32 Z M 24 40 L 26.667969 40 L 26.667969 42.667969 L 29.332031 42.667969 L 29.332031 40 L 32 40 L 32 42.667969 L 34.667969 42.667969 L 34.667969 40 L 37.332031 40 L 37.332031 42.667969 L 40 42.667969 L 40 40 L 42.667969 40 L 42.667969 42.667969 L 40 42.667969 L 40 45.332031 L 42.667969 45.332031 L 42.667969 48 L 40 48 L 40 45.332031 L 37.332031 45.332031 L 37.332031 48 L 34.667969 48 L 34.667969 45.332031 L 32 45.332031 L 32 48 L 29.332031 48 L 29.332031 45.332031 L 26.667969 45.332031 L 26.667969 48 L 24 48 L 24 45.332031 L 21.332031 45.332031 L 21.332031 42.667969 L 24 42.667969 Z M 24 42.667969 L 24 45.332031 L 26.667969 45.332031 L 26.667969 42.667969 Z M 29.332031 45.332031 L 32 45.332031 L 32 42.667969 L 29.332031 42.667969 Z M 34.667969 45.332031 L 37.332031 45.332031 L 37.332031 42.667969 L 34.667969 42.667969 Z M 34.667969 45.332031 "/>
<path style=" stroke:none;fill-rule:evenodd;fill:rgb(3.921569%,74.117649%,77.64706%);fill-opacity:1;" d="M 16 16 L 21.332031 10.667969 L 42.667969 10.667969 L 48 16 Z M 16 16 "/>
</g>
</svg>
