<?xml version="1.0" encoding="UTF-8"?>
<svg xmlns="http://www.w3.org/2000/svg" xmlns:xlink="http://www.w3.org/1999/xlink" width="64px" height="64px" viewBox="0 0 64 64" version="1.1">
<g id="surface1">
<path style="fill:none;stroke-width:2;stroke-linecap:round;stroke-linejoin:miter;stroke:rgb(3.921569%,74.117649%,77.64706%);stroke-opacity:1;stroke-miterlimit:4;" d="M 5 15.000488 L 9.000488 15.000488 M 5 6.999512 L 9.000488 6.999512 M 6.999512 15.000488 L 6.999512 6.999512 " transform="matrix(2.666667,0,0,2.666667,2.666667,2.666667)"/>
<path style="fill:none;stroke-width:2;stroke-linecap:round;stroke-linejoin:bevel;stroke:rgb(3.921569%,74.117649%,77.64706%);stroke-opacity:1;stroke-miterlimit:4;" d="M 12.999512 15.000488 L 17 15.000488 M 12.999512 11 L 17 11 M 12.999512 6.999512 L 17 6.999512 M 12.999512 15.000488 L 12.999512 6.999512 " transform="matrix(2.666667,0,0,2.666667,2.666667,2.666667)"/>
</g>
</svg>
