<?xml version="1.0" encoding="UTF-8"?>
<svg xmlns="http://www.w3.org/2000/svg" xmlns:xlink="http://www.w3.org/1999/xlink" width="64px" height="64px" viewBox="0 0 64 64" version="1.1">
<g id="surface1">
<path style="fill:none;stroke-width:2;stroke-linecap:round;stroke-linejoin:bevel;stroke:rgb(3.921569%,74.117649%,77.64706%);stroke-opacity:1;stroke-miterlimit:4;" d="M 5 12.004883 L 9.000488 12.004883 M 5 15.004883 L 5 9.004883 M 9.000488 15.004883 L 9.000488 9.004883 M 5 9.004883 L 5 8.005859 C 5 7.005371 5 7.005371 6.999512 7.005371 C 9.000488 7.003906 9.000488 7.005371 9.000488 8.005859 L 9.000488 9.004883 " transform="matrix(2.666667,0,0,2.666667,2.666667,2.666667)"/>
<path style="fill:none;stroke-width:2;stroke-linecap:round;stroke-linejoin:round;stroke:rgb(3.921569%,74.117649%,77.64706%);stroke-opacity:1;stroke-miterlimit:4;" d="M 18.004883 7.006836 L 15.504395 15.006348 L 13.003906 7.006836 " transform="matrix(2.666667,0,0,2.666667,2.666667,2.666667)"/>
</g>
</svg>
