<?xml version="1.0" encoding="UTF-8"?>
<svg xmlns="http://www.w3.org/2000/svg" xmlns:xlink="http://www.w3.org/1999/xlink" width="64px" height="64px" viewBox="0 0 64 64" version="1.1">
<g id="surface1">
<path style="fill:none;stroke-width:2;stroke-linecap:round;stroke-linejoin:miter;stroke:rgb(3.921569%,74.117649%,77.64706%);stroke-opacity:1;stroke-miterlimit:4;" d="M 10.008301 6.999512 L 5.007324 15.000488 M 5.007324 6.999512 L 10.008301 15.000488 " transform="matrix(2.666667,0,0,2.666667,2.666667,2.666667)"/>
<path style="fill:none;stroke-width:2;stroke-linecap:round;stroke-linejoin:round;stroke:rgb(3.921569%,74.117649%,77.64706%);stroke-opacity:1;stroke-miterlimit:4;" d="M 14 14 C 14 15.000488 14 15.000488 15.000488 15.000488 C 15.359375 15.000488 15.425293 15.000488 15.999512 15.000488 C 16.455078 15.000488 15.999512 15.000488 17 15.000488 C 17 15.000488 18.000488 15.000488 18.000488 14 L 18.000488 12.999512 C 18.000488 8.785156 14 13.210449 14.011719 9.009277 C 14.010254 8.588867 14 8.263672 14 8 C 14 6.999512 15.000488 6.999512 15.000488 6.999512 C 15.252441 6.999512 15.631836 6.999512 15.999512 6.999512 C 16.348145 6.999512 16.740723 6.999512 17 6.999512 C 18.000488 6.999512 18.000488 6.999512 18.000488 8 " transform="matrix(2.666667,0,0,2.666667,2.666667,2.666667)"/>
</g>
</svg>
