<?xml version="1.0" encoding="UTF-8"?>
<svg xmlns="http://www.w3.org/2000/svg" xmlns:xlink="http://www.w3.org/1999/xlink" width="64px" height="64px" viewBox="0 0 64 64" version="1.1">
<defs>
<linearGradient id="linear0" gradientUnits="userSpaceOnUse" x1="0" y1="0" x2="0" y2="1" gradientTransform="matrix(40,0,0,32,10.667969,16)">
<stop offset="0" style="stop-color:rgb(3.921569%,74.117649%,77.64706%);stop-opacity:1;"/>
<stop offset="1" style="stop-color:rgb(72.156864%,0%,100%);stop-opacity:1;"/>
</linearGradient>
</defs>
<g id="surface1">
<path style=" stroke:none;fill-rule:nonzero;fill:url(#linear0);" d="M 16 16 C 13.046875 16 10.667969 18.378906 10.667969 21.332031 L 10.667969 42.667969 C 10.667969 45.621094 13.046875 48 16 48 L 45.332031 48 C 48.289062 48 50.667969 45.621094 50.667969 42.667969 L 50.667969 21.332031 C 50.667969 18.378906 48.289062 16 45.332031 16 Z M 16.667969 21.332031 L 20.667969 21.332031 C 21.035156 21.332031 21.332031 21.628906 21.332031 22 L 21.332031 26 C 21.332031 26.371094 21.035156 26.667969 20.667969 26.667969 L 16.667969 26.667969 C 16.296875 26.667969 16 26.371094 16 26 L 16 22 C 16 21.628906 16.296875 21.332031 16.667969 21.332031 Z M 24.667969 21.332031 L 28.667969 21.332031 C 29.035156 21.332031 29.332031 21.628906 29.332031 22 L 29.332031 26 C 29.332031 26.371094 29.035156 26.667969 28.667969 26.667969 L 24.667969 26.667969 C 24.296875 26.667969 24 26.371094 24 26 L 24 22 C 24 21.628906 24.296875 21.332031 24.667969 21.332031 Z M 32.667969 21.332031 L 36.667969 21.332031 C 37.039062 21.332031 37.332031 21.628906 37.332031 22 L 37.332031 26 C 37.332031 26.371094 37.039062 26.667969 36.667969 26.667969 L 32.667969 26.667969 C 32.296875 26.667969 32 26.371094 32 26 L 32 22 C 32 21.628906 32.296875 21.332031 32.667969 21.332031 Z M 40.667969 21.332031 L 44.667969 21.332031 C 45.039062 21.332031 45.332031 21.628906 45.332031 22 L 45.332031 26 C 45.332031 26.371094 45.039062 26.667969 44.667969 26.667969 L 40.667969 26.667969 C 40.296875 26.667969 40 26.371094 40 26 L 40 22 C 40 21.628906 40.296875 21.332031 40.667969 21.332031 Z M 16.667969 29.332031 L 20.667969 29.332031 C 21.035156 29.332031 21.332031 29.628906 21.332031 30 L 21.332031 34 C 21.332031 34.371094 21.035156 34.667969 20.667969 34.667969 L 16.667969 34.667969 C 16.296875 34.667969 16 34.371094 16 34 L 16 30 C 16 29.628906 16.296875 29.332031 16.667969 29.332031 Z M 24.667969 29.332031 L 28.667969 29.332031 C 29.035156 29.332031 29.332031 29.628906 29.332031 30 L 29.332031 34 C 29.332031 34.371094 29.035156 34.667969 28.667969 34.667969 L 24.667969 34.667969 C 24.296875 34.667969 24 34.371094 24 34 L 24 30 C 24 29.628906 24.296875 29.332031 24.667969 29.332031 Z M 32.667969 29.332031 L 36.667969 29.332031 C 37.039062 29.332031 37.332031 29.628906 37.332031 30 L 37.332031 34 C 37.332031 34.371094 37.039062 34.667969 36.667969 34.667969 L 32.667969 34.667969 C 32.296875 34.667969 32 34.371094 32 34 L 32 30 C 32 29.628906 32.296875 29.332031 32.667969 29.332031 Z M 40.667969 29.332031 L 44.667969 29.332031 C 45.039062 29.332031 45.332031 29.628906 45.332031 30 L 45.332031 34 C 45.332031 34.371094 45.039062 34.667969 44.667969 34.667969 L 40.667969 34.667969 C 40.296875 34.667969 40 34.371094 40 34 L 40 30 C 40 29.628906 40.296875 29.332031 40.667969 29.332031 Z M 22 37.332031 L 39.332031 37.332031 C 39.703125 37.332031 40 37.628906 40 38 L 40 42 C 40 42.371094 39.703125 42.667969 39.332031 42.667969 L 22 42.667969 C 21.628906 42.667969 21.332031 42.371094 21.332031 42 L 21.332031 38 C 21.332031 37.628906 21.628906 37.332031 22 37.332031 Z M 22 37.332031 "/>
</g>
</svg>
