<?xml version="1.0" encoding="UTF-8"?>
<svg xmlns="http://www.w3.org/2000/svg" xmlns:xlink="http://www.w3.org/1999/xlink" width="64px" height="64px" viewBox="0 0 64 64" version="1.1">
<defs>
<linearGradient id="linear0" gradientUnits="userSpaceOnUse" x1="0" y1="0" x2="0" y2="1" gradientTransform="matrix(48,0,0,42.664062,8,10.667969)">
<stop offset="0" style="stop-color:rgb(3.921569%,74.117649%,77.64706%);stop-opacity:1;"/>
<stop offset="1" style="stop-color:rgb(72.156864%,0%,100%);stop-opacity:1;"/>
</linearGradient>
</defs>
<g id="surface1">
<path style=" stroke:none;fill-rule:nonzero;fill:url(#linear0);" d="M 10.667969 10.667969 C 9.1875 10.667969 8 11.855469 8 13.332031 L 8 50.667969 C 8 52.144531 9.1875 53.332031 10.667969 53.332031 L 53.332031 53.332031 C 54.8125 53.332031 56 52.144531 56 50.667969 L 56 13.332031 C 56 11.855469 54.8125 10.667969 53.332031 10.667969 Z M 45.332031 16 L 50.667969 16 L 50.667969 18.667969 L 45.332031 18.667969 Z M 45.332031 21.332031 L 50.667969 21.332031 L 50.667969 24 L 45.332031 24 Z M 45.332031 26.667969 L 50.667969 26.667969 L 50.667969 29.332031 L 45.332031 29.332031 Z M 45.332031 32 L 50.667969 32 L 50.667969 34.667969 L 45.332031 34.667969 Z M 13.332031 40 L 29.332031 40 L 29.332031 48 L 13.332031 48 Z M 34.667969 40 L 50.667969 40 L 50.667969 48 L 34.667969 48 Z M 34.667969 40 "/>
</g>
</svg>
