<?xml version="1.0" encoding="UTF-8"?>
<svg xmlns="http://www.w3.org/2000/svg" xmlns:xlink="http://www.w3.org/1999/xlink" width="64px" height="64px" viewBox="0 0 64 64" version="1.1">
<g id="surface1">
<path style=" stroke:none;fill-rule:nonzero;fill:rgb(10.196079%,83.92157%,67.058825%);fill-opacity:1;" d="M 40 42.667969 L 48 42.667969 L 48 53.332031 L 40 53.332031 Z M 40 42.667969 "/>
<path style=" stroke:none;fill-rule:nonzero;fill:rgb(10.196079%,83.92157%,67.058825%);fill-opacity:1;" d="M 48 36 C 48 38.210938 46.210938 40 44 40 C 41.789062 40 40 38.210938 40 36 C 40 33.789062 41.789062 32 44 32 C 46.210938 32 48 33.789062 48 36 Z M 48 36 "/>
<path style="fill:none;stroke-width:2;stroke-linecap:butt;stroke-linejoin:miter;stroke:rgb(10.196079%,83.92157%,67.058825%);stroke-opacity:1;stroke-miterlimit:4;" d="M 7.999512 15 C 7.999512 9.477539 12.477539 4.999512 18 4.999512 " transform="matrix(2.666667,0,0,2.666667,0,0)"/>
<path style="fill:none;stroke-width:2;stroke-linecap:butt;stroke-linejoin:miter;stroke:rgb(10.196079%,83.92157%,67.058825%);stroke-opacity:1;stroke-miterlimit:4;" d="M 12 15 C 12 11.686523 14.686523 9 18 9 " transform="matrix(2.666667,0,0,2.666667,0,0)"/>
</g>
</svg>
