<?xml version="1.0" encoding="UTF-8"?>
<svg xmlns="http://www.w3.org/2000/svg" xmlns:xlink="http://www.w3.org/1999/xlink" width="64px" height="64px" viewBox="0 0 64 64" version="1.1">
<defs>
<linearGradient id="linear0" gradientUnits="userSpaceOnUse" x1="0" y1="0" x2="0" y2="1" gradientTransform="matrix(42.667969,0,0,42.667969,10.664062,10.664062)">
<stop offset="0" style="stop-color:rgb(3.921569%,74.117649%,77.64706%);stop-opacity:1;"/>
<stop offset="1" style="stop-color:rgb(72.156864%,0%,100%);stop-opacity:1;"/>
</linearGradient>
</defs>
<g id="surface1">
<path style=" stroke:none;fill-rule:nonzero;fill:url(#linear0);" d="M 42.667969 10.664062 C 36.777344 10.664062 32 15.441406 32 21.332031 C 32.003906 23.234375 32.519531 25.101562 33.488281 26.738281 L 26.535156 33.691406 L 15.222656 22.378906 C 14.703125 21.855469 14.015625 21.597656 13.332031 21.597656 C 12.652344 21.597656 11.96875 21.855469 11.449219 22.378906 C 10.402344 23.421875 10.402344 25.105469 11.449219 26.148438 L 22.761719 37.460938 L 11.449219 48.773438 C 10.402344 49.820312 10.402344 51.507812 11.449219 52.550781 C 12.492188 53.59375 14.179688 53.59375 15.222656 52.550781 L 17.109375 50.664062 L 21.332031 50.664062 L 21.332031 46.441406 L 22.441406 45.332031 L 26.667969 45.332031 L 26.667969 41.367188 L 37.847656 52.550781 C 38.894531 53.59375 40.574219 53.59375 41.621094 52.550781 C 42.664062 51.507812 42.664062 49.820312 41.621094 48.773438 L 30.308594 37.460938 L 37.261719 30.507812 C 38.898438 31.480469 40.765625 31.992188 42.667969 32 C 48.558594 32 53.332031 27.222656 53.332031 21.332031 C 53.332031 15.441406 48.558594 10.664062 42.667969 10.664062 Z M 45.332031 16 C 46.804688 16 48 17.191406 48 18.664062 C 48 20.136719 46.804688 21.332031 45.332031 21.332031 C 43.859375 21.332031 42.667969 20.136719 42.667969 18.664062 C 42.667969 17.191406 43.859375 16 45.332031 16 Z M 45.332031 16 "/>
</g>
</svg>
