<?xml version="1.0" encoding="UTF-8"?>
<svg xmlns="http://www.w3.org/2000/svg" xmlns:xlink="http://www.w3.org/1999/xlink" width="64px" height="64px" viewBox="0 0 64 64" version="1.1">
<defs>
<linearGradient id="linear0" gradientUnits="userSpaceOnUse" x1="0" y1="0" x2="0" y2="1" gradientTransform="matrix(37.332031,0,0,42.664062,13.332031,10.667969)">
<stop offset="0" style="stop-color:rgb(3.921569%,74.117649%,77.64706%);stop-opacity:1;"/>
<stop offset="1" style="stop-color:rgb(72.156864%,0%,100%);stop-opacity:1;"/>
</linearGradient>
</defs>
<g id="surface1">
<path style=" stroke:none;fill-rule:nonzero;fill:url(#linear0);" d="M 27.566406 10.667969 C 27.445312 10.667969 26.636719 12.027344 25.875 13.527344 C 24.753906 15.722656 24.21875 17.410156 24.035156 19.359375 C 23.988281 19.839844 24 20.316406 24.03125 20.78125 C 24.011719 20.992188 24 21.199219 24 21.410156 C 24 22.269531 24.171875 23.082031 24.425781 23.855469 C 21.050781 25.359375 18.195312 27.8125 16.234375 30.90625 C 15.75 31.539062 15.324219 32.195312 15.015625 32.902344 C 14.527344 34.007812 14.167969 35.15625 13.894531 36.394531 C 13.710938 37.132812 13.558594 37.875 13.46875 38.640625 C 13.460938 38.707031 13.480469 38.722656 13.515625 38.714844 C 13.480469 39.007812 13.433594 39.289062 13.40625 39.597656 C 13.316406 40.589844 13.308594 41 13.375 41 L 24 29.332031 L 21.25 38.546875 C 21.265625 38.5625 21.617188 38.421875 22.03125 38.230469 C 24.578125 37.054688 27.75 35.011719 30.554688 34.675781 C 31.523438 34.5625 34.878906 34.550781 35.890625 34.65625 C 37.933594 34.871094 39.796875 36.445312 42.09375 37.078125 C 43.109375 37.359375 43.609375 37.425781 44.441406 37.394531 C 45.273438 37.367188 45.761719 37.253906 46.378906 36.957031 C 47.914062 36.21875 48.722656 34.617188 48.5 32.886719 C 48.476562 32.722656 48.433594 32.566406 48.398438 32.40625 C 48.464844 32.242188 48.40625 31.96875 48.144531 31.515625 C 47.890625 30.835938 47.511719 30.15625 46.941406 29.386719 C 44.832031 27.070312 42.359375 25.144531 39.566406 23.863281 C 39.824219 23.089844 40 22.273438 40 21.410156 C 40 21.210938 39.992188 21.007812 39.976562 20.808594 C 39.984375 20.605469 40.003906 20.40625 39.992188 20.207031 C 39.851562 17.496094 38.265625 15.636719 35.875 14.410156 C 34.605469 13.761719 32.667969 13.460938 31.40625 13.457031 C 29.828125 13.457031 28.628906 12.097656 27.859375 10.988281 C 27.734375 10.8125 27.601562 10.667969 27.566406 10.667969 Z M 50.21875 36.875 C 49.589844 37.921875 48.6875 38.804688 47.535156 39.359375 C 46.660156 39.78125 45.574219 40.023438 44.539062 40.0625 C 43.523438 40.097656 42.507812 39.960938 41.382812 39.652344 C 38.351562 38.816406 36.476562 37.398438 35.613281 37.308594 C 35.234375 37.265625 31.140625 37.292969 30.875 37.324219 C 29.101562 37.535156 25.996094 39.339844 23.144531 40.652344 C 22.90625 40.761719 22.691406 40.855469 22.492188 40.9375 C 22.394531 40.976562 22.3125 41.011719 22.175781 41.058594 C 22.109375 41.082031 22.039062 41.105469 21.863281 41.144531 C 21.773438 41.167969 21.667969 41.195312 21.40625 41.207031 C 21.273438 41.214844 20.796875 41.175781 20.796875 41.175781 C 20.796875 41.175781 20.207031 41 20.207031 41 C 20.207031 41 19.359375 40.425781 19.359375 40.425781 C 19.011719 40.078125 18.769531 39.644531 18.65625 39.167969 L 15.347656 42.796875 C 14.886719 43.300781 14.253906 43.609375 13.570312 43.660156 C 14.109375 47.257812 15.691406 50.621094 18.113281 53.332031 L 45.890625 53.332031 C 48.957031 49.914062 50.660156 45.484375 50.664062 40.890625 C 50.660156 39.539062 50.511719 38.195312 50.21875 36.875 Z M 24 42.667969 C 25.472656 42.667969 26.664062 43.859375 26.664062 45.332031 C 26.664062 46.804688 25.472656 48 24 48 C 22.527344 48 21.332031 46.804688 21.332031 45.332031 C 21.332031 43.859375 22.527344 42.667969 24 42.667969 Z M 40 42.667969 C 41.472656 42.667969 42.664062 43.859375 42.664062 45.332031 C 42.664062 46.804688 41.472656 48 40 48 C 38.527344 48 37.332031 46.804688 37.332031 45.332031 C 37.332031 43.859375 38.527344 42.667969 40 42.667969 Z M 40 42.667969 "/>
<path style=" stroke:none;fill-rule:nonzero;fill:rgb(10.196079%,83.92157%,67.058825%);fill-opacity:1;" d="M 56 18.667969 C 56 21.613281 53.613281 24 50.667969 24 C 47.722656 24 45.332031 21.613281 45.332031 18.667969 C 45.332031 15.722656 47.722656 13.332031 50.667969 13.332031 C 53.613281 13.332031 56 15.722656 56 18.667969 Z M 56 18.667969 "/>
</g>
</svg>
