<?xml version="1.0" encoding="UTF-8"?>
<svg xmlns="http://www.w3.org/2000/svg" xmlns:xlink="http://www.w3.org/1999/xlink" width="64px" height="64px" viewBox="0 0 64 64" version="1.1">
<defs>
<filter id="alpha" filterUnits="objectBoundingBox" x="0%" y="0%" width="100%" height="100%">
  <feColorMatrix type="matrix" in="SourceGraphic" values="0 0 0 0 1 0 0 0 0 1 0 0 0 0 1 0 0 0 1 0"/>
</filter>
<mask id="mask0">
  <g filter="url(#alpha)">
<rect x="0" y="0" width="64" height="64" style="fill:rgb(0%,0%,0%);fill-opacity:0.35;stroke:none;"/>
  </g>
</mask>
<clipPath id="clip1">
  <rect x="0" y="0" width="64" height="64"/>
</clipPath>
<g id="surface5" clip-path="url(#clip1)">
<path style=" stroke:none;fill-rule:nonzero;fill:rgb(3.921569%,74.117649%,77.64706%);fill-opacity:1;" d="M 17.332031 10.667969 C 16.59375 10.667969 16 11.261719 16 12 L 16 13.332031 L 10.667969 13.332031 L 10.667969 52.003906 C 10.667969 52.742188 11.261719 53.339844 12 53.339844 L 28 53.339844 C 28.738281 53.339844 29.332031 52.742188 29.332031 52.003906 L 29.332031 13.339844 L 28 13.34375 L 24 13.34375 L 24 12.011719 C 24 11.269531 23.40625 10.675781 22.667969 10.675781 Z M 17.332031 10.667969 "/>
</g>
<linearGradient id="linear0" gradientUnits="userSpaceOnUse" x1="0" y1="0" x2="0" y2="1" gradientTransform="matrix(18.664062,0,0,29.339844,10.667969,24)">
<stop offset="0" style="stop-color:rgb(3.921569%,74.117649%,77.64706%);stop-opacity:1;"/>
<stop offset="1" style="stop-color:rgb(72.156864%,0%,100%);stop-opacity:1;"/>
</linearGradient>
</defs>
<g id="surface1">
<use xlink:href="#surface5" mask="url(#mask0)"/>
<path style=" stroke:none;fill-rule:nonzero;fill:url(#linear0);" d="M 10.667969 24 L 10.667969 52.003906 C 10.667969 52.742188 11.261719 53.339844 12 53.339844 L 28 53.339844 C 28.738281 53.339844 29.332031 52.742188 29.332031 52.003906 L 29.332031 24.003906 Z M 10.667969 24 "/>
<path style=" stroke:none;fill-rule:evenodd;fill:rgb(3.921569%,74.117649%,77.64706%);fill-opacity:1;" d="M 37.332031 13.332031 C 35.855469 13.332031 34.667969 14.523438 34.667969 16 L 34.667969 50.667969 C 34.667969 52.144531 35.855469 53.332031 37.332031 53.332031 L 50.667969 53.332031 C 52.144531 53.332031 53.332031 52.144531 53.332031 50.667969 L 53.332031 16 C 53.332031 14.523438 52.144531 13.332031 50.667969 13.332031 Z M 37.332031 21.332031 L 40 21.332031 L 40 24 L 37.332031 24 Z M 42.667969 21.332031 L 45.332031 21.332031 L 45.332031 24 L 42.667969 24 Z M 48 24 L 50.667969 24 L 50.667969 42.667969 L 48 42.667969 Z M 37.332031 26.667969 L 40 26.667969 L 40 29.332031 L 37.332031 29.332031 Z M 42.667969 26.667969 L 45.332031 26.667969 L 45.332031 29.332031 L 42.667969 29.332031 Z M 37.332031 32 L 40 32 L 40 34.667969 L 37.332031 34.667969 Z M 42.667969 32 L 45.332031 32 L 45.332031 34.667969 L 42.667969 34.667969 Z M 37.332031 37.332031 L 40 37.332031 L 40 40 L 37.332031 40 Z M 42.667969 37.332031 L 45.332031 37.332031 L 45.332031 40 L 42.667969 40 Z M 37.332031 42.667969 L 40 42.667969 L 40 45.332031 L 37.332031 45.332031 Z M 42.667969 42.667969 L 45.332031 42.667969 L 45.332031 45.332031 L 42.667969 45.332031 Z M 42.667969 42.667969 "/>
</g>
</svg>
