<?xml version="1.0" encoding="UTF-8"?>
<svg xmlns="http://www.w3.org/2000/svg" xmlns:xlink="http://www.w3.org/1999/xlink" width="64px" height="64px" viewBox="0 0 64 64" version="1.1">
<g id="surface1">
<path style=" stroke:none;fill-rule:nonzero;fill:rgb(10.196079%,83.92157%,67.058825%);fill-opacity:1;" d="M 22.667969 21.332031 C 16.039062 21.332031 10.667969 26.707031 10.667969 33.332031 C 10.667969 39.960938 16.039062 45.332031 22.667969 45.332031 C 27.746094 45.324219 32.269531 42.121094 33.964844 37.332031 L 42.667969 37.324219 L 42.667969 42.65625 L 50.667969 42.65625 L 50.667969 37.3125 L 53.335938 37.324219 L 53.335938 29.324219 L 33.964844 29.332031 C 32.269531 24.546875 27.75 21.339844 22.667969 21.332031 Z M 22.667969 29.332031 C 24.875 29.332031 26.667969 31.125 26.667969 33.332031 C 26.667969 35.542969 24.875 37.332031 22.667969 37.332031 C 20.457031 37.332031 18.667969 35.542969 18.667969 33.332031 C 18.667969 31.125 20.457031 29.332031 22.667969 29.332031 Z M 22.667969 29.332031 "/>
</g>
</svg>
