<?xml version="1.0" encoding="UTF-8"?>
<svg xmlns="http://www.w3.org/2000/svg" xmlns:xlink="http://www.w3.org/1999/xlink" width="64px" height="64px" viewBox="0 0 64 64" version="1.1">
<defs>
<linearGradient id="linear0" gradientUnits="userSpaceOnUse" x1="0" y1="0" x2="0" y2="1" gradientTransform="matrix(48,0,0,37.335937,8,13.332031)">
<stop offset="0" style="stop-color:rgb(3.921569%,74.117649%,77.64706%);stop-opacity:1;"/>
<stop offset="1" style="stop-color:rgb(72.156864%,0%,100%);stop-opacity:1;"/>
</linearGradient>
</defs>
<g id="surface1">
<path style=" stroke:none;fill-rule:nonzero;fill:url(#linear0);" d="M 11.046875 13.332031 C 9.359375 13.332031 8 14.757812 8 16.53125 L 8 47.46875 C 8 49.242188 9.359375 50.667969 11.046875 50.667969 L 52.949219 50.667969 C 54.640625 50.667969 56 49.242188 56 47.46875 L 56 16.53125 C 56 14.757812 54.640625 13.332031 52.949219 13.332031 Z M 24 21.332031 C 29.890625 21.332031 34.667969 26.109375 34.667969 32 C 34.667969 37.890625 29.890625 42.667969 24 42.667969 C 18.109375 42.667969 13.332031 37.890625 13.332031 32 C 13.332031 26.109375 18.109375 21.332031 24 21.332031 Z M 37.332031 21.332031 L 50.667969 21.332031 L 50.667969 24 L 37.332031 24 Z M 24.265625 24 C 19.847656 24 16.265625 27.582031 16.265625 32 C 16.265625 36.417969 19.847656 40 24.265625 40 C 28.683594 40 32.265625 36.417969 32.265625 32 C 32.265625 27.582031 28.683594 24 24.265625 24 Z M 37.332031 29.332031 L 50.667969 29.332031 L 50.667969 32 L 37.332031 32 Z M 37.332031 37.332031 L 50.667969 37.332031 L 50.667969 40 L 37.332031 40 Z M 37.332031 37.332031 "/>
</g>
</svg>
