<?xml version="1.0" encoding="UTF-8"?>
<svg xmlns="http://www.w3.org/2000/svg" xmlns:xlink="http://www.w3.org/1999/xlink" width="64px" height="64px" viewBox="0 0 64 64" version="1.1">
<defs>
<linearGradient id="linear0" gradientUnits="userSpaceOnUse" x1="0" y1="0" x2="0" y2="1" gradientTransform="matrix(45.332031,0,0,37.335938,8,13.332031)">
<stop offset="0" style="stop-color:rgb(3.921569%,74.117649%,77.64706%);stop-opacity:1;"/>
<stop offset="1" style="stop-color:rgb(72.156864%,0%,100%);stop-opacity:1;"/>
</linearGradient>
</defs>
<g id="surface1">
<path style=" stroke:none;fill-rule:nonzero;fill:url(#linear0);" d="M 13.332031 13.332031 C 11.855469 13.332031 10.667969 14.523438 10.667969 16 L 10.667969 42.667969 C 10.667969 44.144531 11.855469 45.332031 13.332031 45.332031 L 8 45.332031 L 8 48 C 8 49.476562 10.378906 50.667969 13.332031 50.667969 L 48 50.667969 L 48 42.667969 L 16 42.667969 L 16 18.667969 L 48 18.667969 L 48 26.667969 L 53.332031 26.667969 L 53.332031 16 C 53.332031 14.523438 52.144531 13.332031 50.667969 13.332031 Z M 26.667969 45.332031 L 37.332031 45.332031 L 37.332031 48 L 26.667969 48 Z M 26.667969 45.332031 "/>
<path style=" stroke:none;fill-rule:nonzero;fill:rgb(10.196079%,83.92157%,67.058825%);fill-opacity:1;" d="M 50.667969 29.332031 L 50.667969 40 L 51.332031 45.332031 L 55.332031 45.332031 L 56 40 L 56 29.332031 Z M 50.667969 48 L 50.667969 53.332031 L 56 53.332031 L 56 48 Z M 50.667969 48 "/>
</g>
</svg>
