<?xml version="1.0" encoding="UTF-8"?>
<svg xmlns="http://www.w3.org/2000/svg" xmlns:xlink="http://www.w3.org/1999/xlink" width="64px" height="64px" viewBox="0 0 64 64" version="1.1">
<defs>
<linearGradient id="linear0" gradientUnits="userSpaceOnUse" x1="0" y1="0" x2="0" y2="1" gradientTransform="matrix(42.664062,0,0,42.664062,10.667969,10.667969)">
<stop offset="0" style="stop-color:rgb(3.921569%,74.117649%,77.64706%);stop-opacity:1;"/>
<stop offset="1" style="stop-color:rgb(72.156864%,0%,100%);stop-opacity:1;"/>
</linearGradient>
</defs>
<g id="surface1">
<path style=" stroke:none;fill-rule:nonzero;fill:url(#linear0);" d="M 32 10.667969 C 20.21875 10.667969 10.667969 20.210938 10.667969 32 C 10.667969 43.78125 20.210938 53.332031 32 53.332031 C 32.871094 53.332031 33.722656 53.269531 34.566406 53.167969 C 32.90625 50.894531 32.007812 48.152344 32 45.332031 C 32.007812 41.144531 33.980469 37.203125 37.332031 34.6875 L 37.332031 33.332031 L 34.667969 37.332031 L 29.332031 37.332031 L 26.667969 33.332031 L 26.667969 40 L 21.332031 40 L 21.332031 24 L 26.667969 24 L 32 32 L 37.332031 24 L 42.667969 24 L 42.667969 32.28125 C 43.542969 32.097656 44.4375 32.003906 45.332031 32 C 48.148438 32.007812 50.890625 32.902344 53.167969 34.5625 C 53.265625 33.722656 53.332031 32.871094 53.332031 32 C 53.332031 20.21875 43.789062 10.667969 32 10.667969 Z M 32 10.667969 "/>
<path style=" stroke:none;fill-rule:nonzero;fill:rgb(10.196079%,83.92157%,67.058825%);fill-opacity:1;" d="M 46.078125 34.6875 C 44.027344 34.542969 41.914062 34.988281 40 36.09375 C 34.898438 39.039062 33.152344 45.566406 36.097656 50.667969 C 39.042969 55.769531 45.566406 57.515625 50.667969 54.566406 C 55.769531 51.621094 57.519531 45.101562 54.574219 40 C 52.730469 36.8125 49.492188 34.929688 46.078125 34.6875 Z M 41.5625 39.675781 L 45.332031 43.449219 L 49.105469 39.675781 L 50.988281 41.5625 L 47.21875 45.332031 L 50.988281 49.105469 L 49.105469 50.988281 L 45.332031 47.21875 L 41.5625 50.988281 L 39.675781 49.105469 L 43.449219 45.332031 L 39.675781 41.5625 Z M 41.5625 39.675781 "/>
</g>
</svg>
