<?xml version="1.0" encoding="UTF-8"?>
<svg xmlns="http://www.w3.org/2000/svg" xmlns:xlink="http://www.w3.org/1999/xlink" width="64px" height="64px" viewBox="0 0 64 64" version="1.1">
<defs>
<linearGradient id="linear0" gradientUnits="userSpaceOnUse" x1="0" y1="0" x2="0" y2="1" gradientTransform="matrix(42.664062,0,0,42.664062,10.667969,10.667969)">
<stop offset="0" style="stop-color:rgb(3.921569%,74.117649%,77.64706%);stop-opacity:1;"/>
<stop offset="1" style="stop-color:rgb(72.156864%,0%,100%);stop-opacity:1;"/>
</linearGradient>
<linearGradient id="linear1" gradientUnits="userSpaceOnUse" x1="0" y1="0" x2="0" y2="1" gradientTransform="matrix(21.335938,0,0,21.335938,34.667969,34.664062)">
<stop offset="0" style="stop-color:rgb(3.921569%,74.117649%,77.64706%);stop-opacity:1;"/>
<stop offset="1" style="stop-color:rgb(72.156864%,0%,100%);stop-opacity:1;"/>
</linearGradient>
</defs>
<g id="surface1">
<path style=" stroke:none;fill-rule:nonzero;fill:url(#linear0);" d="M 32 10.667969 C 20.21875 10.667969 10.667969 20.210938 10.667969 32 C 10.667969 43.78125 20.210938 53.332031 32 53.332031 C 32.871094 53.332031 33.722656 53.269531 34.566406 53.167969 C 32.90625 50.890625 32.007812 48.148438 32 45.332031 C 32.007812 41.144531 33.980469 37.199219 37.332031 34.6875 L 37.332031 33.332031 L 34.667969 37.332031 L 29.332031 37.332031 L 26.667969 33.332031 L 26.667969 40 L 21.332031 40 L 21.332031 24 L 26.667969 24 L 32 32 L 37.332031 24 L 42.667969 24 L 42.667969 32.28125 C 43.542969 32.097656 44.4375 32.003906 45.332031 32 C 48.148438 32.003906 50.890625 32.902344 53.167969 34.5625 C 53.265625 33.722656 53.332031 32.867188 53.332031 32 C 53.332031 20.21875 43.789062 10.667969 32 10.667969 Z M 32 10.667969 "/>
<path style=" stroke:none;fill-rule:nonzero;fill:url(#linear1);" d="M 54.574219 40 C 51.628906 34.898438 45.101562 33.148438 40 36.09375 C 34.898438 39.039062 33.152344 45.5625 36.097656 50.664062 C 39.042969 55.765625 45.566406 57.515625 50.667969 54.570312 C 55.769531 51.625 57.519531 45.101562 54.574219 40 Z M 52.261719 41.332031 C 54.472656 45.15625 53.160156 50.050781 49.335938 52.261719 L 48 49.949219 C 50.554688 48.476562 51.425781 45.214844 49.953125 42.664062 Z M 41.335938 38.402344 L 42.667969 40.714844 C 40.117188 42.1875 39.242188 45.449219 40.714844 48 L 38.40625 49.332031 C 36.199219 45.503906 37.507812 40.613281 41.335938 38.402344 Z M 41.335938 38.402344 "/>
</g>
</svg>
