<?xml version="1.0" encoding="UTF-8"?>
<svg xmlns="http://www.w3.org/2000/svg" xmlns:xlink="http://www.w3.org/1999/xlink" width="64px" height="64px" viewBox="0 0 64 64" version="1.1">
<defs>
<linearGradient id="linear0" gradientUnits="userSpaceOnUse" x1="0" y1="0" x2="0" y2="1" gradientTransform="matrix(42.667969,0,0,40.277344,10.667969,10.667969)">
<stop offset="0" style="stop-color:rgb(3.921569%,74.117649%,77.64706%);stop-opacity:1;"/>
<stop offset="1" style="stop-color:rgb(72.156864%,0%,100%);stop-opacity:1;"/>
</linearGradient>
</defs>
<g id="surface1">
<path style=" stroke:none;fill-rule:nonzero;fill:url(#linear0);" d="M 32.046875 10.667969 C 21.667969 10.667969 13.035156 17.585938 11.15625 26.738281 C 10.835938 28.121094 10.671875 29.53125 10.667969 30.945312 C 10.671875 35.988281 12.730469 40.785156 16.3125 44.445312 C 17.734375 43.296875 19.507812 42.667969 21.332031 42.667969 C 25.75 42.667969 29.332031 46.25 29.332031 50.667969 C 29.332031 50.699219 29.328125 50.734375 29.328125 50.765625 C 30.199219 50.871094 31.074219 50.941406 31.953125 50.945312 C 42.179688 50.9375 50.949219 44.097656 52.847656 34.65625 C 53.160156 33.308594 53.335938 31.910156 53.335938 30.476562 C 53.335938 19.535156 43.804688 10.667969 32.050781 10.667969 Z M 29.332031 21.332031 L 34.667969 30.667969 L 48 24 L 32 40 L 28 30.667969 L 16 37.332031 Z M 29.332031 21.332031 "/>
<path style=" stroke:none;fill-rule:nonzero;fill:rgb(10.196079%,83.92157%,67.058825%);fill-opacity:1;" d="M 26.667969 50.667969 C 26.667969 53.613281 24.277344 56 21.332031 56 C 18.386719 56 16 53.613281 16 50.667969 C 16 47.722656 18.386719 45.332031 21.332031 45.332031 C 24.277344 45.332031 26.667969 47.722656 26.667969 50.667969 Z M 26.667969 50.667969 "/>
</g>
</svg>
