<?xml version="1.0" encoding="UTF-8"?>
<svg xmlns="http://www.w3.org/2000/svg" xmlns:xlink="http://www.w3.org/1999/xlink" width="64px" height="64px" viewBox="0 0 64 64" version="1.1">
<defs>
<filter id="alpha" filterUnits="objectBoundingBox" x="0%" y="0%" width="100%" height="100%">
  <feColorMatrix type="matrix" in="SourceGraphic" values="0 0 0 0 1 0 0 0 0 1 0 0 0 0 1 0 0 0 1 0"/>
</filter>
<mask id="mask0">
  <g filter="url(#alpha)">
<rect x="0" y="0" width="64" height="64" style="fill:rgb(0%,0%,0%);fill-opacity:0.35;stroke:none;"/>
  </g>
</mask>
<clipPath id="clip1">
  <rect x="0" y="0" width="64" height="64"/>
</clipPath>
<g id="surface5" clip-path="url(#clip1)">
<path style=" stroke:none;fill-rule:nonzero;fill:rgb(10.196079%,83.92157%,67.058825%);fill-opacity:1;" d="M 14.667969 10.667969 C 13.929688 10.667969 13.332031 11.261719 13.332031 12 L 13.332031 13.332031 L 8 13.328125 L 8 52 C 8 52.738281 8.59375 53.332031 9.332031 53.332031 L 25.332031 53.332031 C 26.070312 53.332031 26.667969 52.738281 26.667969 52 L 26.667969 13.328125 L 25.332031 13.335938 L 21.332031 13.335938 L 21.332031 12.003906 C 21.332031 11.261719 20.738281 10.667969 20 10.667969 Z M 14.667969 10.667969 "/>
</g>
<linearGradient id="linear0" gradientUnits="userSpaceOnUse" x1="0" y1="0" x2="0" y2="1" gradientTransform="matrix(29.332031,0,0,42.664062,32,10.667969)">
<stop offset="0" style="stop-color:rgb(3.921569%,74.117649%,77.64706%);stop-opacity:1;"/>
<stop offset="1" style="stop-color:rgb(72.156864%,0%,100%);stop-opacity:1;"/>
</linearGradient>
</defs>
<g id="surface1">
<use xlink:href="#surface5" mask="url(#mask0)"/>
<path style=" stroke:none;fill-rule:nonzero;fill:url(#linear0);" d="M 45.332031 10.667969 C 37.945312 10.667969 32 17.800781 32 26.667969 L 45.332031 26.667969 Z M 48 10.667969 L 48 26.667969 L 61.332031 26.667969 C 61.332031 17.800781 55.386719 10.667969 48 10.667969 Z M 32 29.332031 L 32 37.332031 C 32 46.199219 37.945312 53.332031 45.332031 53.332031 L 48 53.332031 C 55.386719 53.332031 61.332031 46.199219 61.332031 37.332031 L 61.332031 29.332031 Z M 32 29.332031 "/>
</g>
</svg>
