<?xml version="1.0" encoding="UTF-8"?>
<svg xmlns="http://www.w3.org/2000/svg" xmlns:xlink="http://www.w3.org/1999/xlink" width="64px" height="64px" viewBox="0 0 64 64" version="1.1">
<defs>
<linearGradient id="linear0" gradientUnits="userSpaceOnUse" x1="0" y1="0" x2="0" y2="1" gradientTransform="matrix(54.625,0,0,45.332031,5.332031,10.667969)">
<stop offset="0" style="stop-color:rgb(3.921569%,74.117649%,77.64706%);stop-opacity:1;"/>
<stop offset="1" style="stop-color:rgb(72.156864%,0%,100%);stop-opacity:1;"/>
</linearGradient>
</defs>
<g id="surface1">
<path style=" stroke:none;fill-rule:nonzero;fill:url(#linear0);" d="M 26.667969 10.667969 C 14.882812 10.667969 5.332031 20.21875 5.332031 32 C 5.332031 43.78125 14.882812 53.332031 26.667969 53.332031 C 30.441406 53.324219 34.144531 52.316406 37.402344 50.410156 L 35.449219 48.457031 C 34.40625 47.417969 34.40625 45.730469 35.449219 44.6875 L 39.21875 40.917969 C 40.261719 39.875 41.949219 39.875 42.988281 40.917969 L 44.972656 42.902344 C 46.945312 39.605469 47.992188 35.839844 48 32 C 48 20.21875 38.449219 10.667969 26.667969 10.667969 Z M 21.332031 18.667969 C 22.941406 18.667969 24.699219 18.839844 26.207031 19.332031 C 26.960938 19.578125 27.667969 19.902344 28.261719 20.421875 C 28.5 20.632812 28.519531 21.039062 28.699219 21.332031 L 30.667969 21.332031 C 31.402344 21.332031 32 21.929688 32 22.667969 L 32 24 C 32.539062 24.007812 32.847656 24.027344 35.203125 24 C 36.203125 23.988281 36.820312 23.996094 37.566406 24 C 38.132812 22.402344 39.640625 21.335938 41.332031 21.332031 C 43.542969 21.332031 45.332031 23.125 45.332031 25.332031 C 45.332031 27.542969 43.542969 29.332031 41.332031 29.332031 C 41.191406 29.332031 41.046875 29.324219 40.90625 29.308594 C 39.050781 31.609375 36.53125 33.460938 34.652344 35.25 L 34.667969 35.96875 C 34.675781 36.332031 34.535156 36.679688 34.28125 36.9375 C 34.027344 37.195312 33.679688 37.339844 33.316406 37.335938 C 32.125 37.320312 31.984375 37.578125 32.027344 37.507812 C 32.070312 37.433594 31.980469 37.738281 32.234375 38.417969 C 32.488281 39.097656 32.96875 39.984375 33.441406 40.890625 C 33.917969 41.796875 34.402344 42.707031 34.628906 43.699219 C 34.722656 44.09375 34.628906 44.511719 34.375 44.828125 C 34.125 45.148438 33.742188 45.332031 33.335938 45.332031 L 25.335938 45.332031 C 21.789062 45.3125 14.671875 45.332031 14.671875 45.332031 C 14.164062 45.335938 13.699219 45.046875 13.472656 44.59375 C 13.246094 44.136719 13.300781 43.589844 13.609375 43.1875 C 14.347656 42.226562 15.039062 40.40625 15.523438 38.511719 C 15.871094 37.144531 16.113281 35.816406 16.320312 34.613281 C 16.132812 34.578125 15.941406 34.523438 15.734375 34.417969 C 15.300781 34.1875 14.832031 33.507812 14.859375 32.917969 C 14.878906 32.523438 14.925781 32.542969 14.9375 32.488281 C 14.953125 32.4375 14.957031 32.410156 14.960938 32.390625 L 14.960938 32.386719 C 13.84375 30.824219 13.335938 28.753906 13.335938 26.917969 C 13.335938 24.578125 14.441406 22.523438 15.949219 21.0625 C 17.457031 19.605469 19.375 18.667969 21.335938 18.667969 Z M 21.332031 21.332031 C 20.289062 21.332031 18.878906 21.9375 17.800781 22.980469 C 16.726562 24.019531 16 25.425781 16 26.917969 C 16 28.253906 16.601562 30.246094 17.238281 31.035156 C 17.328125 31.144531 17.398438 31.261719 17.449219 31.390625 C 17.519531 31.574219 17.472656 31.699219 17.5 31.871094 C 17.863281 31.820312 18.214844 31.785156 18.984375 31.542969 C 19.894531 31.183594 20.699219 30.78125 21.453125 30.363281 C 21.710938 30.222656 21.957031 30.050781 22.214844 29.894531 C 22.773438 29.542969 23.308594 29.183594 23.777344 28.792969 C 24.632812 28.019531 25.335938 27.0625 26.078125 26.136719 C 26.335938 25.710938 26.574219 25.277344 26.769531 24.8125 C 26.980469 24.320312 27.464844 24 28 24 C 27.261719 24 26.667969 23.402344 26.667969 22.667969 C 26.667969 22.59375 26.683594 22.589844 26.5 22.425781 C 26.3125 22.265625 25.917969 22.046875 25.378906 21.871094 C 24.304688 21.519531 22.730469 21.332031 21.332031 21.332031 Z M 30.890625 26.667969 C 30.8125 26.679688 30.734375 26.6875 30.65625 26.6875 L 29.292969 26.675781 C 29.0625 26.816406 28.773438 27.050781 28.402344 27.5 C 27.566406 28.503906 26.535156 30.1875 24.734375 31.46875 C 23.050781 32.667969 21.652344 33.304688 20.546875 33.746094 C 20.332031 33.835938 20.160156 33.953125 19.9375 34.042969 C 19.910156 34.050781 19.886719 34.058594 19.859375 34.066406 C 19.683594 34.125 19.558594 34.144531 19.394531 34.191406 C 19.320312 34.21875 19.109375 34.308594 19.050781 34.328125 C 18.832031 35.691406 18.566406 37.367188 18.105469 39.171875 C 17.78125 40.445312 17.15625 41.515625 16.632812 42.664062 C 18.472656 42.660156 22.433594 42.648438 25.34375 42.664062 L 31.320312 42.664062 C 31.21875 42.460938 31.199219 42.34375 31.085938 42.128906 C 30.625 41.253906 30.101562 40.3125 29.742188 39.347656 C 29.378906 38.382812 29.074219 37.234375 29.746094 36.125 C 30.164062 35.433594 31.148438 35.417969 31.980469 35.21875 L 31.96875 34.695312 C 31.960938 34.332031 32.101562 33.980469 32.359375 33.722656 C 34.390625 31.683594 36.671875 29.78125 38.289062 27.914062 C 37.976562 27.546875 37.730469 27.121094 37.570312 26.664062 C 36.824219 26.660156 36.183594 26.652344 35.238281 26.664062 C 32.09375 26.703125 31.027344 26.667969 30.894531 26.664062 Z M 56.1875 39.03125 L 46.761719 48.457031 L 41.105469 42.800781 L 37.332031 46.574219 L 42.988281 52.230469 L 46.761719 56 L 50.53125 52.230469 L 59.957031 42.800781 Z M 56.1875 39.03125 "/>
</g>
</svg>
