<?xml version="1.0" encoding="UTF-8"?>
<svg xmlns="http://www.w3.org/2000/svg" xmlns:xlink="http://www.w3.org/1999/xlink" width="64px" height="64px" viewBox="0 0 64 64" version="1.1">
<defs>
<filter id="alpha" filterUnits="objectBoundingBox" x="0%" y="0%" width="100%" height="100%">
  <feColorMatrix type="matrix" in="SourceGraphic" values="0 0 0 0 1 0 0 0 0 1 0 0 0 0 1 0 0 0 1 0"/>
</filter>
<mask id="mask0">
  <g filter="url(#alpha)">
<rect x="0" y="0" width="64" height="64" style="fill:rgb(0%,0%,0%);fill-opacity:0.3;stroke:none;"/>
  </g>
</mask>
<linearGradient id="linear0" gradientUnits="userSpaceOnUse" x1="0" y1="0" x2="0" y2="1" gradientTransform="matrix(42.664062,0,0,42.664062,10.667969,10.667969)">
<stop offset="0" style="stop-color:rgb(3.921569%,74.117649%,77.64706%);stop-opacity:1;"/>
<stop offset="1" style="stop-color:rgb(72.156864%,0%,100%);stop-opacity:1;"/>
</linearGradient>
<clipPath id="clip1">
  <rect x="0" y="0" width="64" height="64"/>
</clipPath>
<g id="surface5" clip-path="url(#clip1)">
<path style=" stroke:none;fill-rule:nonzero;fill:url(#linear0);" d="M 32 10.667969 C 43.78125 10.667969 53.332031 20.21875 53.332031 32 C 53.332031 43.78125 43.78125 53.332031 32 53.332031 C 31.097656 53.332031 30.210938 53.261719 29.339844 53.152344 C 29.199219 53.132812 29.066406 53.109375 28.925781 53.089844 C 28.128906 52.972656 27.347656 52.8125 26.578125 52.609375 C 26.5 52.589844 26.425781 52.574219 26.347656 52.550781 C 24.546875 52.058594 22.84375 51.332031 21.265625 50.410156 C 16.53125 47.644531 12.964844 43.113281 11.464844 37.714844 C 11.449219 37.660156 11.4375 37.601562 11.421875 37.546875 C 11.210938 36.757812 11.042969 35.957031 10.921875 35.136719 C 10.898438 34.984375 10.875 34.835938 10.855469 34.683594 C 10.742188 33.800781 10.667969 32.910156 10.667969 32 C 10.667969 20.21875 20.21875 10.667969 32 10.667969 Z M 37.332031 18.667969 C 35.726562 18.667969 33.964844 18.839844 32.457031 19.332031 C 31.703125 19.578125 31 19.902344 30.40625 20.421875 C 30.164062 20.632812 30.148438 21.039062 29.96875 21.332031 L 28 21.332031 C 27.261719 21.332031 26.667969 21.929688 26.667969 22.667969 L 26.667969 24 C 26.128906 24.007812 25.820312 24.027344 23.464844 24 C 22.460938 23.988281 21.847656 23.996094 21.097656 24 C 20.535156 22.402344 19.027344 21.335938 17.332031 21.332031 C 15.125 21.332031 13.332031 23.125 13.332031 25.332031 C 13.332031 27.542969 15.125 29.332031 17.332031 29.332031 C 17.476562 29.332031 17.617188 29.324219 17.761719 29.308594 C 19.613281 31.609375 22.136719 33.460938 24.015625 35.25 L 24 35.96875 C 23.980469 36.722656 24.59375 37.34375 25.347656 37.332031 C 26.539062 37.320312 26.6875 37.578125 26.640625 37.503906 C 26.597656 37.433594 26.6875 37.738281 26.433594 38.417969 C 26.179688 39.097656 25.699219 39.984375 25.222656 40.890625 C 24.75 41.796875 24.265625 42.707031 24.035156 43.699219 C 23.84375 44.53125 24.476562 45.332031 25.332031 45.332031 L 33.332031 45.332031 C 33.335938 45.332031 33.339844 45.332031 33.34375 45.332031 C 36.878906 45.3125 43.996094 45.332031 43.996094 45.332031 C 45.105469 45.339844 45.734375 44.066406 45.058594 43.1875 C 44.320312 42.226562 43.628906 40.410156 43.144531 38.511719 C 42.796875 37.148438 42.554688 35.820312 42.347656 34.613281 C 42.535156 34.578125 42.726562 34.527344 42.933594 34.417969 C 43.367188 34.191406 43.835938 33.507812 43.808594 32.917969 C 43.789062 32.523438 43.742188 32.539062 43.730469 32.488281 C 43.714844 32.4375 43.710938 32.410156 43.707031 32.390625 L 43.707031 32.386719 C 44.824219 30.824219 45.332031 28.753906 45.332031 26.917969 C 45.332031 24.578125 44.226562 22.519531 42.71875 21.0625 C 41.210938 19.605469 39.292969 18.667969 37.332031 18.667969 Z M 37.332031 21.332031 C 38.378906 21.332031 39.789062 21.9375 40.863281 22.980469 C 41.941406 24.019531 42.667969 25.425781 42.667969 26.917969 C 42.667969 28.253906 42.066406 30.246094 41.425781 31.035156 C 41.339844 31.140625 41.269531 31.261719 41.21875 31.390625 C 41.148438 31.574219 41.195312 31.699219 41.167969 31.871094 C 40.800781 31.820312 40.449219 31.785156 39.683594 31.542969 C 38.769531 31.183594 37.96875 30.78125 37.214844 30.363281 C 36.957031 30.21875 36.707031 30.054688 36.453125 29.894531 C 35.894531 29.542969 35.355469 29.183594 34.890625 28.792969 C 34.035156 28.019531 33.332031 27.066406 32.589844 26.136719 C 32.332031 25.710938 32.09375 25.277344 31.894531 24.8125 C 31.6875 24.320312 31.203125 24 30.667969 24 C 31.402344 24 32 23.402344 32 22.667969 C 32 22.59375 31.980469 22.589844 32.167969 22.425781 C 32.351562 22.265625 32.75 22.046875 33.285156 21.871094 C 34.359375 21.519531 35.9375 21.332031 37.332031 21.332031 Z M 27.777344 26.667969 C 27.851562 26.679688 27.933594 26.6875 28.011719 26.6875 L 29.375 26.675781 C 29.605469 26.816406 29.894531 27.050781 30.265625 27.5 C 31.097656 28.503906 32.132812 30.1875 33.933594 31.46875 C 35.613281 32.667969 37.015625 33.304688 38.121094 33.746094 C 38.332031 33.839844 38.507812 33.953125 38.730469 34.042969 C 38.753906 34.050781 38.78125 34.0625 38.808594 34.066406 C 38.984375 34.125 39.105469 34.144531 39.269531 34.191406 C 39.347656 34.21875 39.558594 34.308594 39.613281 34.328125 C 39.835938 35.691406 40.101562 37.367188 40.5625 39.171875 C 40.886719 40.445312 41.511719 41.515625 42.035156 42.667969 C 40.195312 42.660156 36.234375 42.648438 33.324219 42.667969 L 27.347656 42.667969 C 27.449219 42.460938 27.46875 42.347656 27.582031 42.128906 C 28.042969 41.253906 28.566406 40.3125 28.925781 39.347656 C 29.285156 38.382812 29.59375 37.238281 28.921875 36.125 C 28.503906 35.433594 27.519531 35.421875 26.6875 35.21875 L 26.699219 34.699219 C 26.707031 34.332031 26.566406 33.980469 26.308594 33.722656 C 24.273438 31.6875 21.996094 29.785156 20.378906 27.917969 C 20.691406 27.546875 20.9375 27.125 21.097656 26.667969 C 21.84375 26.664062 22.484375 26.65625 23.433594 26.667969 C 26.578125 26.703125 27.640625 26.671875 27.777344 26.667969 Z M 27.777344 26.667969 "/>
</g>
</defs>
<g id="surface1">
<use xlink:href="#surface5" mask="url(#mask0)"/>
</g>
</svg>
