<?xml version="1.0" encoding="UTF-8"?>
<svg xmlns="http://www.w3.org/2000/svg" xmlns:xlink="http://www.w3.org/1999/xlink" width="64px" height="64px" viewBox="0 0 64 64" version="1.1">
<defs>
<linearGradient id="linear0" gradientUnits="userSpaceOnUse" x1="0" y1="0" x2="0" y2="1" gradientTransform="matrix(37.335938,0,0,37.335938,13.332031,13.332031)">
<stop offset="0" style="stop-color:rgb(3.921569%,74.117649%,77.64706%);stop-opacity:1;"/>
<stop offset="1" style="stop-color:rgb(72.156864%,0%,100%);stop-opacity:1;"/>
</linearGradient>
</defs>
<g id="surface1">
<path style=" stroke:none;fill-rule:nonzero;fill:url(#linear0);" d="M 18.667969 13.332031 C 18.667969 13.332031 13.332031 13.332031 13.332031 18.832031 L 13.332031 45.332031 C 13.332031 50.667969 18.667969 50.667969 18.667969 50.667969 L 45.332031 50.667969 C 50.667969 50.667969 50.667969 45.332031 50.667969 45.332031 L 50.667969 18.667969 C 50.667969 18.667969 50.667969 13.332031 45.332031 13.332031 Z M 21.332031 18.667969 L 26.667969 18.667969 L 26.667969 40 L 37.332031 40 L 37.332031 18.667969 L 42.667969 18.667969 L 42.667969 40 C 42.667969 40 42.667969 45.332031 37.332031 45.332031 L 26.667969 45.332031 C 26.667969 45.332031 21.332031 45.332031 21.332031 40 Z M 21.332031 18.667969 "/>
</g>
</svg>
