<?xml version="1.0" encoding="UTF-8"?>
<svg xmlns="http://www.w3.org/2000/svg" xmlns:xlink="http://www.w3.org/1999/xlink" width="64px" height="64px" viewBox="0 0 64 64" version="1.1">
<defs>
<filter id="alpha" filterUnits="objectBoundingBox" x="0%" y="0%" width="100%" height="100%">
  <feColorMatrix type="matrix" in="SourceGraphic" values="0 0 0 0 1 0 0 0 0 1 0 0 0 0 1 0 0 0 1 0"/>
</filter>
<mask id="mask0">
  <g filter="url(#alpha)">
<rect x="0" y="0" width="64" height="64" style="fill:rgb(0%,0%,0%);fill-opacity:0.35;stroke:none;"/>
  </g>
</mask>
<clipPath id="clip1">
  <rect x="0" y="0" width="64" height="64"/>
</clipPath>
<g id="surface5" clip-path="url(#clip1)">
<path style=" stroke:none;fill-rule:nonzero;fill:rgb(3.921569%,74.117649%,77.64706%);fill-opacity:1;" d="M 16 16 C 16 16 13.332031 16 13.332031 18.667969 L 13.332031 42.667969 C 13.332031 45.332031 16 45.332031 16 45.332031 L 21.332031 45.332031 L 24 48 L 40 48 L 40 40 L 37.332031 42.667969 L 26.667969 42.667969 L 24 40 L 18.667969 40 L 18.667969 21.332031 L 45.332031 21.332031 L 45.332031 24 L 50.667969 24 L 50.667969 18.667969 C 50.667969 16 48 16 48 16 Z M 16 16 "/>
</g>
</defs>
<g id="surface1">
<use xlink:href="#surface5" mask="url(#mask0)"/>
<path style=" stroke:none;fill-rule:nonzero;fill:rgb(10.196079%,83.92157%,67.058825%);fill-opacity:1;" d="M 42.667969 26.667969 L 42.667969 37.332031 L 43.332031 42.667969 L 47.332031 42.667969 L 48 37.332031 L 48 26.667969 Z M 42.667969 45.332031 L 42.667969 50.667969 L 48 50.667969 L 48 45.332031 Z M 42.667969 45.332031 "/>
</g>
</svg>
