<?xml version="1.0" encoding="UTF-8"?>
<svg xmlns="http://www.w3.org/2000/svg" xmlns:xlink="http://www.w3.org/1999/xlink" width="64px" height="64px" viewBox="0 0 64 64" version="1.1">
<defs>
<linearGradient id="linear0" gradientUnits="userSpaceOnUse" x1="0" y1="0" x2="0" y2="1" gradientTransform="matrix(42.664062,0,0,37.335938,10.667969,13.332031)">
<stop offset="0" style="stop-color:rgb(3.921569%,74.117649%,77.64706%);stop-opacity:1;"/>
<stop offset="1" style="stop-color:rgb(72.156864%,0%,100%);stop-opacity:1;"/>
</linearGradient>
</defs>
<g id="surface1">
<path style=" stroke:none;fill-rule:nonzero;fill:url(#linear0);" d="M 16 13.332031 C 16 13.332031 10.667969 13.332031 10.667969 18.832031 L 10.667969 45.332031 C 10.667969 50.667969 16 50.667969 16 50.667969 L 48 50.667969 C 53.332031 50.667969 53.332031 45.332031 53.332031 45.332031 L 53.332031 18.667969 C 53.332031 18.667969 53.332031 13.332031 48 13.332031 Z M 16 18.667969 L 21.332031 18.667969 L 21.332031 29.332031 L 24 29.332031 L 24 18.667969 L 29.332031 18.667969 L 29.332031 45.332031 L 24 45.332031 L 24 34.667969 L 21.332031 34.667969 C 16 34.667969 16 29.332031 16 29.332031 Z M 37.332031 18.667969 L 42.667969 18.667969 C 48 18.667969 48 24 48 24 L 48 26.667969 L 42.667969 26.667969 L 42.667969 24 L 37.332031 24 L 37.332031 40 L 42.667969 40 L 42.667969 34.667969 L 40 34.667969 L 40 29.417969 L 45.332031 29.332031 L 48 29.417969 L 48 39.917969 C 48 39.917969 48 45.332031 42.667969 45.332031 L 37.332031 45.332031 C 37.332031 45.332031 32 45.332031 32 40 L 32 24 C 32 18.667969 37.332031 18.667969 37.332031 18.667969 Z M 37.332031 18.667969 "/>
</g>
</svg>
