<?xml version="1.0" encoding="UTF-8"?>
<svg xmlns="http://www.w3.org/2000/svg" xmlns:xlink="http://www.w3.org/1999/xlink" width="64px" height="64px" viewBox="0 0 64 64" version="1.1">
<defs>
<linearGradient id="linear0" gradientUnits="userSpaceOnUse" x1="0" y1="0" x2="0" y2="1" gradientTransform="matrix(42.667969,0,0,37.332031,10.664062,13.328125)">
<stop offset="0" style="stop-color:rgb(3.921569%,74.117649%,77.64706%);stop-opacity:1;"/>
<stop offset="1" style="stop-color:rgb(72.156864%,0%,100%);stop-opacity:1;"/>
</linearGradient>
</defs>
<g id="surface1">
<path style=" stroke:none;fill-rule:nonzero;fill:url(#linear0);" d="M 10.667969 18.828125 L 10.664062 45.328125 C 10.664062 50.660156 16 50.660156 16 50.660156 L 48 50.660156 C 53.332031 50.660156 53.332031 45.328125 53.332031 45.328125 L 53.332031 18.660156 C 53.332031 18.660156 53.332031 13.328125 48 13.328125 L 16 13.328125 C 16 13.328125 10.667969 13.328125 10.667969 18.828125 Z M 16 18.660156 L 26.664062 18.660156 C 28.441406 18.703125 29.777344 20.894531 29 22.492188 L 25.332031 29.910156 C 26.28125 30.21875 27.332031 30.429688 27.917969 31.078125 C 28.804688 32.054688 29.332031 33.238281 29.332031 34.660156 L 29.332031 39.992188 C 29.332031 42.960938 26.914062 45.328125 24 45.328125 L 16 45.328125 L 16 39.992188 L 24 39.992188 L 24 34.660156 L 21.332031 34.660156 C 19.558594 34.617188 18.222656 32.425781 19 30.828125 L 22.332031 23.992188 L 16 23.992188 Z M 42.664062 18.660156 C 48 18.660156 48 23.992188 48 23.992188 L 48 26.660156 L 42.664062 26.660156 L 42.664062 23.992188 L 37.332031 23.992188 L 37.332031 39.992188 L 42.664062 39.992188 L 42.664062 34.660156 L 40 34.660156 L 40 29.410156 L 45.332031 29.328125 L 48 29.410156 L 48 39.910156 C 48 39.910156 48 45.328125 42.664062 45.328125 L 37.335938 45.328125 C 37.335938 45.328125 32 45.328125 32 39.992188 L 32 23.992188 C 32 18.660156 37.332031 18.660156 37.332031 18.660156 Z M 42.664062 18.660156 "/>
</g>
</svg>
