<?xml version="1.0" encoding="UTF-8"?>
<svg xmlns="http://www.w3.org/2000/svg" xmlns:xlink="http://www.w3.org/1999/xlink" width="64px" height="64px" viewBox="0 0 64 64" version="1.1">
<defs>
<linearGradient id="linear0" gradientUnits="userSpaceOnUse" x1="0" y1="0" x2="0" y2="1" gradientTransform="matrix(16,0,0,18.664062,37.332031,34.667969)">
<stop offset="0" style="stop-color:rgb(3.921569%,74.117649%,77.64706%);stop-opacity:1;"/>
<stop offset="1" style="stop-color:rgb(72.156864%,0%,100%);stop-opacity:1;"/>
</linearGradient>
<filter id="alpha" filterUnits="objectBoundingBox" x="0%" y="0%" width="100%" height="100%">
  <feColorMatrix type="matrix" in="SourceGraphic" values="0 0 0 0 1 0 0 0 0 1 0 0 0 0 1 0 0 0 1 0"/>
</filter>
<mask id="mask0">
  <g filter="url(#alpha)">
<rect x="0" y="0" width="64" height="64" style="fill:rgb(0%,0%,0%);fill-opacity:0.3;stroke:none;"/>
  </g>
</mask>
<linearGradient id="linear1" gradientUnits="userSpaceOnUse" x1="0" y1="0" x2="0" y2="1" gradientTransform="matrix(42.664062,0,0,37.335938,10.667969,13.332031)">
<stop offset="0" style="stop-color:rgb(3.921569%,74.117649%,77.64706%);stop-opacity:1;"/>
<stop offset="1" style="stop-color:rgb(72.156864%,0%,100%);stop-opacity:1;"/>
</linearGradient>
<clipPath id="clip1">
  <rect x="0" y="0" width="64" height="64"/>
</clipPath>
<g id="surface5" clip-path="url(#clip1)">
<path style=" stroke:none;fill-rule:nonzero;fill:url(#linear1);" d="M 32 13.332031 C 23.863281 13.332031 16.214844 16.195312 10.667969 21.332031 L 32 50.667969 L 34.667969 47 L 34.667969 40 L 37.371094 40 C 37.421875 35.640625 40.949219 32 45.332031 32 C 45.410156 32 45.480469 32.023438 45.558594 32.027344 L 53.332031 21.332031 C 47.785156 16.195312 40.136719 13.332031 32 13.332031 Z M 32 13.332031 "/>
</g>
<linearGradient id="linear2" gradientUnits="userSpaceOnUse" x1="0" y1="0" x2="0" y2="1" gradientTransform="matrix(27.140625,0,0,24,18.425781,26.667969)">
<stop offset="0" style="stop-color:rgb(3.921569%,74.117649%,77.64706%);stop-opacity:1;"/>
<stop offset="1" style="stop-color:rgb(72.156864%,0%,100%);stop-opacity:1;"/>
</linearGradient>
</defs>
<g id="surface1">
<path style=" stroke:none;fill-rule:nonzero;fill:url(#linear0);" d="M 45.332031 34.667969 C 42.378906 34.667969 40 37.097656 40 40.082031 L 40 42.667969 L 37.332031 42.667969 L 37.332031 53.332031 L 53.332031 53.332031 L 53.332031 42.667969 L 50.667969 42.667969 L 50.667969 40.082031 C 50.667969 37.097656 48.289062 34.667969 45.332031 34.667969 Z M 45.332031 37.332031 C 46.8125 37.332031 48 38.511719 48 40 L 48 42.667969 L 42.667969 42.667969 L 42.667969 40 C 42.667969 38.511719 43.855469 37.332031 45.332031 37.332031 Z M 45.332031 37.332031 "/>
<use xlink:href="#surface5" mask="url(#mask0)"/>
<path style=" stroke:none;fill-rule:nonzero;fill:url(#linear2);" d="M 32 26.667969 C 26.964844 26.675781 22.117188 28.582031 18.425781 32.003906 L 32 50.667969 L 34.667969 47 L 34.667969 40 L 37.371094 40 C 37.421875 35.640625 40.949219 32 45.332031 32 C 45.410156 32 45.480469 32.023438 45.558594 32.027344 L 45.566406 32.011719 C 41.878906 28.585938 37.035156 26.675781 32 26.667969 Z M 32 26.667969 "/>
</g>
</svg>
