<?xml version="1.0" encoding="UTF-8"?>
<svg xmlns="http://www.w3.org/2000/svg" xmlns:xlink="http://www.w3.org/1999/xlink" width="64px" height="64px" viewBox="0 0 64 64" version="1.1">
<defs>
<filter id="alpha" filterUnits="objectBoundingBox" x="0%" y="0%" width="100%" height="100%">
  <feColorMatrix type="matrix" in="SourceGraphic" values="0 0 0 0 1 0 0 0 0 1 0 0 0 0 1 0 0 0 1 0"/>
</filter>
<mask id="mask0">
  <g filter="url(#alpha)">
<rect x="0" y="0" width="64" height="64" style="fill:rgb(0%,0%,0%);fill-opacity:0.35;stroke:none;"/>
  </g>
</mask>
<clipPath id="clip1">
  <rect x="0" y="0" width="64" height="64"/>
</clipPath>
<g id="surface5" clip-path="url(#clip1)">
<path style=" stroke:none;fill-rule:nonzero;fill:rgb(3.921569%,74.117649%,77.64706%);fill-opacity:1;" d="M 50.667969 13.359375 L 13.332031 50.695312 L 34.667969 50.695312 L 34.667969 40.015625 L 37.371094 40.015625 C 37.421875 35.65625 40.949219 32.015625 45.332031 32.015625 C 47.398438 32.015625 49.253906 32.839844 50.667969 34.152344 Z M 50.667969 13.359375 "/>
</g>
<linearGradient id="linear0" gradientUnits="userSpaceOnUse" x1="0" y1="0" x2="0" y2="1" gradientTransform="matrix(16,0,0,18.664062,37.332031,34.667969)">
<stop offset="0" style="stop-color:rgb(3.921569%,74.117649%,77.64706%);stop-opacity:1;"/>
<stop offset="1" style="stop-color:rgb(72.156864%,0%,100%);stop-opacity:1;"/>
</linearGradient>
</defs>
<g id="surface1">
<use xlink:href="#surface5" mask="url(#mask0)"/>
<path style=" stroke:none;fill-rule:nonzero;fill:url(#linear0);" d="M 45.332031 34.667969 C 42.378906 34.667969 40 37.09375 40 40.082031 L 40 42.667969 L 37.332031 42.667969 L 37.332031 53.332031 L 53.332031 53.332031 L 53.332031 42.667969 L 50.667969 42.667969 L 50.667969 40.082031 C 50.667969 37.097656 48.289062 34.667969 45.332031 34.667969 Z M 45.332031 37.332031 C 46.8125 37.332031 48 38.511719 48 40 L 48 42.667969 L 42.667969 42.667969 L 42.667969 40 C 42.667969 38.511719 43.855469 37.332031 45.332031 37.332031 Z M 45.332031 37.332031 "/>
</g>
</svg>
