<?xml version="1.0" encoding="UTF-8"?>
<svg xmlns="http://www.w3.org/2000/svg" xmlns:xlink="http://www.w3.org/1999/xlink" width="64px" height="64px" viewBox="0 0 64 64" version="1.1">
<defs>
<linearGradient id="linear0" gradientUnits="userSpaceOnUse" x1="0" y1="0" x2="0" y2="1" gradientTransform="matrix(32,0,0,37.335938,16,13.332031)">
<stop offset="0" style="stop-color:rgb(3.921569%,74.117649%,77.64706%);stop-opacity:1;"/>
<stop offset="1" style="stop-color:rgb(72.156864%,0%,100%);stop-opacity:1;"/>
</linearGradient>
</defs>
<g id="surface1">
<path style=" stroke:none;fill-rule:nonzero;fill:url(#linear0);" d="M 32 13.332031 C 26.089844 13.332031 21.332031 18.191406 21.332031 24.167969 L 21.332031 29.332031 L 18.667969 29.332031 C 17.1875 29.332031 16 30.523438 16 32 L 16 48 C 16 49.476562 17.1875 50.667969 18.667969 50.667969 L 45.332031 50.667969 C 46.8125 50.667969 48 49.476562 48 48 L 48 32 C 48 30.523438 46.8125 29.332031 45.332031 29.332031 L 42.667969 29.332031 L 42.667969 24.167969 C 42.667969 18.195312 37.910156 13.332031 32 13.332031 Z M 32 18.667969 C 34.953125 18.667969 37.332031 21.046875 37.332031 24 L 37.332031 29.332031 L 26.667969 29.332031 L 26.667969 24 C 26.667969 21.046875 29.046875 18.667969 32 18.667969 Z M 32 18.667969 "/>
</g>
</svg>
