<?xml version="1.0" encoding="UTF-8"?>
<svg xmlns="http://www.w3.org/2000/svg" xmlns:xlink="http://www.w3.org/1999/xlink" width="64px" height="64px" viewBox="0 0 64 64" version="1.1">
<defs>
<linearGradient id="linear0" gradientUnits="userSpaceOnUse" x1="0" y1="0" x2="0" y2="1" gradientTransform="matrix(40,0,0,42.664062,13.332031,10.667969)">
<stop offset="0" style="stop-color:rgb(3.921569%,74.117649%,77.64706%);stop-opacity:1;"/>
<stop offset="1" style="stop-color:rgb(72.156864%,0%,100%);stop-opacity:1;"/>
</linearGradient>
</defs>
<g id="surface1">
<path style=" stroke:none;fill-rule:nonzero;fill:url(#linear0);" d="M 33.332031 10.667969 C 25.234375 10.667969 18.667969 16.875 18.667969 24.53125 C 18.671875 24.886719 18.691406 25.242188 18.722656 25.597656 L 18.667969 25.597656 L 18.667969 26.667969 L 15.558594 26.667969 C 14.328125 26.667969 13.332031 27.589844 13.332031 28.738281 L 13.332031 43.261719 C 13.332031 44.410156 14.328125 45.332031 15.558594 45.332031 L 18.667969 45.332031 L 18.667969 51.199219 C 18.667969 52.378906 19.671875 53.332031 20.921875 53.332031 L 28.824219 53.332031 L 32.203125 48 L 34.464844 48 L 37.84375 53.332031 L 45.746094 53.332031 C 46.996094 53.332031 48 52.378906 48 51.199219 L 48 45.332031 L 51.109375 45.332031 C 52.339844 45.332031 53.332031 44.410156 53.332031 43.261719 L 53.332031 28.738281 C 53.332031 27.589844 52.339844 26.667969 51.109375 26.667969 L 48 26.667969 L 48 25.597656 L 47.953125 25.597656 C 47.984375 25.242188 48 24.886719 48 24.53125 C 48 16.875 41.433594 10.667969 33.332031 10.667969 Z M 33.332031 16 C 38.488281 16 42.667969 18.667969 42.667969 26.605469 C 42.664062 26.648438 42.664062 26.6875 42.660156 26.726562 L 24 26.726562 C 24 26.6875 24 26.648438 24 26.605469 C 24 18.667969 28.179688 16 33.332031 16 Z M 26.667969 21.332031 L 26.667969 24 L 29.332031 24 L 29.332031 21.332031 Z M 37.332031 21.332031 L 37.332031 24 L 40 24 L 40 21.332031 Z M 33.332031 29.332031 C 35.796875 29.332031 37.246094 31.417969 37.246094 33.980469 L 37.246094 34.667969 L 38.890625 34.667969 C 39.496094 34.5625 40 35.367188 40 36 L 40 41.527344 C 40 42.160156 39.507812 42.667969 38.890625 42.667969 L 27.777344 42.667969 C 27.160156 42.667969 26.667969 42.160156 26.667969 41.527344 L 26.667969 36 C 26.667969 35.367188 27.453125 34.144531 27.777344 34.667969 L 29.421875 34.667969 L 29.421875 33.980469 C 29.421875 31.417969 30.871094 29.332031 33.332031 29.332031 Z M 33.332031 31.621094 C 32.101562 31.621094 31.644531 32.640625 31.644531 33.90625 L 31.644531 34.667969 L 35.019531 34.667969 L 35.019531 33.90625 C 35.019531 32.640625 34.5625 31.621094 33.332031 31.621094 Z M 33.332031 31.621094 "/>
</g>
</svg>
