<?xml version="1.0" encoding="UTF-8"?>
<svg xmlns="http://www.w3.org/2000/svg" xmlns:xlink="http://www.w3.org/1999/xlink" width="64px" height="64px" viewBox="0 0 64 64" version="1.1">
<defs>
<linearGradient id="linear0" gradientUnits="userSpaceOnUse" x1="0" y1="0" x2="0" y2="1" gradientTransform="matrix(32,0,0,42.664062,16,10.667969)">
<stop offset="0" style="stop-color:rgb(3.921569%,74.117649%,77.64706%);stop-opacity:1;"/>
<stop offset="1" style="stop-color:rgb(72.156864%,0%,100%);stop-opacity:1;"/>
</linearGradient>
</defs>
<g id="surface1">
<path style=" stroke:none;fill-rule:nonzero;fill:url(#linear0);" d="M 36.164062 10.667969 C 32.75 10.667969 29.335938 10.664062 29.335938 14.078125 L 29.335938 35.578125 C 28.085938 34.980469 26.71875 34.671875 25.335938 34.667969 C 20.179688 34.667969 16 38.84375 16 44 C 16 49.15625 20.179688 53.332031 25.335938 53.332031 C 30.378906 53.328125 34.507812 49.3125 34.652344 44.269531 L 34.667969 44.28125 C 34.667969 44.1875 34.667969 44.09375 34.667969 44 C 34.707031 37.664062 34.667969 31.25 34.667969 24.890625 C 34.667969 15.472656 46.292969 27.625 48 29.332031 C 48 24.78125 48.109375 10.667969 36.164062 10.667969 Z M 36.164062 10.667969 "/>
</g>
</svg>
