<?xml version="1.0" encoding="UTF-8"?>
<svg xmlns="http://www.w3.org/2000/svg" xmlns:xlink="http://www.w3.org/1999/xlink" width="64px" height="64px" viewBox="0 0 64 64" version="1.1">
<defs>
<linearGradient id="linear0" gradientUnits="userSpaceOnUse" x1="0" y1="0" x2="0" y2="1" gradientTransform="matrix(48,0,0,48,8,7.933594)">
<stop offset="0" style="stop-color:rgb(3.921569%,74.117649%,77.64706%);stop-opacity:1;"/>
<stop offset="1" style="stop-color:rgb(72.156864%,0%,100%);stop-opacity:1;"/>
</linearGradient>
</defs>
<g id="surface1">
<path style=" stroke:none;fill-rule:nonzero;fill:url(#linear0);" d="M 32 8 C 26.328125 8 21.109375 9.957031 17 13.25 L 12.167969 8.417969 L 8.417969 12.167969 L 13.25 17 C 9.957031 21 8 26.066406 8 31.933594 C 8 45.1875 18.746094 55.933594 32 55.933594 C 45.253906 55.933594 56 45.1875 56 31.933594 C 56 26.257812 54.042969 21.042969 50.75 16.933594 L 55.582031 12.101562 L 51.832031 8.351562 L 47 13.183594 C 42.890625 9.890625 37.671875 7.933594 32 7.933594 Z M 32 13.332031 C 42.308594 13.332031 50.667969 21.691406 50.667969 32 C 50.667969 42.308594 42.308594 50.667969 32 50.667969 C 21.691406 50.667969 13.332031 42.308594 13.332031 32 C 13.332031 21.691406 21.691406 13.332031 32 13.332031 Z M 32 16 L 32 32 L 16.78125 27.058594 C 14.640625 33.648438 16.988281 40.867188 22.59375 44.941406 C 28.203125 49.019531 35.796875 49.019531 41.40625 44.941406 C 47.011719 40.867188 49.359375 33.648438 47.21875 27.058594 C 45.035156 20.511719 38.898438 16.105469 32 16.125 Z M 32 16 "/>
</g>
</svg>
