<?xml version="1.0" encoding="UTF-8"?>
<svg xmlns="http://www.w3.org/2000/svg" xmlns:xlink="http://www.w3.org/1999/xlink" width="64px" height="64px" viewBox="0 0 64 64" version="1.1">
<defs>
<linearGradient id="linear0" gradientUnits="userSpaceOnUse" x1="0" y1="0" x2="0" y2="1" gradientTransform="matrix(42.664062,0,0,42.664062,10.667969,10.667969)">
<stop offset="0" style="stop-color:rgb(3.921569%,74.117649%,77.64706%);stop-opacity:1;"/>
<stop offset="1" style="stop-color:rgb(72.156864%,0%,100%);stop-opacity:1;"/>
</linearGradient>
</defs>
<g id="surface1">
<path style=" stroke:none;fill-rule:nonzero;fill:url(#linear0);" d="M 32 10.667969 C 20.21875 10.667969 10.667969 20.21875 10.667969 32 C 10.667969 43.78125 20.21875 53.332031 32 53.332031 C 43.78125 53.332031 53.332031 43.78125 53.332031 32 C 53.332031 20.21875 43.78125 10.667969 32 10.667969 Z M 25.332031 21.332031 L 38.667969 21.332031 C 40.882812 21.332031 42.667969 23.117188 42.667969 25.332031 L 42.667969 38.667969 C 42.667969 40.882812 40.882812 42.667969 38.667969 42.667969 L 25.332031 42.667969 C 23.117188 42.667969 21.332031 40.882812 21.332031 38.667969 L 21.332031 25.332031 C 21.332031 23.117188 23.117188 21.332031 25.332031 21.332031 Z M 30.667969 24 C 29.929688 24 29.332031 24.59375 29.332031 25.332031 L 29.332031 33.332031 C 29.332031 34.070312 29.929688 34.667969 30.667969 34.667969 L 38.667969 34.667969 C 39.40625 34.667969 40 34.070312 40 33.332031 L 40 30.667969 C 40 29.929688 39.40625 29.332031 38.667969 29.332031 L 34.667969 29.332031 L 34.667969 25.332031 C 34.667969 24.59375 34.070312 24 33.332031 24 Z M 30.667969 24 "/>
</g>
</svg>
