<?xml version="1.0" encoding="UTF-8"?>
<svg xmlns="http://www.w3.org/2000/svg" xmlns:xlink="http://www.w3.org/1999/xlink" width="64px" height="64px" viewBox="0 0 64 64" version="1.1">
<defs>
<linearGradient id="linear0" gradientUnits="userSpaceOnUse" x1="0" y1="0" x2="0" y2="1" gradientTransform="matrix(48,0,0,48,8,8)">
<stop offset="0" style="stop-color:rgb(3.921569%,74.117649%,77.64706%);stop-opacity:1;"/>
<stop offset="1" style="stop-color:rgb(72.156864%,0%,100%);stop-opacity:1;"/>
</linearGradient>
</defs>
<g id="surface1">
<path style=" stroke:none;fill-rule:nonzero;fill:url(#linear0);" d="M 32 8 C 26.328125 8 21.109375 9.957031 17 13.25 L 12.167969 8.417969 L 8.417969 12.167969 L 13.25 17 C 9.957031 21.109375 8 26.328125 8 32 C 8 45.253906 18.746094 56 32 56 C 45.253906 56 56 45.253906 56 32 C 56 26.328125 54.042969 21.109375 50.75 17 L 55.582031 12.167969 L 51.832031 8.417969 L 47 13.25 C 42.890625 9.957031 37.675781 8 32 8 Z M 32 13.332031 C 42.308594 13.332031 50.667969 21.691406 50.667969 32 C 50.667969 42.308594 42.308594 50.667969 32 50.667969 C 21.691406 50.667969 13.332031 42.308594 13.332031 32 C 13.332031 21.691406 21.691406 13.332031 32 13.332031 Z M 32 16 L 32 32 L 35.328125 47.652344 C 43.335938 45.945312 48.769531 38.472656 47.910156 30.328125 C 47.089844 22.15625 40.214844 15.933594 32 15.929688 Z M 32 16 "/>
</g>
</svg>
