<?xml version="1.0" encoding="UTF-8"?>
<svg xmlns="http://www.w3.org/2000/svg" xmlns:xlink="http://www.w3.org/1999/xlink" width="64px" height="64px" viewBox="0 0 64 64" version="1.1">
<defs>
<linearGradient id="linear0" gradientUnits="userSpaceOnUse" x1="0" y1="0" x2="0" y2="1" gradientTransform="matrix(48,0,0,42.664062,8,10.667969)">
<stop offset="0" style="stop-color:rgb(3.921569%,74.117649%,77.64706%);stop-opacity:1;"/>
<stop offset="1" style="stop-color:rgb(72.156864%,0%,100%);stop-opacity:1;"/>
</linearGradient>
</defs>
<g id="surface1">
<path style=" stroke:none;fill-rule:nonzero;fill:url(#linear0);" d="M 13.332031 10.667969 C 10.378906 10.667969 8 13.046875 8 16 L 8 48 C 8 50.953125 10.378906 53.332031 13.332031 53.332031 L 50.667969 53.332031 C 53.621094 53.332031 56 50.953125 56 48 L 56 16 C 56 13.046875 53.621094 10.667969 50.667969 10.667969 Z M 10.667969 21.332031 L 13.332031 21.332031 L 13.332031 24 L 10.667969 24 Z M 29.332031 24 L 32 24 L 32 26.667969 L 34.667969 26.667969 L 34.667969 29.332031 L 32 29.332031 L 32 34.667969 C 32 35.355469 32.140625 37.332031 32.863281 37.332031 L 34.667969 37.332031 L 34.667969 40 L 32 40 C 29.515625 40 29.332031 36.878906 29.332031 35.199219 Z M 50.667969 24 L 53.332031 24 L 53.332031 40 C 51.039062 39.78125 50.667969 38.917969 50.667969 37.332031 Z M 10.667969 26.667969 L 13.332031 26.667969 L 13.332031 40 C 11.039062 39.78125 10.667969 37.585938 10.667969 36 Z M 16 26.667969 L 22.667969 26.667969 C 25.328125 26.636719 26.667969 28.980469 26.667969 30.667969 L 26.667969 40 L 24 40 L 24 30.667969 C 24 29.960938 23.105469 29.332031 22.214844 29.332031 L 18.667969 29.332031 L 18.667969 40 L 16 40 Z M 42.929688 26.667969 L 42.933594 26.667969 C 46.148438 26.667969 48 29.480469 48 33.171875 L 48 34.667969 L 40.386719 34.667969 C 40.507812 36.164062 41.425781 37.25 43.015625 37.25 C 44.355469 37.25 45.023438 36.847656 45.796875 36.019531 L 47.65625 37.953125 C 46.457031 39.222656 45.210938 39.996094 42.996094 39.996094 C 40.105469 39.996094 37.339844 38.289062 37.339844 33.316406 C 37.339844 29.070312 39.75 26.667969 42.929688 26.667969 Z M 42.667969 29.332031 C 41.195312 29.332031 40 30.527344 40 32 L 45.332031 32 C 45.332031 30.527344 44.140625 29.332031 42.667969 29.332031 Z M 42.667969 29.332031 "/>
</g>
</svg>
