<?xml version="1.0" encoding="UTF-8"?>
<svg xmlns="http://www.w3.org/2000/svg" xmlns:xlink="http://www.w3.org/1999/xlink" width="64px" height="64px" viewBox="0 0 64 64" version="1.1">
<defs>
<linearGradient id="linear0" gradientUnits="userSpaceOnUse" x1="0" y1="0" x2="0" y2="1" gradientTransform="matrix(42.664062,0,0,40,10.667969,13.332031)">
<stop offset="0" style="stop-color:rgb(3.921569%,74.117649%,77.64706%);stop-opacity:1;"/>
<stop offset="1" style="stop-color:rgb(72.156864%,0%,100%);stop-opacity:1;"/>
</linearGradient>
</defs>
<g id="surface1">
<path style=" stroke:none;fill-rule:nonzero;fill:url(#linear0);" d="M 13.332031 13.332031 C 11.855469 13.332031 10.667969 14.523438 10.667969 16 L 10.667969 22.089844 C 11.457031 21.621094 12.363281 21.332031 13.332031 21.332031 L 22.894531 21.332031 L 27.449219 16.78125 C 27.949219 16.28125 28.625 16 29.332031 16 L 32 16 C 32 14.523438 30.8125 13.332031 29.332031 13.332031 Z M 29.332031 18.667969 L 24 24 L 13.332031 24 C 11.855469 24 10.667969 25.1875 10.667969 26.667969 L 10.667969 48 C 10.667969 50.953125 13.046875 53.332031 16 53.332031 L 48 53.332031 C 50.953125 53.332031 53.332031 50.953125 53.332031 48 L 53.332031 21.332031 C 53.332031 19.855469 52.144531 18.667969 50.667969 18.667969 Z M 29.332031 26.667969 L 34.667969 26.667969 L 34.667969 37.332031 L 40 37.332031 L 32 48 L 24 37.332031 L 29.332031 37.332031 Z M 29.332031 26.667969 "/>
</g>
</svg>
