<?xml version="1.0" encoding="UTF-8"?>
<svg xmlns="http://www.w3.org/2000/svg" xmlns:xlink="http://www.w3.org/1999/xlink" width="64px" height="64px" viewBox="0 0 64 64" version="1.1">
<defs>
<filter id="alpha" filterUnits="objectBoundingBox" x="0%" y="0%" width="100%" height="100%">
  <feColorMatrix type="matrix" in="SourceGraphic" values="0 0 0 0 1 0 0 0 0 1 0 0 0 0 1 0 0 0 1 0"/>
</filter>
<mask id="mask0">
  <g filter="url(#alpha)">
<rect x="0" y="0" width="64" height="64" style="fill:rgb(0%,0%,0%);fill-opacity:0.3;stroke:none;"/>
  </g>
</mask>
<linearGradient id="linear0" gradientUnits="userSpaceOnUse" x1="0" y1="0" x2="0" y2="1" gradientTransform="matrix(37.335938,0,0,42.664062,13.332031,10.667969)">
<stop offset="0" style="stop-color:rgb(3.921569%,74.117649%,77.64706%);stop-opacity:1;"/>
<stop offset="1" style="stop-color:rgb(72.156864%,0%,100%);stop-opacity:1;"/>
</linearGradient>
<clipPath id="clip1">
  <rect x="0" y="0" width="64" height="64"/>
</clipPath>
<g id="surface5" clip-path="url(#clip1)">
<path style=" stroke:none;fill-rule:nonzero;fill:url(#linear0);" d="M 32 10.667969 C 26.109375 10.667969 21.332031 15.441406 21.332031 21.332031 L 21.332031 26.667969 L 16 26.667969 C 14.527344 26.667969 13.332031 27.859375 13.332031 29.332031 L 13.332031 50.667969 C 13.332031 52.140625 14.527344 53.332031 16 53.332031 L 48 53.332031 C 49.472656 53.332031 50.667969 52.140625 50.667969 50.667969 L 50.667969 29.332031 C 50.667969 27.859375 49.472656 26.667969 48 26.667969 L 42.667969 26.667969 L 42.667969 21.332031 C 42.667969 15.441406 37.890625 10.667969 32 10.667969 Z M 32 16 C 34.945312 16 37.332031 18.386719 37.332031 21.332031 C 37.332031 22.589844 37.0625 23.578125 36.703125 24.285156 C 36.347656 24.992188 35.566406 25.9375 34.667969 26.667969 C 33.785156 27.378906 32 28.265625 32 28.265625 C 32 28.265625 32.808594 27.296875 33.140625 26.535156 C 32.765625 26.617188 32.386719 26.667969 32 26.667969 C 29.054688 26.667969 26.667969 24.277344 26.667969 21.332031 C 26.667969 18.386719 29.054688 16 32 16 Z M 32 29.332031 C 37.890625 29.332031 42.667969 34.109375 42.667969 40 C 42.667969 45.890625 37.890625 50.667969 32 50.667969 C 26.109375 50.667969 21.332031 45.890625 21.332031 40 C 21.332031 34.109375 26.109375 29.332031 32 29.332031 Z M 32 32 C 27.582031 32 24 35.582031 24 40 C 24 44.417969 27.582031 48 32 48 C 36.417969 48 40 44.417969 40 40 C 40 35.582031 36.417969 32 32 32 Z M 32 32 "/>
</g>
</defs>
<g id="surface1">
<use xlink:href="#surface5" mask="url(#mask0)"/>
</g>
</svg>
