<?xml version="1.0" encoding="UTF-8"?>
<svg xmlns="http://www.w3.org/2000/svg" xmlns:xlink="http://www.w3.org/1999/xlink" width="64px" height="64px" viewBox="0 0 64 64" version="1.1">
<defs>
<filter id="alpha" filterUnits="objectBoundingBox" x="0%" y="0%" width="100%" height="100%">
  <feColorMatrix type="matrix" in="SourceGraphic" values="0 0 0 0 1 0 0 0 0 1 0 0 0 0 1 0 0 0 1 0"/>
</filter>
<mask id="mask0">
  <g filter="url(#alpha)">
<rect x="0" y="0" width="64" height="64" style="fill:rgb(0%,0%,0%);fill-opacity:0.3;stroke:none;"/>
  </g>
</mask>
<linearGradient id="linear0" gradientUnits="userSpaceOnUse" x1="0" y1="0" x2="0" y2="1" gradientTransform="matrix(21.335938,0,0,29.332031,21.332031,10.667969)">
<stop offset="0" style="stop-color:rgb(3.921569%,74.117649%,77.64706%);stop-opacity:1;"/>
<stop offset="1" style="stop-color:rgb(72.156864%,0%,100%);stop-opacity:1;"/>
</linearGradient>
<clipPath id="clip1">
  <rect x="0" y="0" width="64" height="64"/>
</clipPath>
<g id="surface5" clip-path="url(#clip1)">
<path style=" stroke:none;fill-rule:nonzero;fill:url(#linear0);" d="M 32 10.667969 C 28.621094 10.667969 25.71875 12.152344 23.917969 14.402344 C 22.117188 16.648438 21.332031 19.507812 21.332031 22.398438 L 21.332031 40 L 26.667969 40 L 26.667969 22.398438 C 26.667969 20.492188 27.214844 18.816406 28.082031 17.730469 C 28.949219 16.648438 30.042969 16 32 16 C 33.957031 16 35.050781 16.648438 35.917969 17.730469 C 36.785156 18.816406 37.332031 20.492188 37.332031 22.398438 L 37.332031 40 L 42.667969 40 L 42.667969 22.398438 C 42.667969 19.507812 41.882812 16.648438 40.082031 14.402344 C 38.28125 12.152344 35.378906 10.667969 32 10.667969 Z M 32 10.667969 "/>
</g>
<linearGradient id="linear1" gradientUnits="userSpaceOnUse" x1="0" y1="0" x2="0" y2="1" gradientTransform="matrix(32,0,0,29.328125,16,24.003906)">
<stop offset="0" style="stop-color:rgb(3.921569%,74.117649%,77.64706%);stop-opacity:1;"/>
<stop offset="1" style="stop-color:rgb(72.156864%,0%,100%);stop-opacity:1;"/>
</linearGradient>
</defs>
<g id="surface1">
<use xlink:href="#surface5" mask="url(#mask0)"/>
<path style=" stroke:none;fill-rule:nonzero;fill:url(#linear1);" d="M 24.957031 24.011719 C 19.820312 23.777344 16.269531 27.960938 16.015625 32.496094 C 15.882812 34.847656 16.640625 37.292969 18.527344 39.265625 L 32 53.332031 L 45.472656 39.265625 C 47.359375 37.292969 48.117188 34.847656 47.984375 32.496094 C 47.730469 27.960938 44.179688 23.777344 39.042969 24.011719 C 36.121094 24.144531 33.464844 25.824219 32 28.46875 C 30.535156 25.824219 27.878906 24.144531 24.957031 24.011719 Z M 29.335938 32 L 34.664062 32 L 34.664062 37.332031 L 33.390625 37.332031 L 35.996094 42.667969 L 28.003906 42.667969 L 30.609375 37.332031 L 29.335938 37.332031 Z M 29.335938 32 "/>
</g>
</svg>
