<?xml version="1.0" encoding="UTF-8"?>
<svg xmlns="http://www.w3.org/2000/svg" xmlns:xlink="http://www.w3.org/1999/xlink" width="64px" height="64px" viewBox="0 0 64 64" version="1.1">
<defs>
<linearGradient id="linear0" gradientUnits="userSpaceOnUse" x1="0" y1="0" x2="0" y2="1" gradientTransform="matrix(37.335938,0,0,42.664062,13.332031,10.667969)">
<stop offset="0" style="stop-color:rgb(3.921569%,74.117649%,77.64706%);stop-opacity:1;"/>
<stop offset="1" style="stop-color:rgb(72.156864%,0%,100%);stop-opacity:1;"/>
</linearGradient>
</defs>
<g id="surface1">
<path style=" stroke:none;fill-rule:nonzero;fill:url(#linear0);" d="M 16.441406 10.667969 C 13.332031 10.667969 13.332031 13.714844 13.332031 13.714844 L 13.332031 50.285156 C 13.332031 50.285156 13.332031 53.332031 16.441406 53.332031 L 47.558594 53.332031 C 47.558594 53.332031 50.667969 53.332031 50.667969 50.285156 L 50.667969 13.714844 C 50.667969 13.714844 50.667969 10.667969 47.558594 10.667969 Z M 32 16 C 39.363281 16 45.332031 21.96875 45.332031 29.335938 C 45.332031 36.695312 39.363281 42.667969 32 42.667969 L 18.667969 42.667969 L 18.667969 29.335938 C 18.667969 21.96875 24.636719 16 32 16 Z M 32 21.335938 C 27.582031 21.335938 24 24.914062 24 29.335938 C 24 33.753906 27.582031 37.335938 32 37.335938 C 36.417969 37.335938 40 33.753906 40 29.335938 C 40 24.914062 36.417969 21.335938 32 21.335938 Z M 32 21.335938 "/>
</g>
</svg>
