<?xml version="1.0" encoding="UTF-8"?>
<svg xmlns="http://www.w3.org/2000/svg" xmlns:xlink="http://www.w3.org/1999/xlink" width="64px" height="64px" viewBox="0 0 64 64" version="1.1">
<defs>
<linearGradient id="linear0" gradientUnits="userSpaceOnUse" x1="0" y1="0" x2="0" y2="1" gradientTransform="matrix(48,0,0,37.335937,8.019531,13.332031)">
<stop offset="0" style="stop-color:rgb(3.921569%,74.117649%,77.64706%);stop-opacity:1;"/>
<stop offset="1" style="stop-color:rgb(72.156864%,0%,100%);stop-opacity:1;"/>
</linearGradient>
</defs>
<g id="surface1">
<path style=" stroke:none;fill-rule:nonzero;fill:url(#linear0);" d="M 11.066406 13.332031 C 9.378906 13.332031 8.019531 14.757812 8.019531 16.53125 L 8.019531 47.46875 C 8.019531 49.242188 9.378906 50.667969 11.066406 50.667969 L 52.972656 50.667969 C 54.660156 50.667969 56.019531 49.242188 56.019531 47.46875 L 56.019531 16.53125 C 56.019531 14.757812 54.660156 13.332031 52.972656 13.332031 Z M 24.019531 21.332031 C 29.910156 21.332031 34.6875 26.109375 34.6875 32 C 34.6875 37.890625 29.910156 42.667969 24.019531 42.667969 C 18.128906 42.667969 13.351562 37.890625 13.351562 32 C 13.351562 26.109375 18.128906 21.332031 24.019531 21.332031 Z M 37.351562 21.332031 L 50.6875 21.332031 L 50.6875 24 L 37.351562 24 Z M 37.351562 29.332031 L 50.6875 29.332031 L 50.6875 32 L 37.351562 32 Z M 37.351562 37.332031 L 50.6875 37.332031 L 50.6875 40 L 37.351562 40 Z M 37.351562 37.332031 "/>
<path style=" stroke:none;fill-rule:nonzero;fill:rgb(10.196079%,83.92157%,67.058825%);fill-opacity:1;" d="M 24 24 C 19.582031 24 16 27.582031 16 32 C 16 36.417969 19.582031 40 24 40 C 28.417969 40 32 36.417969 32 32 C 32 27.582031 28.417969 24 24 24 Z M 24 24 "/>
</g>
</svg>
