<?xml version="1.0" encoding="UTF-8"?>
<svg xmlns="http://www.w3.org/2000/svg" xmlns:xlink="http://www.w3.org/1999/xlink" width="64px" height="64px" viewBox="0 0 64 64" version="1.1">
<defs>
<linearGradient id="linear0" gradientUnits="userSpaceOnUse" x1="0" y1="0" x2="0" y2="1" gradientTransform="matrix(23.117188,0,0,10.5625,29.894531,20.296875)">
<stop offset="0" style="stop-color:rgb(3.921569%,74.117649%,77.64706%);stop-opacity:1;"/>
<stop offset="1" style="stop-color:rgb(72.156864%,0%,100%);stop-opacity:1;"/>
</linearGradient>
<linearGradient id="linear1" gradientUnits="userSpaceOnUse" x1="0" y1="0" x2="0" y2="1" gradientTransform="matrix(29.378906,0,0,23.550781,24.960938,8.050781)">
<stop offset="0" style="stop-color:rgb(3.921569%,74.117649%,77.64706%);stop-opacity:1;"/>
<stop offset="1" style="stop-color:rgb(72.156864%,0%,100%);stop-opacity:1;"/>
</linearGradient>
<linearGradient id="linear2" gradientUnits="userSpaceOnUse" x1="0" y1="0" x2="0" y2="1" gradientTransform="matrix(11.132812,0,0,22.683594,15.394531,16.363281)">
<stop offset="0" style="stop-color:rgb(3.921569%,74.117649%,77.64706%);stop-opacity:1;"/>
<stop offset="1" style="stop-color:rgb(72.156864%,0%,100%);stop-opacity:1;"/>
</linearGradient>
<linearGradient id="linear3" gradientUnits="userSpaceOnUse" x1="0" y1="0" x2="0" y2="1" gradientTransform="matrix(20.347656,0,0,14.871094,10.65625,29.753906)">
<stop offset="0" style="stop-color:rgb(3.921569%,74.117649%,77.64706%);stop-opacity:1;"/>
<stop offset="1" style="stop-color:rgb(72.156864%,0%,100%);stop-opacity:1;"/>
</linearGradient>
<linearGradient id="linear4" gradientUnits="userSpaceOnUse" x1="0" y1="0" x2="0" y2="1" gradientTransform="matrix(22.148438,0,0,12.757813,14.726563,40.269531)">
<stop offset="0" style="stop-color:rgb(3.921569%,74.117649%,77.64706%);stop-opacity:1;"/>
<stop offset="1" style="stop-color:rgb(72.156864%,0%,100%);stop-opacity:1;"/>
</linearGradient>
<linearGradient id="linear5" gradientUnits="userSpaceOnUse" x1="0" y1="0" x2="0" y2="1" gradientTransform="matrix(13.566406,0,0,21.476562,30.386719,34.511719)">
<stop offset="0" style="stop-color:rgb(3.921569%,74.117649%,77.64706%);stop-opacity:1;"/>
<stop offset="1" style="stop-color:rgb(72.156864%,0%,100%);stop-opacity:1;"/>
</linearGradient>
<linearGradient id="linear6" gradientUnits="userSpaceOnUse" x1="0" y1="0" x2="0" y2="1" gradientTransform="matrix(14.789062,0,0,20.550781,36.335938,28.355469)">
<stop offset="0" style="stop-color:rgb(3.921569%,74.117649%,77.64706%);stop-opacity:1;"/>
<stop offset="1" style="stop-color:rgb(72.156864%,0%,100%);stop-opacity:1;"/>
</linearGradient>
</defs>
<g id="surface1">
<path style=" stroke:none;fill-rule:nonzero;fill:url(#linear0);" d="M 41.625 20.296875 C 36.996094 20.625 28.859375 28.414062 30.003906 28.371094 C 39.46875 28.046875 45.378906 28.585938 52.761719 30.851562 C 53.855469 31.1875 51.582031 21.054688 41.625 20.296875 Z M 41.625 20.296875 "/>
<path style=" stroke:none;fill-rule:nonzero;fill:url(#linear1);" d="M 27.546875 13.898438 C 24.917969 17.679688 24.585938 32.476562 25.265625 31.5625 C 30.863281 24.054688 44.285156 14.777344 52.285156 11.042969 C 62.179688 6.425781 33.40625 6.988281 27.550781 13.898438 Z M 27.546875 13.898438 "/>
<path style=" stroke:none;fill-rule:nonzero;fill:url(#linear2);" d="M 15.632812 29.890625 C 17.148438 34.230469 26.851562 39.996094 26.519531 38.914062 C 23.761719 29.957031 22.761719 24.167969 23.074219 16.527344 C 23.117188 15.394531 13.808594 20.179688 15.632812 29.890625 Z M 15.632812 29.890625 "/>
<path style=" stroke:none;fill-rule:nonzero;fill:url(#linear3);" d="M 16.898438 44.140625 C 21.195312 45.871094 31.980469 42.457031 30.933594 41.992188 C 22.304688 38.136719 17.246094 35.066406 11.640625 29.796875 C 10.8125 29.015625 8.3125 39.097656 16.898438 44.140625 Z M 16.898438 44.140625 "/>
<path style=" stroke:none;fill-rule:nonzero;fill:url(#linear4);" d="M 29.332031 52.28125 C 33.441406 50.148438 37.753906 39.796875 36.71875 40.285156 C 28.179688 44.324219 22.542969 46.167969 14.859375 47.011719 C 13.722656 47.136719 19.898438 55.523438 29.332031 52.28125 Z M 29.332031 52.28125 "/>
<path style=" stroke:none;fill-rule:nonzero;fill:url(#linear5);" d="M 43.824219 47.921875 C 44.828125 43.441406 39.613281 33.5 39.324219 34.597656 C 36.933594 43.660156 34.722656 49.105469 30.414062 55.457031 C 29.773438 56.398438 40.242188 57.140625 43.824219 47.921875 Z M 43.824219 47.921875 "/>
<path style=" stroke:none;fill-rule:nonzero;fill:url(#linear6);" d="M 49.53125 33.816406 C 46.738281 30.152344 35.710938 27.617188 36.363281 28.546875 C 41.777344 36.230469 44.527344 41.433594 46.605469 48.796875 C 46.914062 49.890625 54.285156 42.503906 49.53125 33.820312 Z M 49.53125 33.816406 "/>
</g>
</svg>
