<?xml version="1.0" encoding="UTF-8"?>
<svg xmlns="http://www.w3.org/2000/svg" xmlns:xlink="http://www.w3.org/1999/xlink" width="64px" height="64px" viewBox="0 0 64 64" version="1.1">
<defs>
<linearGradient id="linear0" gradientUnits="userSpaceOnUse" x1="0" y1="0" x2="0" y2="1" gradientTransform="matrix(42.679688,0,0,42.679688,10.660156,10.660156)">
<stop offset="0" style="stop-color:rgb(3.921569%,74.117649%,77.64706%);stop-opacity:1;"/>
<stop offset="1" style="stop-color:rgb(72.156864%,0%,100%);stop-opacity:1;"/>
</linearGradient>
</defs>
<g id="surface1">
<path style=" stroke:none;fill-rule:nonzero;fill:url(#linear0);" d="M 50.476562 42.667969 C 56.367188 32.464844 52.871094 19.417969 42.667969 13.523438 C 32.464844 7.632812 19.417969 11.128906 13.523438 21.332031 C 7.632812 31.535156 11.128906 44.582031 21.332031 50.476562 C 31.535156 56.367188 44.582031 52.871094 50.476562 42.667969 Z M 45.855469 40 C 43.5625 43.960938 39.6875 46.75 35.203125 47.664062 C 35.121094 47.886719 35.023438 48.101562 34.902344 48.304688 C 33.800781 50.21875 31.351562 50.871094 29.441406 49.769531 C 28.53125 49.242188 27.863281 48.375 27.585938 47.363281 C 26.335938 47.007812 25.128906 46.503906 24 45.855469 C 21.050781 44.144531 18.722656 41.535156 17.359375 38.40625 C 16.710938 38.382812 16.082031 38.203125 15.519531 37.878906 C 13.605469 36.777344 12.949219 34.328125 14.054688 32.414062 C 14.511719 31.628906 15.222656 31.019531 16.074219 30.6875 C 16.261719 28.332031 16.96875 26.050781 18.144531 24 C 21.003906 19.054688 26.285156 16.011719 32 16.011719 C 32.023438 15.96875 32.046875 15.921875 32.070312 15.875 C 33.175781 13.960938 35.621094 13.308594 37.535156 14.410156 C 38.777344 15.132812 39.539062 16.464844 39.527344 17.898438 C 39.6875 17.980469 39.84375 18.058594 40 18.144531 C 47.652344 22.5625 50.273438 32.347656 45.855469 40 Z M 43.546875 38.667969 C 47.230469 32.289062 45.042969 24.136719 38.667969 20.453125 C 38.648438 20.445312 38.632812 20.433594 38.617188 20.425781 C 37.832031 21.367188 36.664062 21.898438 35.441406 21.867188 L 32.101562 30.597656 C 33.574219 31.847656 33.941406 33.96875 32.976562 35.644531 C 32.605469 36.289062 32.058594 36.816406 31.398438 37.167969 L 32.191406 42.375 C 32.632812 42.460938 33.054688 42.617188 33.441406 42.839844 C 34.257812 43.308594 34.878906 44.050781 35.199219 44.9375 C 38.71875 44.066406 41.730469 41.804688 43.546875 38.667969 Z M 29.554688 42.777344 L 28.761719 37.570312 C 28.320312 37.484375 27.898438 37.328125 27.511719 37.105469 C 26.765625 36.671875 26.175781 36.007812 25.839844 35.210938 L 21.363281 35.503906 C 21.273438 35.824219 21.148438 36.128906 20.984375 36.414062 C 20.710938 36.882812 20.347656 37.289062 19.917969 37.613281 C 21.070312 40.101562 22.960938 42.171875 25.332031 43.546875 C 26.117188 43.992188 26.945312 44.359375 27.804688 44.640625 C 27.855469 44.523438 27.914062 44.410156 27.976562 44.300781 C 28.351562 43.65625 28.894531 43.128906 29.554688 42.777344 Z M 29.609375 29.652344 L 32.941406 20.917969 C 32.265625 20.339844 31.800781 19.554688 31.621094 18.683594 C 26.996094 18.8125 22.769531 21.328125 20.453125 25.335938 C 19.523438 26.957031 18.945312 28.753906 18.753906 30.617188 C 19.019531 30.699219 19.277344 30.8125 19.515625 30.953125 C 20.265625 31.386719 20.851562 32.050781 21.191406 32.84375 L 25.664062 32.554688 C 25.753906 32.234375 25.882812 31.929688 26.046875 31.644531 C 26.78125 30.378906 28.144531 29.613281 29.609375 29.652344 Z M 29.609375 29.652344 "/>
</g>
</svg>
