<?xml version="1.0" encoding="UTF-8"?>
<svg xmlns="http://www.w3.org/2000/svg" xmlns:xlink="http://www.w3.org/1999/xlink" width="64px" height="64px" viewBox="0 0 64 64" version="1.1">
<defs>
<linearGradient id="linear0" gradientUnits="userSpaceOnUse" x1="0" y1="0" x2="0" y2="1" gradientTransform="matrix(42.679688,0,0,42.679688,10.660156,10.660156)">
<stop offset="0" style="stop-color:rgb(3.921569%,74.117649%,77.64706%);stop-opacity:1;"/>
<stop offset="1" style="stop-color:rgb(72.156864%,0%,100%);stop-opacity:1;"/>
</linearGradient>
</defs>
<g id="surface1">
<path style=" stroke:none;fill-rule:nonzero;fill:url(#linear0);" d="M 21.332031 50.476562 C 31.535156 56.367188 44.582031 52.871094 50.476562 42.667969 C 56.367188 32.464844 52.871094 19.417969 42.667969 13.523438 C 32.464844 7.632812 19.417969 11.128906 13.523438 21.332031 C 7.632812 31.535156 11.128906 44.582031 21.332031 50.476562 Z M 24 45.855469 C 20.039062 43.5625 17.25 39.6875 16.335938 35.203125 C 16.117188 35.121094 15.902344 35.023438 15.695312 34.902344 C 13.785156 33.800781 13.128906 31.351562 14.234375 29.441406 C 14.757812 28.53125 15.625 27.863281 16.636719 27.585938 C 16.992188 26.335938 17.496094 25.128906 18.144531 24 C 19.855469 21.050781 22.464844 18.722656 25.589844 17.359375 C 25.617188 16.710938 25.796875 16.082031 26.121094 15.519531 C 27.222656 13.605469 29.671875 12.949219 31.585938 14.054688 C 32.371094 14.511719 32.980469 15.222656 33.308594 16.074219 C 35.664062 16.261719 37.949219 16.96875 40 18.144531 C 44.945312 21.003906 47.988281 26.285156 47.988281 32 C 48.03125 32.023438 48.078125 32.046875 48.125 32.070312 C 50.039062 33.175781 50.691406 35.621094 49.589844 37.535156 C 48.867188 38.777344 47.535156 39.539062 46.097656 39.527344 C 46.019531 39.6875 45.941406 39.84375 45.855469 40 C 41.4375 47.652344 31.652344 50.273438 24 45.855469 Z M 25.332031 43.546875 C 31.710938 47.226562 39.863281 45.042969 43.546875 38.667969 C 43.554688 38.648438 43.566406 38.632812 43.574219 38.617188 C 42.632812 37.832031 42.101562 36.664062 42.132812 35.441406 L 33.402344 32.101562 C 32.152344 33.570312 30.03125 33.941406 28.355469 32.976562 C 27.710938 32.601562 27.183594 32.054688 26.832031 31.398438 L 21.625 32.191406 C 21.539062 32.632812 21.382812 33.054688 21.160156 33.441406 C 20.691406 34.253906 19.949219 34.878906 19.0625 35.199219 C 19.929688 38.71875 22.195312 41.730469 25.332031 43.546875 Z M 21.222656 29.554688 L 26.429688 28.761719 C 26.515625 28.320312 26.671875 27.898438 26.894531 27.511719 C 27.328125 26.765625 27.992188 26.175781 28.785156 25.839844 L 28.492188 21.363281 C 28.175781 21.273438 27.871094 21.148438 27.585938 20.980469 C 27.117188 20.710938 26.707031 20.347656 26.382812 19.917969 C 23.898438 21.070312 21.824219 22.960938 20.453125 25.332031 C 20.003906 26.117188 19.636719 26.945312 19.355469 27.804688 C 19.472656 27.855469 19.585938 27.914062 19.695312 27.976562 C 20.34375 28.351562 20.871094 28.894531 21.222656 29.554688 Z M 34.347656 29.609375 L 43.082031 32.945312 C 43.660156 32.265625 44.445312 31.804688 45.316406 31.625 C 45.1875 27 42.667969 22.769531 38.664062 20.453125 C 37.042969 19.523438 35.242188 18.945312 33.382812 18.757812 C 33.296875 19.019531 33.183594 19.277344 33.046875 19.519531 C 32.613281 20.265625 31.949219 20.851562 31.152344 21.191406 L 31.445312 25.667969 C 31.761719 25.753906 32.066406 25.882812 32.355469 26.046875 C 33.621094 26.78125 34.382812 28.148438 34.347656 29.609375 Z M 34.347656 29.609375 "/>
</g>
</svg>
