<?xml version="1.0" encoding="UTF-8"?>
<svg xmlns="http://www.w3.org/2000/svg" xmlns:xlink="http://www.w3.org/1999/xlink" width="64px" height="64px" viewBox="0 0 64 64" version="1.1">
<defs>
<linearGradient id="linear0" gradientUnits="userSpaceOnUse" x1="0" y1="0" x2="0" y2="1" gradientTransform="matrix(42.664062,0,0,42.664062,10.667969,10.667969)">
<stop offset="0" style="stop-color:rgb(3.921569%,74.117649%,77.64706%);stop-opacity:1;"/>
<stop offset="1" style="stop-color:rgb(72.156864%,0%,100%);stop-opacity:1;"/>
</linearGradient>
</defs>
<g id="surface1">
<path style=" stroke:none;fill-rule:nonzero;fill:url(#linear0);" d="M 21.332031 10.667969 C 15.441406 10.667969 10.667969 15.441406 10.667969 21.332031 C 10.667969 24.085938 11.734375 26.734375 13.640625 28.71875 C 13.441406 29.800781 13.339844 30.898438 13.332031 32 C 13.332031 42.308594 21.691406 50.667969 32 50.667969 C 33.105469 50.664062 34.210938 50.5625 35.300781 50.367188 C 37.28125 52.265625 39.921875 53.328125 42.667969 53.332031 C 48.558594 53.332031 53.332031 48.558594 53.332031 42.667969 C 53.332031 39.914062 52.265625 37.265625 50.359375 35.28125 C 50.558594 34.199219 50.660156 33.101562 50.667969 32 C 50.667969 21.691406 42.308594 13.332031 32 13.332031 C 30.890625 13.335938 29.789062 13.4375 28.699219 13.636719 C 26.714844 11.734375 24.078125 10.671875 21.332031 10.667969 Z M 25.886719 22.355469 L 32 28.46875 L 38.113281 22.355469 L 41.886719 26.125 L 35.769531 32.238281 L 41.886719 38.355469 L 38.113281 42.125 L 32 36.011719 L 25.886719 42.125 L 22.113281 38.355469 L 28.230469 32.238281 L 22.113281 26.125 Z M 25.886719 22.355469 "/>
<path style=" stroke:none;fill-rule:nonzero;fill:rgb(10.196079%,83.92157%,67.058825%);fill-opacity:1;" d="M 58.667969 13.332031 C 58.667969 16.277344 56.277344 18.667969 53.332031 18.667969 C 50.386719 18.667969 48 16.277344 48 13.332031 C 48 10.386719 50.386719 8 53.332031 8 C 56.277344 8 58.667969 10.386719 58.667969 13.332031 Z M 58.667969 13.332031 "/>
</g>
</svg>
