<?xml version="1.0" encoding="UTF-8"?>
<svg xmlns="http://www.w3.org/2000/svg" xmlns:xlink="http://www.w3.org/1999/xlink" width="64px" height="64px" viewBox="0 0 64 64" version="1.1">
<g id="surface1">
<path style=" stroke:none;fill-rule:nonzero;fill:rgb(10.196079%,83.92157%,67.058825%);fill-opacity:1;" d="M 21.332031 10.667969 C 18.667969 10.667969 18.667969 13.332031 18.667969 13.332031 L 18.667969 50.667969 C 18.667969 50.667969 18.667969 53.332031 21.332031 53.332031 L 42.667969 53.332031 C 45.332031 53.332031 45.332031 50.667969 45.332031 50.667969 L 45.332031 13.332031 C 45.332031 13.332031 45.332031 10.667969 42.667969 10.667969 Z M 40 18.667969 L 40 42.667969 L 24 42.667969 L 24 18.671875 Z M 32 45.332031 C 33.472656 45.332031 34.667969 46.527344 34.667969 48 C 34.667969 49.472656 33.472656 50.667969 32 50.667969 C 30.527344 50.667969 29.332031 49.472656 29.332031 48 C 29.332031 46.527344 30.527344 45.332031 32 45.332031 Z M 32 45.332031 "/>
</g>
</svg>
