<?xml version="1.0" encoding="UTF-8"?>
<svg xmlns="http://www.w3.org/2000/svg" xmlns:xlink="http://www.w3.org/1999/xlink" width="64px" height="64px" viewBox="0 0 64 64" version="1.1">
<g id="surface1">
<path style=" stroke:none;fill-rule:nonzero;fill:rgb(10.196079%,83.92157%,67.058825%);fill-opacity:1;" d="M 16 10.667969 C 10.667969 10.667969 10.667969 16 10.667969 16 L 10.667969 48 C 10.667969 53.332031 16 53.332031 16 53.332031 L 48 53.332031 C 48 53.332031 53.332031 53.332031 53.332031 48 L 53.332031 16 C 53.332031 10.667969 48 10.667969 48 10.667969 Z M 16 15.996094 L 48 15.996094 L 48 47.996094 L 16 47.996094 Z M 18.667969 18.660156 L 18.667969 45.328125 L 45.332031 45.328125 L 45.332031 18.660156 Z M 18.667969 18.660156 "/>
</g>
</svg>
