<?xml version="1.0" encoding="UTF-8"?>
<svg xmlns="http://www.w3.org/2000/svg" xmlns:xlink="http://www.w3.org/1999/xlink" width="64px" height="64px" viewBox="0 0 64 64" version="1.1">
<defs>
<linearGradient id="linear0" gradientUnits="userSpaceOnUse" x1="0" y1="0" x2="0" y2="1" gradientTransform="matrix(48,0,0,32,8,16)">
<stop offset="0" style="stop-color:rgb(3.921569%,74.117649%,77.64706%);stop-opacity:1;"/>
<stop offset="1" style="stop-color:rgb(72.156864%,0%,100%);stop-opacity:1;"/>
</linearGradient>
</defs>
<g id="surface1">
<path style=" stroke:none;fill-rule:nonzero;fill:url(#linear0);" d="M 26.78125 16 C 25.734375 16.03125 24.671875 16.222656 23.617188 16.578125 C 19.109375 18.113281 15.683594 22.519531 14.679688 28.042969 C 11.71875 28.757812 9.183594 31.394531 8.308594 35.152344 C 7.070312 40.484375 9.648438 46.027344 14.054688 47.523438 C 14.128906 47.546875 14.203125 47.558594 14.273438 47.578125 C 14.882812 47.84375 15.535156 48 16.21875 48 L 48.1875 48 C 49.332031 48 50.382812 47.582031 51.277344 46.894531 C 54.851562 44.828125 56.796875 39.917969 55.6875 35.152344 C 54.871094 31.628906 52.589844 29.078125 49.871094 28.183594 C 49.84375 28.066406 49.824219 27.949219 49.796875 27.832031 C 48.558594 22.496094 43.976562 19.378906 39.566406 20.882812 C 38.722656 21.167969 37.941406 21.628906 37.230469 22.199219 C 34.800781 18.25 30.90625 15.890625 26.785156 16.003906 Z M 26.78125 16 "/>
</g>
</svg>
