<?xml version="1.0" encoding="UTF-8"?>
<svg xmlns="http://www.w3.org/2000/svg" xmlns:xlink="http://www.w3.org/1999/xlink" width="64px" height="64px" viewBox="0 0 64 64" version="1.1">
<defs>
<linearGradient id="linear0" gradientUnits="userSpaceOnUse" x1="0" y1="0" x2="0" y2="1" gradientTransform="matrix(47.996094,0,0,32,8,16)">
<stop offset="0" style="stop-color:rgb(3.921569%,74.117649%,77.64706%);stop-opacity:1;"/>
<stop offset="1" style="stop-color:rgb(72.156864%,0%,100%);stop-opacity:1;"/>
</linearGradient>
</defs>
<g id="surface1">
<path style=" stroke:none;fill-rule:nonzero;fill:url(#linear0);" d="M 26.738281 16.003906 C 25.695312 16.035156 24.632812 16.226562 23.578125 16.585938 C 19.0625 18.121094 15.660156 22.566406 14.648438 28.085938 C 11.6875 28.800781 9.1875 31.417969 8.3125 35.171875 C 7.070312 40.503906 9.65625 46 14.066406 47.5 C 14.140625 47.519531 14.160156 47.5625 14.234375 47.582031 C 14.84375 47.847656 15.546875 48 16.234375 48 L 48.179688 48 C 49.324219 48 50.375 47.605469 51.269531 46.914062 C 54.84375 44.851562 56.796875 39.933594 55.683594 35.171875 C 54.867188 31.648438 52.570312 29.0625 49.847656 28.171875 C 49.824219 28.054688 49.875 27.953125 49.847656 27.835938 C 48.605469 22.503906 44 19.421875 39.585938 20.921875 C 38.738281 21.207031 37.960938 21.601562 37.253906 22.171875 C 34.820312 18.222656 30.867188 15.898438 26.742188 16.003906 Z M 24.910156 26.664062 L 28.488281 26.664062 C 28.976562 26.664062 29.332031 27.242188 29.332031 27.914062 L 29.332031 41.414062 C 29.332031 42.085938 28.976562 42.664062 28.488281 42.664062 L 24.910156 42.664062 C 24.421875 42.664062 24 42.085938 24 41.414062 L 24 27.914062 C 24 27.242188 24.421875 26.664062 24.910156 26.664062 Z M 32.910156 26.664062 L 36.488281 26.664062 C 36.976562 26.664062 37.332031 27.242188 37.332031 27.914062 L 37.332031 41.414062 C 37.332031 42.085938 36.976562 42.664062 36.488281 42.664062 L 32.910156 42.664062 C 32.421875 42.664062 32 42.085938 32 41.414062 L 32 27.914062 C 32 27.242188 32.421875 26.664062 32.910156 26.664062 Z M 32.910156 26.664062 "/>
</g>
</svg>
