<?xml version="1.0" encoding="UTF-8"?>
<svg xmlns="http://www.w3.org/2000/svg" xmlns:xlink="http://www.w3.org/1999/xlink" width="64px" height="64px" viewBox="0 0 64 64" version="1.1">
<defs>
<linearGradient id="linear0" gradientUnits="userSpaceOnUse" x1="0" y1="0" x2="0" y2="1" gradientTransform="matrix(42.664062,0,0,42.664062,10.667969,10.667969)">
<stop offset="0" style="stop-color:rgb(3.921569%,74.117649%,77.64706%);stop-opacity:1;"/>
<stop offset="1" style="stop-color:rgb(72.156864%,0%,100%);stop-opacity:1;"/>
</linearGradient>
</defs>
<g id="surface1">
<path style=" stroke:none;fill-rule:nonzero;fill:url(#linear0);" d="M 53.332031 29.332031 L 42.667969 29.332031 L 42.667969 34.667969 L 48 34.667969 L 37.332031 48 L 26.667969 34.667969 L 32 34.667969 L 32 18.667969 L 42.667969 18.667969 L 42.667969 24 L 53.332031 24 L 53.332031 18.667969 C 53.332031 18.667969 53.332031 10.667969 45.332031 10.667969 L 29.332031 10.667969 C 29.332031 10.667969 21.332031 10.667969 21.332031 18.667969 L 21.332031 37.332031 L 16 37.332031 L 16 21.332031 L 10.667969 21.332031 L 10.667969 37.332031 C 10.667969 42.667969 16 42.667969 16 42.667969 L 21.332031 42.667969 L 21.332031 45.332031 C 21.332031 53.332031 29.332031 53.332031 29.332031 53.332031 L 45.332031 53.332031 C 53.332031 53.332031 53.332031 45.332031 53.332031 45.332031 "/>
</g>
</svg>
