<?xml version="1.0" encoding="UTF-8"?>
<svg xmlns="http://www.w3.org/2000/svg" xmlns:xlink="http://www.w3.org/1999/xlink" width="64px" height="64px" viewBox="0 0 64 64" version="1.1">
<defs>
<filter id="alpha" filterUnits="objectBoundingBox" x="0%" y="0%" width="100%" height="100%">
  <feColorMatrix type="matrix" in="SourceGraphic" values="0 0 0 0 1 0 0 0 0 1 0 0 0 0 1 0 0 0 1 0"/>
</filter>
<mask id="mask0">
  <g filter="url(#alpha)">
<rect x="0" y="0" width="64" height="64" style="fill:rgb(0%,0%,0%);fill-opacity:0.35;stroke:none;"/>
  </g>
</mask>
<clipPath id="clip1">
  <rect x="0" y="0" width="64" height="64"/>
</clipPath>
<g id="surface5" clip-path="url(#clip1)">
<path style=" stroke:none;fill-rule:nonzero;fill:rgb(3.921569%,74.117649%,77.64706%);fill-opacity:1;" d="M 45.332031 16 C 45.332031 16 50.667969 16 50.667969 21.332031 L 13.332031 21.332031 C 13.332031 16 18.582031 16 18.582031 16 Z M 50.667969 37.332031 C 50.667969 42.667969 45.332031 42.667969 45.332031 42.667969 L 42.667969 42.667969 L 37.332031 50.667969 L 32 42.667969 L 18.667969 42.667969 C 15.710938 42.667969 13.332031 40.289062 13.332031 37.332031 Z M 50.667969 37.332031 "/>
</g>
<linearGradient id="linear0" gradientUnits="userSpaceOnUse" x1="0" y1="0" x2="0" y2="1" gradientTransform="matrix(37.335937,0,0,10.667969,13.332031,24)">
<stop offset="0" style="stop-color:rgb(3.921569%,74.117649%,77.64706%);stop-opacity:1;"/>
<stop offset="1" style="stop-color:rgb(72.156864%,0%,100%);stop-opacity:1;"/>
</linearGradient>
</defs>
<g id="surface1">
<use xlink:href="#surface5" mask="url(#mask0)"/>
<path style=" stroke:none;fill-rule:nonzero;fill:url(#linear0);" d="M 18.667969 24 C 15.710938 24 13.332031 26.378906 13.332031 29.332031 C 13.332031 32.289062 15.710938 34.667969 18.667969 34.667969 C 21.621094 34.667969 24 32.289062 24 29.332031 C 24 26.378906 21.621094 24 18.667969 24 Z M 32 24 C 29.046875 24 26.667969 26.378906 26.667969 29.332031 C 26.667969 32.289062 29.046875 34.667969 32 34.667969 C 34.953125 34.667969 37.332031 32.289062 37.332031 29.332031 C 37.332031 26.378906 34.953125 24 32 24 Z M 45.332031 24 C 42.378906 24 40 26.378906 40 29.332031 C 40 32.289062 42.378906 34.667969 45.332031 34.667969 C 48.289062 34.667969 50.667969 32.289062 50.667969 29.332031 C 50.667969 26.378906 48.289062 24 45.332031 24 Z M 45.332031 24 "/>
</g>
</svg>
