<?xml version="1.0" encoding="UTF-8"?>
<svg xmlns="http://www.w3.org/2000/svg" xmlns:xlink="http://www.w3.org/1999/xlink" width="64px" height="64px" viewBox="0 0 64 64" version="1.1">
<defs>
<linearGradient id="linear0" gradientUnits="userSpaceOnUse" x1="0" y1="0" x2="0" y2="1" gradientTransform="matrix(34.894531,0,0,34.675781,13.371094,13.417969)">
<stop offset="0" style="stop-color:rgb(3.921569%,74.117649%,77.64706%);stop-opacity:1;"/>
<stop offset="1" style="stop-color:rgb(72.156864%,0%,100%);stop-opacity:1;"/>
</linearGradient>
</defs>
<g id="surface1">
<path style=" stroke:none;fill-rule:nonzero;fill:url(#linear0);" d="M 31.332031 13.417969 C 23.964844 13.6875 17.175781 18.230469 14.5 25.582031 C 13.101562 29.421875 13.050781 33.429688 14.078125 37.09375 C 15.15625 33.578125 18.035156 30.871094 21.644531 29.9375 C 22.097656 29.164062 22.636719 28.445312 23.21875 27.769531 C 23.246094 25.875 23.566406 23.960938 24.25 22.082031 C 25.621094 18.316406 28.183594 15.394531 31.332031 13.417969 Z M 32.265625 26.09375 C 28.125 26.09375 24.597656 28.628906 23.078125 32.21875 C 19.222656 32.792969 16.265625 36.078125 16.265625 40.09375 C 16.265625 44.511719 19.847656 48.09375 24.265625 48.09375 L 41.265625 48.09375 C 45.132812 48.09375 48.265625 44.960938 48.265625 41.09375 C 48.265625 37.5 45.5625 34.554688 42.078125 34.15625 C 41.167969 29.570312 37.121094 26.09375 32.265625 26.09375 Z M 32.265625 26.09375 "/>
</g>
</svg>
