<?xml version="1.0" encoding="UTF-8"?>
<svg xmlns="http://www.w3.org/2000/svg" xmlns:xlink="http://www.w3.org/1999/xlink" width="64px" height="64px" viewBox="0 0 64 64" version="1.1">
<defs>
<linearGradient id="linear0" gradientUnits="userSpaceOnUse" x1="0" y1="0" x2="0" y2="1" gradientTransform="matrix(42.664062,0,0,40,10.667969,10.675781)">
<stop offset="0" style="stop-color:rgb(3.921569%,74.117649%,77.64706%);stop-opacity:1;"/>
<stop offset="1" style="stop-color:rgb(72.156864%,0%,100%);stop-opacity:1;"/>
</linearGradient>
</defs>
<g id="surface1">
<path style=" stroke:none;fill-rule:nonzero;fill:url(#linear0);" d="M 32 10.675781 C 26.476562 10.675781 21.773438 14.058594 19.75 18.84375 C 14.609375 19.609375 10.667969 23.988281 10.667969 29.34375 C 10.667969 35.234375 15.441406 40.011719 21.332031 40.011719 L 44 40.011719 C 49.15625 40.011719 53.332031 35.832031 53.332031 30.675781 C 53.332031 25.886719 49.730469 21.960938 45.082031 21.425781 C 43.871094 15.3125 38.472656 10.675781 32 10.675781 Z M 18.609375 42.652344 C 18.121094 42.675781 17.683594 42.964844 17.472656 43.40625 L 14.808594 48.738281 C 14.589844 49.164062 14.621094 49.675781 14.882812 50.074219 C 15.144531 50.472656 15.601562 50.703125 16.078125 50.671875 C 16.554688 50.644531 16.980469 50.359375 17.191406 49.933594 L 19.859375 44.597656 C 20.082031 44.175781 20.058594 43.664062 19.800781 43.261719 C 19.539062 42.859375 19.085938 42.625 18.609375 42.652344 Z M 25.277344 42.652344 C 24.789062 42.675781 24.351562 42.964844 24.140625 43.40625 L 21.472656 48.738281 C 21.257812 49.164062 21.289062 49.675781 21.550781 50.074219 C 21.8125 50.472656 22.269531 50.703125 22.746094 50.671875 C 23.222656 50.644531 23.648438 50.359375 23.859375 49.933594 L 26.527344 44.597656 C 26.746094 44.175781 26.722656 43.664062 26.464844 43.261719 C 26.207031 42.859375 25.753906 42.625 25.277344 42.652344 Z M 31.941406 42.652344 C 31.453125 42.675781 31.019531 42.964844 30.808594 43.40625 L 28.140625 48.738281 C 27.925781 49.164062 27.953125 49.675781 28.21875 50.074219 C 28.480469 50.472656 28.9375 50.703125 29.414062 50.671875 C 29.890625 50.644531 30.3125 50.359375 30.527344 49.933594 L 33.191406 44.597656 C 33.414062 44.175781 33.390625 43.664062 33.132812 43.261719 C 32.875 42.859375 32.421875 42.625 31.941406 42.652344 Z M 38.609375 42.652344 C 38.121094 42.675781 37.683594 42.964844 37.472656 43.40625 L 34.808594 48.738281 C 34.589844 49.164062 34.621094 49.675781 34.882812 50.074219 C 35.144531 50.472656 35.601562 50.703125 36.078125 50.671875 C 36.554688 50.644531 36.980469 50.359375 37.191406 49.933594 L 39.859375 44.597656 C 40.082031 44.175781 40.058594 43.664062 39.800781 43.261719 C 39.539062 42.859375 39.085938 42.625 38.609375 42.652344 Z M 45.277344 42.652344 C 44.789062 42.675781 44.351562 42.964844 44.140625 43.40625 L 41.472656 48.738281 C 41.257812 49.164062 41.289062 49.675781 41.550781 50.074219 C 41.8125 50.472656 42.269531 50.703125 42.746094 50.671875 C 43.222656 50.644531 43.648438 50.359375 43.859375 49.933594 L 46.527344 44.597656 C 46.746094 44.175781 46.722656 43.664062 46.464844 43.261719 C 46.207031 42.859375 45.753906 42.625 45.277344 42.652344 Z M 45.277344 42.652344 "/>
</g>
</svg>
