<?xml version="1.0" encoding="UTF-8"?>
<svg xmlns="http://www.w3.org/2000/svg" xmlns:xlink="http://www.w3.org/1999/xlink" width="64px" height="64px" viewBox="0 0 64 64" version="1.1">
<g id="surface1">
<path style=" stroke:none;fill-rule:nonzero;fill:rgb(10.196079%,83.92157%,67.058825%);fill-opacity:1;" d="M 32 10.667969 C 31.488281 10.667969 30.976562 10.695312 30.472656 10.730469 C 30.410156 10.734375 30.351562 10.734375 30.285156 10.738281 C 22.664062 11.339844 16.207031 15.921875 12.949219 22.40625 C 12.738281 22.824219 12.523438 23.246094 12.339844 23.683594 C 11.339844 25.9375 10.796875 28.328125 10.699219 30.832031 C 10.695312 30.914062 10.691406 30.996094 10.6875 31.078125 C 10.679688 31.316406 10.671875 31.554688 10.671875 31.796875 C 10.671875 31.863281 10.667969 31.933594 10.667969 32 C 10.667969 34.480469 11.109375 36.851562 11.878906 39.0625 C 12.191406 40.054688 12.546875 41.054688 12.980469 42.066406 C 14.054688 44.59375 14.191406 45.28125 14.019531 47.390625 C 13.902344 48.859375 13.503906 50.363281 13.003906 51.207031 C 12.554688 51.972656 12.191406 52.765625 12.191406 52.96875 C 12.191406 53.589844 15.785156 53.371094 18.96875 52.558594 C 22.699219 51.601562 23.027344 51.601562 26.082031 52.5625 C 27.480469 53 29.074219 53.238281 30.875 53.300781 C 30.949219 53.304688 31.027344 53.308594 31.105469 53.3125 C 31.351562 53.320312 31.589844 53.332031 31.84375 53.332031 C 31.863281 53.332031 31.878906 53.332031 31.902344 53.332031 C 31.933594 53.332031 31.96875 53.332031 32 53.332031 C 32.597656 53.332031 33.183594 53.300781 33.765625 53.253906 C 39.039062 52.878906 43.277344 50.929688 47.089844 47.125 C 50.230469 43.988281 52.179688 40.117188 52.949219 36.066406 C 53.019531 35.699219 53.074219 35.320312 53.125 34.941406 C 53.15625 34.710938 53.191406 34.480469 53.214844 34.25 C 53.265625 33.753906 53.296875 33.246094 53.3125 32.738281 C 53.316406 32.613281 53.320312 32.488281 53.324219 32.359375 C 53.324219 32.238281 53.332031 32.121094 53.332031 32 C 53.332031 20.378906 44.132812 10.992188 32.589844 10.683594 C 32.5 10.679688 32.40625 10.679688 32.316406 10.675781 C 32.210938 10.675781 32.105469 10.667969 32 10.667969 Z M 25.332031 21.332031 C 27.542969 21.332031 29.332031 23.125 29.332031 25.332031 C 29.332031 26.667969 29.332031 29.332031 26.667969 29.332031 C 26.667969 32 32.085938 37.1875 34.667969 37.332031 C 34.667969 34.667969 37.332031 34.667969 38.667969 34.667969 C 40.875 34.667969 42.667969 36.457031 42.667969 38.667969 C 42.667969 40.875 40.875 42.667969 38.667969 42.667969 L 37.171875 42.667969 C 36.382812 42.648438 35.460938 42.355469 34.167969 41.886719 C 29.839844 40.304688 26.835938 37.773438 23.753906 33.105469 C 21.960938 30.386719 21.34375 28.75 21.332031 26.714844 L 21.332031 25.332031 C 21.332031 23.125 23.125 21.332031 25.332031 21.332031 Z M 25.332031 21.332031 "/>
</g>
</svg>
