<?xml version="1.0" encoding="UTF-8"?>
<svg xmlns="http://www.w3.org/2000/svg" xmlns:xlink="http://www.w3.org/1999/xlink" width="64px" height="64px" viewBox="0 0 64 64" version="1.1">
<defs>
<linearGradient id="linear0" gradientUnits="userSpaceOnUse" x1="0" y1="0" x2="0" y2="1" gradientTransform="matrix(38.820312,0,0,38.820312,12.589844,12.589844)">
<stop offset="0" style="stop-color:rgb(3.921569%,74.117649%,77.64706%);stop-opacity:1;"/>
<stop offset="1" style="stop-color:rgb(72.156864%,0%,100%);stop-opacity:1;"/>
</linearGradient>
</defs>
<g id="surface1">
<path style=" stroke:none;fill-rule:nonzero;fill:url(#linear0);" d="M 32 12.589844 L 26.160156 18.667969 L 18.667969 18.667969 L 18.667969 26.164062 L 12.589844 32 L 18.667969 37.921875 L 18.667969 45.332031 L 26.160156 45.332031 L 32 51.410156 L 37.921875 45.332031 L 45.332031 45.332031 L 45.332031 37.921875 L 51.410156 32 L 45.332031 26.667969 L 45.332031 18.667969 L 37.921875 18.667969 Z M 32 21.335938 C 37.894531 21.335938 42.667969 26.109375 42.667969 32 C 42.667969 37.894531 37.894531 42.667969 32 42.667969 C 26.105469 42.667969 21.332031 37.894531 21.332031 32 C 21.332031 26.109375 26.105469 21.335938 32 21.335938 Z M 32 24 C 27.582031 24 24 27.582031 24 32 C 24 36.417969 27.582031 40 32 40 Z M 32 24 "/>
</g>
</svg>
