<?xml version="1.0" encoding="UTF-8"?>
<svg xmlns="http://www.w3.org/2000/svg" xmlns:xlink="http://www.w3.org/1999/xlink" width="64px" height="64px" viewBox="0 0 64 64" version="1.1">
<defs>
<filter id="alpha" filterUnits="objectBoundingBox" x="0%" y="0%" width="100%" height="100%">
  <feColorMatrix type="matrix" in="SourceGraphic" values="0 0 0 0 1 0 0 0 0 1 0 0 0 0 1 0 0 0 1 0"/>
</filter>
<mask id="mask0">
  <g filter="url(#alpha)">
<rect x="0" y="0" width="64" height="64" style="fill:rgb(0%,0%,0%);fill-opacity:0.3;stroke:none;"/>
  </g>
</mask>
<linearGradient id="linear0" gradientUnits="userSpaceOnUse" x1="0" y1="0" x2="0" y2="1" gradientTransform="matrix(42.667969,0,0,42.664062,10.667969,10.667969)">
<stop offset="0" style="stop-color:rgb(3.921569%,74.117649%,77.64706%);stop-opacity:1;"/>
<stop offset="1" style="stop-color:rgb(72.156864%,0%,100%);stop-opacity:1;"/>
</linearGradient>
<clipPath id="clip1">
  <rect x="0" y="0" width="64" height="64"/>
</clipPath>
<g id="surface5" clip-path="url(#clip1)">
<path style=" stroke:none;fill-rule:nonzero;fill:url(#linear0);" d="M 32.003906 10.667969 C 20.183594 10.667969 10.667969 20.179688 10.667969 32 C 10.667969 34.230469 11.011719 36.382812 11.644531 38.402344 C 11.65625 38.355469 11.65625 38.304688 11.667969 38.261719 C 12.054688 36.753906 12.800781 35.191406 14.132812 33.957031 C 15.699219 32.507812 17.523438 32.113281 19.410156 32.082031 C 19.722656 31.421875 19.972656 30.722656 20.597656 30.261719 C 20.859375 30.066406 21.144531 30.148438 21.425781 30.019531 C 21.460938 29.949219 21.441406 29.953125 21.480469 29.875 C 22.238281 28.441406 23.226562 27.359375 24.605469 25.800781 C 26.492188 23.675781 29.417969 21.707031 32.132812 19.941406 C 34.847656 18.179688 36.957031 16.9375 37.820312 16.496094 C 37.542969 16.636719 38.65625 16.015625 39.726562 15.417969 C 40.617188 14.917969 41.773438 14.296875 42.929688 13.6875 C 39.734375 11.78125 36.007812 10.667969 32.003906 10.667969 Z M 51.644531 23.640625 C 50.863281 24.691406 50.070312 25.734375 49.445312 26.535156 C 48.710938 27.476562 48.015625 28.359375 48.105469 28.238281 L 48.105469 28.246094 C 47.535156 29.011719 45.976562 30.878906 43.800781 33.25 C 41.628906 35.617188 39.207031 38.171875 36.792969 39.6875 C 35.203125 40.683594 34.003906 41.003906 32.726562 41.488281 C 32.523438 42.621094 32.023438 43.6875 31.035156 44.417969 C 30.421875 44.867188 29.675781 44.824219 28.964844 44.9375 C 28.632812 46.148438 28.050781 47.355469 27.003906 48.425781 L 26.898438 48.53125 C 25.453125 49.855469 23.683594 50.449219 22.039062 50.640625 L 21.894531 50.65625 L 21.742188 50.65625 C 21.699219 50.65625 21.675781 50.65625 21.632812 50.65625 C 24.699219 52.359375 28.234375 53.332031 32.003906 53.332031 C 43.820312 53.332031 53.335938 43.820312 53.335938 32 C 53.335938 29.027344 52.730469 26.207031 51.644531 23.640625 Z M 51.644531 23.640625 "/>
</g>
</defs>
<g id="surface1">
<use xlink:href="#surface5" mask="url(#mask0)"/>
<path style=" stroke:none;fill-rule:evenodd;fill:rgb(3.921569%,74.117649%,77.64706%);fill-opacity:1;" d="M 51.132812 13.355469 C 50.308594 13.261719 49.527344 13.574219 48.773438 13.839844 L 48.773438 13.847656 C 47.59375 14.308594 46.191406 14.988281 44.816406 15.699219 C 43.4375 16.410156 42.089844 17.148438 41.035156 17.738281 C 39.980469 18.332031 39.1875 18.789062 39.042969 18.863281 C 38.578125 19.105469 36.234375 20.457031 33.585938 22.175781 C 30.9375 23.898438 28.050781 25.9375 26.601562 27.574219 C 25.882812 28.382812 25.320312 29.023438 24.863281 29.605469 C 25.761719 29.898438 26.585938 30.449219 27.179688 31.253906 L 32.027344 37.832031 C 32.296875 38.199219 32.484375 38.597656 32.632812 39.003906 C 33.40625 38.617188 34.242188 38.136719 35.378906 37.425781 C 37.242188 36.257812 39.714844 33.757812 41.835938 31.449219 C 43.957031 29.136719 45.652344 27.070312 45.964844 26.652344 C 46.070312 26.507812 46.621094 25.824219 47.347656 24.894531 C 48.070312 23.96875 48.988281 22.773438 49.882812 21.550781 C 50.777344 20.328125 51.652344 19.074219 52.292969 18.003906 C 52.617188 17.46875 52.882812 16.984375 53.066406 16.558594 C 53.25 16.132812 53.375 15.785156 53.324219 15.402344 C 53.242188 14.765625 52.921875 14.390625 52.730469 14.199219 C 52.726562 14.195312 52.707031 14.167969 52.707031 14.167969 C 52.480469 13.898438 52.230469 13.726562 51.972656 13.597656 C 51.6875 13.460938 51.40625 13.386719 51.132812 13.355469 Z M 23.695312 32.027344 C 23.179688 31.949219 22.636719 32.070312 22.179688 32.40625 C 21.269531 33.078125 21.074219 34.347656 21.746094 35.261719 L 26.589844 41.839844 C 27.261719 42.75 28.539062 42.941406 29.449219 42.269531 C 30.363281 41.597656 30.554688 40.328125 29.882812 39.417969 L 25.035156 32.839844 C 24.699219 32.382812 24.210938 32.105469 23.695312 32.027344 Z M 18.769531 34.753906 C 17.660156 34.921875 16.574219 35.335938 15.945312 35.917969 C 15.082031 36.714844 14.542969 37.796875 14.253906 38.921875 C 13.777344 40.769531 13.746094 43.429688 13.382812 45.394531 C 13.203125 46.371094 12.378906 47.890625 10.839844 49.859375 C 10.449219 50.519531 10.839844 50.605469 10.839844 50.605469 C 11.0625 50.757812 11.464844 50.605469 11.664062 50.515625 C 15.21875 47.589844 17.570312 48.007812 21.730469 47.988281 C 22.957031 47.847656 24.167969 47.414062 25.097656 46.5625 C 25.699219 45.945312 26.035156 45.40625 26.273438 44.871094 C 25.570312 44.550781 24.929688 44.078125 24.445312 43.421875 L 19.597656 36.84375 C 19.132812 36.214844 18.875 35.492188 18.769531 34.753906 Z M 18.769531 34.753906 "/>
</g>
</svg>
