<?xml version="1.0" encoding="UTF-8"?>
<svg xmlns="http://www.w3.org/2000/svg" xmlns:xlink="http://www.w3.org/1999/xlink" width="64px" height="64px" viewBox="0 0 64 64" version="1.1">
<defs>
<linearGradient id="linear0" gradientUnits="userSpaceOnUse" x1="0" y1="0" x2="0" y2="1" gradientTransform="matrix(64,0,0,56,0,4)">
<stop offset="0" style="stop-color:rgb(3.921569%,74.117649%,77.64706%);stop-opacity:1;"/>
<stop offset="1" style="stop-color:rgb(72.156864%,0%,100%);stop-opacity:1;"/>
</linearGradient>
<linearGradient id="linear1" gradientUnits="userSpaceOnUse" x1="0" y1="0" x2="0" y2="1" gradientTransform="matrix(48,0,0,52,8,-0.000000000000092371)">
<stop offset="0" style="stop-color:rgb(3.921569%,74.117649%,77.64706%);stop-opacity:1;"/>
<stop offset="1" style="stop-color:rgb(72.156864%,0%,100%);stop-opacity:1;"/>
</linearGradient>
</defs>
<g id="surface1">
<path style=" stroke:none;fill-rule:nonzero;fill:url(#linear0);" d="M 15.976562 4 C 10.945312 4.058594 7.261719 3.878906 4.25 5.539062 C 2.746094 6.371094 1.558594 7.777344 0.898438 9.53125 C 0.238281 11.285156 0 13.371094 0 16 L 0 48 C 0 50.628906 0.238281 52.714844 0.898438 54.46875 C 1.558594 56.222656 2.746094 57.628906 4.25 58.460938 C 7.261719 60.121094 10.945312 59.941406 15.976562 60 L 48.023438 60 C 53.058594 59.941406 56.738281 60.121094 59.75 58.460938 C 61.257812 57.628906 62.445312 56.222656 63.101562 54.46875 C 63.757812 52.714844 64 50.628906 64 48 L 64 16 C 64 13.371094 63.761719 11.285156 63.101562 9.53125 C 63.082031 9.480469 63.050781 9.441406 63.03125 9.390625 L 59.75 12.617188 C 59.898438 13.535156 60 14.609375 60 16 L 60 48 C 60 50.371094 59.75 52.023438 59.359375 53.0625 C 58.96875 54.101562 58.546875 54.546875 57.8125 54.953125 C 56.347656 55.761719 53.035156 55.941406 48 56 L 16 56 C 10.964844 55.941406 7.644531 55.761719 6.179688 54.953125 C 5.445312 54.546875 5.03125 54.101562 4.640625 53.0625 C 4.25 52.023438 4 50.371094 4 48 L 4 16 C 4 13.628906 4.25 11.976562 4.640625 10.9375 C 5.03125 9.898438 5.445312 9.453125 6.179688 9.046875 C 7.644531 8.238281 10.964844 8.058594 16 8 L 31.40625 8 L 35.335938 4 Z M 15.976562 4 "/>
<path style=" stroke:none;fill-rule:nonzero;fill:url(#linear1);" d="M 44.953125 0 L 43.539062 1.4375 L 15.664062 29.820312 L 15.546875 30 C 15.300781 30.394531 14.464844 31.800781 13.210938 34.351562 C 11.957031 36.902344 10.410156 40.390625 9.164062 44.320312 L 8 48 L 11.679688 46.835938 C 15.613281 45.589844 19.097656 44.042969 21.648438 42.789062 C 24.199219 41.535156 25.597656 40.707031 26 40.453125 L 26.179688 40.335938 L 56 11.046875 Z M 19.5625 31.5625 L 24.4375 36.4375 L 23.726562 37.140625 C 23.753906 37.121094 22.210938 38.050781 19.882812 39.195312 C 19.027344 39.617188 17.742188 40.085938 16.546875 40.546875 L 15.453125 39.453125 C 15.914062 38.257812 16.382812 36.972656 16.804688 36.117188 C 17.949219 33.789062 18.875 32.253906 18.859375 32.273438 Z M 16 48 L 16 52 L 56 52 L 56 28 L 52 28 L 52 48 Z M 16 48 "/>
</g>
</svg>
