<?xml version="1.0" encoding="UTF-8"?>
<svg xmlns="http://www.w3.org/2000/svg" xmlns:xlink="http://www.w3.org/1999/xlink" width="64px" height="64px" viewBox="0 0 64 64" version="1.1">
<defs>
<linearGradient id="linear0" gradientUnits="userSpaceOnUse" x1="0" y1="0" x2="0" y2="1" gradientTransform="matrix(64,0,0,54.859375,0,4.570312)">
<stop offset="0" style="stop-color:rgb(3.921569%,74.117649%,77.64706%);stop-opacity:1;"/>
<stop offset="1" style="stop-color:rgb(72.156864%,0%,100%);stop-opacity:1;"/>
</linearGradient>
</defs>
<g id="surface1">
<path style=" stroke:none;fill-rule:nonzero;fill:url(#linear0);" d="M 26.289062 4.570312 C 25.335938 4.570312 24.523438 4.902344 23.855469 5.570312 C 23.191406 6.234375 22.859375 7.046875 22.859375 8 L 22.859375 19.433594 C 22.859375 20.382812 23.191406 21.1875 23.855469 21.855469 C 24.523438 22.523438 25.335938 22.859375 26.289062 22.859375 L 29.714844 22.859375 L 29.714844 29.714844 L 11.429688 29.714844 C 10.191406 29.714844 9.121094 30.164062 8.214844 31.066406 C 7.3125 31.972656 6.855469 33.042969 6.855469 34.285156 L 6.855469 41.140625 L 3.429688 41.140625 C 2.476562 41.140625 1.671875 41.480469 1.003906 42.144531 C 0.335938 42.8125 0 43.617188 0 44.566406 L 0 56 C 0 56.953125 0.335938 57.765625 1.003906 58.429688 C 1.671875 59.097656 2.476562 59.429688 3.429688 59.429688 L 14.859375 59.429688 C 15.8125 59.429688 16.625 59.097656 17.289062 58.429688 C 17.957031 57.765625 18.289062 56.953125 18.289062 56 L 18.289062 44.566406 C 18.289062 43.617188 17.957031 42.8125 17.289062 42.144531 C 16.625 41.476562 15.8125 41.140625 14.859375 41.140625 L 11.429688 41.140625 L 11.429688 34.285156 L 29.714844 34.285156 L 29.714844 41.140625 L 26.289062 41.140625 C 25.335938 41.140625 24.523438 41.480469 23.855469 42.144531 C 23.191406 42.8125 22.859375 43.617188 22.859375 44.566406 L 22.859375 56 C 22.859375 56.953125 23.191406 57.765625 23.855469 58.429688 C 24.523438 59.097656 25.335938 59.429688 26.289062 59.429688 L 37.710938 59.429688 C 38.664062 59.429688 39.476562 59.097656 40.144531 58.429688 C 40.808594 57.765625 41.140625 56.953125 41.140625 56 L 41.140625 44.566406 C 41.140625 43.617188 40.808594 42.8125 40.144531 42.144531 C 39.476562 41.476562 38.664062 41.140625 37.710938 41.140625 L 34.285156 41.140625 L 34.285156 34.285156 L 52.570312 34.285156 L 52.570312 41.140625 L 49.140625 41.140625 C 48.1875 41.140625 47.375 41.480469 46.710938 42.144531 C 46.042969 42.8125 45.710938 43.617188 45.710938 44.566406 L 45.710938 56 C 45.710938 56.953125 46.042969 57.765625 46.710938 58.429688 C 47.375 59.097656 48.1875 59.429688 49.140625 59.429688 L 60.570312 59.429688 C 61.523438 59.429688 62.328125 59.097656 62.996094 58.429688 C 63.664062 57.765625 64 56.953125 64 56 L 64 44.566406 C 64 43.617188 63.667969 42.8125 63.003906 42.144531 C 62.335938 41.476562 61.523438 41.140625 60.570312 41.140625 L 57.144531 41.140625 L 57.144531 34.285156 C 57.144531 33.042969 56.6875 31.972656 55.785156 31.066406 C 54.878906 30.164062 53.808594 29.714844 52.570312 29.714844 L 34.285156 29.714844 L 34.285156 22.859375 L 37.710938 22.859375 C 38.664062 22.859375 39.476562 22.523438 40.144531 21.855469 C 40.808594 21.1875 41.140625 20.382812 41.140625 19.433594 L 41.140625 8 C 41.140625 7.046875 40.808594 6.234375 40.144531 5.570312 C 39.476562 4.902344 38.664062 4.570312 37.710938 4.570312 Z M 26.289062 4.570312 "/>
</g>
</svg>
